1.5204e+09,1.5204e+09,1.5204e+09
32,32,32
-16,0,64
-17,0,61
-23,0,58
-20,1,62
-15,0,63
-16,0,61
-19,0,61
-15,1,63
-12,1,64
-7,1,65
-16,1,59
-16,1,62
-6,2,66
-9,2,63
-15,2,61
-14,3,64
-10,3,65
-13,2,63
-14,2,63
-12,1,64
-12,1,63
-13,0,62
-12,0,62
-13,0,63
-12,0,63
-13,1,63
-14,1,64
-15,1,64
-15,1,65
-17,0,63
-19,-1,62
-19,-1,63
-16,-1,63
-16,-2,62
-18,-2,60
-20,-1,61
-21,-1,61
-23,-1,61
-24,-1,60
-23,-1,60
-21,-2,61
-22,-2,60
-25,-2,61
-22,-3,61
-22,-3,61
-25,-3,61
-24,-3,60
-21,-3,62
-20,-2,63
-29,-4,58
-23,-2,61
-19,-2,63
-22,-3,61
-23,-3,61
-18,-2,63
-19,-2,62
-20,-1,61
-21,-1,61
-21,-1,62
-22,-2,61
-22,-2,61
-23,-1,62
-23,-1,61
-22,-1,60
-22,0,61
-22,0,61
-21,0,61
-19,0,61
-19,0,61
-19,0,61
-18,0,62
-19,0,61
-20,0,60
-19,1,61
-19,0,58
-19,0,58
-18,1,59
-15,0,59
-19,0,60
-19,1,62
-24,3,61
-27,3,58
-32,5,61
-34,6,60
-40,6,57
-40,7,58
-38,7,56
-41,7,55
-40,8,56
-37,7,55
-36,7,55
-36,7,55
-33,6,57
-29,6,58
-25,4,60
-27,4,60
-25,5,61
-20,5,62
-19,6,63
-26,5,59
-26,6,61
-21,6,62
-21,5,60
-22,5,60
-19,5,62
-21,5,61
-21,5,61
-20,5,61
-19,5,62
-17,5,62
-19,4,60
-16,4,63
-15,5,63
-16,4,61
-16,4,61
-16,5,62
-19,4,61
-15,5,63
-14,5,62
-17,5,61
-15,5,62
-16,6,62
-14,5,63
-14,5,62
-15,5,63
-14,5,62
-14,6,62
-14,7,62
-15,7,63
-13,8,63
-13,8,63
-13,7,63
-14,8,63
-14,7,62
-13,7,62
-13,7,61
-14,8,61
-14,8,60
-13,8,60
-14,7,62
-16,6,62
-16,6,62
-14,6,62
-17,5,62
-17,5,63
-16,6,63
-17,5,63
-17,6,64
-15,6,62
-16,6,61
-13,5,64
-13,4,64
-14,5,65
-14,4,65
-15,3,65
-17,4,62
-15,5,63
-15,6,64
-13,5,59
-12,4,58
-17,2,60
-18,0,60
-19,-2,58
-19,-3,60
-19,-3,59
-21,-1,60
-19,-1,62
-20,-3,59
-19,-3,59
-15,-6,60
-17,-9,58
-21,-11,58
-18,-6,66
-19,-8,67
-25,-11,70
-19,-11,74
-13,-13,74
-14,-11,70
-18,-7,63
-14,-5,62
-15,-5,57
-20,-4,52
-20,-1,54
-20,0,58
-23,-2,56
-25,-3,58
-23,-8,60
-27,-10,57
-25,-9,59
-21,-10,60
-22,-13,57
-21,-15,57
-17,-15,60
-20,-16,60
-20,-17,60
-21,-17,63
-21,-17,64
-23,-17,63
-23,-17,62
-21,-15,62
-22,-13,58
-22,-13,57
-20,-13,59
-21,-13,59
-24,-14,61
-23,-14,61
-21,-16,63
-21,-15,63
-21,-14,62
-22,-10,60
-21,-8,59
-21,-6,58
-21,-8,58
-21,-8,57
-23,-5,57
-23,-4,59
-25,-2,59
-25,-2,59
-25,-2,61
-27,-3,61
-27,-2,62
-25,-1,61
-25,-1,61
-23,0,62
-21,-1,60
-21,0,59
-25,1,59
-25,2,60
-26,3,59
-28,3,59
-27,3,59
-28,3,58
-28,3,59
-29,3,59
-29,4,59
-30,3,58
-30,3,59
-30,3,59
-28,3,59
-30,3,57
-29,4,60
-28,4,59
-29,3,57
-31,4,58
-29,4,59
-29,4,58
-29,4,59
-29,4,59
-29,4,59
-28,4,59
-28,4,59
-29,4,59
-29,4,59
-27,4,60
-26,4,59
-26,3,59
-26,4,59
-26,3,59
-26,3,59
-25,3,59
-24,2,59
-24,2,60
-24,3,59
-24,3,60
-26,3,60
-25,2,61
-25,2,60
-24,3,60
-25,2,60
-24,2,61
-23,2,62
-23,2,61
-23,3,61
-22,2,61
-23,2,60
-22,2,60
-22,2,60
-22,2,60
-22,2,60
-21,2,61
-21,2,61
-21,1,61
-22,2,60
-22,2,61
-23,2,61
-22,2,61
-23,2,60
-23,2,62
-23,3,62
-23,2,61
-22,2,61
-20,2,62
-22,2,61
-27,2,60
-21,2,62
-21,2,61
-24,1,58
-21,2,62
-21,2,62
-24,1,60
-18,2,63
-17,2,61
-22,2,60
-24,2,61
-22,2,61
-19,1,62
-17,2,62
-21,3,62
-17,3,64
-15,2,64
-19,3,62
-21,2,62
-22,3,61
-22,2,61
-24,3,59
-27,3,60
-27,3,62
-25,2,60
-26,2,59
-28,2,60
-24,3,61
-25,2,60
-29,2,58
-29,2,59
-27,2,58
-27,1,59
-28,1,58
-27,1,59
-24,0,59
-25,1,59
-25,0,59
-24,0,59
-25,0,59
-27,1,59
-27,1,59
-28,1,59
-28,0,59
-27,0,60
-26,0,60
-26,0,59
-26,0,60
-26,0,59
-27,0,59
-27,-1,59
-27,0,59
-28,0,58
-28,0,58
-28,0,59
-27,1,60
-27,0,60
-26,1,60
-26,1,60
-24,1,61
-24,1,61
-24,1,60
-25,1,60
-23,1,60
-26,2,59
-26,1,59
-25,1,60
-24,1,60
-27,0,60
-27,1,60
-27,1,60
-26,2,60
-26,2,61
-25,1,60
-25,1,60
-24,1,60
-23,2,61
-23,1,61
-23,1,60
-23,2,60
-24,2,60
-24,2,60
-23,2,60
-24,2,60
-23,2,60
-24,2,60
-24,1,61
-25,2,61
-24,1,61
-25,2,61
-25,2,61
-25,2,61
-24,2,61
-24,2,60
-23,2,60
-22,1,60
-24,1,60
-23,2,61
-22,1,60
-23,1,60
-22,2,60
-22,1,60
-23,2,61
-22,1,61
-23,1,60
-23,1,60
-23,2,61
-22,2,61
-22,2,60
-22,2,60
-22,2,60
-22,2,61
-23,2,60
-24,3,61
-22,2,62
-22,2,60
-24,3,61
-23,3,61
-24,3,60
-24,3,61
-24,3,60
-25,3,61
-21,3,62
-22,3,62
-22,2,61
-19,3,62
-21,3,62
-22,3,61
-21,3,61
-22,3,60
-22,3,61
-22,3,60
-22,3,61
-22,2,61
-22,2,61
-22,2,62
-22,2,61
-21,2,62
-21,2,62
-21,3,61
-21,3,61
-21,2,60
-21,2,60
-22,2,61
-22,2,61
-22,2,61
-21,3,62
-21,3,62
-21,3,61
-21,2,61
-21,3,61
-21,2,60
-22,2,61
-22,2,60
-23,2,60
-22,1,62
-22,1,62
-23,1,61
-23,1,60
-23,1,60
-25,-1,59
-27,-3,59
-25,-1,62
-24,0,63
-23,-1,62
-21,1,61
-22,-1,62
-25,1,60
-25,2,59
-24,2,58
-25,3,58
-24,2,57
-21,0,56
-21,-1,56
-19,-2,59
-17,-3,61
-13,-4,63
-14,-2,67
-16,-2,67
-17,1,66
-17,2,64
-19,5,63
-21,7,63
-22,8,63
-20,10,63
-19,11,62
-19,13,61
-17,13,61
-17,13,60
-17,12,60
-21,13,59
-19,12,62
-19,10,62
-21,9,61
-20,8,62
-19,6,62
-19,7,62
-20,6,60
-21,7,62
-19,6,62
-21,6,61
-22,6,61
-19,6,62
-18,6,62
-17,6,62
-14,8,61
-12,9,61
-9,11,60
-9,11,58
-7,12,57
-7,12,56
-12,11,54
-15,9,55
-16,7,55
-22,0,51
-24,-4,50
-24,-11,47
-28,-15,44
-31,-20,44
-34,-28,37
-32,-31,36
-36,-35,36
-39,-39,33
-44,-43,29
-43,-44,30
-51,-46,25
-61,-46,19
-62,-44,19
-64,-45,18
-66,-46,17
-67,-47,15
-61,-46,16
-58,-46,15
-55,-45,10
-54,-45,9
-49,-44,11
-46,-43,9
-49,-44,3
-48,-45,2
-50,-44,4
-51,-44,6
-51,-44,5
-48,-45,7
-46,-44,9
-45,-43,9
-46,-42,6
-49,-42,4
-49,-42,2
-48,-42,3
-46,-42,2
-47,-42,2
-48,-42,1
-49,-42,0
-48,-42,2
-44,-44,2
-44,-44,0
-46,-42,-4
-45,-42,-6
-41,-40,-3
-45,-39,-4
-48,-39,-7
-55,-39,-9
-55,-40,-9
-56,-40,-8
-57,-41,-9
-59,-41,-12
-56,-41,-13
-55,-40,-13
-51,-39,-14
-51,-39,-16
-53,-37,-15
-54,-35,-14
-47,-37,-15
-43,-37,-19
-47,-36,-21
-48,-36,-21
-45,-36,-22
-44,-36,-24
-46,-35,-26
-43,-33,-28
-38,-33,-31
-42,-35,-35
-45,-32,-35
-40,-33,-33
-46,-31,-35
-44,-32,-37
-43,-32,-38
-44,-34,-43
-41,-34,-39
-42,-30,-36
-42,-28,-34
-44,-30,-36
-45,-31,-40
-45,-28,-38
-50,-26,-34
-47,-26,-32
-43,-27,-32
-45,-28,-35
-45,-27,-31
-42,-29,-31
-42,-32,-33
-39,-34,-34
-35,-35,-33
-31,-35,-33
-32,-35,-35
-33,-34,-35
-38,-32,-37
-41,-31,-41
-44,-28,-42
-46,-28,-43
-47,-27,-42
-50,-24,-39
-51,-26,-38
-51,-27,-38
-50,-27,-39
-47,-27,-36
-49,-27,-35
-46,-26,-34
-44,-26,-36
-40,-27,-38
-39,-24,-38
-38,-23,-36
-40,-24,-36
-41,-26,-37
-42,-28,-37
-43,-28,-34
-45,-32,-38
-43,-36,-33
-43,-36,-31
-48,-36,-26
-48,-34,-23
-52,-32,-28
-52,-30,-27
-52,-29,-29
-52,-27,-27
-50,-27,-25
-47,-29,-25
-46,-31,-26
-46,-32,-27
-45,-32,-27
-46,-35,-30
-44,-37,-32
-45,-35,-30
-46,-34,-27
-47,-34,-26
-47,-36,-26
-48,-36,-25
-49,-36,-23
-49,-37,-24
-49,-37,-24
-51,-36,-24
-50,-36,-23
-49,-35,-23
-49,-36,-23
-49,-36,-21
-48,-35,-20
-46,-35,-19
-46,-35,-20
-45,-35,-20
-45,-35,-21
-45,-35,-22
-46,-35,-23
-47,-34,-22
-48,-34,-22
-47,-35,-23
-47,-35,-23
-48,-36,-22
-48,-37,-23
-48,-37,-23
-48,-36,-23
-48,-36,-24
-47,-36,-24
-48,-36,-24
-47,-35,-22
-47,-35,-24
-48,-35,-23
-48,-35,-23
-48,-35,-23
-49,-36,-25
-49,-35,-24
-49,-34,-23
-49,-34,-25
-48,-34,-24
-48,-34,-23
-49,-35,-24
-48,-35,-24
-48,-34,-24
-48,-34,-24
-48,-35,-24
-48,-35,-24
-48,-34,-24
-49,-35,-24
-48,-34,-24
-48,-34,-25
-47,-34,-24
-48,-34,-24
-48,-34,-24
-48,-34,-24
-48,-34,-24
-49,-33,-25
-49,-34,-24
-48,-34,-24
-48,-34,-25
-48,-34,-24
-48,-34,-25
-48,-34,-25
-48,-34,-25
-48,-34,-25
-47,-34,-25
-48,-34,-25
-48,-34,-25
-48,-33,-26
-49,-33,-26
-48,-33,-26
-48,-33,-25
-48,-33,-25
-47,-33,-25
-48,-33,-24
-49,-34,-24
-49,-34,-25
-50,-33,-25
-48,-33,-23
-46,-33,-23
-46,-32,-26
-46,-31,-29
-43,-29,-30
-46,-29,-30
-47,-30,-32
-47,-30,-32
-48,-31,-34
-51,-30,-35
-50,-31,-33
-47,-31,-32
-45,-30,-31
-47,-29,-32
-45,-28,-32
-45,-28,-32
-45,-28,-33
-46,-28,-33
-47,-29,-33
-47,-29,-33
-47,-30,-33
-48,-30,-33
-48,-30,-32
-48,-30,-32
-47,-31,-31
-47,-31,-32
-47,-31,-31
-46,-30,-31
-46,-29,-30
-47,-29,-31
-47,-29,-31
-47,-29,-31
-47,-29,-30
-47,-30,-31
-47,-30,-31
-47,-30,-30
-46,-30,-29
-46,-31,-30
-46,-31,-31
-46,-31,-31
-47,-31,-31
-47,-31,-31
-47,-31,-31
-47,-31,-31
-47,-31,-30
-47,-31,-30
-47,-31,-30
-47,-31,-30
-46,-32,-30
-46,-32,-30
-46,-32,-29
-47,-32,-30
-48,-32,-31
-47,-31,-30
-47,-31,-30
-46,-31,-31
-46,-31,-29
-45,-31,-29
-45,-31,-30
-45,-31,-30
-46,-31,-30
-46,-31,-30
-46,-31,-30
-46,-31,-31
-46,-32,-32
-45,-30,-33
-45,-30,-33
-47,-29,-31
-46,-27,-30
-47,-28,-30
-48,-27,-29
-50,-27,-30
-50,-26,-29
-50,-26,-27
-51,-28,-28
-52,-27,-28
-51,-28,-26
-51,-28,-27
-52,-30,-29
-50,-29,-28
-50,-29,-28
-48,-30,-28
-48,-30,-29
-49,-30,-29
-48,-29,-29
-49,-30,-29
-49,-30,-29
-48,-29,-28
-49,-30,-28
-48,-31,-27
-48,-30,-27
-46,-30,-27
-47,-30,-27
-47,-31,-29
-47,-30,-30
-48,-29,-31
-48,-29,-32
-48,-29,-32
-48,-29,-32
-47,-29,-32
-47,-29,-33
-47,-30,-33
-46,-29,-32
-45,-29,-32
-45,-29,-32
-47,-29,-33
-47,-29,-33
-47,-29,-33
-47,-29,-33
-46,-29,-33
-46,-29,-33
-46,-29,-32
-46,-30,-33
-46,-29,-34
-47,-28,-34
-47,-28,-35
-45,-27,-35
-46,-28,-34
-45,-27,-34
-45,-28,-35
-45,-28,-34
-46,-27,-35
-46,-28,-35
-46,-27,-35
-46,-27,-36
-46,-27,-35
-46,-27,-35
-46,-27,-34
-45,-27,-35
-46,-27,-34
-45,-27,-34
-45,-27,-35
-45,-26,-34
-46,-26,-35
-45,-25,-35
-46,-25,-36
-47,-25,-36
-47,-24,-36
-47,-23,-35
-46,-23,-35
-47,-24,-35
-46,-25,-36
-46,-24,-36
-47,-24,-38
-47,-24,-38
-47,-23,-38
-47,-23,-38
-47,-22,-36
-47,-22,-37
-46,-22,-36
-47,-22,-35
-47,-22,-35
-48,-22,-36
-48,-22,-36
-48,-21,-36
-48,-22,-37
-47,-20,-36
-48,-19,-37
-48,-19,-38
-47,-19,-37
-46,-20,-37
-46,-20,-37
-46,-20,-37
-46,-20,-38
-47,-21,-38
-47,-21,-37
-48,-21,-38
-48,-21,-38
-48,-21,-38
-48,-21,-38
-48,-21,-38
-48,-20,-37
-48,-20,-37
-48,-21,-37
-47,-20,-37
-47,-19,-38
-47,-19,-37
-47,-19,-37
-47,-19,-37
-47,-19,-37
-47,-18,-37
-47,-18,-37
-47,-19,-36
-48,-19,-37
-48,-18,-38
-48,-18,-38
-49,-18,-37
-49,-17,-37
-49,-17,-37
-49,-17,-36
-49,-17,-36
-48,-17,-37
-49,-16,-37
-48,-16,-37
-49,-16,-37
-48,-16,-37
-48,-16,-38
-49,-16,-38
-49,-16,-38
-50,-15,-38
-50,-15,-37
-50,-16,-37
-50,-16,-37
-50,-16,-36
-50,-16,-37
-50,-16,-37
-50,-16,-38
-50,-16,-38
-49,-16,-38
-48,-16,-38
-48,-16,-38
-46,-16,-38
-46,-16,-38
-46,-16,-37
-46,-17,-38
-46,-16,-38
-47,-15,-39
-48,-14,-39
-48,-14,-39
-48,-14,-40
-49,-15,-40
-49,-15,-41
-48,-15,-41
-48,-14,-41
-46,-15,-40
-46,-14,-40
-46,-14,-40
-47,-13,-40
-47,-13,-41
-47,-12,-41
-47,-12,-40
-48,-13,-40
-47,-14,-41
-47,-14,-41
-47,-13,-38
-47,-14,-39
-46,-15,-40
-46,-14,-40
-47,-13,-40
-46,-13,-39
-46,-13,-39
-46,-13,-39
-46,-13,-38
-46,-15,-39
-45,-15,-39
-47,-16,-40
-48,-16,-42
-48,-16,-41
-48,-16,-39
-47,-17,-38
-47,-18,-38
-47,-17,-38
-48,-16,-40
-48,-16,-40
-49,-16,-40
-49,-16,-40
-49,-16,-40
-49,-16,-40
-49,-16,-40
-49,-14,-38
-49,-14,-39
-47,-14,-39
-47,-13,-39
-47,-13,-40
-46,-12,-40
-46,-12,-40
-46,-13,-41
-46,-13,-41
-46,-13,-41
-47,-13,-41
-47,-13,-41
-46,-13,-42
-46,-12,-40
-47,-12,-40
-46,-12,-40
-46,-12,-40
-46,-13,-40
-46,-13,-40
-47,-13,-41
-48,-13,-41
-47,-13,-41
-47,-14,-42
-47,-14,-42
-47,-14,-42
-47,-14,-42
-47,-13,-42
-46,-14,-42
-46,-13,-41
-46,-13,-40
-46,-12,-40
-46,-12,-40
-46,-12,-39
-46,-11,-40
-46,-12,-40
-46,-12,-40
-46,-12,-41
-46,-13,-41
-46,-12,-42
-47,-11,-42
-48,-11,-42
-47,-11,-41
-47,-11,-41
-48,-11,-40
-48,-11,-40
-47,-12,-41
-47,-13,-42
-48,-13,-42
-47,-14,-42
-47,-14,-43
-46,-14,-43
-47,-13,-42
-46,-13,-42
-46,-13,-42
-47,-13,-42
-49,-12,-42
-50,-12,-42
-50,-13,-42
-50,-13,-42
-49,-12,-40
-48,-13,-40
-48,-12,-40
-48,-12,-41
-47,-12,-40
-46,-11,-38
-46,-12,-38
-46,-12,-39
-46,-12,-39
-46,-12,-39
-47,-12,-39
-47,-12,-39
-47,-12,-39
-47,-12,-39
-49,-11,-38
-48,-11,-38
-48,-11,-38
-49,-11,-39
-49,-11,-39
-49,-11,-39
-50,-11,-39
-49,-12,-40
-49,-11,-40
-49,-12,-40
-49,-11,-39
-48,-11,-39
-48,-11,-40
-48,-11,-39
-48,-11,-41
-47,-10,-40
-47,-10,-40
-47,-10,-41
-47,-10,-41
-48,-10,-41
-47,-10,-40
-47,-11,-40
-46,-10,-41
-46,-10,-42
-47,-10,-43
-48,-10,-43
-48,-9,-43
-48,-9,-43
-48,-9,-42
-47,-9,-41
-47,-9,-41
-47,-9,-41
-47,-9,-42
-47,-9,-42
-47,-9,-42
-46,-8,-42
-47,-9,-42
-46,-9,-42
-46,-9,-42
-46,-9,-42
-47,-9,-42
-47,-8,-42
-47,-8,-42
-48,-8,-42
-48,-8,-42
-46,-9,-41
-46,-9,-42
-46,-9,-42
-46,-9,-42
-46,-9,-43
-46,-9,-43
-46,-9,-43
-46,-9,-42
-46,-9,-42
-47,-9,-42
-47,-9,-42
-47,-9,-42
-47,-9,-42
-47,-9,-42
-47,-9,-42
-47,-9,-42
-46,-9,-42
-46,-9,-42
-46,-9,-42
-46,-8,-41
-45,-8,-40
-46,-10,-42
-45,-10,-43
-47,-8,-43
-49,-9,-43
-49,-9,-43
-49,-9,-42
-49,-9,-40
-49,-9,-38
-48,-10,-38
-48,-10,-38
-48,-9,-38
-47,-10,-39
-47,-10,-39
-46,-10,-39
-46,-11,-39
-45,-12,-39
-45,-13,-37
-45,-15,-39
-45,-15,-40
-45,-15,-42
-45,-15,-42
-45,-17,-44
-44,-17,-44
-44,-19,-45
-43,-18,-45
-43,-18,-46
-43,-16,-45
-43,-17,-45
-41,-18,-44
-41,-18,-43
-41,-18,-43
-41,-19,-43
-41,-19,-43
-41,-19,-43
-40,-20,-43
-41,-21,-44
-41,-21,-44
-41,-22,-44
-41,-22,-44
-41,-23,-44
-41,-23,-44
-41,-24,-45
-40,-27,-46
-40,-27,-46
-42,-26,-48
-41,-26,-49
-41,-26,-49
-40,-24,-47
-40,-24,-47
-40,-22,-46
-40,-22,-45
-40,-20,-43
-42,-19,-42
-43,-19,-41
-44,-18,-41
-45,-16,-41
-47,-12,-40
-47,-8,-39
-46,-6,-37
-43,-2,-36
-44,-2,-34
-49,-5,-33
-51,-5,-33
-52,-5,-35
-53,-6,-37
-57,-7,-39
-58,-6,-36
-59,-7,-36
-58,-6,-33
-57,-5,-32
-56,-4,-29
-56,-2,-27
-55,-1,-27
-56,1,-27
-56,2,-27
-56,4,-27
-57,5,-28
-58,7,-28
-58,7,-28
-59,8,-28
-57,7,-28
-57,7,-28
-57,6,-30
-57,7,-29
-57,8,-30
-59,8,-31
-59,8,-30
-59,8,-31
-58,8,-31
-57,7,-30
-56,7,-30
-57,7,-29
-57,6,-29
-57,5,-29
-57,4,-26
-56,2,-25
-59,1,-24
-60,0,-24
-60,1,-27
-61,2,-27
-62,3,-26
-61,3,-25
-61,3,-25
-60,2,-25
