1.5204e+09,1.5204e+09
1048.4,0.53127
1049,0.56253
1049.5,0.5469
1050.1,0.57815
1050.7,0.56253
1051.2,0.5469
1051.8,0.57815
1052.4,0.56253
1053,0.65628
1058.5,0.56253
1059.1,0.6094
1061.9,0.6094
1062.4,0.51565
1063.1,0.70316
1063.7,0.59378
1064.3,0.62503
1064.8,0.4844
1065.4,0.65628
1066,0.53127
