1.5204e+09,1.5204e+09,1.5204e+09
32,32,32
18,-53,26
18,-54,26
19,-54,26
18,-54,26
18,-55,26
17,-54,28
18,-54,27
18,-54,28
17,-53,27
16,-53,27
18,-52,25
19,-51,24
17,-44,26
18,-39,21
20,-43,22
17,-41,19
13,-38,16
12,-48,11
11,-41,9
6,-40,3
-8,-39,8
-20,-30,12
-31,-33,16
-32,-32,15
-48,-16,21
-61,-5,25
-80,1,33
-88,13,46
-93,19,48
-96,21,53
-92,22,56
-66,21,59
-70,21,61
-70,19,59
-53,16,50
-45,16,45
-42,14,43
-43,14,43
-43,15,40
-45,16,40
-49,19,41
-53,21,41
-48,21,40
-44,17,43
-39,17,42
-35,17,49
-44,19,49
-48,21,45
-41,22,48
-39,21,44
-41,22,42
-42,22,42
-42,23,40
-49,24,37
-59,24,35
-53,22,36
-53,22,36
-52,23,38
-51,25,38
-50,27,37
-50,26,36
-50,24,35
-48,23,37
-50,22,36
-52,23,34
-52,24,34
-51,25,33
-50,25,34
-50,25,35
-51,24,35
-50,24,35
-50,24,35
-51,24,35
-51,24,35
-51,24,34
-51,24,34
-51,24,35
-51,24,34
-51,24,34
-51,24,35
-50,24,34
-51,24,35
-51,24,34
-51,24,34
-51,24,34
-51,24,35
-50,25,35
-51,24,35
-51,24,35
-51,24,34
-51,25,34
-51,25,34
-50,25,34
-51,25,34
-51,24,34
-51,25,34
-51,25,34
-52,24,34
-51,25,34
-51,25,34
-51,25,34
-51,25,34
-51,25,34
-51,24,34
-51,24,34
-51,24,34
-51,24,34
-51,24,34
-51,24,34
-51,24,34
-51,24,34
-51,24,34
-51,24,34
-50,25,35
-51,24,34
-52,24,33
-51,24,34
-52,24,34
-51,24,34
-51,24,34
-52,24,33
-51,24,31
-52,24,33
-52,24,34
-51,24,34
-52,23,34
-52,23,33
-51,24,34
-51,24,34
-52,24,33
-53,24,33
-52,23,33
-52,23,33
-52,23,33
-52,24,33
-52,24,33
-52,23,33
-52,23,33
-52,23,33
-53,23,33
-53,23,33
-52,24,33
-53,24,33
-52,24,33
-52,24,33
-53,23,33
-52,24,33
-52,24,33
-52,24,33
-52,24,33
-52,24,33
-52,24,33
-52,24,33
-52,24,33
-52,24,33
-53,24,33
-52,24,33
-51,24,33
-52,24,33
-52,24,33
-51,25,33
-52,25,33
-52,24,34
-51,24,33
-52,24,33
-52,24,34
-52,24,33
-52,24,33
-52,24,33
-52,24,33
-52,24,33
-52,24,33
-52,24,33
-51,24,33
-52,24,33
-52,24,33
-51,24,33
-50,24,33
-51,24,33
-51,24,33
-52,24,33
-54,23,34
-54,23,34
-53,24,33
-52,24,32
-52,26,32
-50,27,32
-51,26,32
-52,24,33
-52,23,33
-53,22,34
-54,22,34
-52,23,33
-52,24,33
-52,25,32
-50,26,33
-51,26,32
-52,25,33
-52,25,33
-53,24,33
-52,24,33
-52,24,33
-52,24,33
-51,25,33
-51,25,33
-51,25,33
-51,25,33
-52,25,33
-51,25,33
-51,25,33
-51,25,33
-51,26,33
-52,25,33
-52,26,33
-50,25,33
-52,25,33
-51,26,33
-51,25,33
-52,26,32
-51,26,33
-52,24,33
-52,24,33
-51,25,34
-51,25,33
-52,25,33
-51,23,33
-52,23,33
-53,23,33
-52,25,33
-52,25,33
-52,25,33
-53,25,34
-51,25,34
-51,24,33
-52,24,33
-52,24,34
-52,24,33
-51,25,33
-51,25,33
-51,25,33
-51,25,33
-52,25,34
-52,25,34
-51,25,33
-51,26,33
-52,26,32
-52,25,33
-52,25,33
-53,25,33
-52,25,33
-51,25,33
-51,25,33
-52,24,32
-52,24,33
-52,25,33
-52,25,33
-51,24,33
-51,24,32
-49,24,34
-54,25,32
-52,23,32
-53,22,31
-55,21,32
-55,22,31
-55,23,30
-52,24,32
-52,24,32
-53,25,31
-53,25,31
-53,25,31
-53,23,31
-53,23,31
-54,24,31
-54,24,31
-54,23,31
-54,23,32
-53,24,31
-53,24,30
-53,24,31
-54,24,31
-54,24,31
-53,24,31
-53,24,31
-54,24,31
-53,23,31
-54,24,31
-53,24,31
-54,24,32
-53,23,31
-53,23,31
-53,23,31
-54,24,31
-53,24,31
-53,24,31
-53,24,31
-54,23,32
-54,23,31
-54,22,31
-54,23,31
-54,23,31
-53,24,31
-53,24,31
-54,24,31
-54,24,31
-54,24,31
-54,24,31
-54,23,31
-54,23,30
-54,23,31
-54,23,31
-54,23,30
-54,23,31
-54,23,30
-54,23,31
-54,23,31
-55,22,31
-55,22,30
-54,23,31
-54,23,30
-54,23,30
-54,23,30
-54,23,30
-54,23,30
-54,23,31
-54,23,30
-55,23,30
-54,23,30
-54,23,31
-54,23,30
-54,23,30
-53,23,31
-54,23,31
-54,23,31
-54,23,31
-54,23,31
-54,23,31
-54,23,31
-54,24,30
-54,23,30
-54,23,30
-54,23,31
-54,23,30
-54,24,30
-54,24,30
-55,24,30
-54,23,31
-55,24,31
-56,25,33
-53,25,34
-52,25,33
-55,26,34
-55,30,37
-62,25,26
-64,23,22
-64,21,14
-60,21,10
-59,20,15
-61,18,17
-71,12,17
-84,9,19
-99,3,23
-89,-1,25
-83,-1,23
-68,-3,18
-63,-4,17
-55,-4,12
-52,-6,10
-45,-14,11
-45,-22,8
-46,-23,10
-50,-26,14
-51,-28,13
-49,-31,18
-48,-29,18
-55,-27,8
-61,-20,10
-60,-20,10
-59,-21,3
-57,-24,7
-61,-26,19
-54,-29,19
-39,-28,18
-55,-20,29
-54,-19,27
-47,-13,17
-60,-12,6
-68,-16,18
-62,-16,20
-62,-8,6
-55,1,12
-73,-14,-16
-79,-1,34
-62,-7,53
-49,-34,46
-25,-48,36
-6,-48,45
-6,-60,34
-14,-55,40
-28,-41,50
-27,-41,42
-47,-33,32
-46,-31,35
-55,-27,40
-65,-35,19
-61,-37,18
-51,-37,26
-48,-38,28
-49,-40,31
-41,-40,28
-42,-40,21
-47,-39,5
-44,-41,-6
-16,-35,7
-30,-25,16
-52,-14,35
-21,-23,48
8,-34,49
20,-40,62
29,-39,77
-41,-43,51
-66,-43,44
-56,-51,34
-67,-57,29
-73,-44,31
-73,-46,12
-68,-38,7
-65,-37,13
-70,-37,12
-43,-33,9
-45,-33,15
-48,-38,16
-33,-42,15
-30,-48,20
-31,-49,20
-29,-51,23
-26,-52,20
-30,-49,16
-39,-46,9
-39,-47,6
-48,-44,2
-52,-52,4
-37,-52,15
-56,-56,8
-35,-55,12
-37,-53,11
-39,-46,8
-34,-44,8
-37,-43,8
-34,-49,6
-33,-51,13
-51,-54,14
-46,-56,18
-30,-55,19
-26,-54,20
-26,-48,15
-21,-47,17
-30,-50,14
-13,-51,-2
-26,-53,-13
-9,-58,8
-17,-59,4
-18,-60,19
-19,-60,24
-18,-66,6
-23,-65,21
-14,-67,21
-17,-60,31
-4,-61,24
-31,-56,22
-23,-58,18
-22,-56,12
-10,-61,17
-9,-63,10
-20,-62,7
-17,-61,20
-10,-66,16
-9,-62,19
-14,-60,18
-11,-59,26
-13,-56,26
-16,-60,16
-8,-55,25
-9,-52,14
-8,-52,4
12,-60,7
0,-61,5
-1,-60,9
1,-61,21
15,-53,34
-9,-55,10
1,-60,16
11,-59,20
16,-53,18
28,-51,25
15,-55,18
15,-58,9
25,-61,13
46,-56,27
40,-51,21
9,-58,15
13,-62,19
34,-53,15
25,-52,-2
34,-40,-2
19,-59,23
-6,-58,7
56,-49,17
61,-43,27
30,-51,5
32,-51,7
41,-52,13
37,-52,11
46,-58,15
18,-67,1
4,-68,-5
10,-67,18
-3,-66,7
-17,-66,12
-19,-60,20
-17,-51,49
-16,-55,18
-12,-57,7
31,-70,20
29,-75,22
4,-65,15
11,-64,11
12,-56,27
-3,-56,24
-12,-54,25
9,-53,39
11,-54,30
9,-52,23
10,-54,25
14,-54,13
18,-53,20
14,-53,19
25,-49,21
21,-46,29
20,-53,18
13,-51,13
15,-51,28
16,-55,21
22,-54,22
14,-53,23
20,-55,28
20,-58,24
18,-61,20
15,-60,27
10,-53,33
12,-53,31
18,-56,23
16,-58,25
14,-60,28
19,-60,29
17,-55,24
16,-53,26
18,-55,28
20,-56,26
19,-56,22
15,-54,26
9,-52,31
20,-54,27
23,-66,29
23,-65,32
10,-54,34
9,-54,31
5,-45,30
2,-39,28
12,-46,29
17,-49,38
8,-50,41
15,-53,37
15,-51,38
4,-49,42
15,-50,38
8,-52,43
13,-49,41
8,-46,39
9,-45,43
4,-41,38
11,-47,41
10,-50,43
10,-45,43
4,-44,39
5,-49,35
8,-49,50
14,-50,51
10,-51,45
2,-56,43
4,-39,53
-3,-41,35
-2,-48,30
12,-45,50
7,-45,38
-1,-38,38
10,-40,40
5,-42,47
9,-52,50
16,-54,48
-2,-45,48
-3,-42,53
3,-45,43
3,-46,40
3,-44,59
4,-47,36
-3,-43,32
4,-42,42
5,-41,39
0,-43,47
-4,-44,45
1,-45,47
2,-48,48
-2,-42,51
2,-42,55
6,-44,52
2,-50,37
7,-45,44
11,-44,45
-11,-46,34
-4,-47,39
-4,-46,39
1,-46,39
-2,-44,45
-3,-45,46
-4,-46,45
-4,-48,45
-11,-46,46
-1,-48,46
11,-51,47
3,-53,38
-1,-47,41
-1,-49,42
-9,-46,44
-15,-45,44
-8,-48,37
-7,-48,33
-5,-48,39
-9,-47,39
-4,-46,44
6,-46,45
2,-44,47
6,-45,48
10,-46,45
4,-53,33
-6,-57,26
-4,-59,24
7,-62,20
3,-60,25
2,-57,29
5,-57,29
6,-55,31
4,-54,34
6,-53,35
9,-55,34
2,-53,39
-7,-49,42
-5,-49,43
-1,-46,45
-3,-46,45
0,-45,46
-4,-49,40
-8,-49,41
-11,-50,42
-9,-49,40
-3,-51,36
3,-54,36
5,-54,34
6,-52,35
5,-51,36
7,-52,36
8,-52,36
8,-51,36
9,-51,34
9,-51,35
11,-51,36
9,-51,35
11,-53,33
13,-53,31
19,-53,32
16,-51,40
13,-49,46
20,-48,50
12,-53,48
-14,-53,43
-20,-50,42
12,-53,44
4,-46,45
-2,-50,30
4,-52,25
19,-57,22
11,-56,31
3,-48,41
5,-49,41
10,-51,37
13,-55,34
11,-52,45
11,-51,44
9,-51,40
11,-49,40
14,-46,43
6,-51,40
11,-54,42
9,-49,45
6,-50,46
3,-48,35
4,-45,35
11,-45,33
-3,-34,22
3,-33,22
7,-36,19
-2,-33,7
-11,-44,-5
-9,-47,11
8,-50,52
-5,-65,66
0,-81,45
50,-81,47
35,-72,45
25,-65,38
20,-61,16
-6,-45,26
-4,-48,45
21,-50,35
23,-55,20
18,-56,24
35,-54,29
18,-53,26
18,-57,20
25,-55,16
21,-55,14
31,-52,19
29,-53,14
58,-46,8
31,-47,-4
11,-48,20
29,-57,23
32,-56,13
35,-59,5
25,-54,8
35,-51,16
28,-53,14
23,-52,19
19,-56,25
18,-57,22
17,-53,21
34,-57,18
15,-59,20
17,-60,23
6,-53,14
28,-53,24
48,-57,9
21,-53,9
31,-48,31
25,-57,10
24,-58,0
22,-51,15
44,-53,3
40,-53,-5
43,-51,3
34,-48,12
29,-52,14
34,-54,11
41,-54,2
26,-53,13
26,-53,18
31,-53,4
31,-51,6
48,-50,9
41,-48,6
32,-49,3
31,-45,20
32,-47,20
25,-53,8
19,-50,17
27,-61,-1
19,-57,5
17,-55,12
27,-55,30
33,-54,28
21,-56,13
21,-59,5
35,-54,12
33,-57,12
27,-55,5
35,-51,11
36,-53,17
23,-52,12
25,-54,15
34,-57,21
6,-56,13
7,-59,10
14,-59,19
17,-59,25
-3,-53,33
5,-53,33
15,-54,25
-2,-51,25
4,-53,30
25,-49,42
28,-46,32
-12,-37,15
17,-50,24
19,-53,32
11,-53,35
9,-58,42
8,-59,44
10,-55,44
9,-59,47
10,-59,51
26,-58,57
41,-62,42
32,-59,30
3,-51,7
16,-51,12
0,-44,29
2,-40,23
11,-32,32
31,-42,37
43,-49,33
42,-48,42
28,-50,42
4,-55,26
22,-56,25
17,-42,45
13,-45,41
12,-42,35
11,-41,32
26,-41,44
27,-41,47
26,-46,45
33,-50,39
47,-45,36
32,-41,39
19,-40,42
16,-40,41
16,-35,28
18,-32,29
23,-30,41
36,-29,37
25,-21,39
15,-14,37
22,-14,38
19,-14,28
12,-16,27
7,-24,14
1,-26,13
-6,-32,11
-12,-42,30
-10,-36,53
-30,-35,71
-32,-33,51
-95,-14,16
-128,27,-21
-128,19,1
-87,17,38
-76,15,35
-114,16,22
-117,3,10
-70,41,1
-49,7,5
-61,4,10
-64,4,12
-49,3,22
-62,12,42
-74,4,33
-67,10,54
-72,-22,46
-80,-22,36
-70,-25,25
-53,-27,21
-90,-30,27
-66,-19,39
-40,-39,33
-39,-39,40
-32,-34,39
-30,-53,25
-30,-43,16
-32,-36,2
-35,-30,-1
-6,-32,24
-19,-47,2
-12,-57,15
-1,-66,15
12,-71,11
13,-70,4
0,-73,1
-2,-70,-2
0,-74,-2
-1,-71,-1
-3,-68,5
4,-66,1
6,-59,2
11,-58,10
16,-59,8
20,-60,2
22,-61,5
21,-60,-2
23,-59,-3
18,-55,0
20,-53,4
27,-49,14
19,-46,16
32,-42,26
61,-40,47
40,-41,35
6,-33,23
-2,-27,14
19,-27,-1
62,-12,-8
78,-1,10
111,-5,52
63,2,46
26,10,39
29,13,43
1,36,44
6,39,29
66,21,36
99,31,45
54,31,15
95,23,6
93,16,-6
66,6,12
35,-24,16
124,-34,27
82,-41,-9
47,-51,-8
33,-54,22
21,-50,9
29,-43,14
7,-31,30
18,-30,36
19,-13,40
19,-17,44
24,-31,34
41,-39,7
49,-40,7
7,-10,60
10,-31,53
24,-60,25
30,-48,33
49,-40,39
41,-42,23
34,-40,36
24,-40,48
24,-40,43
30,-39,36
35,-37,42
27,-36,40
32,-39,36
25,-36,39
27,-36,42
36,-39,40
22,-40,44
21,-41,44
28,-39,55
29,-37,54
28,-38,39
17,-36,49
14,-40,48
31,-43,41
33,-37,49
18,-39,51
27,-42,49
26,-41,51
14,-40,53
15,-40,53
12,-43,37
16,-38,44
16,-35,53
31,-32,53
4,-43,40
17,-39,52
25,-35,56
8,-33,45
5,-37,43
2,-37,48
10,-35,49
4,-36,49
7,-36,58
7,-33,60
9,-36,49
4,-36,47
4,-34,54
8,-37,52
13,-38,52
7,-34,54
7,-35,55
10,-35,53
7,-33,52
6,-33,53
6,-31,56
6,-30,57
6,-31,55
8,-32,54
7,-31,54
7,-31,54
7,-31,55
7,-31,54
7,-32,54
5,-30,57
5,-30,57
7,-33,53
8,-33,53
6,-31,56
8,-31,54
8,-31,54
8,-31,55
7,-30,55
8,-31,55
8,-31,55
8,-31,55
7,-31,55
8,-31,55
9,-32,54
8,-31,54
8,-31,56
8,-31,55
8,-31,54
8,-31,54
8,-31,54
7,-31,55
8,-31,53
10,-31,48
21,-35,52
30,-36,63
8,-32,70
16,-37,70
6,-41,51
7,-38,51
21,-41,56
17,-39,55
13,-35,48
-7,-35,36
-10,-32,32
-7,-20,51
-12,-13,46
-8,-20,12
-16,-24,-3
-14,-15,-13
-10,-3,16
-36,-11,-5
-14,-40,12
-19,-47,9
1,-50,10
0,-51,47
-8,-99,61
-58,-61,55
-74,-42,56
-38,0,26
-103,20,19
-126,17,89
-72,5,80
-86,13,26
-53,14,73
-59,18,58
-53,16,41
-49,14,42
-62,14,43
-61,17,44
-48,8,44
-50,9,50
-38,6,53
-42,0,41
-45,3,42
-41,-1,40
-39,-2,42
-41,-4,44
-45,-6,41
-44,-7,42
-47,-7,41
-45,-6,43
-52,-2,46
-52,-1,45
-49,-2,43
-49,-6,44
-46,-9,43
-43,-11,44
-45,-13,43
-47,-13,42
-47,-12,42
-49,-11,43
-49,-9,43
-49,-8,43
-50,-7,45
-51,-6,46
-56,-4,47
-55,-2,48
-52,-2,48
-51,-4,46
-53,-4,47
-55,-2,48
-58,2,48
-64,11,50
-68,13,50
-60,13,48
-57,11,46
-58,11,44
-53,11,43
-49,12,43
-55,12,39
-56,11,39
-52,8,44
-51,6,36
-59,4,34
-62,-3,37
-66,-4,38
-73,-10,28
-68,-13,26
-72,-15,13
-56,-16,9
-45,-16,11
-42,-24,5
-53,-24,0
-98,-1,2
-87,16,10
-49,30,7
-52,19,9
-45,11,13
-37,13,18
-30,10,24
-41,6,27
-57,9,17
-52,1,19
-65,-8,5
-71,-8,3
-72,-13,-6
-71,-13,-1
-86,-24,8
-86,-16,8
-112,0,-8
-88,-2,-1
-77,-5,0
-63,-6,5
-53,-8,1
-49,-16,-14
-52,-16,-9
-63,-15,2
-61,-14,7
-54,-7,12
-51,2,35
-60,9,35
-57,16,23
-45,14,11
-44,15,6
-48,17,0
-53,19,-1
-82,29,1
-88,36,1
-77,48,3
-80,59,6
-85,61,8
-89,48,2
-95,45,5
-93,45,15
-86,41,22
-69,34,36
-52,21,38
-44,15,39
-44,10,40
-42,11,39
-33,19,39
-30,24,41
-19,30,43
-10,42,47
-16,54,47
-6,57,47
-9,51,54
-39,52,68
-49,50,75
-54,45,87
-64,36,81
-67,27,77
-62,15,57
-62,12,52
-47,12,43
-42,9,37
-39,12,31
-27,17,39
-25,23,41
-55,11,42
-58,4,45
-7,-20,67
-4,-37,64
-31,-80,17
19,-86,39
4,-76,34
21,-57,44
16,-38,50
14,-54,25
10,-54,21
-2,-39,6
8,-25,14
14,-28,26
-4,-26,29
3,-33,29
14,-34,30
16,-30,27
38,-28,19
35,-19,15
35,-31,16
41,-21,31
39,-15,21
17,-20,3
14,-16,-3
27,-35,-19
-10,4,-2
-37,25,1
-42,26,18
-84,65,38
-115,90,-6
-128,127,11
-128,115,45
-64,72,127
-128,27,28
-71,32,33
-2,12,37
-28,-8,-22
-26,1,-28
-19,14,-18
2,66,-13
-1,95,-4
-11,99,21
-45,102,39
-88,84,59
-88,65,34
-45,36,16
-43,27,-4
-43,32,-32
-28,65,-48
-23,80,-59
43,48,-35
10,39,-48
-7,63,-39
-22,54,-43
-8,57,-33
5,63,-14
0,62,-20
2,71,-17
13,75,-16
-17,114,50
10,58,-33
-56,79,-38
-31,58,13
-43,59,29
-36,61,53
-48,55,39
-72,45,58
-58,27,55
-49,22,45
-65,17,13
-77,22,12
-45,37,28
-31,34,33
-26,25,31
-38,20,28
-54,18,23
-69,16,26
-72,13,26
-102,-26,20
-119,-22,27
-92,-11,38
-87,-31,16
-73,-38,18
-52,-45,23
-41,-41,26
-38,-19,10
-54,-9,-2
-75,12,-8
-59,23,4
-61,23,2
-66,9,-19
-50,-2,-10
-63,-22,-17
-55,-31,-21
-51,-23,-7
-61,-17,-17
-69,-12,-31
-52,-8,-7
-34,-15,3
-60,-23,-10
-51,-34,-18
-42,-37,-18
-49,-40,-6
-49,-41,-15
-65,-33,-40
-75,-31,-43
-43,-36,-9
-48,-42,-10
-56,-42,-20
-49,-47,-17
-53,-50,-19
-53,-50,-15
-50,-47,-13
-39,-48,-10
-47,-46,-13
-46,-45,-3
-41,-50,-9
-42,-53,-9
-36,-54,3
-35,-57,2
-37,-57,-7
-37,-61,-9
-24,-60,-2
-26,-65,-8
-31,-62,-7
-21,-59,-1
-36,-58,-2
-19,-57,10
-20,-62,-1
-16,-59,2
-10,-55,10
-6,-54,6
-6,-55,-1
-4,-53,-2
18,-52,2
25,-53,-2
32,-48,1
33,-47,0
34,-46,2
38,-48,11
32,-46,8
39,-46,11
25,-47,11
39,-52,14
47,-47,11
46,-50,11
48,-44,17
54,-47,27
21,-47,10
45,-47,17
48,-48,28
27,-39,23
22,-42,18
40,-43,21
48,-41,15
56,-43,-1
50,-37,-9
52,-32,-3
53,-40,0
52,-43,-1
40,-46,0
36,-45,7
37,-42,21
42,-44,18
37,-45,11
38,-38,19
50,-37,20
38,-37,21
37,-35,27
28,-39,31
26,-41,33
26,-39,37
42,-36,50
24,-32,46
32,-41,40
34,-45,38
36,-51,36
35,-52,31
34,-49,32
31,-43,34
32,-41,33
33,-34,34
34,-34,35
35,-33,38
32,-33,41
30,-33,44
33,-40,45
32,-37,45
23,-36,44
22,-38,43
21,-37,41
26,-35,40
34,-35,42
33,-33,42
33,-33,43
33,-34,45
30,-41,40
28,-41,35
33,-39,31
38,-42,32
38,-42,33
31,-39,31
26,-34,37
27,-33,35
34,-24,56
25,-31,49
26,-39,39
36,-42,44
35,-41,44
33,-40,32
35,-41,26
46,-39,24
43,-37,25
48,-36,27
45,-32,28
40,-33,27
44,-31,25
48,-30,22
34,-31,19
31,-30,35
31,-29,37
36,-37,38
42,-37,37
30,-37,59
23,-43,53
34,-43,49
40,-46,40
40,-44,35
36,-32,31
31,-31,23
38,-27,28
33,-28,34
31,-33,32
29,-30,34
28,-27,40
22,-28,45
19,-28,50
21,-35,61
25,-37,67
27,-41,69
39,-52,61
37,-47,58
25,-38,55
24,-38,49
23,-32,47
26,-30,47
26,-31,34
32,-29,34
24,-29,29
36,-27,23
43,-26,23
24,-29,23
26,-29,32
35,-31,47
34,-39,37
34,-39,43
33,-31,47
39,-34,37
37,-27,29
26,-19,45
0,-28,49
11,-24,64
24,-28,63
26,-39,48
18,-36,58
25,-35,65
26,-34,56
16,-27,59
18,-30,57
14,-28,56
17,-30,51
15,-27,55
20,-26,55
16,-26,56
15,-26,57
10,-22,62
13,-20,66
19,-29,52
18,-30,47
20,-38,46
17,-39,48
10,-31,61
11,-27,58
12,-30,50
5,-26,49
2,-23,54
3,-28,54
0,-30,53
2,-26,63
8,-28,56
13,-32,54
3,-30,56
1,-29,57
8,-30,57
7,-29,60
7,-28,61
4,-31,53
1,-29,55
1,-27,61
2,-29,57
3,-29,55
4,-27,58
-1,-27,56
5,-29,55
5,-30,55
0,-30,58
1,-28,59
-2,-29,54
1,-29,55
1,-28,58
1,-28,55
2,-29,52
2,-31,56
0,-31,57
-1,-33,55
0,-33,54
4,-30,48
-8,-28,25
-11,-30,-2
-3,-31,1
11,-37,20
-6,-48,50
-5,-71,44
3,-80,49
-29,-70,55
-38,-67,62
-30,-56,55
-58,-46,39
-65,-56,36
-27,-51,35
-18,-50,37
-21,-47,20
-30,-50,8
-38,-46,16
-31,-49,21
-44,-54,19
-37,-49,19
-32,-47,22
-24,-44,23
-32,-43,19
-48,-44,27
-50,-48,31
-45,-56,17
-44,-45,32
-29,-49,36
-26,-49,22
-23,-51,17
-20,-48,32
-25,-51,31
-43,-52,25
-22,-52,33
-19,-52,35
-34,-49,32
-22,-46,35
-11,-51,23
-15,-50,24
-17,-48,38
-36,-53,23
-29,-53,30
-17,-53,33
-4,-52,38
-27,-57,24
-24,-53,33
-15,-52,34
-26,-50,18
-18,-47,36
-31,-54,36
-41,-52,27
-44,-49,18
-12,-53,22
-32,-50,12
-39,-54,12
-32,-55,14
-33,-55,12
-34,-55,10
-23,-54,20
-24,-54,19
-24,-55,24
-29,-51,24
-27,-52,19
-27,-53,13
-37,-53,15
-38,-56,17
-28,-52,23
-30,-50,21
-28,-53,18
-31,-53,20
-32,-51,21
-33,-50,17
-22,-48,19
-23,-47,22
-44,-50,23
-40,-51,37
-42,-53,38
-35,-50,33
-35,-54,17
-46,-50,8
-46,-50,6
-21,-47,21
-23,-51,23
-26,-52,24
-34,-53,25
-39,-55,20
-23,-52,29
-13,-45,32
-23,-29,42
-47,-41,54
-41,-61,72
-40,-88,63
-56,-90,46
-45,-83,8
-35,-77,-13
0,-61,-21
18,-50,-14
6,-43,-13
9,-31,13
-2,-31,19
-44,-25,68
-36,-33,50
-1,-53,24
-16,-44,35
-7,-47,46
-6,-55,43
-12,-56,39
0,-57,41
-7,-59,32
-17,-54,44
-7,-49,49
-7,-49,43
-9,-51,38
-8,-48,38
1,-58,25
-1,-54,22
-9,-53,27
-8,-42,51
-3,-39,52
-12,-45,42
-12,-46,47
-30,-46,41
-8,-44,44
-3,-44,44
-1,-53,37
-8,-55,32
-11,-46,44
-10,-43,48
-3,-41,50
-4,-42,49
-7,-47,44
-9,-51,40
0,-52,42
-5,-48,43
-4,-47,41
-1,-51,41
5,-52,45
9,-54,41
8,-54,36
15,-52,38
24,-52,33
25,-50,31
39,-44,33
47,-44,30
49,-41,28
49,-35,32
49,-34,31
43,-30,29
39,-27,30
36,-24,38
35,-23,39
39,-27,36
42,-26,41
37,-26,39
44,-29,38
47,-31,29
21,-24,41
37,-29,46
40,-31,43
31,-27,33
24,-26,30
32,-26,44
43,-18,58
38,-20,44
30,-24,34
52,-19,47
37,-18,44
32,-21,38
41,-19,44
43,-16,45
41,-15,45
27,-21,48
27,-24,45
62,-16,55
55,-22,45
59,-26,44
63,-27,41
42,-18,30
38,-17,33
39,-16,37
45,-9,44
44,-16,40
41,-14,37
36,-14,42
32,-16,53
27,-20,44
31,-19,50
50,-23,60
17,-22,45
6,-20,50
10,-20,57
0,-4,55
9,-18,60
46,-19,68
61,-11,58
54,-17,46
48,-14,55
41,-15,57
19,-19,44
14,-17,45
17,-14,46
22,-18,38
22,-18,40
32,-14,41
34,-21,38
20,-22,44
22,-25,39
27,-36,31
13,-35,37
6,-37,39
11,-54,33
9,-52,32
2,-39,33
-4,-47,30
-1,-44,30
1,-42,30
-9,-45,30
-21,-42,29
-26,-41,30
-28,-34,28
-39,-28,21
-48,-25,28
-56,-27,28
-71,-21,28
-74,-12,38
-76,-9,39
-77,0,38
-81,12,50
-87,20,53
-57,19,48
-57,21,46
-81,45,81
-76,36,70
-45,26,47
-31,22,32
-44,22,26
-57,26,29
-61,25,29
-54,22,32
-52,20,33
-51,18,34
-57,18,35
-58,18,34
-57,18,32
-54,19,31
-56,23,34
-55,25,36
-49,25,31
-54,23,31
-55,21,29
-57,20,27
-58,22,26
-67,19,10
-70,17,5
-61,16,6
-61,14,2
-57,14,3
-58,14,1
-61,15,2
-71,17,10
-75,19,17
-64,20,23
-54,19,24
-55,20,24
-58,22,24
-59,23,24
-60,22,23
-61,23,24
-61,23,22
-59,26,22
-59,27,23
-57,26,23
-56,26,22
-50,23,19
-45,21,18
-45,21,21
-62,26,35
-62,27,37
-54,26,30
-54,27,26
-55,27,28
-55,28,30
-52,27,31
-54,27,29
-55,27,28
-55,26,28
-55,26,28
-54,26,27
-54,27,28
-54,27,28
-53,26,29
-53,26,29
-54,26,28
-54,26,28
-54,27,27
-54,28,28
-54,27,29
-54,27,29
-54,27,29
-54,28,28
-53,28,27
-52,28,28
-52,28,28
-52,28,29
-52,28,29
-53,28,29
-52,28,29
-53,28,29
-53,28,29
-52,27,29
-53,28,28
-53,28,28
-53,27,28
-53,27,28
-53,27,28
-54,27,29
-53,27,29
-53,27,29
-54,26,28
-55,25,28
-55,25,28
-55,25,28
-55,25,27
-56,25,27
-56,24,27
-55,24,27
-55,25,27
-56,24,27
-56,24,27
-57,24,27
-57,23,27
-58,23,26
-59,23,29
-56,23,28
-56,22,26
-58,22,27
-62,24,28
-59,23,26
-57,21,24
-56,17,22
-51,16,25
-51,16,30
-53,18,31
-55,21,34
-58,22,32
-57,22,32
-57,21,29
-59,23,29
-60,26,29
-59,27,29
-55,31,29
-54,34,29
-51,36,27
-50,36,27
-50,35,31
-44,35,38
-45,35,40
-50,30,46
-33,29,41
-29,27,25
-61,33,28
-57,32,45
-57,19,22
-51,19,24
-41,21,27
-35,24,16
-34,30,14
-46,36,8
-64,41,15
-59,54,8
-27,50,19
-29,36,-9
-13,43,17
-29,55,24
-53,42,20
-82,52,24
-73,56,41
-66,56,52
-74,59,36
-54,59,25
-57,60,20
-52,52,21
-42,48,21
-50,39,19
-58,42,23
-38,26,36
-30,10,32
-46,15,28
-33,4,27
-37,1,24
-58,4,23
-67,4,39
-53,3,50
-46,-2,57
-57,-6,54
-83,-11,58
-88,-14,57
-97,-27,48
-87,-33,44
-68,-37,32
-46,-43,26
-38,-48,22
-32,-47,18
-32,-47,14
-17,-48,13
-6,-50,7
11,-49,9
15,-42,12
23,-42,12
43,-36,26
34,-34,26
26,-30,22
34,-26,26
34,-23,21
46,-20,32
42,-20,25
26,-13,41
43,-22,33
49,-22,29
58,-17,33
50,-24,27
49,-20,22
57,-19,28
46,-17,33
44,-16,40
49,-19,31
52,-17,30
45,-19,37
54,-14,34
42,-19,30
47,-18,39
51,-18,39
56,-18,31
60,-14,35
49,-15,34
53,-14,33
50,-15,32
46,-13,27
47,-7,30
44,-10,39
48,-6,49
56,-9,43
41,-8,38
39,-8,37
37,-8,41
32,-4,37
31,-3,31
35,-8,25
46,-8,29
50,-24,25
41,-25,21
47,-39,18
53,-48,18
57,-39,16
53,-41,19
48,-38,16
50,-36,23
37,-34,22
9,-30,18
7,-32,17
-7,-27,30
-20,-24,42
-42,-31,40
-44,-39,56
-46,-38,67
-50,-44,64
-52,-43,66
-43,-41,74
-41,-40,66
-42,-36,61
-46,-26,54
-47,-23,50
-39,-23,45
-36,-23,43
-44,-22,44
-43,-20,42
-44,-19,42
-44,-15,46
-45,-14,45
-46,-13,46
-47,-12,47
-46,-12,47
-49,-11,49
-46,-11,50
-47,-11,49
-48,-10,49
-45,-11,48
-45,-11,47
-47,-10,47
-44,-11,46
-44,-11,45
-42,-11,45
-41,-9,44
-33,-10,41
-32,-8,41
-24,-7,38
-19,-5,27
-23,1,19
-50,15,24
-43,21,46
-40,32,55
-57,36,40
-89,57,93
-75,51,75
-43,36,49
-22,28,29
-16,26,30
-42,29,35
-46,32,41
-50,36,41
-54,27,36
-53,31,35
-41,34,41
-46,37,42
-45,38,41
-42,35,38
-40,28,30
-41,27,29
-43,30,32
-43,34,37
-46,35,36
-50,35,44
-47,38,43
-38,39,38
-47,39,34
-48,36,33
-41,31,37
-43,32,36
-37,32,38
-37,33,37
-45,34,36
-51,32,36
-48,29,31
-53,28,35
-45,28,45
-45,23,47
-45,20,45
-46,18,37
-54,18,27
-55,19,28
-63,23,23
-60,23,22
-59,28,21
-60,30,20
-51,33,30
-46,27,34
-52,26,31
-48,25,35
-45,25,36
-49,23,38
-47,23,41
-45,21,44
-34,17,39
-40,18,39
-61,25,28
-63,29,27
-57,28,30
-54,25,29
-55,23,28
-50,26,38
-49,25,39
-49,25,37
-49,24,38
-56,23,34
-70,23,25
-48,23,31
-48,25,35
-43,23,39
-53,20,40
-57,20,41
-44,23,44
-36,24,43
-32,24,37
-37,26,30
-44,29,29
-62,32,30
-64,32,34
-54,29,42
-50,26,40
-51,25,32
-44,25,38
-48,24,37
-56,24,31
-56,24,31
-54,28,35
-51,29,39
-48,28,28
-50,27,29
-53,24,31
-49,24,32
-50,24,29
-54,25,29
-55,26,31
-53,24,33
-53,27,32
-55,28,30
-52,25,30
-49,24,31
-52,23,31
-57,23,29
-58,24,29
-53,22,30
-52,22,30
-54,24,30
-54,25,30
-54,26,30
-54,26,29
-54,27,29
-55,26,30
-58,27,31
-63,32,33
-68,37,37
-86,44,50
-89,41,40
-105,21,38
-105,1,31
-97,-10,25
-79,-15,11
-55,-15,9
-39,-23,5
-27,-36,2
-29,-40,4
-22,-41,9
-19,-39,14
-10,-40,15
-6,-45,11
-3,-44,20
-6,-44,12
15,-45,12
11,-47,24
22,-44,29
30,-47,24
30,-44,20
29,-41,27
24,-40,33
19,-39,30
26,-38,22
24,-40,18
7,-37,39
23,-45,42
36,-46,35
29,-49,32
18,-56,35
18,-56,35
12,-56,27
24,-55,24
22,-52,28
19,-48,29
19,-49,30
7,-48,32
7,-44,36
10,-39,45
18,-42,43
8,-42,50
12,-44,45
11,-49,47
6,-42,62
10,-45,42
-11,-49,33
10,-44,51
7,-44,43
10,-43,42
-8,-41,51
-4,-39,54
7,-39,55
3,-40,46
-1,-43,42
-4,-41,45
-2,-39,50
-7,-38,50
-2,-27,66
-2,-38,58
-2,-38,47
-12,-43,25
-7,-43,35
-14,-34,66
5,-41,52
-4,-42,38
-5,-39,46
-7,-36,54
-4,-35,56
-6,-40,51
-13,-37,54
-6,-37,53
-6,-38,49
-3,-33,47
-11,-33,44
-9,-33,46
-4,-33,55
-8,-35,46
-12,-28,55
-11,-19,65
-21,-33,81
-2,-39,66
5,-36,48
-13,-27,54
-5,-17,54
9,-23,41
1,-30,31
1,-36,43
7,-38,51
7,-44,56
3,-41,59
-1,-48,55
-26,-37,63
-27,-30,61
17,-25,52
14,-20,59
6,-22,64
1,-28,57
-4,-26,66
-14,-31,57
-14,-33,53
-10,-27,58
-1,-27,53
7,-37,42
3,-33,45
2,-33,53
13,-40,53
7,-42,48
1,-41,50
8,-46,47
-1,-44,44
-10,-40,47
-2,-37,59
-10,-42,51
-7,-43,48
11,-48,45
10,-46,47
-5,-42,56
2,-38,61
3,-40,53
-3,-42,47
-8,-42,45
23,-38,54
15,-34,56
-13,-37,38
-6,-37,40
5,-35,50
12,-37,50
9,-36,49
15,-40,50
-1,-39,47
9,-36,53
9,-34,60
-4,-37,57
5,-35,50
13,-36,53
15,-35,53
10,-33,51
22,-35,49
16,-35,44
17,-39,43
16,-41,45
19,-43,44
20,-43,40
23,-44,41
23,-43,42
21,-45,41
21,-44,42
21,-44,42
20,-44,42
20,-42,43
19,-42,41
22,-42,42
23,-42,41
22,-42,40
23,-42,41
23,-42,40
20,-43,39
22,-43,40
19,-43,41
20,-44,40
22,-44,39
19,-43,43
22,-43,41
17,-44,39
13,-43,40
21,-42,51
13,-40,50
19,-39,54
11,-41,51
12,-40,51
37,-42,55
38,-46,51
15,-46,43
9,-48,43
7,-50,46
-25,-57,25
-19,-59,22
-9,-52,27
-18,-51,25
-3,-43,43
-12,-34,57
-18,-34,53
2,-32,48
13,-35,48
-4,-47,35
-12,-49,34
4,-46,52
5,-33,66
-8,-38,45
-10,-48,39
-5,-45,41
0,-41,43
-2,-42,45
-2,-42,49
1,-45,53
0,-46,52
-5,-43,50
-2,-43,47
-1,-41,48
1,-42,50
-1,-45,46
-8,-43,53
0,-41,61
-5,-40,47
-6,-40,38
5,-45,39
2,-45,38
1,-43,40
12,-42,41
15,-50,39
2,-46,41
-1,-45,42
-5,-46,43
-2,-47,42
10,-53,34
4,-56,29
1,-58,29
4,-60,35
5,-61,29
7,-62,22
13,-58,26
20,-50,28
30,-48,25
39,-45,34
38,-38,45
37,-38,42
29,-39,44
17,-36,42
13,-38,51
0,-45,35
2,-44,35
30,-42,50
27,-36,55
13,-37,47
11,-38,45
0,-36,52
9,-40,57
8,-38,48
8,-36,45
15,-35,45
24,-34,49
24,-36,47
24,-41,39
21,-43,35
17,-43,35
21,-44,37
18,-44,35
14,-41,41
15,-40,49
18,-40,56
18,-40,49
22,-40,48
10,-47,27
10,-48,32
12,-54,40
6,-53,44
10,-52,40
12,-50,50
5,-46,51
4,-41,58
9,-41,56
9,-44,45
9,-45,42
11,-48,39
10,-49,36
11,-50,36
9,-48,36
10,-48,37
13,-46,40
11,-46,41
10,-48,40
14,-50,39
12,-51,39
13,-52,38
13,-51,36
11,-49,43
11,-50,55
16,-53,60
25,-60,63
22,-66,53
11,-74,39
14,-72,37
17,-62,34
14,-52,34
12,-43,22
17,-31,19
8,-30,18
10,-31,30
13,-32,32
12,-35,25
-8,-34,46
5,-40,44
19,-49,33
18,-48,38
22,-48,51
12,-47,49
16,-48,50
8,-49,37
9,-47,39
12,-43,46
10,-43,41
14,-41,45
15,-39,44
15,-42,38
11,-42,37
7,-41,37
16,-46,32
19,-48,31
25,-47,40
27,-49,43
34,-53,43
36,-55,39
35,-58,40
28,-54,37
23,-50,37
15,-46,33
12,-44,32
18,-40,39
17,-39,38
14,-39,36
22,-37,48
13,-34,51
21,-42,40
20,-45,35
22,-46,39
16,-44,43
14,-44,43
12,-41,45
12,-42,45
16,-43,44
15,-42,46
14,-42,48
14,-42,45
15,-42,44
17,-41,47
15,-40,47
15,-41,45
16,-41,43
17,-41,46
15,-40,46
15,-40,45
15,-40,45
16,-40,46
17,-41,45
16,-40,45
12,-38,46
19,-38,44
17,-36,43
30,-29,48
35,-29,49
23,-34,42
21,-39,44
13,-47,33
13,-50,26
9,-54,26
0,-53,32
-6,-51,34
-15,-52,36
-15,-54,32
-10,-53,43
-14,-48,48
-7,-47,46
-1,-44,52
4,-42,56
10,-45,48
9,-46,41
14,-47,35
16,-49,35
14,-50,36
12,-50,37
8,-50,36
4,-50,37
5,-51,40
4,-51,43
-1,-53,40
-5,-52,41
-3,-49,45
-4,-47,45
-7,-45,43
-6,-44,45
-2,-43,47
1,-42,47
-1,-42,43
-3,-43,38
0,-42,39
1,-40,42
-2,-36,35
0,-36,34
0,-37,37
-2,-37,35
0,-44,29
0,-49,28
-14,-50,31
-21,-47,32
-34,-40,30
-49,-38,32
-53,-37,35
-68,-38,34
-68,-39,31
-72,-38,29
-73,-38,27
-65,-40,22
-59,-39,21
-58,-38,21
-56,-36,16
-55,-34,13
-49,-33,9
-47,-32,8
-46,-31,6
-44,-30,10
-45,-30,11
-44,-30,12
-50,-27,13
-43,-25,22
-40,-20,32
-40,-15,36
-48,-3,45
-58,3,44
-59,9,41
-67,16,42
-65,21,46
-62,21,45
-62,22,43
-55,19,41
-49,19,41
-86,19,57
-88,18,43
-36,14,47
-35,14,43
-49,18,34
-56,23,36
-58,23,37
-49,21,38
-46,21,37
-49,20,34
-51,20,34
-52,23,36
-48,23,38
-47,23,37
-50,22,39
-51,23,39
-49,22,39
-50,19,38
-51,20,37
-52,19,37
-52,19,37
-49,20,36
-49,20,39
-51,22,38
-51,24,37
-52,25,37
-49,20,36
-50,20,37
-49,21,38
-49,22,37
-52,24,37
-51,23,37
-49,24,37
-46,25,38
-49,25,38
-49,27,38
-46,26,38
-47,27,37
-50,27,38
-49,26,38
-48,23,37
-49,23,38
-50,25,39
-49,24,38
-47,25,39
-46,25,40
-46,24,40
-48,24,39
-48,25,39
-46,25,38
-47,26,38
-45,27,37
-45,26,38
-46,25,38
-49,24,37
-49,25,35
-49,28,36
-50,28,36
-49,28,36
-49,24,39
-49,21,39
-50,17,40
-50,15,41
-47,14,41
-47,15,41
-49,16,42
-52,17,40
-52,17,40
-52,19,38
-52,19,38
-47,19,39
-47,20,39
-50,19,38
-52,20,39
-50,20,40
-46,23,41
-46,16,36
-53,17,37
-54,18,37
-54,16,35
-55,14,33
-55,13,34
-55,15,35
-53,17,35
-52,20,37
-52,21,37
-50,22,39
-48,22,39
-49,21,38
-50,21,38
-50,20,37
-51,21,36
-48,21,40
-45,21,41
-52,21,38
-50,21,38
-49,22,38
-49,23,38
-49,24,38
-49,24,38
-48,23,38
-49,22,39
-48,22,39
-48,23,39
-48,23,38
-48,24,38
-48,24,38
-48,24,38
-48,24,38
-48,24,38
-49,23,38
-49,23,38
-49,23,38
-49,23,38
-49,23,38
-49,24,37
-49,24,37
-49,23,38
-50,23,37
-49,23,37
-49,23,37
-49,23,37
-50,23,37
-50,22,37
-50,22,37
-50,22,37
-51,22,37
-51,22,37
-51,22,37
-51,22,37
-51,22,36
-51,22,36
-51,22,36
-51,22,36
-51,22,36
-51,22,36
-50,22,37
-50,22,36
-51,22,37
-50,21,38
-50,21,38
-50,20,38
-50,20,38
-49,20,38
-49,21,38
-50,21,37
-50,21,37
-51,21,37
-51,21,37
-50,21,38
-50,19,38
-50,19,38
-51,19,38
-51,19,38
-51,19,37
-51,19,37
-51,20,37
-51,20,38
-51,20,38
-50,20,38
-50,20,38
-50,20,38
-50,20,39
-49,19,39
-50,20,39
-50,20,39
-50,20,39
-50,20,39
-50,20,39
-50,20,39
-50,21,39
-50,20,38
-50,21,38
-50,21,38
-50,21,37
-50,21,37
-50,21,38
-50,21,38
-49,21,38
-49,21,38
-49,21,38
-49,21,38
-49,21,37
-50,20,38
-51,19,38
-52,19,37
-51,20,37
-51,20,36
-51,21,36
-52,21,36
-52,21,36
-52,20,36
-52,20,36
-52,20,36
-52,20,36
-52,20,36
-52,20,36
-51,21,36
-52,21,36
-52,22,37
-51,22,38
-49,22,38
-51,21,37
-54,21,37
-45,21,38
-46,21,38
-50,21,37
-51,21,35
-49,22,36
-48,22,36
-49,23,38
-46,25,39
-46,26,39
-46,26,38
-49,25,36
-64,20,27
-65,18,26
-58,17,29
-51,18,37
-48,20,40
-49,21,38
-51,22,37
-52,22,36
-53,22,34
-52,21,33
-52,22,34
-52,22,35
-51,22,34
-51,23,35
-51,24,37
-50,23,37
-51,21,36
-53,21,34
-54,20,33
-54,21,33
-53,21,33
-52,22,34
-53,22,34
-52,21,34
-53,22,36
-52,21,35
-51,20,36
-50,20,36
-52,19,36
-51,19,36
-51,20,36
-52,23,37
-52,23,37
-45,24,43
-43,26,44
-67,42,44
-88,44,35
-113,37,40
-128,21,41
-128,17,37
-112,-2,34
-88,-10,25
-41,-19,11
-23,-17,5
-9,-22,-8
13,-18,-9
29,-21,-4
39,-25,5
34,-27,3
24,-28,8
30,-30,16
29,-35,11
5,-36,46
-3,-43,40
25,-52,39
24,-50,34
3,-50,36
1,-52,39
19,-57,36
21,-48,40
17,-44,39
33,-42,34
34,-41,35
17,-39,39
8,-39,36
6,-44,31
16,-42,34
14,-41,34
14,-45,35
13,-48,34
10,-50,30
11,-53,31
8,-50,34
5,-51,35
4,-52,38
-1,-55,37
-6,-55,35
-11,-57,41
-19,-52,43
-22,-52,42
-24,-53,45
-25,-51,46
-25,-47,42
-23,-49,40
-22,-47,37
-22,-45,35
-21,-42,32
-21,-43,30
-24,-43,29
-28,-45,29
-30,-47,29
-37,-49,29
-43,-49,30
-44,-49,30
-46,-47,30
-46,-46,31
-41,-46,30
-39,-46,29
-39,-46,28
-38,-46,28
-37,-46,25
-37,-46,22
-37,-46,21
-40,-46,20
-40,-46,19
-43,-46,19
-44,-46,20
-44,-46,21
-44,-45,21
-44,-45,21
-43,-44,22
-43,-43,25
-43,-44,25
-44,-43,22
-44,-43,23
-43,-43,24
-42,-44,24
-42,-44,23
-42,-44,23
-42,-44,23
-42,-44,22
-42,-44,22
-43,-44,22
-43,-44,21
-42,-44,22
-42,-44,23
-42,-44,22
-43,-44,22
-44,-44,22
-45,-44,23
-45,-43,23
-45,-42,24
-43,-43,24
-40,-45,25
-42,-44,25
-43,-43,25
-41,-42,25
-40,-42,25
-36,-44,27
-37,-44,27
-36,-48,29
-42,-47,29
-42,-46,29
-40,-47,27
-44,-44,27
-46,-39,24
-41,-39,23
-42,-39,24
-37,-38,25
-37,-39,24
-44,-36,24
-46,-36,25
-49,-38,25
-54,-35,24
-53,-36,24
-48,-41,26
-48,-39,25
-53,-40,24
-52,-43,27
-56,-37,22
-58,-33,19
-57,-29,19
-57,-24,15
-60,-22,13
-58,-24,16
-56,-27,18
-52,-30,19
-54,-28,19
-53,-28,21
-55,-30,18
-54,-31,20
-54,-35,21
-54,-40,19
-54,-44,24
-53,-42,25
-52,-38,21
-53,-34,17
-55,-33,16
-57,-31,9
-57,-29,9
-56,-27,7
-52,-26,11
-60,-22,7
-57,-18,6
-56,-18,6
-60,-22,-1
-55,-25,-4
-56,-25,-6
-57,-24,-2
-58,-27,1
-49,-27,11
-55,-22,14
-62,-29,18
-59,-31,15
-46,-35,-1
-57,-35,-12
-59,-27,-11
-57,-32,-10
-55,-31,-9
-52,-29,-8
-58,-28,-12
-58,-32,-8
-56,-32,-5
-60,-32,-9
-59,-31,-8
-59,-31,-8
-54,-32,-10
-54,-30,-13
-54,-31,-13
-54,-32,-13
-54,-31,-14
-59,-31,-13
-56,-31,-10
-56,-30,-11
-57,-31,-11
-56,-33,-13
-56,-32,-12
-55,-32,-9
-54,-34,-12
-55,-34,-14
-51,-35,-12
-52,-35,-11
-53,-34,-11
-54,-33,-12
-55,-30,-10
-51,-34,-4
-52,-35,-5
-55,-31,4
-42,-33,13
-38,-40,16
-48,-36,13
-46,-36,16
-43,-35,21
-47,-34,20
-49,-38,24
-53,-38,24
-51,-41,29
-56,-43,28
-58,-41,31
-51,-38,40
-51,-36,41
-44,-35,39
-48,-34,33
-56,-31,24
-49,-28,21
-43,-27,18
-49,-25,-1
-53,-22,-6
-56,-23,-8
-54,-26,-6
-42,-25,3
-57,-27,-11
-56,-29,-14
-56,-31,-16
-52,-30,-16
-58,-33,-31
-57,-33,-30
-57,-31,-27
-60,-28,-33
-60,-27,-37
-63,-23,-37
-61,-22,-38
-59,-18,-35
-57,-17,-28
-47,-17,-19
-49,-16,-13
-53,-16,-16
-59,-18,-16
-54,-17,-13
-55,-19,-13
-58,-20,-14
-61,-26,-18
-68,-27,-25
-68,-25,-23
-66,-22,-20
-67,-20,-18
-68,-20,-18
-67,-21,-17
-63,-20,-13
-61,-19,-10
-61,-18,-9
-59,-18,-7
-60,-18,-6
-59,-19,-5
-58,-18,-4
-55,-19,-4
-59,-21,-1
-57,-20,0
-52,-23,-2
-55,-24,-4
-60,-24,-8
-58,-24,-8
-68,-24,-14
-67,-24,-13
-67,-24,-14
-62,-23,-9
-58,-22,-10
-59,-25,-16
-60,-26,-18
-62,-31,-24
-54,-33,-24
-49,-37,-26
-45,-38,-28
-45,-37,-29
-47,-31,-19
-46,-29,-14
-41,-29,-8
-48,-29,-13
-51,-27,-13
-48,-26,-15
-53,-26,-17
-63,-24,-26
-61,-24,-28
-65,-24,-24
-64,-21,-15
-67,-16,-13
-69,-15,-13
-70,-15,-14
-63,-15,-10
-66,-16,-11
-60,-20,-9
-56,-27,-11
-56,-28,-13
-57,-20,-7
-55,-26,-5
-58,-22,-7
-60,-22,-9
-51,-33,-7
-52,-33,-3
-53,-29,2
-49,-28,3
-52,-36,-2
-57,-32,-4
-55,-33,-5
-55,-37,-12
-58,-32,-16
-62,-30,-17
-54,-31,-15
-56,-33,-17
-60,-31,-17
-57,-33,-14
-58,-31,-10
-61,-28,-9
-60,-26,-6
-59,-24,-3
-59,-22,-2
-60,-24,-3
-61,-27,-3
-61,-27,1
-60,-30,0
-61,-28,0
-61,-27,-3
-62,-27,-4
-60,-26,-3
-60,-26,-4
-60,-26,-4
-59,-26,-3
-59,-26,-4
-59,-26,-5
-60,-26,-5
-59,-26,-4
-59,-26,-4
-59,-26,-5
-59,-25,-4
-59,-26,-5
-59,-26,-4
-60,-27,-5
-60,-27,-5
-60,-27,-5
-59,-27,-5
-59,-27,-6
-59,-27,-5
-59,-27,-5
-58,-27,-5
-59,-26,-6
-59,-27,-6
-59,-27,-5
-59,-27,-5
-59,-27,-5
-59,-27,-5
-59,-27,-5
-59,-27,-6
-58,-28,-7
-58,-29,-7
-58,-28,-6
-57,-28,-6
-59,-27,-6
-60,-26,-5
-62,-24,-1
-60,-26,-1
-59,-27,-1
-58,-26,0
-58,-26,1
-60,-27,1
-59,-26,2
-59,-27,2
-60,-26,2
-60,-27,0
-59,-28,1
-59,-27,1
-61,-27,-2
-60,-27,-1
-58,-27,0
-59,-27,0
-59,-27,0
-59,-27,0
-59,-27,1
-59,-27,1
-60,-27,0
-60,-27,0
-59,-27,1
-59,-27,0
-59,-28,-1
-59,-28,-1
-58,-27,0
-59,-27,-1
-59,-27,-1
-60,-27,-1
-59,-27,-1
-59,-27,-1
-59,-27,-2
-59,-27,-1
-59,-27,0
-60,-27,-1
-59,-27,-1
-59,-27,-1
-59,-27,-1
-58,-27,-1
-59,-28,-1
-60,-28,-1
-60,-27,-1
-59,-27,-1
-60,-28,0
-59,-28,0
-59,-28,0
-59,-27,-1
-59,-27,-2
-58,-27,-2
-60,-27,0
-59,-27,0
-58,-27,0
-59,-26,1
-56,-25,0
-59,-24,1
-62,-22,3
-62,-22,7
-64,-18,11
-68,-17,7
-65,-18,5
-66,-20,2
-63,-23,-2
-61,-25,-2
-57,-25,-5
-56,-24,-8
-53,-23,-13
-55,-22,-15
-56,-24,-16
-57,-24,-16
-59,-22,-15
-59,-22,-16
-59,-22,-16
-60,-22,-16
-61,-22,-16
-61,-22,-17
-60,-25,-17
-60,-34,-19
-62,-37,-21
-64,-34,-21
-61,-26,-19
-59,-24,-18
-61,-21,-16
-60,-21,-15
-57,-21,-11
-57,-22,-11
-59,-23,-11
-61,-25,-9
-61,-26,-8
-61,-27,-10
-61,-26,-10
-63,-25,-11
-58,-28,-11
-57,-30,-11
-50,-34,-7
-52,-35,-8
-49,-38,-4
-44,-40,-1
-45,-42,0
-42,-41,4
-44,-41,4
-45,-40,6
-49,-40,5
-52,-40,6
-49,-40,9
-53,-41,12
-55,-40,14
-54,-38,17
-46,-39,17
-44,-41,14
-48,-39,8
-45,-38,11
-45,-39,7
-57,-36,-6
-58,-35,-8
-58,-32,-9
-56,-32,-12
-57,-31,-19
-56,-31,-21
-55,-32,-23
-55,-32,-24
-55,-32,-24
-51,-33,-24
-46,-33,-24
-50,-31,-32
-51,-30,-39
-49,-31,-38
-49,-28,-35
-52,-29,-35
-49,-30,-31
-45,-30,-27
-43,-31,-26
-50,-33,-30
-50,-33,-30
-48,-31,-28
-51,-30,-29
-51,-31,-28
-50,-31,-27
-51,-30,-23
-52,-32,-15
-43,-35,-10
-46,-33,-6
-50,-33,-8
-55,-34,-14
-57,-33,-14
-54,-30,-12
-55,-32,-10
-54,-33,-7
-52,-34,-3
-52,-35,-2
-56,-36,-2
-56,-35,-3
-57,-35,-4
-56,-34,-5
-56,-33,-6
-56,-33,-5
-55,-33,-5
-55,-33,-4
-55,-31,-5
-55,-30,-5
-54,-30,-5
-54,-30,-6
-54,-31,-6
-54,-31,-6
-55,-32,-6
-56,-33,-6
-58,-32,-7
-58,-34,-7
-59,-34,-7
-60,-33,-8
-59,-33,-7
-58,-33,-8
-57,-33,-7
-57,-32,-8
-56,-32,-8
-57,-31,-8
-55,-31,-8
-55,-31,-8
-55,-32,-8
-55,-32,-8
-54,-33,-8
-55,-32,-9
-55,-31,-8
-54,-33,-9
-55,-33,-8
-54,-34,-8
-54,-35,-8
-54,-34,-7
-54,-34,-7
-53,-34,-7
-53,-35,-8
-52,-36,-8
-53,-36,-9
-54,-35,-9
-54,-35,-10
-55,-34,-10
-56,-35,-10
-56,-34,-9
-56,-34,-8
-56,-34,-8
-55,-33,-8
-54,-34,-8
-54,-34,-8
-54,-34,-8
-53,-34,-9
-54,-34,-9
-54,-33,-9
-54,-33,-9
-55,-33,-9
-56,-33,-9
-56,-33,-9
-56,-34,-9
-56,-34,-8
-56,-33,-8
-56,-33,-8
-56,-33,-8
-55,-33,-8
-55,-33,-8
-54,-34,-8
-54,-33,-8
-54,-33,-8
-55,-33,-8
-54,-33,-9
-55,-32,-8
-55,-33,-8
-55,-33,-8
-55,-33,-7
-55,-33,-8
-55,-33,-7
-55,-34,-7
-55,-34,-8
-56,-34,-8
-54,-34,-8
-55,-34,-8
-54,-34,-8
-54,-34,-8
-54,-34,-8
-54,-34,-8
-54,-33,-8
-54,-34,-8
-54,-34,-8
-54,-34,-8
-55,-34,-8
-54,-34,-8
-55,-33,-8
-55,-33,-8
-55,-34,-8
-55,-34,-7
-55,-34,-8
-55,-34,-8
-55,-34,-8
-54,-34,-8
-55,-34,-8
-54,-34,-8
-54,-34,-8
-54,-35,-8
-54,-35,-8
-55,-35,-9
-54,-35,-7
-55,-36,-8
-56,-36,-10
-54,-35,-6
-58,-36,-3
-52,-38,0
-53,-39,0
-55,-46,-2
-53,-50,-2
-47,-53,4
-46,-50,2
-46,-46,-12
-44,-43,-20
-51,-33,-28
-53,-30,-21
-54,-28,-22
-52,-29,-27
-50,-28,-26
-49,-28,-29
-50,-27,-32
-48,-27,-29
-46,-28,-26
-46,-29,-26
-51,-31,-26
-51,-32,-24
-44,-36,-20
-42,-34,-18
-50,-34,-24
-45,-38,-20
-42,-38,-18
-40,-39,-14
-46,-39,-17
-46,-40,-17
-45,-41,-18
-47,-42,-17
-46,-42,-17
-46,-41,-16
-47,-40,-14
-47,-39,-13
-47,-39,-11
-47,-40,-12
-51,-39,-12
-49,-39,-10
-48,-39,-8
-51,-41,-9
-54,-41,-12
-52,-41,-11
-48,-41,-12
-49,-40,-11
-51,-42,-10
-48,-42,-11
-48,-44,-11
-49,-45,-12
-50,-44,-10
-54,-45,-14
-48,-44,-9
-50,-46,-17
-57,-44,-22
-58,-42,-18
-57,-41,-18
-42,-33,-15
-57,-26,-7
-58,-24,4
-62,-23,-19
-70,-15,-18
-63,-10,-10
-59,-10,-5
-62,-8,-6
-64,-11,-7
-61,-11,-4
-60,-10,-3
-60,-13,-7
-62,-14,-7
-60,-15,-5
-59,-17,-5
-59,-17,-4
-59,-17,-3
-61,-19,-4
-62,-19,-4
-60,-18,-2
-61,-17,-3
-62,-17,-3
-60,-18,-1
-61,-17,-1
-61,-15,-2
-60,-13,-2
-57,-12,4
-55,-9,2
-54,-5,-1
-47,-3,0
-48,5,-1
-39,11,3
