1.5206e+09,1.5206e+09,1.5206e+09
32,32,32
65,-1,-5
64,-2,-6
59,-1,-10
58,0,-9
61,2,-12
63,1,-11
66,1,-10
65,1,-7
64,0,-7
65,0,-8
67,-1,-10
63,0,-10
60,0,-12
61,2,-16
64,3,-20
63,3,-20
60,3,-20
59,3,-21
63,1,-22
64,1,-21
59,3,-19
52,4,-20
53,4,-20
55,3,-21
65,1,-26
67,2,-26
56,1,-21
58,1,-20
65,2,-20
62,2,-19
58,1,-17
58,0,-16
62,0,-14
60,0,-10
64,0,-10
61,1,-9
62,1,-9
64,2,-9
62,2,-8
63,2,-7
62,2,-7
63,2,-6
65,1,-7
64,1,-7
61,1,-6
62,0,-6
64,0,-6
62,0,-6
62,0,-6
62,0,-6
63,0,-6
62,0,-7
62,0,-7
63,0,-7
63,0,-7
63,0,-8
62,0,-7
63,0,-7
63,0,-7
63,1,-7
63,1,-7
62,0,-7
62,0,-6
63,0,-7
63,0,-7
62,1,-8
63,0,-8
62,1,-8
62,1,-8
62,1,-8
63,1,-7
62,1,-7
63,2,-7
63,2,-8
62,2,-7
63,2,-9
64,1,-9
63,1,-9
63,1,-8
63,2,-8
63,2,-7
64,1,-7
61,2,-7
62,2,-7
63,1,-6
64,1,-6
63,1,-6
63,1,-6
63,1,-6
63,1,-5
63,1,-5
63,1,-5
62,2,-4
63,1,-4
62,2,-3
63,1,-3
62,1,-4
63,1,-4
62,1,-5
63,1,-5
62,1,-4
62,0,-4
63,1,-5
63,1,-5
63,1,-4
62,1,-5
62,1,-5
63,0,-7
65,0,-8
65,0,-8
67,1,-9
67,1,-8
62,1,-4
63,1,-3
67,1,-1
60,0,4
55,-1,6
59,-2,8
64,-2,8
64,-2,9
61,-2,10
60,-2,11
62,-1,11
63,-1,11
61,-1,12
61,-2,12
61,-2,13
58,-2,13
60,-2,11
63,-2,9
62,-2,8
61,-3,5
64,-2,3
67,-2,0
65,-2,1
61,-2,-1
64,-1,-4
64,-2,-3
64,-2,-3
63,-2,-3
63,-2,-2
64,-2,-2
66,-2,-1
63,-2,0
62,-2,2
61,-3,5
61,-3,6
62,-3,8
63,-3,8
61,-3,9
61,-2,10
62,-2,10
62,-3,10
62,-2,10
61,-2,10
62,-2,10
62,-2,10
59,-3,10
60,-2,8
62,-2,6
64,-2,4
64,-3,3
63,-2,1
63,-2,0
63,-2,-1
62,-2,-2
63,-2,-3
63,-2,-4
64,-2,-4
64,-2,-4
63,-2,-5
63,-2,-5
63,-2,-5
63,-2,-4
61,-2,-5
62,-2,-6
62,-2,-7
62,-1,-7
62,-1,-9
63,-1,-11
63,-1,-12
62,-1,-12
62,-1,-13
62,-1,-15
62,-1,-15
62,-1,-15
63,-1,-16
63,-1,-14
63,-1,-13
62,-1,-11
62,-1,-10
64,-1,-9
62,-1,-8
58,-1,-5
61,-2,-4
63,-2,-4
66,-2,-4
60,-2,-2
60,-2,-2
64,-1,-1
63,-1,-1
64,-1,0
63,-1,0
62,-1,-1
63,-1,-1
63,-1,-1
63,-2,0
63,-2,0
62,-2,-3
63,-2,-4
64,-2,-3
63,-2,-3
63,-2,-3
63,-2,-3
63,-2,-2
63,-2,-2
62,-1,-2
63,-2,-1
65,-2,0
64,-2,1
61,-2,2
61,-2,3
62,-2,3
63,-2,3
63,-2,3
63,-2,3
63,-2,2
64,-2,2
64,-2,3
63,-2,4
64,-2,4
63,-2,4
62,-2,5
63,-2,6
63,-2,7
63,-2,7
62,-2,8
62,-2,8
62,-2,9
62,-2,10
63,-2,10
62,-2,10
62,-2,11
62,-2,12
63,-2,12
62,-2,12
61,-2,13
61,-2,13
61,-3,14
62,-3,15
61,-2,15
61,-2,16
60,-3,16
60,-2,17
60,-2,17
61,-2,18
60,-2,19
60,-2,19
60,-2,20
60,-2,20
60,-3,20
60,-3,21
59,-2,21
59,-2,22
60,-2,22
58,-3,23
58,-3,23
58,-3,24
57,-3,24
57,-3,24
57,-3,24
56,-3,25
57,-3,25
58,-2,26
57,-3,26
57,-3,26
57,-3,26
57,-3,26
57,-3,27
57,-3,28
58,-3,28
56,-3,29
55,-3,30
55,-3,31
52,-3,31
51,-3,32
53,-3,33
53,-3,33
53,-3,32
52,-3,32
55,-3,32
55,-4,32
53,-3,32
52,-3,32
54,-3,32
57,-3,32
55,-3,31
53,-3,31
56,-3,31
57,-3,31
54,-3,31
53,-3,32
55,-3,32
55,-3,33
53,-3,33
51,-3,33
52,-3,34
54,-3,34
54,-3,34
52,-3,34
50,-3,34
54,-3,34
53,-3,34
52,-3,34
51,-3,34
52,-3,34
54,-2,34
53,-3,34
51,-3,35
52,-3,35
54,-3,34
52,-3,35
53,-3,35
51,-3,35
52,-3,35
52,-3,35
51,-3,35
51,-3,35
51,-3,35
51,-3,35
51,-3,34
53,-2,33
54,-2,32
54,-2,31
53,-2,31
55,-2,30
55,-2,29
53,-2,26
60,-1,22
63,-1,21
62,-2,17
61,-2,14
62,-1,12
63,-1,12
63,-1,10
62,-1,7
62,-1,5
63,0,3
63,0,2
64,-1,0
63,0,-1
62,0,-5
62,0,-7
62,0,-8
64,0,-8
62,0,-9
60,0,-14
61,0,-16
62,1,-18
59,1,-20
58,1,-22
58,1,-25
57,1,-27
56,1,-28
56,1,-29
56,1,-31
55,2,-31
54,2,-32
54,1,-33
54,1,-34
53,1,-35
53,1,-35
52,1,-36
52,1,-36
52,1,-37
52,1,-37
51,1,-37
50,1,-38
50,1,-37
50,1,-38
49,2,-38
49,2,-39
49,1,-39
49,1,-39
48,1,-39
49,1,-40
49,1,-41
50,0,-39
50,0,-39
52,0,-39
52,0,-39
48,1,-39
49,1,-39
51,2,-38
50,2,-38
50,2,-37
52,2,-38
53,2,-37
51,1,-37
50,1,-37
51,1,-36
52,1,-36
51,1,-36
51,1,-36
51,1,-37
52,1,-36
52,1,-36
51,1,-35
53,0,-36
52,0,-35
55,0,-34
56,0,-33
53,1,-32
53,1,-32
56,0,-30
58,0,-26
56,0,-26
55,0,-26
56,0,-26
60,0,-25
56,0,-24
58,0,-24
61,0,-21
61,0,-21
59,0,-20
59,0,-19
60,0,-18
61,0,-17
61,0,-17
60,0,-17
60,0,-17
62,0,-16
61,0,-16
60,0,-15
61,0,-14
62,0,-14
62,0,-15
61,0,-15
61,0,-15
62,1,-15
60,1,-15
61,0,-16
60,0,-18
58,0,-19
55,0,-20
57,0,-24
61,1,-28
58,1,-29
53,1,-34
54,1,-36
52,1,-37
51,1,-38
51,1,-37
49,1,-39
50,1,-40
50,1,-40
50,1,-40
51,2,-41
53,2,-40
51,2,-38
53,2,-38
55,2,-35
54,1,-30
54,1,-27
62,0,-24
64,0,-23
63,0,-18
58,0,-12
66,-1,-12
61,-1,-9
59,-1,-5
60,-2,-3
63,-3,0
59,-3,0
60,-3,2
60,-4,-2
58,-3,-1
60,-2,0
61,-2,-10
62,-2,-11
66,-3,-12
74,-6,-20
73,-7,-17
60,-7,-16
57,-8,-18
53,-6,-20
55,-8,-21
57,-6,-17
60,-7,-18
63,-8,-17
65,-8,-13
65,-8,-15
51,-6,-15
56,-4,-15
58,2,-17
58,7,-15
58,10,-15
57,11,-18
58,12,-18
59,13,-20
61,13,-19
63,14,-19
64,15,-19
63,14,-20
60,12,-20
59,11,-20
58,12,-19
54,13,-16
56,14,-16
57,14,-16
58,14,-16
58,14,-23
61,12,-25
65,11,-25
62,9,-26
62,7,-28
68,5,-28
70,5,-28
68,2,-24
66,1,-21
70,2,-11
75,3,-8
76,6,-3
53,5,-2
39,0,-4
31,-9,-3
34,-9,2
29,-11,0
69,-11,-26
101,-9,-25
74,-8,-19
72,-8,-25
70,-4,-13
60,-3,-10
53,-1,-14
50,-1,-13
47,-2,-12
59,-7,-15
59,-9,-18
63,-9,-23
63,-8,-24
61,-7,-25
63,0,-21
61,4,-20
59,11,-19
58,12,-20
58,14,-15
56,16,-13
58,18,-13
59,19,-10
59,19,-9
60,19,-5
62,19,-2
62,20,4
62,21,5
59,22,8
58,24,11
59,25,13
59,27,14
58,28,15
57,28,15
55,28,13
56,28,12
57,27,11
56,27,11
55,27,11
55,27,10
57,28,8
57,28,9
58,28,10
59,28,9
59,28,9
59,27,9
60,27,6
61,26,4
59,23,5
60,22,2
58,20,0
58,20,1
57,19,1
58,18,0
58,17,-1
59,16,-1
60,16,-1
59,15,-2
60,15,-2
63,16,0
63,16,-1
63,16,-1
64,17,-3
65,17,-4
61,17,-6
62,17,-5
63,16,-5
62,16,-6
63,13,-7
64,13,-4
63,13,-2
62,11,0
62,10,-1
57,7,1
54,7,1
62,7,4
62,7,8
61,7,11
60,8,12
61,8,12
62,9,13
61,9,12
61,8,12
59,9,15
61,9,14
62,8,12
58,7,11
60,8,8
60,9,6
65,9,4
61,9,1
64,9,-1
64,10,-2
61,10,-3
61,11,-3
64,11,-7
65,11,-6
64,11,-3
63,11,-3
69,10,-3
69,11,1
64,11,3
63,10,7
62,8,7
58,8,9
60,8,11
60,9,15
60,9,16
60,8,18
58,8,19
58,8,20
59,7,21
59,7,21
57,7,22
56,6,22
57,7,23
58,7,24
59,7,25
58,7,26
56,7,25
58,7,26
55,7,26
55,7,26
57,7,25
58,7,26
57,7,26
57,6,26
57,6,26
57,6,27
60,5,23
57,6,25
56,7,25
59,6,22
60,6,21
57,6,23
57,6,23
60,6,24
59,6,24
58,6,25
58,6,23
59,6,23
56,6,22
56,5,21
59,4,20
61,4,21
61,4,20
59,3,20
60,3,19
59,4,17
58,4,16
62,5,15
63,4,15
63,4,16
64,3,18
65,3,19
58,2,19
60,3,21
57,3,22
53,3,25
55,3,26
55,3,28
54,3,29
56,3,28
57,3,28
58,3,29
54,3,31
53,3,30
54,3,29
55,3,30
54,3,32
54,3,32
55,3,33
53,2,33
54,3,33
51,2,33
52,2,33
52,3,35
51,3,33
53,3,33
55,3,32
53,3,32
55,3,31
55,3,31
55,3,32
54,3,33
53,3,33
51,3,32
53,3,31
56,3,33
55,4,34
51,3,34
54,3,34
54,3,36
52,3,36
52,3,36
52,2,33
52,3,33
50,3,37
50,2,37
49,2,38
49,2,39
49,2,39
50,2,40
48,2,38
48,2,37
50,2,37
51,2,38
51,2,36
49,2,35
53,3,35
53,3,36
53,3,35
52,2,34
53,2,33
53,3,34
54,3,34
53,3,33
53,3,32
54,3,33
53,3,32
52,3,32
55,4,32
54,4,32
55,4,31
54,5,31
54,5,31
56,5,31
55,5,31
55,5,31
54,5,30
57,6,30
56,5,29
55,5,29
55,5,28
56,6,28
56,6,28
55,5,28
58,6,28
58,5,27
56,5,27
56,5,28
58,5,28
55,4,27
55,5,28
56,5,28
55,4,29
54,4,29
54,5,29
54,4,30
54,5,32
54,5,32
54,5,32
52,5,33
53,5,33
53,5,33
54,5,34
54,5,34
53,5,34
53,5,34
52,5,35
52,5,35
51,5,36
50,5,36
52,5,35
53,5,34
53,5,34
53,5,34
53,5,34
52,5,33
52,5,34
54,5,34
52,5,33
52,5,33
54,5,33
53,5,33
54,5,31
54,4,32
54,5,32
55,5,31
55,5,31
55,5,30
55,5,30
55,5,30
55,6,30
55,5,30
54,5,29
54,5,29
56,5,29
56,6,30
55,5,29
55,6,28
56,6,28
56,6,29
56,6,28
57,6,28
56,6,27
56,6,27
56,6,27
56,5,27
58,6,26
59,6,26
59,5,26
59,5,26
58,6,26
58,6,26
57,5,28
54,5,29
54,5,29
54,5,31
55,5,32
53,4,33
52,4,33
52,4,33
52,4,35
52,4,36
51,4,35
51,4,35
52,4,36
51,4,37
51,4,36
52,4,37
50,4,36
50,4,36
51,4,37
50,4,38
51,4,38
50,4,38
50,4,37
50,4,38
50,4,38
50,3,38
49,3,37
51,4,39
51,4,39
49,4,38
50,4,38
49,3,38
49,4,39
50,3,39
49,3,39
49,3,39
49,4,38
49,3,39
50,3,39
50,4,39
49,3,39
49,3,39
49,3,39
48,3,39
48,3,39
49,3,40
49,3,40
48,3,39
49,2,40
49,2,39
49,2,39
49,2,39
49,2,39
49,2,39
49,2,39
50,2,39
50,2,39
50,2,39
49,3,38
50,2,39
49,2,39
49,3,39
49,3,39
49,2,38
49,3,38
49,3,38
49,3,37
51,3,38
51,3,37
53,4,36
54,4,37
53,3,36
52,3,35
53,3,35
54,4,35
52,3,34
53,3,33
54,4,34
53,3,32
54,3,31
53,3,30
55,3,29
55,3,29
55,2,29
55,2,29
57,2,28
55,2,28
57,3,30
56,4,29
58,4,29
57,4,28
56,4,28
58,5,29
57,5,28
58,4,28
55,4,27
56,4,28
55,3,29
55,3,30
53,3,31
54,3,31
52,3,32
52,3,32
53,3,31
54,4,32
55,4,32
55,5,31
56,5,31
54,5,30
55,5,30
55,5,30
55,5,29
55,5,29
57,6,30
55,6,30
56,6,30
55,6,30
55,5,30
55,5,31
55,5,32
54,5,32
55,5,31
53,5,32
53,5,32
52,5,33
52,5,33
54,5,33
53,5,33
54,5,33
54,5,34
53,5,34
52,5,35
52,5,34
52,4,34
52,5,35
53,5,35
52,5,35
52,5,35
52,5,35
53,5,35
52,5,35
52,4,35
53,4,35
52,4,35
52,4,35
53,3,35
51,3,35
50,3,36
51,3,36
51,3,35
50,3,36
52,4,37
51,3,36
52,3,36
50,3,37
51,3,36
51,3,36
52,3,36
50,3,37
50,3,37
52,3,37
52,3,37
51,4,37
51,4,37
51,4,38
50,4,38
51,3,37
50,3,37
50,3,38
49,3,38
50,3,38
50,3,38
49,3,39
49,3,37
49,3,38
49,3,38
50,3,38
51,3,38
50,3,39
50,3,38
49,3,38
50,3,38
50,3,38
51,3,38
50,3,37
50,2,37
49,3,37
50,2,37
50,3,36
50,2,36
51,3,36
51,3,36
51,3,36
52,3,35
53,3,35
54,3,34
54,3,32
55,3,32
55,3,31
55,3,31
55,3,31
55,3,31
54,3,32
53,3,32
54,3,32
53,3,33
54,3,33
53,3,33
52,2,33
51,3,33
53,3,33
52,3,34
52,3,33
53,3,33
54,3,32
53,3,32
54,2,31
57,2,31
56,3,31
55,2,31
56,2,31
56,3,31
55,2,32
56,2,30
52,2,32
52,2,33
53,2,36
53,2,35
51,1,35
50,1,35
51,1,36
52,1,36
51,1,36
50,1,34
52,2,35
53,2,36
52,1,35
52,2,34
54,2,34
53,1,33
54,2,34
54,2,34
52,2,34
53,2,34
53,2,34
53,1,34
53,1,34
52,1,33
53,1,34
53,1,33
54,2,33
53,1,33
53,2,32
53,1,32
53,3,32
52,3,31
55,3,31
57,2,31
56,2,30
57,2,28
57,2,28
57,2,28
56,2,28
57,2,27
57,2,27
56,2,27
58,3,27
57,2,28
56,2,28
56,2,28
57,2,28
56,2,28
57,2,29
56,2,29
56,2,29
56,2,29
56,1,30
54,2,31
54,2,32
54,2,32
54,2,33
54,1,33
52,2,33
53,2,33
53,2,34
52,2,35
51,2,35
52,2,35
52,2,36
52,1,36
52,2,35
52,2,36
51,2,36
52,2,37
52,2,37
50,2,37
50,1,37
51,2,37
51,2,37
49,2,38
49,2,37
50,2,39
51,2,38
50,2,38
50,2,38
50,2,38
50,2,38
50,2,39
50,1,38
50,1,38
50,1,38
49,2,38
50,2,38
49,2,39
49,2,38
49,2,38
50,2,39
49,2,39
49,2,38
49,2,37
51,2,39
51,2,40
49,1,37
50,2,37
50,2,39
51,2,39
51,2,38
50,2,37
49,2,38
50,2,39
49,2,38
50,2,38
50,2,39
51,2,38
49,1,37
50,1,38
50,2,39
50,2,38
50,1,39
49,2,38
49,2,38
49,2,39
49,2,39
50,2,39
50,2,38
50,1,38
50,2,38
50,2,38
50,2,38
50,2,38
50,1,38
50,1,36
50,1,36
50,2,37
50,2,37
49,2,35
51,2,34
54,2,34
54,2,35
54,2,32
55,2,30
55,2,31
55,2,30
57,2,30
56,2,29
54,3,28
57,2,27
57,3,28
54,3,26
59,3,25
59,3,25
57,3,24
61,3,23
60,2,23
57,2,22
58,2,20
62,3,22
59,3,22
59,2,20
60,3,20
58,2,19
58,3,19
59,3,18
61,3,20
61,3,19
61,3,19
62,4,19
61,4,18
61,4,17
61,4,18
60,4,17
60,3,16
60,3,16
61,3,18
61,3,18
60,3,16
60,3,16
60,4,17
60,4,17
60,4,17
61,4,17
61,5,17
61,6,19
61,6,19
61,5,18
60,5,17
61,5,16
61,5,16
62,5,17
62,5,16
63,4,16
62,4,16
60,5,16
62,5,16
60,5,20
60,6,19
60,5,22
59,5,19
58,5,18
59,5,19
58,4,20
60,4,18
59,4,19
60,5,21
60,4,19
62,4,16
62,5,17
61,5,18
62,4,18
61,4,17
57,4,15
62,3,16
61,4,18
62,3,17
63,4,17
60,3,16
59,3,17
62,4,17
61,3,18
58,3,19
58,2,19
59,3,18
59,3,19
58,3,20
59,4,22
59,3,21
55,2,17
61,4,22
61,5,22
59,3,20
59,2,18
62,3,20
61,3,20
59,2,19
61,3,20
61,3,21
60,3,19
60,3,19
57,4,18
58,4,18
61,4,19
61,3,18
59,3,16
62,3,17
61,3,17
63,3,17
61,3,15
61,3,14
62,4,15
61,4,16
61,4,15
61,4,14
61,4,15
61,4,16
61,4,15
63,3,13
62,4,14
61,4,15
62,4,15
62,4,14
61,4,14
61,4,13
61,4,14
62,4,14
61,5,12
61,5,13
62,4,12
63,5,12
62,5,11
61,4,8
63,5,10
63,6,9
62,5,8
63,5,7
63,5,7
63,5,7
64,5,7
64,5,7
63,4,6
63,4,6
64,5,6
63,4,6
60,4,8
64,4,9
63,4,8
61,4,11
62,4,13
61,3,12
59,3,13
64,4,16
60,3,16
58,3,15
62,3,17
61,3,18
58,3,17
61,4,17
61,4,18
59,3,17
59,3,16
59,3,17
60,3,15
61,3,15
59,4,16
62,4,15
62,2,11
63,3,10
62,4,12
62,4,12
64,3,11
62,4,11
63,5,11
62,3,11
61,3,10
63,4,12
62,4,11
62,3,11
61,3,12
62,4,13
61,3,12
62,3,11
61,4,12
62,3,12
61,3,11
62,2,12
63,3,13
60,3,13
60,3,12
63,3,12
62,3,12
61,3,12
61,3,12
62,4,12
61,4,11
62,4,11
63,4,11
63,4,12
63,4,12
61,4,11
61,4,11
63,4,12
62,4,11
64,3,13
61,3,13
61,3,13
64,3,14
64,3,13
60,3,14
62,3,16
61,3,17
56,2,17
58,3,18
58,2,16
61,2,16
58,2,18
58,3,17
60,2,15
64,2,13
61,2,13
67,2,12
65,2,12
64,3,12
63,2,12
61,3,12
62,3,15
62,2,16
60,2,17
60,1,18
60,1,18
59,1,18
59,0,20
61,0,20
59,1,20
56,1,21
56,0,21
56,1,21
59,1,21
56,1,21
60,1,20
57,1,19
62,1,18
61,2,17
60,2,16
65,1,11
63,2,11
65,3,13
66,3,12
63,1,7
62,2,6
64,3,9
61,2,7
61,2,8
62,1,6
64,2,6
60,2,6
61,1,6
64,1,4
64,2,4
64,1,4
65,1,3
63,1,4
62,1,8
62,1,8
65,1,8
60,1,11
63,0,13
62,0,14
60,0,14
62,-1,17
60,-1,17
57,0,19
58,0,19
56,0,19
59,0,19
58,0,19
57,0,17
57,-1,16
65,-1,13
62,-1,11
63,-1,12
66,-1,11
62,0,11
63,0,11
61,0,10
62,0,10
62,0,12
62,0,13
61,0,12
62,0,12
62,0,12
61,0,13
61,-1,12
62,-1,12
61,0,13
63,0,13
62,0,12
62,0,12
61,0,13
61,0,13
62,0,12
62,0,13
62,0,13
62,0,13
61,0,13
62,0,13
62,0,13
61,0,13
62,-1,13
62,0,13
61,-1,13
62,0,12
62,0,13
61,0,13
62,0,12
62,-1,11
62,0,11
61,0,12
63,0,10
63,0,11
62,0,10
63,0,11
62,0,10
62,0,10
61,0,10
62,0,11
62,0,12
62,0,12
61,0,13
61,1,13
62,0,11
62,0,11
61,0,12
62,0,12
61,0,11
61,0,11
61,1,11
62,0,10
61,0,9
62,0,8
64,1,7
63,0,5
64,1,5
64,2,6
64,2,6
63,2,6
62,1,3
64,1,4
63,2,3
63,0,2
61,1,2
64,1,3
62,2,2
61,2,2
62,2,1
63,2,1
62,2,0
64,2,0
61,2,-3
65,2,-2
65,1,-4
63,1,-6
63,2,-4
64,2,-4
64,2,-3
65,3,-1
63,2,0
65,1,-1
59,2,2
61,3,5
62,1,1
62,1,1
62,2,4
63,1,1
64,1,-1
62,1,0
64,1,0
64,1,-4
64,2,-4
64,2,-4
63,2,-4
62,2,-5
63,2,-5
64,2,-6
62,2,-5
62,2,-5
63,1,-6
63,1,-6
64,1,-5
63,1,-7
63,0,-7
63,1,-4
64,1,-5
63,1,-4
65,1,-3
64,1,-2
64,0,0
65,0,0
63,-1,0
63,0,2
63,-1,3
61,-2,1
60,-3,0
60,-4,0
61,-4,0
63,-3,1
62,-3,0
63,-3,0
63,-2,0
64,-3,0
63,-3,1
63,-2,1
62,-2,1
62,-2,0
64,-2,0
62,-2,0
61,-2,-2
63,-2,-4
63,-2,-4
62,-2,-6
63,-2,-8
65,-1,-7
63,-1,-9
63,-1,-10
62,-2,-13
62,-1,-12
62,0,-11
62,-1,-13
63,-1,-13
62,-1,-14
61,-1,-15
63,-1,-16
62,-1,-16
61,-1,-15
62,0,-15
61,-1,-15
61,-1,-14
60,-1,-15
61,-1,-15
60,-1,-15
61,0,-15
61,0,-17
62,0,-16
58,-1,-18
61,-1,-18
62,-1,-17
61,-1,-16
59,-1,-17
62,0,-18
61,0,-17
59,1,-16
59,2,-19
63,2,-14
63,2,-16
60,2,-16
65,0,-14
60,0,-14
60,0,-18
58,0,-20
58,0,-19
53,0,-24
55,1,-23
55,1,-28
51,0,-31
51,0,-35
50,3,-39
48,3,-39
46,0,-50
43,-1,-50
39,1,-52
37,2,-52
34,4,-54
35,1,-57
34,2,-57
32,4,-52
28,1,-55
35,5,-46
34,6,-46
47,0,-51
44,1,-49
51,1,-43
55,1,-37
59,0,-33
60,1,-27
57,4,-21
57,4,-14
55,4,-10
62,4,-6
60,0,-6
65,3,-1
62,1,1
61,0,0
65,1,1
65,1,0
60,3,7
64,2,3
66,2,3
62,2,6
63,3,5
63,2,5
62,2,7
64,3,9
62,2,11
61,2,13
64,3,12
63,2,13
59,2,12
59,1,12
60,3,14
58,2,11
59,2,10
64,3,11
62,3,10
60,1,3
64,2,0
64,3,1
63,3,-2
63,2,-6
65,1,-11
64,3,-9
62,3,-12
63,2,-18
62,2,-18
60,3,-18
62,2,-18
61,2,-19
61,2,-19
62,3,-16
63,2,-15
62,1,-15
62,2,-12
62,2,-10
62,2,-8
62,1,-8
63,2,-5
63,2,-1
63,2,1
63,2,3
63,2,3
63,2,6
62,2,7
63,1,9
62,0,10
62,1,11
62,1,12
62,1,13
61,0,14
60,0,14
60,0,15
60,0,16
60,0,17
60,0,18
61,0,18
61,0,19
59,0,19
60,0,19
60,0,20
58,0,20
59,0,20
60,0,20
58,0,20
59,0,19
60,0,20
60,0,20
60,0,20
59,0,17
59,0,17
61,0,17
61,0,14
60,0,14
63,0,13
62,0,13
63,1,11
63,1,11
63,0,10
63,1,10
63,1,10
62,0,7
62,0,7
63,1,9
62,0,10
62,0,9
62,0,10
62,0,10
61,0,9
62,0,9
61,1,10
62,1,9
62,1,8
63,0,7
63,1,6
63,1,5
62,1,3
63,1,1
62,0,0
62,0,-2
63,1,-3
63,1,-3
63,1,-5
62,1,-7
64,1,-8
63,1,-8
63,1,-10
62,1,-12
63,0,-12
63,1,-11
59,0,-10
64,1,-14
63,0,-16
62,0,-15
61,1,-14
59,1,-15
63,1,-14
63,1,-12
64,1,-14
64,1,-14
62,1,-12
65,2,-11
64,1,-10
63,0,-7
63,0,-6
63,-1,-1
60,0,3
59,-1,3
64,0,4
63,1,8
62,0,10
63,1,10
61,0,11
61,1,13
60,1,14
61,1,15
60,0,15
60,0,16
61,0,16
61,1,17
58,0,16
59,0,15
63,0,15
63,0,15
60,0,16
61,0,15
65,1,17
61,1,18
61,0,18
61,0,18
60,0,20
60,0,21
59,0,21
59,0,23
57,0,25
58,0,25
57,-1,26
56,-1,27
56,-1,29
57,-1,29
55,-1,29
53,-2,29
53,-1,30
53,-1,30
54,-2,30
56,-1,31
55,-2,32
56,-1,32
55,-2,31
55,-2,31
54,-3,32
53,-2,32
52,-3,33
53,-3,34
51,-3,35
50,-3,34
49,-3,34
51,-2,35
52,-2,37
53,-2,36
51,-2,34
53,-2,34
53,-2,35
53,-2,35
52,-3,34
53,-2,34
53,-2,35
52,-3,33
52,-2,34
53,-2,35
53,-2,35
52,-2,34
52,-2,34
52,-2,35
53,-2,35
53,-2,34
53,-2,33
53,-2,33
53,-2,33
53,-2,33
51,-3,30
53,-2,30
54,-2,30
55,-1,28
55,-1,26
61,-1,24
60,-1,25
61,0,23
60,-1,19
59,-1,16
61,-1,14
61,0,14
62,0,14
62,0,15
62,0,12
63,1,12
63,1,13
64,1,12
63,1,9
62,1,8
63,1,8
61,1,10
61,0,7
63,0,7
63,1,7
62,1,5
64,1,2
64,2,3
62,1,1
63,1,0
64,1,1
65,2,3
66,1,3
65,1,3
65,1,4
64,2,5
63,1,6
62,1,6
61,1,7
61,1,8
60,1,9
61,0,10
62,1,11
62,1,13
63,1,13
62,1,12
62,1,11
62,1,12
62,0,12
62,1,12
62,1,13
62,1,13
62,0,13
61,1,14
61,0,14
60,1,15
61,1,15
62,1,16
62,1,15
61,1,14
61,1,14
61,1,16
61,1,15
61,0,15
61,0,15
61,0,15
61,0,15
61,0,15
61,0,16
61,1,16
61,1,16
61,1,15
61,1,15
61,1,15
62,1,16
62,1,16
61,0,15
60,0,14
61,0,15
61,0,16
61,0,15
61,0,15
62,0,15
61,0,15
60,1,15
61,1,16
61,1,16
61,0,15
61,1,16
61,0,16
62,1,17
61,1,16
60,0,16
61,0,16
61,0,18
60,0,17
60,0,17
60,0,17
61,1,18
60,0,17
59,0,17
61,0,17
61,0,18
59,-1,17
61,0,17
61,0,17
60,0,18
61,0,17
60,0,17
60,0,17
60,0,18
61,0,18
61,0,18
60,0,17
60,0,17
60,0,17
60,-1,17
61,0,17
61,0,17
61,0,16
60,0,15
61,0,16
61,1,16
60,0,15
61,0,15
62,1,15
62,1,15
61,0,12
61,0,12
63,1,12
62,0,10
62,0,9
63,0,8
63,0,8
63,0,7
62,0,5
64,0,5
63,0,5
62,0,4
63,0,3
63,0,3
63,0,5
64,1,5
64,0,4
64,0,2
64,0,2
65,0,0
63,-1,-2
62,-1,-5
64,-1,-3
62,-1,-4
57,-3,-11
62,-3,-10
64,-1,-6
60,-1,-8
56,-2,-19
65,1,-16
64,2,-12
50,1,-21
56,1,-26
65,4,-21
66,5,-16
56,4,-22
65,5,-22
69,5,-18
65,6,-13
67,6,-12
66,6,-8
65,6,-6
61,5,-3
62,6,-1
62,5,0
63,4,1
59,4,1
63,4,2
62,4,4
60,4,6
62,3,6
61,3,7
62,2,7
60,2,6
63,3,6
64,3,6
60,4,7
63,4,2
66,4,2
63,6,5
62,7,5
66,6,-1
69,6,0
64,6,1
64,5,-2
67,5,-1
64,5,2
61,3,3
62,3,3
62,4,9
62,4,10
61,3,11
61,2,11
61,3,14
60,2,16
60,2,17
60,2,19
58,1,18
59,1,19
60,2,20
59,1,20
60,1,21
60,2,23
60,2,23
59,1,23
57,1,25
57,1,26
56,1,27
55,1,27
55,0,26
56,1,27
55,1,27
56,1,28
56,1,29
57,1,28
57,1,28
56,1,27
56,1,28
56,1,27
56,1,28
56,1,29
56,1,30
56,1,29
54,1,29
56,2,29
56,2,29
56,1,28
56,1,28
57,1,28
56,1,28
57,1,27
56,1,27
56,1,28
56,1,27
55,1,26
57,1,26
57,1,26
56,1,26
57,1,24
59,2,24
59,2,24
58,2,24
58,1,24
57,1,24
60,1,23
59,1,23
58,2,24
59,3,22
59,3,22
59,2,21
58,2,18
60,1,17
61,1,18
60,1,19
61,1,18
61,1,16
62,1,14
63,2,14
62,1,13
61,1,12
64,2,12
63,2,14
63,1,13
63,1,14
62,2,16
62,1,16
62,1,18
62,2,20
59,1,21
59,0,21
56,0,23
56,0,27
56,0,29
55,0,30
55,0,30
56,0,31
56,0,31
54,0,31
53,0,31
53,0,31
51,0,32
50,0,31
52,1,32
53,1,33
54,0,31
55,0,30
56,1,28
56,0,26
57,0,27
59,0,27
58,0,26
57,-1,23
57,0,21
59,1,21
60,1,21
59,1,21
62,2,21
61,2,20
61,3,20
61,2,19
61,2,19
61,2,20
60,2,20
59,3,22
58,2,21
59,2,23
57,2,25
57,3,26
57,3,26
57,3,27
56,3,28
56,4,29
55,3,30
55,2,29
55,3,30
55,3,29
55,2,29
55,2,28
56,3,29
55,3,28
58,3,28
58,3,28
56,2,26
57,2,26
58,2,26
56,2,26
56,1,25
58,2,24
57,2,25
56,2,22
57,2,21
59,2,22
61,3,20
60,2,19
62,2,15
62,3,14
61,2,11
61,2,9
64,3,7
61,2,4
59,1,1
64,2,-1
63,2,-1
65,2,-3
62,2,-5
64,3,-7
64,3,-8
64,3,-9
57,2,-16
61,3,-15
65,3,-14
62,3,-15
60,2,-20
63,2,-19
64,3,-18
56,1,-24
57,1,-23
57,2,-25
56,1,-25
52,1,-29
53,1,-31
51,1,-32
53,1,-33
50,1,-37
50,1,-40
52,1,-40
50,2,-40
51,3,-40
52,3,-39
53,3,-38
52,4,-37
54,3,-35
55,3,-31
55,3,-31
55,2,-31
57,3,-28
57,3,-23
57,3,-21
56,3,-23
56,3,-20
56,3,-18
61,2,-18
61,2,-17
61,1,-18
66,0,-16
67,1,-15
64,2,-12
65,1,-12
60,3,-10
63,3,-8
63,3,-2
60,3,0
62,2,0
61,1,4
56,0,5
61,0,7
62,0,10
62,1,15
62,1,15
61,0,12
63,1,12
62,1,11
61,1,9
61,1,9
63,1,10
62,1,10
62,0,9
63,1,9
63,1,10
61,1,10
62,1,10
63,1,10
62,1,11
61,1,10
63,1,10
63,1,10
62,1,10
62,1,10
61,1,10
63,1,10
62,1,10
61,0,10
61,0,9
62,0,10
62,1,10
61,1,10
63,1,9
62,1,10
63,1,10
62,1,10
62,0,10
62,0,9
63,1,10
62,0,10
62,1,10
62,1,10
62,1,10
62,1,10
62,1,10
63,1,10
62,1,10
62,1,10
63,1,10
63,1,10
62,1,10
61,1,10
62,1,10
61,0,10
62,0,10
63,1,10
63,0,10
62,0,9
63,0,10
62,1,10
62,0,9
62,1,9
62,1,10
62,0,10
63,1,10
62,1,10
62,0,10
62,1,10
63,1,10
62,1,10
63,1,10
62,1,10
62,1,10
62,1,10
62,1,10
62,1,10
62,1,9
63,1,10
63,1,10
62,0,10
62,0,10
62,1,10
62,0,10
63,1,10
62,1,10
62,1,10
62,1,10
62,1,10
62,1,10
62,1,10
63,1,10
62,1,10
61,0,10
63,1,10
62,1,10
62,0,10
61,0,10
63,0,10
62,1,10
62,0,10
63,1,10
62,1,10
62,1,10
62,1,10
62,1,10
62,1,10
62,1,10
63,1,10
62,1,10
61,1,10
62,1,10
63,1,10
62,1,11
61,1,10
63,1,11
62,1,11
62,1,10
62,1,10
63,1,10
62,1,11
62,1,10
62,0,10
63,1,10
62,1,10
62,0,10
63,0,10
62,0,10
62,0,10
64,0,11
63,0,12
62,0,11
62,0,11
60,0,13
61,0,14
62,0,14
60,0,14
60,0,13
62,0,14
62,0,14
61,0,12
62,0,12
62,0,12
62,0,12
63,1,12
62,0,12
61,0,12
62,0,12
62,0,11
63,0,12
62,0,11
62,0,11
62,0,12
62,0,12
61,0,11
62,1,11
62,1,12
61,1,12
62,1,11
62,1,11
63,0,11
62,0,11
63,1,11
63,1,11
62,0,10
63,1,10
62,0,11
63,1,11
62,0,11
62,0,11
62,1,11
61,0,11
61,0,11
63,1,11
62,1,11
62,1,11
62,1,11
61,1,11
61,0,11
63,0,12
62,0,12
62,0,11
62,0,11
62,0,11
62,0,11
62,1,12
62,0,11
61,0,11
62,1,12
62,0,12
61,0,11
62,0,11
62,0,11
62,0,11
62,0,11
62,0,11
62,0,11
62,0,11
62,0,11
62,0,10
63,0,10
62,0,11
62,0,11
62,0,11
62,0,11
62,0,11
62,0,11
62,0,11
62,0,11
61,0,11
61,0,10
63,0,11
63,0,11
62,0,10
62,0,11
62,0,11
62,0,10
62,0,11
61,0,10
62,0,10
61,0,10
62,0,9
62,0,8
62,0,8
63,0,7
63,0,8
63,0,8
64,0,8
64,0,8
63,0,8
62,0,8
62,0,8
62,0,9
62,0,9
62,0,9
62,0,9
63,1,10
62,0,11
62,0,11
62,0,11
62,0,12
61,0,13
62,1,12
62,0,12
62,0,13
62,0,13
61,0,12
61,0,11
62,0,12
61,0,12
62,0,12
63,1,13
62,1,13
62,0,13
61,0,13
61,0,13
62,0,14
61,0,14
61,0,13
61,0,14
62,0,15
61,0,15
61,0,15
61,0,14
62,0,14
62,0,15
61,0,14
62,0,14
62,1,14
61,0,14
62,0,14
61,0,13
62,0,13
62,0,13
61,0,13
62,0,13
61,0,13
61,0,13
62,0,13
62,0,13
62,0,14
63,0,14
62,0,14
62,0,15
61,0,15
61,0,14
59,-1,15
59,0,17
60,0,19
60,-1,19
61,-1,19
60,-1,20
60,-1,20
59,-1,20
60,-1,20
59,-1,21
60,-1,22
59,-1,22
57,-1,23
56,-1,23
55,-2,22
56,-2,22
57,-1,22
59,-1,21
61,-1,22
60,0,20
59,-1,18
62,-1,16
63,-1,16
63,0,16
62,-1,15
61,-1,14
60,-1,14
61,-1,15
60,-1,15
61,-1,16
61,-1,16
60,-1,14
60,-1,14
62,0,14
62,-1,14
62,-1,13
62,-1,12
62,0,12
63,-1,12
62,-1,12
62,-1,11
62,-1,11
62,-1,14
62,-1,13
62,-1,15
61,-1,15
61,-1,15
60,-1,16
59,-1,16
59,-1,16
60,-1,17
61,-1,18
61,-1,16
62,-1,16
62,-1,15
61,-1,15
61,-1,15
61,-1,15
62,-1,15
61,-1,15
61,-1,14
61,-1,14
61,-1,15
61,-1,14
62,-1,14
61,-1,13
62,-1,12
62,-1,12
62,-1,13
62,-1,12
62,-1,11
62,-1,12
62,-1,12
61,-1,13
63,-1,14
61,-1,15
62,-1,15
61,-1,15
59,-1,18
58,-2,18
60,-1,20
60,-1,20
59,-1,21
58,-1,21
58,-1,21
58,0,22
59,-1,22
60,-1,22
60,-1,22
58,-1,21
59,-1,21
60,-1,22
59,-1,23
59,-1,22
58,-1,22
59,-1,22
58,-1,23
58,0,24
58,-1,23
58,-1,23
59,0,24
58,-1,25
57,-1,25
57,-1,25
58,0,26
56,0,26
57,0,25
57,0,25
58,-1,25
58,-1,25
58,-1,25
58,-1,25
57,-1,25
58,-1,25
58,-1,25
58,0,25
57,-1,24
57,0,25
57,-1,24
58,-1,25
58,-1,24
57,-1,24
57,-1,24
58,0,24
57,0,24
59,-1,24
58,-1,24
58,-1,24
58,-1,22
59,0,22
59,0,23
58,0,23
59,0,23
58,0,23
59,0,23
59,0,23
59,0,22
58,0,22
58,0,22
58,-1,21
59,-1,21
60,0,21
60,0,22
60,0,21
60,0,20
61,0,19
60,-1,19
61,-1,19
60,-1,19
60,-1,19
60,-1,19
60,-1,19
59,-1,20
60,0,20
60,0,20
59,0,19
60,-1,19
60,0,20
60,0,20
60,-1,19
60,-1,20
59,-1,19
60,-1,20
60,-1,20
60,-1,20
60,0,20
59,0,20
60,-1,20
60,-1,20
60,-1,20
60,-1,20
59,-1,20
59,-1,20
60,-1,20
60,-1,20
60,-1,20
59,-1,20
59,0,20
59,-1,20
60,0,20
60,-1,20
60,-1,20
60,-1,20
60,-1,20
60,-1,21
59,-1,21
59,-1,21
59,-1,21
59,-1,21
59,-1,21
59,-1,22
60,-1,22
59,-1,22
59,-1,21
58,-1,21
59,-1,22
59,-1,22
59,-1,22
59,-1,21
60,-1,22
58,-1,22
59,-1,22
59,-1,22
59,-1,22
59,-1,23
59,-1,23
58,-1,23
58,-1,24
58,-1,24
58,-1,24
57,-1,24
58,-1,24
58,-1,23
57,-1,23
59,0,22
59,-1,22
58,-1,21
58,-1,21
59,-1,19
60,-1,19
61,-1,18
62,-1,15
62,0,15
62,0,15
62,1,14
61,0,12
61,0,11
63,0,10
60,0,9
62,0,8
65,1,7
64,1,7
60,0,3
64,0,0
66,1,1
62,1,0
60,0,-3
66,1,-5
66,1,-4
62,1,-5
62,1,-9
64,1,-9
63,1,-9
61,1,-9
61,1,-12
62,1,-13
62,1,-13
61,1,-13
58,1,-15
61,1,-18
64,2,-17
62,2,-16
60,2,-17
57,2,-22
61,2,-21
61,2,-21
55,2,-24
56,2,-25
59,3,-25
59,3,-25
57,3,-27
58,3,-29
59,4,-27
59,4,-24
62,3,-24
56,4,-24
57,4,-25
56,4,-24
60,3,-23
60,3,-22
57,3,-23
59,3,-23
58,5,-22
60,4,-23
59,4,-23
58,4,-25
57,4,-25
60,4,-22
59,4,-22
58,4,-23
58,3,-23
58,4,-22
60,4,-20
60,4,-20
59,3,-22
60,3,-21
60,3,-20
60,3,-20
58,3,-21
59,3,-21
60,3,-20
61,3,-19
60,3,-20
61,3,-19
62,4,-18
61,4,-18
61,4,-16
62,3,-16
61,3,-14
61,3,-14
61,3,-14
62,3,-13
62,3,-12
61,3,-13
62,3,-13
60,3,-14
61,3,-14
62,3,-15
59,3,-17
59,3,-17
61,3,-18
61,4,-19
61,3,-19
60,3,-20
59,4,-22
60,4,-23
59,4,-22
58,4,-24
60,4,-23
59,4,-22
60,4,-22
58,4,-24
60,4,-23
59,4,-22
59,4,-22
57,4,-23
61,4,-21
59,4,-20
60,4,-21
60,4,-21
61,4,-19
60,4,-18
60,4,-18
59,3,-19
59,3,-18
60,3,-18
59,3,-18
61,4,-18
61,4,-19
61,4,-20
61,4,-23
59,2,-22
59,2,-23
57,1,-25
56,1,-25
56,2,-25
58,3,-25
56,3,-29
53,4,-30
54,3,-31
53,2,-34
51,2,-35
50,2,-36
51,2,-37
49,2,-40
47,2,-40
48,1,-41
45,1,-41
46,2,-42
47,2,-42
47,2,-42
47,3,-44
46,4,-45
45,5,-45
46,5,-44
47,5,-44
46,5,-44
47,5,-43
47,6,-42
48,5,-41
48,5,-41
48,5,-40
49,5,-39
48,5,-39
49,5,-40
49,5,-40
50,5,-39
50,5,-38
49,5,-38
51,5,-38
50,5,-38
51,5,-37
51,4,-38
50,4,-38
51,5,-38
51,5,-37
51,4,-37
50,5,-37
51,4,-36
51,4,-37
50,4,-38
50,4,-39
54,5,-35
54,5,-34
53,4,-35
53,4,-36
54,4,-33
55,4,-31
54,4,-31
54,3,-31
54,3,-31
55,3,-29
55,2,-29
53,2,-30
55,2,-29
55,2,-29
55,3,-31
54,3,-31
55,3,-31
55,4,-31
55,3,-32
54,3,-33
54,3,-33
55,3,-32
54,3,-33
54,3,-33
54,4,-33
53,4,-33
53,4,-33
53,4,-33
53,4,-34
53,4,-34
53,3,-35
56,4,-32
56,4,-31
56,3,-31
55,3,-31
54,3,-30
54,3,-29
54,3,-28
55,3,-29
55,3,-29
55,3,-29
56,3,-30
56,3,-30
55,3,-30
56,3,-31
55,3,-31
54,3,-31
54,3,-32
55,3,-32
54,3,-32
54,3,-31
54,4,-32
55,4,-32
54,4,-33
53,3,-35
53,3,-35
53,3,-35
52,3,-36
52,3,-36
51,3,-36
51,3,-36
50,3,-37
51,3,-37
51,3,-37
50,3,-37
50,3,-38
50,3,-38
51,3,-37
51,3,-38
50,3,-38
50,3,-38
50,4,-38
50,4,-39
49,4,-39
50,4,-38
50,4,-39
49,4,-39
50,4,-39
50,4,-39
50,4,-39
49,4,-39
49,3,-39
50,4,-39
50,4,-38
49,4,-39
50,4,-38
50,4,-38
50,4,-38
50,4,-38
49,4,-38
49,4,-38
50,4,-39
49,3,-39
48,4,-39
49,3,-40
48,4,-40
49,3,-40
49,3,-41
49,3,-40
49,3,-40
49,3,-40
51,3,-38
51,3,-37
50,3,-37
51,3,-37
52,3,-35
50,3,-35
51,3,-36
53,3,-34
52,3,-34
53,3,-34
53,3,-34
54,3,-33
54,3,-33
54,3,-33
54,3,-32
55,3,-31
55,3,-31
55,3,-31
55,3,-30
56,3,-29
56,3,-30
55,3,-29
55,3,-29
55,3,-29
56,3,-29
57,3,-29
56,3,-29
58,3,-30
56,3,-29
56,3,-29
54,3,-29
54,3,-31
54,2,-31
53,3,-31
54,2,-32
53,2,-34
54,2,-34
54,3,-34
53,3,-35
52,3,-36
53,3,-35
54,3,-35
52,2,-35
53,3,-35
54,3,-34
53,3,-33
53,2,-33
55,3,-33
54,3,-32
55,2,-31
55,2,-31
55,2,-31
55,2,-30
55,2,-29
56,2,-28
56,2,-28
56,2,-28
56,2,-28
56,2,-27
56,2,-28
56,2,-28
57,3,-28
56,2,-28
56,2,-28
57,2,-28
57,2,-28
56,2,-28
57,2,-28
57,2,-27
57,2,-27
57,2,-27
57,2,-27
57,2,-27
56,2,-27
56,2,-27
57,2,-27
57,2,-26
58,2,-26
57,2,-27
58,2,-27
57,2,-26
57,2,-26
57,1,-26
57,1,-26
56,1,-26
57,1,-25
56,1,-26
58,1,-26
58,1,-26
57,2,-26
57,2,-26
57,2,-27
55,2,-27
56,1,-29
55,2,-29
55,2,-30
54,2,-32
54,2,-32
54,1,-33
53,2,-34
54,2,-35
53,2,-34
52,2,-34
53,2,-35
53,2,-35
52,2,-34
53,2,-36
54,2,-35
52,2,-34
51,2,-35
52,2,-36
52,2,-36
52,2,-36
52,2,-36
52,3,-36
51,2,-37
52,3,-37
52,3,-36
51,3,-37
51,3,-37
51,3,-37
50,3,-36
52,3,-37
52,2,-37
52,3,-36
51,3,-38
51,3,-37
51,3,-37
51,3,-37
50,3,-37
50,3,-37
50,3,-37
51,3,-37
50,3,-37
51,3,-38
50,3,-38
50,3,-38
50,3,-38
50,3,-38
50,3,-39
49,3,-39
49,3,-39
49,3,-39
48,3,-39
50,3,-39
49,3,-39
50,3,-39
49,3,-39
50,3,-39
50,3,-39
48,3,-39
49,3,-39
51,3,-38
50,3,-38
49,3,-38
51,3,-38
50,3,-38
51,2,-37
52,2,-38
52,2,-36
54,2,-35
55,2,-35
53,2,-33
51,2,-35
54,2,-33
54,2,-30
52,1,-32
53,1,-33
55,1,-32
55,1,-31
54,1,-31
54,1,-32
53,2,-31
55,2,-32
55,1,-33
48,2,-33
53,2,-36
58,2,-35
55,2,-32
52,2,-35
56,3,-35
54,2,-33
53,2,-33
52,2,-35
54,2,-34
53,2,-33
53,3,-33
51,3,-34
54,3,-34
54,3,-33
52,3,-33
53,3,-34
53,3,-35
53,3,-34
54,3,-35
53,3,-34
52,3,-34
54,3,-35
54,4,-34
54,3,-34
54,3,-35
55,4,-34
55,4,-32
55,3,-33
54,3,-34
54,3,-32
53,3,-32
53,3,-33
53,3,-33
54,3,-32
55,3,-31
54,2,-32
54,2,-31
55,3,-31
55,3,-31
54,3,-31
55,3,-31
55,3,-31
55,3,-32
54,3,-32
52,3,-33
54,2,-35
53,3,-34
50,3,-36
53,3,-37
51,3,-37
51,3,-39
51,3,-39
51,3,-38
49,3,-38
50,3,-39
52,3,-38
53,3,-38
53,3,-37
50,3,-36
52,3,-34
51,3,-33
53,2,-35
53,3,-35
54,3,-33
53,3,-34
54,3,-34
54,3,-33
54,3,-33
53,3,-32
54,2,-32
54,2,-32
55,3,-31
54,3,-32
54,2,-32
54,2,-32
55,3,-31
54,3,-32
54,3,-32
54,3,-32
54,2,-32
55,2,-32
55,3,-32
55,2,-32
54,2,-32
54,3,-32
54,3,-32
54,2,-32
54,2,-32
55,2,-32
54,2,-32
54,2,-32
54,2,-32
54,2,-32
54,2,-32
54,3,-32
54,3,-32
55,2,-32
54,2,-32
54,2,-33
54,2,-33
54,2,-33
54,2,-32
54,2,-33
54,2,-33
53,2,-33
54,2,-33
55,2,-32
55,2,-32
54,2,-32
55,2,-32
55,2,-31
53,2,-31
54,2,-31
55,3,-30
54,2,-31
55,2,-31
56,2,-31
56,2,-31
56,2,-30
56,2,-30
57,1,-29
58,1,-28
57,2,-26
57,1,-27
58,2,-25
58,2,-23
57,1,-23
56,1,-24
57,1,-24
57,1,-23
58,1,-24
58,2,-24
59,2,-24
57,2,-25
57,1,-28
57,1,-29
56,2,-29
55,2,-29
57,2,-30
55,2,-31
56,2,-31
55,3,-30
56,2,-30
54,2,-31
55,2,-30
55,2,-30
54,2,-31
54,2,-31
55,2,-30
55,2,-30
54,2,-32
54,2,-32
54,2,-32
54,2,-33
54,2,-33
54,3,-32
53,3,-32
53,2,-36
53,2,-36
52,2,-35
52,2,-35
52,2,-35
51,2,-35
52,2,-35
52,2,-36
51,2,-37
50,3,-38
49,3,-39
50,3,-39
50,3,-40
50,3,-39
50,2,-39
49,3,-38
49,3,-37
53,3,-37
53,2,-37
50,3,-36
51,3,-37
53,3,-36
52,3,-34
50,3,-35
51,2,-36
52,3,-36
53,2,-35
53,2,-36
52,3,-36
53,3,-35
52,3,-35
52,3,-35
52,3,-34
53,3,-34
53,3,-34
54,2,-33
54,3,-33
54,2,-33
56,2,-31
57,2,-30
56,2,-29
56,2,-30
57,2,-27
58,2,-25
58,2,-24
58,2,-23
57,1,-23
58,1,-21
58,2,-21
56,2,-20
58,1,-23
57,2,-24
56,1,-28
57,2,-29
56,2,-31
56,2,-33
52,3,-35
53,3,-37
52,2,-37
51,2,-38
49,2,-38
51,3,-39
50,2,-39
49,2,-38
48,3,-40
48,3,-40
48,3,-40
48,3,-41
49,3,-41
49,3,-38
47,3,-38
54,3,-39
53,3,-38
51,3,-38
49,3,-38
49,3,-38
50,4,-38
49,4,-38
50,3,-37
50,3,-38
50,3,-39
50,3,-39
51,3,-38
51,3,-38
50,2,-38
51,3,-37
51,3,-37
50,3,-37
51,3,-38
50,3,-37
49,2,-39
49,2,-39
49,2,-39
48,1,-39
49,1,-40
49,1,-39
49,1,-39
49,1,-40
50,1,-39
50,2,-38
50,2,-38
49,1,-38
50,1,-38
51,2,-37
50,2,-38
50,1,-38
51,2,-38
51,1,-38
51,2,-37
51,2,-37
52,2,-36
52,1,-35
52,1,-35
51,1,-35
52,1,-35
52,1,-35
53,1,-35
52,1,-36
52,1,-36
52,1,-36
51,1,-36
51,1,-37
50,1,-37
50,1,-37
51,1,-37
50,0,-38
50,0,-39
50,0,-40
50,0,-39
48,0,-40
48,0,-40
48,0,-40
48,0,-40
50,0,-40
51,0,-38
52,0,-37
53,0,-35
55,0,-33
55,0,-32
54,0,-31
54,1,-30
57,1,-28
56,0,-27
56,-1,-28
56,-1,-27
56,-1,-27
55,-1,-27
54,-1,-28
56,-1,-29
56,0,-28
54,0,-29
56,0,-31
56,0,-31
52,0,-32
52,0,-34
57,0,-34
56,0,-32
55,0,-35
54,1,-34
53,1,-33
52,1,-34
53,1,-33
53,1,-33
54,0,-34
53,0,-34
53,0,-34
53,1,-33
54,0,-33
53,0,-34
52,0,-34
52,1,-34
53,0,-34
53,0,-35
52,0,-34
53,0,-35
52,0,-35
52,0,-35
52,0,-35
52,0,-35
51,1,-35
50,0,-36
52,0,-37
52,1,-36
51,1,-37
49,1,-39
50,1,-39
49,1,-39
49,1,-39
47,1,-41
48,1,-41
47,1,-42
47,1,-43
46,1,-43
46,1,-44
46,1,-43
44,1,-44
44,1,-43
43,1,-44
42,1,-46
42,1,-46
43,1,-46
42,1,-47
40,1,-48
41,1,-49
39,1,-49
40,1,-50
40,1,-50
45,2,-48
49,2,-48
50,0,-51
53,0,-50
67,-6,-49
61,-12,-40
59,-13,-30
55,-12,-20
48,-8,-20
43,-9,-16
45,-5,-14
37,5,-16
43,13,-24
48,17,-25
65,37,-18
66,23,-23
64,12,-24
58,9,-24
67,2,-31
76,-5,-32
72,-10,-30
64,-15,-27
63,-14,-27
58,-10,-28
57,-6,-24
54,-4,-29
52,-2,-35
54,-1,-34
53,1,-28
50,2,-23
52,-1,-25
58,-6,-28
55,-6,-31
60,-6,-28
62,-6,-24
51,-8,-28
59,-7,-27
58,-10,-28
65,-11,-29
65,-12,-29
57,-11,-28
59,-12,-30
50,-12,-33
53,-7,-34
55,-5,-33
44,3,-24
39,5,-25
58,10,-15
57,11,-17
56,11,-18
63,9,-18
71,9,-14
60,8,-16
48,7,-13
78,4,-20
74,1,-22
63,1,-15
57,0,-17
65,0,-15
62,1,-14
63,1,-14
65,1,-15
65,1,-13
66,0,-15
63,0,-17
60,2,-18
59,0,-14
61,-1,-11
57,-1,-8
58,-1,-5
62,0,0
65,1,0
66,2,-1
64,0,-7
65,1,-11
63,-1,-13
60,0,-14
59,-1,-19
62,-1,-21
61,0,-22
57,0,-24
60,1,-24
61,1,-25
58,0,-25
56,-2,-29
56,-2,-28
57,-2,-27
57,-1,-27
56,0,-26
55,0,-27
56,0,-28
55,1,-31
57,0,-32
60,1,-32
57,0,-33
54,1,-32
59,0,-29
59,1,-28
53,0,-27
58,0,-26
59,-1,-27
55,0,-25
52,-2,-25
61,-1,-25
63,0,-23
56,0,-21
59,-1,-23
61,-1,-22
58,-3,-23
59,-3,-22
64,-3,-21
63,-3,-20
59,-5,-20
62,-6,-16
59,-6,-14
55,-7,-14
58,-7,-15
57,-7,-17
55,-7,-19
54,-8,-24
64,-8,-26
65,-7,-24
58,-7,-26
54,-8,-29
53,-7,-32
54,-6,-29
55,-5,-27
53,-5,-31
55,-5,-31
63,-5,-28
63,-5,-25
57,-6,-25
58,-6,-24
54,-5,-23
53,-6,-26
53,-7,-28
53,-8,-31
53,-7,-31
53,-6,-33
54,-5,-32
55,-5,-33
53,-4,-32
51,-5,-34
53,-5,-34
55,-5,-34
54,-5,-31
52,-6,-31
53,-6,-31
52,-6,-32
53,-6,-31
55,-6,-31
56,-6,-32
54,-6,-33
54,-4,-32
53,-4,-32
52,-5,-34
52,-5,-35
53,-5,-36
54,-5,-36
54,-5,-34
53,-4,-34
53,-4,-33
52,-4,-33
53,-4,-33
53,-5,-33
54,-5,-32
55,-4,-31
54,-4,-31
54,-4,-32
53,-5,-31
54,-4,-31
57,-4,-30
56,-4,-30
53,-4,-29
56,-4,-30
57,-4,-30
55,-4,-29
54,-4,-30
55,-5,-31
54,-4,-31
54,-4,-31
53,-4,-33
53,-4,-33
53,-4,-34
51,-5,-35
52,-4,-35
53,-4,-35
53,-4,-35
52,-4,-36
53,-4,-36
50,-5,-36
50,-5,-36
50,-4,-36
49,-4,-38
49,-4,-38
50,-4,-40
50,-4,-39
54,-4,-38
52,-4,-37
49,-4,-37
54,-4,-36
53,-4,-35
50,-5,-34
51,-5,-34
54,-5,-33
53,-4,-32
53,-5,-33
53,-4,-32
53,-5,-32
53,-5,-33
54,-5,-33
53,-5,-33
53,-4,-33
52,-5,-34
53,-4,-34
53,-4,-35
54,-4,-34
54,-5,-34
52,-4,-33
53,-4,-32
55,-4,-31
55,-4,-31
53,-4,-31
54,-4,-31
56,-4,-30
55,-4,-31
54,-4,-31
54,-4,-31
55,-4,-31
55,-4,-31
54,-4,-31
54,-4,-31
55,-4,-31
55,-4,-31
54,-4,-31
55,-4,-31
54,-4,-31
54,-4,-31
55,-4,-31
55,-4,-31
55,-4,-30
55,-4,-31
55,-4,-31
55,-4,-31
54,-5,-30
54,-5,-30
55,-5,-31
54,-5,-30
54,-5,-31
55,-5,-31
55,-5,-31
54,-5,-31
54,-5,-31
54,-5,-31
54,-6,-31
54,-6,-31
52,-5,-31
51,-5,-31
55,-5,-31
56,-5,-31
56,-5,-31
55,-4,-30
55,-4,-30
56,-4,-30
55,-4,-30
55,-5,-30
56,-4,-30
55,-4,-30
54,-4,-30
54,-4,-30
54,-4,-30
54,-4,-30
54,-4,-30
53,-4,-30
53,-4,-31
55,-3,-31
56,-3,-31
56,-3,-30
55,-2,-29
56,-2,-29
56,-2,-29
56,-2,-30
56,-2,-29
56,-2,-29
56,-2,-29
56,-2,-29
56,-2,-30
56,-2,-29
55,-2,-29
55,-2,-30
55,-2,-29
58,-3,-30
59,-3,-29
57,-3,-28
57,-2,-28
54,-2,-29
54,-3,-29
53,-3,-30
54,-4,-30
56,-4,-31
56,-4,-30
55,-3,-29
55,-3,-29
56,-2,-30
56,-3,-30
56,-3,-29
56,-3,-28
57,-3,-28
57,-2,-27
57,-2,-27
57,-2,-28
56,-2,-28
56,-2,-29
56,-2,-29
55,-2,-30
54,-3,-30
54,-3,-30
55,-3,-31
55,-3,-31
55,-3,-31
54,-3,-31
55,-3,-30
56,-3,-30
55,-3,-30
55,-2,-30
55,-3,-29
56,-3,-30
55,-2,-30
55,-2,-29
56,-2,-29
56,-2,-29
55,-2,-29
55,-2,-29
56,-2,-29
57,-2,-29
55,-2,-29
56,-2,-29
56,-2,-29
56,-2,-29
55,-2,-29
55,-2,-29
56,-2,-29
56,-2,-29
55,-2,-29
55,-2,-29
56,-2,-29
56,-2,-29
56,-2,-29
55,-2,-29
56,-1,-28
56,-1,-28
56,-1,-28
56,-1,-28
56,-1,-28
56,-1,-28
56,-1,-29
56,-1,-29
56,-1,-30
56,-2,-30
55,-2,-30
55,-2,-29
56,-2,-29
55,-2,-29
55,-1,-29
56,-1,-29
57,-1,-28
56,-1,-29
56,-1,-28
56,-1,-29
56,-1,-28
56,-1,-28
57,-1,-28
57,-1,-28
56,-1,-28
56,-1,-28
56,-1,-29
56,-1,-30
56,-2,-30
55,-2,-31
55,-2,-31
54,-2,-32
54,-2,-31
54,-2,-31
55,-1,-30
55,-1,-30
56,-1,-29
56,-1,-29
56,-1,-28
56,-1,-28
57,-1,-28
57,-1,-27
57,-1,-28
57,-1,-27
57,-1,-27
57,-1,-27
57,-1,-27
56,-1,-27
56,-2,-27
57,-2,-27
56,-2,-27
56,-2,-28
56,-2,-28
56,-2,-28
56,-2,-28
56,-2,-28
56,-2,-28
56,-2,-27
56,-2,-27
56,-2,-27
57,-2,-27
56,-2,-27
57,-2,-28
56,-2,-28
56,-2,-28
56,-2,-28
56,-2,-29
56,-2,-28
57,-2,-28
56,-2,-28
56,-2,-28
56,-2,-28
56,-2,-28
56,-2,-28
56,-2,-28
56,-2,-28
56,-2,-28
56,-2,-28
56,-2,-28
56,-2,-28
56,-2,-28
57,-2,-28
56,-2,-27
57,-2,-27
57,-2,-27
57,-2,-27
57,-2,-27
56,-2,-27
57,-2,-27
57,-2,-27
56,-2,-27
57,-2,-27
56,-2,-27
56,-2,-27
56,-2,-28
56,-2,-27
57,-2,-27
56,-2,-28
56,-2,-28
57,-2,-28
56,-2,-28
55,-2,-29
55,-2,-30
56,-2,-30
55,-2,-31
54,-2,-32
53,-2,-33
53,-2,-33
53,-1,-34
53,-2,-35
53,-2,-35
53,-2,-35
53,-2,-35
53,-1,-35
52,-1,-34
53,-1,-34
55,-1,-33
55,-1,-33
53,-2,-31
53,-2,-30
57,-2,-30
55,-2,-28
54,-2,-28
57,-2,-27
58,-2,-26
58,-2,-26
57,-2,-26
56,-2,-25
59,-2,-25
59,-2,-24
57,-2,-24
57,-3,-23
58,-3,-23
59,-3,-23
60,-2,-23
57,-2,-23
58,-2,-23
59,-2,-23
59,-2,-23
58,-2,-23
58,-2,-23
59,-2,-23
59,-3,-23
57,-2,-23
59,-2,-23
59,-2,-23
59,-2,-24
58,-3,-23
58,-2,-23
58,-2,-23
57,-2,-24
57,-2,-24
58,-2,-24
57,-2,-26
57,-2,-26
57,-2,-27
57,-2,-27
57,-2,-27
57,-2,-27
56,-2,-28
56,-2,-28
56,-2,-28
56,-2,-28
56,-2,-28
56,-2,-28
56,-2,-28
56,-2,-28
56,-2,-28
56,-2,-28
56,-2,-28
56,-2,-28
56,-2,-28
56,-2,-28
56,-2,-28
57,-2,-28
56,-2,-28
56,-2,-28
56,-2,-28
57,-2,-28
56,-2,-28
56,-2,-28
58,-2,-27
58,-2,-27
57,-2,-26
57,-2,-24
58,-3,-23
57,-2,-23
59,-2,-23
59,-2,-23
57,-2,-23
58,-2,-23
58,-2,-23
57,-2,-24
57,-2,-25
58,-2,-26
57,-2,-27
56,-2,-27
56,-2,-28
56,-2,-30
56,-2,-30
54,-2,-31
54,-2,-31
55,-2,-32
55,-2,-32
54,-2,-33
52,-2,-34
54,-2,-34
52,-2,-33
54,-2,-34
54,-2,-34
55,-2,-33
53,-2,-32
55,-2,-32
56,-2,-31
54,-2,-30
55,-2,-29
55,-2,-28
58,-3,-27
59,-3,-28
55,-2,-26
55,-3,-25
58,-3,-24
60,-3,-24
58,-3,-24
57,-2,-23
58,-2,-23
59,-3,-23
59,-3,-22
57,-3,-23
59,-3,-22
59,-3,-23
58,-3,-23
57,-3,-23
58,-2,-23
59,-3,-23
58,-3,-23
58,-3,-23
59,-3,-23
59,-3,-23
58,-3,-23
58,-2,-24
59,-2,-24
58,-3,-24
56,-2,-25
57,-2,-25
57,-2,-27
56,-2,-27
54,-2,-30
54,-2,-31
54,-2,-32
54,-2,-34
52,-2,-34
50,-2,-37
50,-1,-38
49,-1,-39
49,-1,-40
47,-1,-42
44,-1,-44
44,-1,-45
45,-1,-46
43,-1,-46
41,-1,-47
43,-1,-48
41,-1,-47
41,-1,-48
42,-1,-48
41,-1,-48
39,0,-48
43,-1,-47
45,-1,-46
42,-1,-46
40,-1,-46
44,-1,-46
47,-1,-45
46,-1,-43
48,-1,-42
52,-1,-38
50,-2,-37
54,-2,-36
56,-2,-34
47,-2,-31
48,-2,-31
58,-2,-29
62,-2,-27
57,-2,-26
56,-2,-25
57,-2,-24
60,-2,-23
59,-2,-22
57,-2,-21
60,-2,-20
61,-3,-20
59,-3,-19
60,-3,-19
61,-3,-18
61,-3,-18
59,-3,-18
61,-3,-18
61,-3,-18
60,-3,-18
60,-3,-18
61,-2,-18
60,-2,-18
60,-2,-18
60,-3,-18
61,-3,-18
61,-3,-18
60,-2,-18
60,-3,-18
60,-3,-18
61,-3,-18
61,-3,-18
60,-2,-18
60,-3,-18
61,-3,-18
60,-3,-18
60,-3,-18
61,-3,-18
61,-3,-18
61,-2,-18
61,-2,-18
61,-2,-18
61,-3,-18
60,-3,-18
60,-2,-18
60,-3,-18
59,-3,-18
59,-3,-19
60,-3,-19
61,-3,-20
58,-3,-21
59,-3,-21
60,-3,-22
59,-3,-22
57,-3,-23
58,-3,-23
60,-3,-23
57,-2,-24
57,-3,-25
58,-3,-25
59,-3,-25
56,-3,-26
56,-3,-26
57,-3,-26
57,-3,-27
57,-3,-27
57,-3,-27
57,-3,-27
56,-2,-28
56,-3,-28
57,-3,-28
56,-2,-27
56,-2,-28
56,-2,-28
56,-2,-27
56,-2,-28
56,-2,-28
56,-2,-28
57,-2,-28
56,-2,-28
56,-2,-28
56,-2,-28
56,-2,-28
56,-2,-29
57,-2,-28
56,-1,-29
