,Binary,Multiclass
2018-03-13 00:13:20,-1.0,-1.0
2018-03-13 00:13:25,1.0,1.0
2018-03-13 00:13:30,1.0,1.0
2018-03-13 00:13:35,1.0,1.0
2018-03-13 00:13:40,1.0,1.0
2018-03-13 00:13:45,1.0,1.0
2018-03-13 00:13:50,1.0,1.0
2018-03-13 00:13:55,1.0,1.0
2018-03-13 00:14:00,1.0,1.0
2018-03-13 00:14:05,1.0,1.0
2018-03-13 00:14:10,1.0,1.0
2018-03-13 00:14:15,1.0,1.0
2018-03-13 00:14:20,1.0,1.0
2018-03-13 00:14:25,1.0,1.0
2018-03-13 00:14:30,1.0,1.0
2018-03-13 00:14:35,1.0,1.0
2018-03-13 00:14:40,1.0,1.0
2018-03-13 00:14:45,1.0,1.0
2018-03-13 00:14:50,1.0,1.0
2018-03-13 00:14:55,1.0,1.0
2018-03-13 00:15:00,1.0,1.0
2018-03-13 00:15:05,1.0,1.0
2018-03-13 00:15:10,1.0,1.0
2018-03-13 00:15:15,1.0,1.0
2018-03-13 00:15:20,1.0,1.0
2018-03-13 00:15:25,1.0,1.0
2018-03-13 00:15:30,1.0,1.0
2018-03-13 00:15:35,1.0,1.0
2018-03-13 00:15:40,1.0,1.0
2018-03-13 00:15:45,1.0,1.0
2018-03-13 00:15:50,1.0,1.0
2018-03-13 00:15:55,1.0,1.0
2018-03-13 00:16:00,1.0,1.0
2018-03-13 00:16:05,1.0,1.0
2018-03-13 00:16:10,1.0,1.0
2018-03-13 00:16:15,1.0,1.0
2018-03-13 00:16:20,1.0,1.0
2018-03-13 00:16:25,1.0,1.0
2018-03-13 00:16:30,1.0,1.0
2018-03-13 00:16:35,1.0,1.0
2018-03-13 00:16:40,1.0,1.0
2018-03-13 00:16:45,1.0,1.0
2018-03-13 00:16:50,1.0,1.0
2018-03-13 00:16:55,1.0,1.0
2018-03-13 00:17:00,1.0,1.0
2018-03-13 00:17:05,1.0,1.0
2018-03-13 00:17:10,1.0,1.0
2018-03-13 00:17:15,1.0,1.0
2018-03-13 00:17:20,1.0,1.0
2018-03-13 00:17:25,1.0,1.0
2018-03-13 00:17:30,1.0,1.0
2018-03-13 00:17:35,1.0,1.0
2018-03-13 00:17:40,1.0,1.0
2018-03-13 00:17:45,1.0,1.0
2018-03-13 00:17:50,-1.0,1.0
