,EDA,rise_time,max_deriv,amp,decay_time,SCR_width,AUC
2018-03-13 00:13:26.750000,2.9872,1.625,0.026726974886289057,0.03965000000000041,1.375,2.625,0.10408125000000107
2018-03-13 00:13:32.625000,3.1754499999999997,4.0,0.0066763692244204975,0.0633499999999998,0.5,2.375,0.15045624999999951
2018-03-13 00:13:51.125000,3.21705,4.0,0.13286637564891102,0.2873999999999999,,,
2018-03-13 00:13:57.625000,3.0839,1.375,0.04132140332826317,0.036499999999999755,0.375,1.5,0.05474999999999963
2018-03-13 00:14:04.500000,2.968,1.25,0.06134316792929617,0.054999999999999716,,,
2018-03-13 00:14:27.375000,2.7497499999999997,1.0,0.15020417230486238,0.10179999999999989,,,
2018-03-13 00:14:35.500000,2.7914,1.75,0.008034626965104152,0.026899999999999924,,,
2018-03-13 00:15:14.125000,2.9866,4.0,0.19389442713987393,0.2707500000000005,,,
2018-03-13 00:15:25.250000,3.0589,4.0,0.047054676445837273,0.20100000000000007,,,
2018-03-13 00:15:28.875000,3.1395999999999997,1.875,0.046333891860319554,0.12549999999999972,0.75,2.25,0.2823749999999994
2018-03-13 00:15:33.750000,3.2459,1.625,0.14930482053158656,0.23240000000000016,,,
2018-03-13 00:15:51.125000,3.2222,4.0,0.05030900321916221,0.16709999999999958,0.625,2.125,0.3550874999999991
2018-03-13 00:15:59,3.1818,4.0,0.025387678507147626,0.11770000000000014,1.125,2.875,0.3383875000000004
2018-03-13 00:16:03.375000,3.0634,1.125,0.13590201967784132,0.06850000000000023,,,
2018-03-13 00:16:11.125000,3.01605,1.5,0.06845761804073369,0.07299999999999995,,,
2018-03-13 00:16:13.875000,3.0807,1.75,0.03069534118568562,0.08260000000000023,,,
2018-03-13 00:16:23,3.137,4.0,0.014057388075203292,0.07419999999999982,1.0,2.75,0.2040499999999995
2018-03-13 00:16:30.625000,3.5341500000000003,4.0,0.11794898196721704,0.39135000000000053,1.375,3.0,1.1740500000000016
2018-03-13 00:16:38.625000,3.4439,4.0,0.10051584278991221,0.2669000000000006,1.25,2.75,0.7339750000000016
2018-03-13 00:16:46.625000,3.1684,1.75,0.0465637671916479,0.037799999999999834,0.625,2.0,0.07559999999999967
2018-03-13 00:17:04.375000,3.0371500000000005,4.0,0.01418657730384787,0.08255000000000035,,,
2018-03-13 00:17:11,3.0794,4.0,0.024189794881014137,0.06530000000000014,0.625,2.125,0.1387625000000003
2018-03-13 00:17:17.625000,3.1395999999999997,4.0,0.020896769129223003,0.09279999999999955,1.375,3.125,0.2899999999999986
2018-03-13 00:17:24.750000,3.05,1.5,0.030694766028615206,0.03589999999999982,0.875,2.125,0.07628749999999962
2018-03-13 00:17:37.500000,2.8503,1.875,0.023753729029728277,0.034600000000000186,,,
2018-03-13 00:17:40.375000,2.9193999999999996,4.0,0.004628971239920787,0.03649999999999931,0.625,2.5,0.09124999999999828
2018-03-13 00:17:49.250000,3.2407,1.625,0.0833405647157548,0.16444999999999999,1.0,2.375,0.39056874999999996
