1.5186e+09,1.5186e+09
1105.2,0.79691
1106,0.87504
1106.9,0.89067
1107.9,0.95317
1108.8,0.89067
1109.5,0.76566
1110.3,0.79691
1111.2,0.82816
1112,0.87504
1112.9,0.84379
1125.9,0.79691
1126.7,0.78129
1134,0.81254
1134.7,0.78129
1135.5,0.76566
1136.2,0.71878
1137,0.73441
1137.7,0.75003
1138.5,0.76566
1139.2,0.68753
1139.9,0.78129
1140.8,0.84379
1141.6,0.85941
1142.4,0.78129
1143.3,0.84379
1156.2,0.78129
1156.9,0.71878
1157.6,0.71878
1158.3,0.67191
1163.6,0.95317
1164.5,0.89067
1165.2,0.75003
1166,0.78129
1166.8,0.78129
1167.6,0.81254
1168.3,0.73441
1228.8,0.68753
1229.6,0.85941
1230.3,0.67191
1231,0.67191
