1.5186e+09,1.5186e+09
2167.8,0.92192
2204.2,0.64065
2205,0.73441
2205.8,0.81254
2216.1,0.95317
2216.9,0.79691
2217.9,0.96879
2218.8,0.92192
2219.5,0.75003
2220.5,0.98442
2249.3,0.82816
2260.4,0.82816
2261.2,0.79691
2266.4,0.73441
2270.7,0.57815
2271.4,0.73441
2272.1,0.70316
2272.7,0.6094
2273.4,0.64065
2274,0.68753
2274.7,0.70316
2275.5,0.75003
2276.3,0.76566
2276.9,0.67191
2277.6,0.70316
2278.4,0.75003
2284.4,0.70316
2285.1,0.73441
2285.9,0.76566
2286.7,0.76566
2287.4,0.70316
2288.1,0.70316
2289,0.90629
2290,1
2290.9,0.92192
2291.8,0.89067
2292.6,0.82816
2346.6,0.73441
2347.3,0.75003
2348.1,0.76566
2349,0.84379
2349.9,0.90629
2350.7,0.81254
2351.5,0.82816
2352.3,0.84379
2378,0.67191
2378.7,0.68753
2379.4,0.71878
2394.7,0.78129
2395.4,0.78129
2396.2,0.71878
2396.9,0.75003
2397.7,0.76566
2436.7,0.67191
2437.4,0.70316
2438.1,0.70316
2438.8,0.70316
2439.4,0.6094
2440,0.64065
2440.7,0.65628
2441.3,0.59378
2452.3,0.92192
2453.2,0.90629
2454,0.79691
2454.8,0.82816
2455.7,0.90629
2456.6,0.84379
2457.4,0.84379
2458.2,0.81254
2459,0.73441
2459.8,0.79691
2460.6,0.87504
2461.5,0.89067
2470.7,0.70316
2471.3,0.67191
2489.7,0.68753
2490.4,0.70316
2501.2,0.71878
2501.9,0.67191
2502.6,0.68753
2503.2,0.65628
2503.9,0.68753
2504.7,0.79691
2505.5,0.76566
2506.2,0.70316
2520.7,0.79691
2521.5,0.81254
2522.3,0.78129
2523.1,0.79691
2523.9,0.78129
2524.6,0.71878
2525.3,0.73441
2533.9,0.78129
