1.521e+09,1.521e+09
612.12,0.70316
617.15,0.71878
617.87,0.71878
618.54,0.67191
619.36,0.81254
620.11,0.75003
620.7,0.59378
621.39,0.68753
622.04,0.65628
622.84,0.79691
627.81,0.75003
628.4,0.59378
629.17,0.76566
629.87,0.70316
630.62,0.75003
636.61,0.64065
637.26,0.65628
637.92,0.65628
638.59,0.67191
639.25,0.65628
639.92,0.67191
640.58,0.65628
641.23,0.65628
641.87,0.64065
642.51,0.64065
643.15,0.64065
643.83,0.67191
644.51,0.68753
645.17,0.65628
645.87,0.70316
646.53,0.65628
647.22,0.68753
647.9,0.68753
648.61,0.70316
649.33,0.71878
650,0.67191
650.7,0.70316
651.39,0.68753
652.08,0.68753
652.8,0.71878
653.53,0.73441
654.25,0.71878
654.87,0.62503
655.5,0.62503
659.58,0.67191
660.25,0.67191
674.47,0.73441
675.06,0.59378
675.83,0.76566
676.52,0.68753
677.22,0.70316
677.91,0.68753
678.61,0.70316
679.36,0.75003
680.05,0.68753
680.73,0.68753
681.56,0.82816
686.5,0.70316
687.17,0.67191
687.86,0.68753
688.58,0.71878
689.31,0.73441
690.06,0.75003
690.75,0.68753
691.61,0.85941
692.3,0.68753
693.03,0.73441
693.77,0.73441
694.52,0.75003
695.28,0.76566
695.97,0.68753
696.67,0.70316
697.38,0.70316
698.13,0.75003
698.91,0.78129
699.74,0.82816
700.5,0.76566
701.31,0.81254
702.08,0.76566
707.17,0.79691
707.81,0.64065
708.52,0.70316
709.28,0.76566
710.02,0.73441
710.8,0.78129
711.47,0.67191
712.22,0.75003
712.92,0.70316
713.75,0.82816
741.47,0.68753
742.22,0.75003
742.96,0.73441
743.67,0.71878
744.38,0.70316
745.1,0.71878
745.86,0.76566
750.63,0.70316
751.28,0.65628
752,0.71878
752.68,0.67191
753.47,0.79691
754.19,0.71878
754.85,0.65628
755.52,0.67191
756.24,0.71878
766.36,0.82816
767.02,0.65628
767.75,0.73441
768.44,0.68753
769.13,0.68753
769.75,0.62503
781.1,0.76566
781.9,0.79691
782.6,0.70316
796.8,0.68753
797.54,0.73441
798.29,0.75003
799.02,0.73441
799.8,0.78129
800.65,0.84379
801.29,0.64065
