,EDA,rise_time,max_deriv,amp,decay_time,SCR_width,AUC
2018-02-14 09:21:38.875000,1.3833,4.0,0.011754308040854866,0.05764999999999998,1.5,3.25,0.18736249999999993
2018-02-14 09:22:46.500000,1.2693,4.0,0.035896165314447614,0.02429999999999999,0.25,2.125,0.051637499999999975
2018-02-14 09:22:57.500000,1.3116,4.0,0.015789755997779764,0.06530000000000014,1.375,3.0,0.1959000000000004
2018-02-14 09:23:08.125000,1.31095,1.625,0.06281629804018873,0.06594999999999995,0.5,1.75,0.11541249999999992
2018-02-14 09:24:20.375000,1.64255,4.0,0.07309098690611293,0.13054999999999994,,,
2018-02-14 09:24:24.375000,2.1536,4.0,0.19577907042961407,0.4617499999999999,,,
2018-02-14 09:24:27.375000,2.3463000000000003,1.875,0.06036340358768655,0.17410000000000014,0.625,2.25,0.3917250000000003
2018-02-14 09:24:36,1.8483,1.5,0.056672483682408625,0.06920000000000015,,,
2018-02-14 09:24:39.625000,2.2375,4.0,0.09136588422756375,0.2631499999999998,,,
2018-02-14 09:24:55,2.0045,1.375,0.057115909494926065,0.06340000000000012,0.25,1.375,0.08717500000000017
2018-02-14 09:25:07.375000,1.9231500000000001,1.625,0.013941324511691278,0.027550000000000185,,,
2018-02-14 09:25:20.125000,1.98715,4.0,0.0039153927168325,0.029400000000000093,,,
2018-02-14 09:25:22.375000,2.4508,1.75,0.21109481110785389,0.40280000000000005,,,
2018-02-14 09:25:36.125000,1.8860000000000001,1.125,0.06966726061257589,0.04290000000000016,,,
2018-02-14 09:25:41,1.9712,1.875,0.032991244576770384,0.07299999999999995,0.75,2.125,0.1551249999999999
2018-02-14 09:26:02,1.7983,1.5,0.025277673014381108,0.035800000000000054,,,
2018-02-14 09:26:04.875000,1.8155999999999999,1.5,0.013738900832588996,0.021749999999999936,0.375,1.625,0.035343749999999896
2018-02-14 09:26:22,1.8162,4.0,0.004123181529926967,0.02300000000000013,,,
2018-02-14 09:26:28,2.0775,4.0,0.054997703079381566,0.1998000000000002,,,
2018-02-14 09:26:30.750000,2.3054,4.0,0.04879038442154737,0.17930000000000001,,,
2018-02-14 09:26:32.750000,2.4854,1.25,0.14221740347101175,0.14159999999999995,,,
2018-02-14 09:26:39.625000,2.7466,4.0,0.13095486608998996,0.31240000000000023,0.875,2.375,0.7419500000000006
2018-02-14 09:26:45.375000,2.4348,1.375,0.07841876012547644,0.08130000000000015,0.75,2.0,0.1626000000000003
2018-02-14 09:26:52.250000,3.4354,4.0,0.2344385073012223,0.9295,1.75,3.375,3.1370625
2018-02-14 09:26:56.875000,2.9299999999999997,1.625,0.10212994323269342,0.14469999999999983,0.625,1.875,0.2713124999999997
2018-02-14 09:27:05.125000,2.5612,1.0,0.04625869966324103,0.025599999999999845,0.375,1.375,0.03519999999999979
2018-02-14 09:27:07.500000,3.3525,1.75,0.40339401781468176,0.7196000000000002,1.75,3.125,2.2487500000000007
2018-02-14 09:27:27.625000,3.1860999999999997,4.0,0.24198643833933176,0.5134499999999997,,,
2018-02-14 09:27:38.625000,2.9716,1.875,0.11866008887287194,0.33610000000000007,,,
2018-02-14 09:27:40.250000,3.1707,1.25,0.16006325981955882,0.12040000000000006,0.5,1.625,0.1956500000000001
2018-02-14 09:27:51.500000,2.8608,1.625,0.054122778994148746,0.10559999999999947,0.875,2.25,0.2375999999999988
2018-02-14 09:28:33.375000,2.8826,4.0,0.047515628150758715,0.15810000000000013,1.0,2.75,0.43477500000000036
2018-02-14 09:28:37.875000,2.7757,1.25,0.0381221991048335,0.03584999999999994,0.625,1.75,0.06273749999999989
2018-02-14 09:28:44.250000,2.5228,1.75,0.03794914993179255,0.026900000000000368,1.125,2.25,0.06052500000000083
2018-02-14 09:29:04.875000,2.4566,4.0,0.01916272242578998,0.07749999999999968,1.25,2.875,0.22281249999999908
2018-02-14 09:29:17.750000,2.4751,1.875,0.06921544255633982,0.12544999999999984,1.25,2.625,0.3293062499999996
2018-02-14 09:29:25.875000,2.44825,4.0,0.01403197860087424,0.048649999999999416,0.75,2.375,0.11554374999999861
2018-02-14 09:30:04.125000,2.2254500000000004,4.0,0.023746311315406388,0.05375000000000041,1.625,3.0,0.16125000000000123
2018-02-14 09:30:17.125000,2.2279999999999998,1.875,0.033973378745603355,0.08579999999999988,1.375,2.75,0.23594999999999966
2018-02-14 09:30:29.750000,2.1397,1.25,0.02518841579639819,0.024399999999999977,0.75,1.875,0.04574999999999996
2018-02-14 09:31:04,2.0308,4.0,0.006758521635774173,0.028100000000000236,0.625,2.5,0.07025000000000059
2018-02-14 09:31:10.875000,2.02,4.0,0.02948049341034853,0.0596000000000001,1.875,3.25,0.19370000000000032
2018-02-14 09:31:19.250000,2.1358,4.0,0.01828517054047829,0.08700000000000019,0.875,2.625,0.2283750000000005
2018-02-14 09:31:29,2.3412,4.0,0.02848684574410676,0.21130000000000004,,,
2018-02-14 09:31:37.500000,2.5251,4.0,0.26626775696257177,0.5117000000000003,,,
2018-02-14 09:31:53.625000,3.2219,4.0,0.1473749490044014,0.246,0.25,1.75,0.4305
2018-02-14 09:31:59.625000,3.2436499999999997,4.0,0.14964926236020482,0.4634499999999999,0.5,2.125,0.9848312499999998
