1.5192e+09,1.5192e+09,1.5192e+09
32,32,32
-64,-15,5
-64,-15,4
-64,-15,4
-62,-15,6
-61,-16,8
-60,-16,10
-59,-18,6
-59,-18,3
-65,-20,-7
-67,-20,-11
-63,-21,-14
-61,-18,-19
-59,-19,-22
-61,-16,-27
-62,-14,-28
-59,-11,-26
-60,-10,-26
-66,-8,-28
-58,-9,-25
-56,-8,-24
-62,-11,-27
-67,-13,-28
-63,-12,-27
-64,-12,-27
-57,-8,-20
-57,-6,-17
-57,-4,-16
-56,0,-16
-57,1,-15
-60,3,-14
-61,4,-13
-63,7,-11
-64,7,-8
-60,4,-5
-59,6,-11
-61,7,-14
-62,7,-23
-59,8,-26
-66,9,-32
-52,9,-27
-54,9,-32
-49,10,-31
-55,12,-31
-52,14,-31
-52,15,-35
-50,18,-34
-52,21,-29
-57,19,-25
-68,22,-20
-66,23,-19
-60,23,-20
-60,21,-22
-56,17,-26
-52,14,-27
-52,13,-27
-48,12,-26
-50,13,-28
-56,11,-25
-56,11,-24
-58,10,-25
-63,10,-33
-66,8,-34
-66,4,-26
-67,4,-24
-62,13,-23
-64,17,-21
-63,16,-18
-61,15,-16
-60,15,-16
-67,20,-23
-67,21,-20
-48,17,-4
-54,15,-11
-57,17,-16
-60,16,-16
-61,15,-17
-66,14,-18
-66,13,-19
-63,12,-17
-61,12,-15
-62,12,-16
-61,11,-17
-61,11,-17
-62,11,-18
-62,10,-18
-61,10,-16
-62,11,-17
-61,10,-16
-62,9,-15
-60,9,-14
-61,9,-13
-63,10,-13
-65,11,-8
-71,14,-8
-68,16,-10
-68,19,-7
-68,17,-1
-62,15,2
-60,15,0
-59,10,6
-59,9,8
-62,10,3
-64,10,2
-64,11,2
-63,13,0
-62,11,-1
-67,9,-2
-71,9,-6
-71,10,-8
-64,11,-6
-63,11,-4
-64,11,-5
-64,10,-4
-64,10,-4
-63,10,-5
-64,10,-6
-67,10,-4
-65,11,-4
-63,13,-5
-65,13,-5
-65,13,-5
-65,12,-5
-65,11,-5
-65,10,-6
-64,11,-5
-64,10,-5
-64,11,-5
-64,12,-5
-65,12,-5
-64,12,-5
-65,11,-6
-65,11,-5
-65,11,-5
-64,11,-5
-64,11,-5
-64,12,-5
-64,12,-5
-64,11,-5
-64,11,-6
-64,11,-5
-65,10,-6
-64,10,-6
-65,11,-6
-64,12,-6
-64,12,-7
-64,12,-6
-64,12,-7
-65,11,-6
-64,11,-6
-64,11,-6
-65,11,-6
-64,11,-6
-64,11,-6
-64,11,-6
-65,11,-6
-65,11,-6
-64,12,-6
-64,12,-6
-64,11,-6
-64,11,-6
-64,11,-6
-64,11,-6
-64,11,-6
-64,12,-6
-64,11,-6
-64,12,-6
-64,12,-6
-64,11,-6
-64,12,-6
-64,11,-6
-64,11,-6
-64,11,-6
-64,11,-6
-64,11,-6
-64,12,-6
-64,11,-6
-64,11,-6
-64,12,-6
-64,12,-6
-64,11,-6
-64,12,-6
-64,12,-6
-64,11,-6
-64,11,-6
-64,11,-6
-64,12,-6
-64,12,-6
-64,12,-6
-64,12,-6
-64,12,-6
-64,11,-7
-65,11,-7
-64,12,-6
-65,12,-6
-65,12,-7
-64,12,-6
-66,12,-6
-65,12,-6
-63,13,-5
-61,13,-5
-63,12,-5
-65,12,-8
-64,12,-8
-63,12,-8
-64,12,-8
-65,12,-8
-64,12,-9
-64,12,-7
-63,13,-7
-64,13,-7
-64,13,-9
-64,12,-8
-63,12,-8
-64,12,-8
-64,12,-7
-64,13,-8
-64,13,-8
-65,13,-8
-64,13,-7
-63,13,-7
-64,13,-7
-64,13,-6
-64,13,-6
-64,13,-6
-63,13,-6
-63,14,-6
-64,13,-6
-64,14,-6
-63,14,-6
-64,13,-7
-63,13,-7
-64,14,-7
-64,14,-7
-64,13,-7
-64,13,-6
-64,13,-7
-64,14,-7
-64,14,-7
-63,14,-7
-63,14,-7
-64,14,-7
-64,14,-7
-64,14,-7
-63,13,-7
-63,13,-8
-67,14,-6
-64,14,-6
-64,14,-8
-64,14,-5
-64,14,-5
-66,14,-6
-66,15,-5
-64,15,-3
-65,15,-3
-65,15,-2
-65,16,0
-67,17,-1
-66,17,1
-64,18,3
-65,20,6
-65,22,5
-62,24,5
-59,24,8
-55,24,10
-51,25,9
-49,26,6
-50,24,3
-51,20,1
-59,18,-1
-65,18,-4
-66,17,-4
-68,17,-6
-68,17,-8
-68,17,-6
-67,18,-6
-66,19,-6
-65,19,-7
-64,19,-6
-63,18,-4
-63,18,-5
-66,20,-5
-67,22,-5
-69,24,-6
-69,25,-6
-68,25,-6
-68,26,-6
-66,26,-6
-64,25,-6
-61,26,-5
-61,26,-6
-57,27,-5
-56,27,-5
-54,28,-5
-53,28,-3
-52,29,-3
-52,29,-2
-53,30,-3
-55,30,-3
-57,30,-3
-59,30,-3
-60,30,-3
-60,30,-3
-62,33,-3
-63,34,-2
-64,37,0
-63,38,0
-63,38,0
-62,38,1
-62,37,2
-60,38,3
-59,37,3
-59,39,4
-59,41,4
-56,43,6
-52,45,6
-51,45,6
-46,46,7
-44,47,8
-39,49,10
-36,49,11
-32,50,12
-29,50,13
-25,50,14
-20,50,16
-17,51,16
-14,52,16
-13,51,16
-12,52,17
-13,54,18
-14,53,19
-16,55,18
-16,55,18
-19,56,18
-20,55,17
-19,54,16
-20,52,15
-20,50,15
-19,49,16
-19,49,15
-21,48,13
-25,50,13
-27,46,11
-31,47,6
-34,46,4
-38,38,4
-40,39,4
-45,35,0
-53,32,-1
-61,39,-3
-73,44,-13
-84,42,-17
-89,37,-13
-85,35,-9
-80,33,-8
-77,32,-9
-68,29,-8
-60,27,-6
-58,26,-6
-52,24,-5
-49,23,-4
-46,21,-5
-45,20,-5
-43,19,-4
-44,19,-5
-49,18,-6
-57,16,-9
-60,14,-10
-69,9,-12
-74,6,-14
-78,4,-15
-113,5,-20
-101,12,-16
-71,13,-11
-69,8,-12
-57,4,-11
-67,4,-14
-69,6,-14
-69,7,-15
-71,6,-15
-82,6,-17
-85,6,-17
-76,10,-12
-71,17,-7
-67,21,-6
-54,24,-1
-48,25,1
-42,25,2
-40,26,2
-44,27,0
-47,28,-1
-48,30,-1
-45,38,-2
-46,40,-3
-48,42,-3
-48,41,-1
-50,40,-1
-51,40,-1
-53,40,-1
-54,40,-3
-54,39,-3
-54,38,-2
-54,38,-2
-55,38,-2
-55,38,-3
-55,37,-3
-55,37,-2
-54,37,-2
-53,38,-1
-54,37,-1
-55,35,2
-58,32,4
-59,31,4
-60,31,1
-61,32,-1
-60,32,-5
-59,34,-7
-56,35,-8
-55,36,-11
-54,37,-12
-52,37,-12
-51,38,-11
-50,38,-10
-49,37,-9
-48,37,-10
-48,38,-11
-50,37,-13
-50,38,-14
-50,38,-13
-51,39,-13
-51,40,-15
-51,41,-16
-50,40,-15
-49,40,-15
-49,40,-17
-48,40,-17
-48,40,-17
-46,40,-18
-48,40,-18
-50,40,-17
-51,39,-16
-53,39,-15
-53,39,-14
-53,38,-13
-52,36,-13
-52,36,-13
-52,36,-14
-51,36,-14
-52,36,-14
-51,37,-15
-51,37,-15
-52,37,-15
-52,37,-16
-52,37,-15
-53,37,-15
-53,36,-15
-53,36,-16
-53,36,-17
-53,36,-16
-54,36,-16
-52,35,-16
-52,35,-16
-52,35,-17
-51,36,-17
-51,36,-17
-51,35,-17
-52,35,-17
-52,35,-17
-52,36,-16
-53,35,-16
-52,36,-16
-53,35,-16
-52,36,-16
-52,36,-16
-52,36,-16
-52,35,-16
-52,35,-17
-52,36,-17
-52,35,-16
-52,35,-17
-52,35,-17
-52,35,-16
-52,35,-16
-52,35,-17
-52,35,-17
-52,35,-17
-52,35,-17
-52,36,-17
-52,35,-17
-52,35,-18
-51,34,-20
-49,34,-20
-49,33,-19
-49,32,-15
-51,32,-15
-52,33,-15
-54,34,-16
-57,33,-14
-56,33,-11
-55,34,-11
-59,33,-11
-61,33,-12
-56,33,-11
-56,32,-13
-59,31,-13
-57,31,-14
-55,31,-14
-56,30,-14
-57,30,-15
-56,30,-16
-55,31,-16
-54,30,-16
-53,31,-18
-54,30,-18
-56,30,-20
-55,31,-20
-55,31,-20
-55,30,-18
-55,31,-18
-56,30,-19
-56,30,-18
-54,30,-17
-54,31,-18
-59,30,-20
-59,29,-19
-50,31,-21
-57,30,-20
-53,31,-20
-53,32,-21
-54,31,-21
-54,31,-18
-55,31,-16
-57,32,-17
-54,31,-16
-55,31,-17
-55,31,-17
-54,31,-17
-54,31,-17
-56,31,-16
-56,31,-15
-56,31,-15
-57,32,-16
-58,33,-17
-56,32,-17
-53,33,-18
-53,33,-20
-53,33,-20
-51,33,-20
-50,34,-19
-49,34,-19
-50,34,-19
-51,32,-17
-53,32,-17
-53,32,-18
-54,32,-18
-54,32,-18
-54,33,-17
-54,33,-17
-54,33,-18
-54,32,-19
-54,32,-18
-53,32,-18
-53,32,-19
-54,32,-18
-54,32,-18
-52,31,-18
-53,30,-18
-53,30,-18
-54,31,-18
-54,30,-18
-55,30,-18
-54,30,-18
-55,30,-18
-56,29,-17
-56,29,-17
-57,29,-17
-57,28,-17
-58,28,-17
-57,28,-19
-58,27,-19
-57,27,-19
-57,27,-19
-57,26,-20
-57,26,-20
-57,27,-21
-57,27,-20
-56,28,-20
-56,29,-21
-55,28,-21
-55,28,-21
-55,27,-20
-55,28,-20
-55,28,-20
-55,27,-21
-55,28,-21
-54,28,-21
-54,29,-22
-54,29,-23
-54,28,-21
-54,29,-22
-54,29,-22
-54,29,-21
-54,29,-21
-54,29,-21
-54,28,-21
-54,28,-20
-55,27,-20
-54,27,-20
-55,27,-19
-54,28,-19
-54,27,-20
-54,27,-21
-55,26,-22
-55,26,-22
-55,25,-22
-55,25,-22
-55,25,-23
-55,25,-22
-55,25,-22
-55,25,-22
-57,25,-23
-56,24,-23
-57,24,-23
-56,24,-23
-56,23,-24
-56,22,-23
-55,22,-23
-56,22,-24
-56,21,-24
-56,22,-25
-56,21,-25
-56,21,-25
-57,21,-25
-57,21,-25
-57,20,-25
-57,20,-26
-57,19,-26
-57,19,-25
-57,20,-26
-56,20,-26
-57,20,-26
-57,19,-25
-56,19,-25
-56,18,-26
-56,19,-27
-56,19,-27
-56,19,-25
-56,19,-25
-58,19,-27
-58,20,-27
-58,19,-26
-57,18,-26
-58,18,-25
-57,19,-25
-57,18,-25
-57,18,-24
-57,18,-25
-57,18,-24
-57,18,-24
-57,18,-24
-57,19,-24
-57,18,-24
-57,18,-24
-58,18,-24
-57,18,-24
-57,18,-24
-57,18,-24
-57,18,-24
-57,18,-24
-58,18,-24
-57,18,-25
-57,18,-24
-57,18,-24
-57,17,-24
-57,18,-24
-57,18,-24
-57,18,-25
-57,18,-25
-57,18,-25
-57,18,-25
-57,18,-26
-57,18,-25
-57,18,-25
-58,17,-25
-58,16,-25
-59,17,-24
-58,18,-24
-58,19,-23
-57,19,-24
-57,19,-24
-57,17,-24
-56,17,-25
-56,17,-25
-56,17,-25
-56,17,-25
-56,18,-25
-57,18,-25
-57,16,-26
-57,17,-26
-57,19,-25
-57,20,-25
-57,19,-25
-56,18,-25
-57,17,-25
-57,16,-25
-57,16,-25
-57,16,-25
-58,17,-25
-58,17,-25
-58,17,-25
-58,17,-25
-58,17,-25
-58,16,-25
-57,16,-25
-58,16,-25
-57,16,-25
-57,16,-25
-57,16,-25
-57,17,-25
-57,17,-25
-57,17,-25
-57,16,-25
-57,16,-25
-57,16,-25
-58,16,-25
-57,16,-25
-57,17,-26
-57,16,-25
-56,16,-26
-57,16,-26
-56,15,-26
-56,15,-26
-57,15,-27
-57,14,-27
-58,13,-27
-59,14,-26
-58,15,-26
-58,16,-26
-58,16,-26
-57,17,-26
-56,17,-27
-57,17,-28
-56,16,-28
-57,16,-28
-57,16,-28
-56,16,-28
-56,16,-28
-56,16,-28
-56,16,-27
-57,15,-27
-57,15,-27
-57,15,-27
-57,15,-27
-57,15,-27
-57,15,-27
-57,15,-27
-57,15,-27
-57,15,-27
-57,15,-27
-57,15,-27
-56,15,-27
-56,15,-27
-56,15,-28
-56,15,-27
-57,15,-27
-57,14,-28
-57,14,-27
-57,15,-27
-56,14,-27
-56,14,-27
-56,14,-27
-56,14,-27
-57,14,-27
-56,15,-27
-57,15,-27
-57,15,-27
-57,15,-27
-57,15,-28
-57,15,-28
-56,14,-28
-56,14,-28
-57,12,-28
-57,13,-27
-57,13,-27
-57,13,-27
-57,14,-27
-56,12,-27
-57,12,-26
-57,13,-27
-58,14,-27
-58,13,-27
-58,14,-27
-58,14,-27
-58,13,-27
-58,12,-27
-58,13,-27
-57,13,-27
-56,13,-27
-56,12,-27
-56,12,-27
-57,12,-26
-57,13,-27
-58,13,-26
-58,13,-26
-58,13,-27
-58,12,-27
-59,12,-26
-58,12,-26
-58,12,-27
-58,12,-27
-58,12,-27
-58,12,-27
-58,12,-27
-57,12,-27
-57,12,-27
-57,12,-28
-57,11,-27
-58,11,-27
-58,12,-28
-58,12,-28
-58,12,-27
-57,12,-27
-58,11,-27
-57,11,-27
-58,11,-27
-58,11,-27
-58,11,-26
-58,11,-26
-57,11,-27
-58,9,-28
-60,10,-26
-60,13,-26
-59,13,-24
-60,12,-25
-57,12,-25
-57,11,-25
-58,11,-25
-57,11,-25
-57,12,-26
-57,12,-26
-58,11,-26
-58,12,-25
-58,12,-26
-59,12,-26
-59,12,-26
-59,13,-26
-58,12,-26
-58,12,-25
-58,12,-25
-58,12,-25
-58,12,-25
-58,12,-25
-58,12,-26
-58,12,-25
-58,12,-26
-58,12,-25
-58,12,-25
-59,12,-26
-58,12,-25
-59,12,-25
-58,12,-25
-59,12,-25
-59,11,-25
-58,11,-25
-59,11,-25
-59,11,-25
-58,12,-24
-59,12,-25
-58,11,-25
-59,11,-25
-59,11,-25
-58,11,-25
-59,11,-25
-59,11,-25
-58,11,-25
-59,11,-25
-59,11,-25
-59,10,-25
-59,10,-25
-59,10,-25
-59,10,-25
-59,10,-25
-59,10,-25
-59,10,-25
-59,10,-25
-59,10,-25
-58,10,-25
-58,10,-26
-58,10,-26
-59,10,-25
-59,10,-26
-59,10,-26
-59,10,-26
-59,10,-26
-59,10,-26
-59,10,-26
-59,10,-26
-58,9,-25
-58,9,-26
-59,10,-26
-59,10,-27
-59,10,-27
-57,10,-27
-58,10,-28
-57,10,-27
-57,10,-27
-56,10,-27
-57,10,-27
-59,9,-26
-59,9,-24
-60,9,-24
-60,9,-24
-60,9,-24
-60,9,-24
-59,9,-25
-59,8,-24
-59,9,-25
-59,9,-25
-59,8,-24
-59,9,-25
-59,9,-25
-59,9,-24
-59,9,-25
-60,9,-25
-60,9,-24
-60,9,-26
-59,9,-26
-59,9,-24
-59,9,-24
-59,8,-25
-58,8,-24
-57,8,-24
-60,9,-28
-60,9,-29
-58,9,-26
-58,8,-25
-59,9,-26
-59,9,-26
-59,9,-26
-59,9,-26
-58,8,-27
-58,8,-26
-58,8,-25
-59,9,-26
-59,9,-27
-59,9,-26
-58,9,-25
-58,9,-25
-59,9,-26
-59,9,-26
-59,9,-26
-58,8,-25
-59,8,-25
-59,9,-26
-59,9,-26
-59,8,-25
-59,9,-25
-59,9,-25
-59,8,-25
-59,8,-24
-59,8,-25
-59,9,-25
-59,8,-25
-59,8,-24
-59,8,-25
-59,8,-24
-59,8,-25
-59,8,-24
-59,8,-24
-60,8,-25
-60,8,-25
-60,8,-24
-60,8,-25
-60,8,-25
-60,9,-25
-60,8,-25
-60,8,-25
-59,8,-24
-60,8,-25
-59,8,-24
-59,8,-24
-60,8,-24
-60,8,-24
-60,8,-23
-60,8,-23
-60,8,-22
-60,7,-23
-61,7,-22
-60,7,-21
-61,7,-21
-62,7,-22
-62,8,-21
-61,8,-20
-62,8,-20
-62,8,-21
-63,6,-20
-62,6,-19
-62,6,-19
-62,6,-19
-62,6,-18
-62,5,-18
-63,4,-18
-63,3,-18
-63,3,-17
-62,2,-17
-63,2,-16
-62,1,-16
-62,1,-15
-62,2,-15
-63,1,-14
-62,1,-13
-63,1,-12
-63,1,-11
-63,1,-11
-64,0,-10
-65,1,-10
-65,0,-9
-65,-1,-9
-65,-1,-9
-65,-1,-9
-65,-1,-9
-63,-1,-8
-64,-1,-9
-65,-2,-9
-64,-4,-8
-63,-4,-8
-64,-5,-8
-65,-4,-8
-63,-5,-7
-64,-6,-6
-63,-6,-5
-65,-6,-7
-64,-6,-8
-64,-7,-6
-65,-8,-7
-65,-8,-7
-65,-8,-6
-65,-9,-6
-66,-10,-5
-65,-9,-5
-64,-10,-5
-65,-10,-6
-65,-10,-5
-64,-10,-4
-64,-10,-5
-64,-11,-5
-65,-10,-4
-64,-10,-4
-64,-10,-4
-64,-10,-3
-65,-10,-2
-64,-10,-2
-63,-10,-2
-64,-11,-2
-64,-12,-2
-64,-12,-1
-64,-13,-1
-65,-13,-1
-65,-13,-1
-65,-14,-1
-65,-14,-2
-65,-13,-1
-64,-13,-1
-65,-13,-1
-64,-13,-1
-64,-13,-1
-65,-13,-1
-64,-13,-1
-64,-12,-2
-63,-12,-3
-65,-12,-3
-64,-12,-3
-64,-12,-3
-63,-11,-4
-65,-11,-6
-65,-11,-6
-63,-11,-5
-63,-10,-6
-66,-11,-8
-65,-10,-8
-64,-10,-8
-64,-10,-7
-65,-9,-9
-65,-9,-9
-63,-9,-9
-65,-9,-10
-65,-9,-10
-63,-8,-9
-63,-8,-9
-63,-9,-10
-64,-9,-10
-64,-9,-9
-64,-9,-10
-64,-9,-9
-64,-9,-9
-64,-9,-9
-63,-9,-9
-64,-9,-9
-64,-9,-9
-64,-9,-9
-64,-9,-9
-64,-9,-9
-64,-9,-9
-64,-10,-9
-65,-9,-9
-64,-9,-9
-65,-10,-9
-65,-10,-9
-64,-9,-8
-64,-10,-8
-64,-10,-8
-64,-11,-8
-63,-11,-8
-64,-10,-8
-64,-10,-8
-64,-9,-8
-63,-9,-8
-64,-9,-8
-64,-9,-8
-64,-9,-8
-65,-9,-9
-66,-9,-9
-66,-10,-7
-67,-11,-6
-66,-11,-4
-66,-10,-2
-66,-9,-1
-63,-8,1
-63,-8,1
-64,-7,-2
-64,-8,-2
-62,-8,-1
-66,-10,-4
-66,-10,-5
-65,-9,-5
-65,-9,-5
-65,-9,-6
-66,-8,-7
-64,-8,-8
-64,-8,-6
-64,-8,-7
-64,-7,-8
-65,-7,-9
-64,-6,-10
-64,-6,-11
-63,-6,-11
-62,-5,-11
-61,-4,-11
-62,-5,-11
-63,-5,-9
-63,-6,-6
-65,-7,-6
-66,-8,-5
-66,-9,-3
-66,-9,-3
-66,-9,-4
-66,-9,-4
-63,-9,-4
-67,-9,-8
-68,-9,-10
-66,-8,-10
-64,-8,-10
-64,-7,-13
-64,-7,-14
-63,-7,-14
-62,-6,-12
-63,-6,-13
-64,-6,-14
-64,-6,-13
-62,-5,-10
-64,-6,-10
-65,-7,-11
-64,-7,-11
-64,-7,-11
-63,-8,-10
-63,-7,-10
-63,-7,-12
-63,-6,-12
-63,-6,-11
-65,-6,-11
-67,-6,-11
-65,-8,-10
-65,-8,-9
-66,-7,-10
-66,-7,-9
-64,-7,-8
-65,-8,-9
-65,-8,-9
-64,-8,-10
-64,-7,-11
-63,-7,-11
-63,-7,-11
-63,-6,-11
-63,-6,-11
-63,-5,-11
-63,-6,-11
-64,-6,-11
-65,-6,-9
-64,-6,-9
-64,-6,-10
-65,-6,-9
-65,-6,-9
-65,-6,-9
-64,-6,-9
-65,-6,-9
-65,-6,-8
-64,-6,-9
-64,-6,-9
-65,-6,-8
-64,-7,-8
-65,-6,-8
-65,-7,-8
-65,-7,-7
-65,-7,-7
-65,-7,-8
-65,-7,-7
-65,-7,-7
-64,-6,-8
-64,-6,-8
-64,-6,-8
-64,-6,-8
-64,-6,-9
-64,-5,-8
-64,-5,-9
-64,-5,-9
-64,-5,-9
-64,-5,-10
-63,-5,-10
-64,-5,-10
-64,-5,-9
-65,-6,-8
-65,-6,-8
-65,-6,-7
-66,-7,-6
-66,-7,-6
-65,-8,-5
-65,-9,-5
-65,-9,-5
-65,-9,-5
-65,-9,-5
-65,-8,-6
-64,-8,-6
-64,-7,-7
-64,-7,-7
-64,-7,-8
-64,-7,-8
-64,-7,-8
-64,-6,-8
-64,-6,-7
-65,-6,-7
-64,-6,-7
-64,-6,-7
-64,-6,-7
-64,-6,-7
-64,-7,-7
-64,-7,-7
-64,-7,-7
-64,-7,-7
-65,-7,-7
-65,-7,-7
-65,-8,-6
-65,-8,-7
-65,-8,-6
-65,-8,-6
-65,-8,-6
-66,-8,-6
-66,-8,-5
-65,-7,-5
-64,-8,-5
-65,-8,-6
-64,-8,-7
-63,-8,-7
-62,-8,-8
-64,-7,-12
-63,-8,-15
-63,-8,-16
-62,-8,-15
-62,-8,-15
-64,-8,-15
-62,-7,-15
-64,-7,-14
-64,-7,-15
-62,-7,-14
-64,-8,-14
-65,-7,-13
-64,-7,-14
-63,-6,-14
-64,-7,-13
-65,-8,-13
-65,-7,-14
-65,-6,-14
-63,-7,-13
-63,-7,-14
-62,-6,-12
-63,-6,-14
-63,-5,-15
-62,-3,-13
-61,-2,-13
-62,-2,-15
-62,-2,-15
-62,-4,-14
-63,-5,-14
-64,-7,-14
-63,-7,-13
-62,-7,-13
-63,-7,-15
-63,-7,-15
-61,-6,-15
-60,-7,-16
-61,-7,-17
-63,-7,-16
-61,-8,-15
-61,-9,-13
-65,-11,-14
-66,-11,-14
-73,-14,-10
-72,-12,-10
-61,-9,-11
-62,-9,-15
-64,-8,-19
-61,-8,-12
-61,-8,-12
-66,-8,-12
-65,-8,-11
-62,-8,-8
-63,-8,-8
-64,-8,-7
-63,-8,-10
-64,-8,-11
-64,-8,-11
-64,-8,-10
-64,-7,-11
-64,-8,-11
-64,-8,-11
-64,-8,-10
-64,-8,-10
-64,-9,-10
-64,-9,-10
-63,-9,-10
-62,-9,-10
-64,-9,-10
-62,-8,-9
-64,-8,-9
-66,-9,-8
-65,-9,-8
-65,-9,-10
-66,-9,-11
-65,-8,-11
-64,-8,-9
-64,-8,-8
-64,-9,-9
-64,-8,-9
-64,-10,-10
-65,-11,-10
-64,-11,-8
-64,-10,-7
-64,-11,-7
-63,-10,-7
-63,-10,-7
-63,-10,-6
-64,-11,-6
-65,-11,-7
-63,-11,-5
-63,-11,-5
-64,-12,-5
-64,-12,-5
-63,-12,-5
-63,-12,-5
-63,-12,-6
-64,-12,-7
-64,-12,-8
-64,-12,-8
-64,-12,-8
-64,-12,-8
-64,-12,-8
-64,-11,-7
-64,-11,-8
-64,-11,-8
-64,-11,-7
-64,-11,-7
-64,-12,-7
-64,-12,-6
-64,-12,-6
-64,-12,-7
-64,-12,-6
-63,-12,-5
-63,-12,-6
-64,-12,-8
-64,-11,-8
-63,-11,-8
-63,-10,-9
-64,-10,-10
-63,-11,-10
-63,-10,-10
-64,-11,-10
-64,-11,-10
-63,-11,-11
-63,-10,-11
-64,-10,-11
-64,-10,-12
-63,-10,-12
-64,-10,-12
-64,-11,-11
-63,-11,-10
-63,-11,-10
-63,-11,-11
-64,-11,-11
-63,-11,-11
-63,-11,-12
-64,-11,-13
-64,-11,-12
-63,-11,-11
-63,-11,-12
-64,-10,-12
-63,-11,-12
-64,-11,-12
-64,-9,-12
-63,-10,-12
-63,-9,-11
-63,-10,-12
-64,-11,-12
-63,-11,-10
-63,-10,-9
-63,-10,-10
-64,-10,-10
-64,-11,-10
-63,-10,-9
-63,-10,-9
-64,-10,-10
-64,-10,-10
-64,-10,-9
-64,-10,-9
-64,-10,-9
-64,-9,-9
-64,-10,-8
-63,-10,-8
-64,-9,-9
-64,-9,-8
-63,-9,-8
-64,-10,-9
-64,-10,-9
-64,-9,-9
-64,-10,-10
-63,-10,-10
-63,-10,-12
-64,-10,-12
-63,-10,-12
-63,-10,-13
-62,-9,-14
-63,-9,-15
-63,-8,-16
-62,-8,-16
-62,-8,-17
-62,-9,-19
-63,-9,-20
-61,-10,-19
-62,-11,-16
-63,-11,-16
-62,-11,-15
-62,-11,-15
-62,-9,-17
-62,-9,-16
-64,-8,-18
-63,-8,-19
-62,-8,-18
-63,-9,-17
-64,-9,-17
-62,-9,-16
-62,-9,-16
-63,-9,-16
-63,-9,-16
-63,-9,-15
-62,-9,-15
-62,-9,-15
-62,-8,-15
-62,-8,-15
-62,-8,-15
-63,-8,-15
-63,-8,-14
-63,-8,-13
-63,-8,-13
-63,-8,-13
-63,-8,-13
-63,-8,-13
-64,-8,-12
-64,-9,-12
-64,-9,-12
-64,-9,-11
-64,-9,-12
-63,-8,-12
-64,-8,-11
-64,-8,-11
-63,-8,-12
-63,-8,-11
-63,-8,-11
-63,-8,-11
-63,-8,-11
-63,-9,-10
-63,-8,-10
-64,-8,-10
-64,-8,-10
-64,-8,-10
-64,-8,-9
-64,-8,-9
-64,-8,-8
-65,-8,-9
-66,-8,-9
-65,-8,-9
-65,-9,-9
-65,-8,-9
-64,-8,-9
-64,-8,-8
-65,-8,-8
-65,-8,-8
-66,-7,-8
-65,-8,-7
-67,-8,-7
-64,-7,-7
-63,-7,-7
-63,-6,-8
-63,-6,-8
-62,-6,-8
-62,-6,-8
-63,-7,-9
-63,-7,-8
-63,-6,-8
-64,-6,-9
-64,-6,-8
-64,-6,-7
-64,-5,-8
-65,-6,-8
-65,-6,-7
-65,-6,-7
-65,-6,-7
-65,-6,-8
-65,-6,-7
-65,-6,-8
-65,-6,-7
-66,-7,-7
-65,-7,-7
-65,-7,-7
-64,-7,-7
-64,-7,-7
-65,-7,-7
-65,-7,-8
-64,-7,-8
-65,-7,-9
-64,-6,-9
-64,-6,-8
-65,-7,-9
-63,-6,-9
-65,-6,-9
-65,-7,-8
-63,-7,-8
-64,-6,-9
-64,-6,-8
-65,-6,-9
-64,-6,-9
-64,-6,-9
-64,-7,-9
-65,-7,-9
-63,-7,-9
-63,-7,-9
-65,-7,-9
-64,-7,-9
-64,-7,-9
-64,-6,-10
-63,-5,-11
-62,-4,-11
-63,-5,-12
-62,-6,-13
-63,-6,-13
-63,-6,-13
-65,-6,-15
-64,-6,-13
-61,-6,-12
-63,-7,-12
-65,-6,-12
-62,-7,-12
-63,-7,-12
-65,-7,-13
-64,-7,-13
-64,-7,-14
-65,-6,-15
-64,-6,-15
-64,-5,-16
-64,-5,-16
-64,-5,-17
-63,-4,-18
-64,-4,-18
-63,-3,-19
-64,-3,-19
-64,-3,-18
-65,-3,-19
-64,-2,-18
-65,-2,-18
-64,-2,-18
-64,-1,-17
-63,-1,-17
-63,0,-17
-63,0,-18
