1.521e+09,1.521e+09
1861.6,0.71878
1862.3,0.73441
1863.1,0.73441
1863.8,0.75003
1864.5,0.71878
1865.3,0.73441
1866,0.76566
1866.7,0.71878
1867.4,0.68753
1868.2,0.79691
1879.3,0.81254
1880,0.70316
1880.8,0.76566
1881.5,0.71878
1882.3,0.79691
1883,0.67191
1883.7,0.73441
1884.4,0.71878
1885.3,0.85941
1886.1,0.81254
1886.9,0.82816
1887.7,0.76566
1888.5,0.78129
1889.2,0.70316
1889.9,0.71878
1890.6,0.65628
1891.2,0.64065
1891.9,0.65628
1892.6,0.70316
1893.2,0.65628
1893.9,0.68753
1894.6,0.73441
1895.3,0.65628
1896,0.65628
1896.7,0.70316
1897.3,0.64065
1898,0.67191
1898.6,0.67191
1899.3,0.67191
1900,0.68753
1904.4,0.67191
1923.2,0.76566
1924,0.75003
1924.7,0.71878
1925.5,0.79691
1926.3,0.76566
1927,0.70316
1927.9,0.89067
1928.5,0.68753
1935.4,0.75003
1936.1,0.75003
1936.9,0.75003
1963.3,0.65628
1963.8,0.57815
1964.5,0.67191
1965.1,0.6094
1965.7,0.6094
1966.4,0.67191
1967,0.64065
1967.8,0.71878
1968.3,0.5469
1969.1,0.76566
1969.7,0.64065
1970.4,0.67191
1974.5,0.68753
1975.2,0.65628
1975.9,0.68753
1976.5,0.68753
1982.1,0.71878
1982.7,0.65628
1983.5,0.73441
1984.2,0.71878
1984.9,0.70316
1990.9,0.68753
1991.6,0.73441
1992.3,0.70316
1993,0.70316
1993.7,0.71878
1994.4,0.67191
1995.1,0.70316
1995.8,0.67191
2001.3,0.73441
2002,0.64065
2002.7,0.71878
2003.5,0.79691
2004.2,0.70316
2004.9,0.70316
2005.6,0.73441
2006.3,0.65628
2007,0.75003
2007.7,0.68753
2008.4,0.67191
2009.1,0.70316
2009.8,0.67191
2010.5,0.70316
2014.6,0.71878
2015.4,0.79691
2025.5,0.76566
2026.2,0.71878
2026.9,0.68753
2027.6,0.70316
2028.3,0.70316
2029,0.71878
2029.6,0.6094
2030.4,0.78129
2031.1,0.68753
2031.9,0.75003
2032.5,0.65628
2033.2,0.73441
2033.9,0.67191
2034.6,0.70316
2035.3,0.65628
2039.4,0.6094
2040,0.62503
2050.8,0.70316
2051.4,0.62503
2056.5,0.70316
2057.2,0.70316
2057.9,0.70316
2058.6,0.68753
2059.3,0.70316
2060,0.70316
2060.7,0.68753
2061.5,0.73441
2062.2,0.70316
2062.9,0.75003
2063.7,0.75003
2064.4,0.73441
2065.1,0.73441
2065.8,0.71878
2066.5,0.70316
2067.2,0.68753
2067.9,0.70316
2068.6,0.65628
2069.3,0.65628
2075.7,0.71878
2076.4,0.70316
2077.2,0.71878
2077.9,0.71878
2078.6,0.71878
2079.3,0.73441
2091.9,0.65628
2092.6,0.68753
2093.3,0.68753
2094.1,0.82816
2097.5,0.68753
2098.3,0.70316
2098.9,0.68753
2099.7,0.71878
2100.4,0.70316
2113.9,0.65628
2130.3,0.62503
2131,0.70316
2131.6,0.65628
2132.3,0.67191
2133,0.68753
2133.8,0.75003
2134.5,0.78129
2135.3,0.76566
2155,0.65628
