1.521e+09,1.521e+09,1.521e+09
32,32,32
-60,-2,27
-60,-2,28
-60,-2,28
-60,-2,28
-60,-2,28
-60,-2,28
-60,-2,28
-60,-2,28
-60,-2,28
-60,-2,28
-60,-2,28
-60,-2,28
-60,-2,28
-60,-2,28
-59,-2,28
-59,-2,28
-60,-2,29
-60,-2,28
-60,-2,27
-60,-2,27
-61,-2,27
-61,-2,26
-61,-2,26
-61,-2,26
-60,-2,27
-61,-1,26
-60,-1,27
-61,-1,26
-62,-1,26
-62,-1,25
-61,-1,25
-61,-1,25
-61,-1,25
-61,-1,25
-61,-1,25
-62,-1,25
-62,-1,25
-61,-1,24
-61,-1,24
-62,-1,23
-62,-1,23
-62,-1,22
-62,-1,22
-62,-1,22
-63,0,22
-62,-1,21
-63,0,20
-63,0,20
-64,0,19
-64,0,18
-64,0,17
-64,0,16
-64,0,16
-64,0,16
-64,0,16
-64,0,15
-65,0,15
-65,0,15
-65,0,14
-65,0,13
-64,0,12
-65,0,12
-65,0,12
-65,0,10
-65,0,10
-64,0,10
-64,0,9
-65,0,7
-66,0,6
-65,0,5
-66,0,3
-66,0,1
-67,0,0
-66,0,1
-66,-1,-1
-66,-1,-2
-65,-1,-3
-66,-1,-3
-66,-1,-3
-65,-1,-3
-65,-1,-3
-65,-1,-3
-66,-1,-4
-65,-1,-3
-64,-1,-5
-65,-1,-5
-65,-1,-5
-65,-1,-6
-65,-2,-8
-65,-1,-8
-64,-1,-10
-65,-1,-11
-65,-1,-11
-64,-1,-11
-64,-1,-12
-64,-1,-12
-64,-1,-13
-64,-1,-12
-64,-1,-13
-64,-1,-13
-64,-1,-14
-64,-1,-14
-64,-1,-14
-63,-1,-14
-64,-1,-14
-64,-1,-14
-64,-1,-15
-63,-1,-14
-63,-1,-14
-63,-1,-15
-63,-1,-15
-63,-1,-16
-63,-2,-16
-63,-1,-16
-63,-2,-16
-63,-2,-16
-63,-1,-15
-63,-1,-15
-63,-2,-16
-63,-2,-16
-63,-2,-16
-63,-2,-16
-63,-1,-16
-63,-2,-16
-63,-2,-16
-63,-2,-16
-63,-2,-16
-63,-2,-16
-63,-2,-16
-63,-2,-17
-63,-2,-16
-63,-2,-17
-63,-2,-17
-63,-2,-17
-63,-2,-17
-63,-2,-17
-63,-2,-16
-63,-2,-17
-63,-2,-17
-63,-2,-17
-63,-2,-17
-62,-2,-17
-62,-2,-18
-62,-2,-18
-62,-2,-20
-62,-2,-18
-62,-2,-19
-62,-2,-20
-62,-2,-19
-62,-2,-20
-62,-2,-19
-61,-2,-20
-62,-2,-20
-61,-2,-20
-61,-2,-22
-62,-1,-23
-61,-2,-21
-61,-1,-22
-61,-1,-23
-61,-1,-20
-61,-1,-20
-62,-1,-21
-61,-1,-20
-61,-1,-21
-62,-1,-21
-61,-1,-20
-61,-1,-22
-62,-1,-21
-61,-1,-20
-61,-1,-21
-62,-1,-21
-61,-1,-20
-61,-1,-20
-62,0,-22
-62,0,-22
-60,-1,-20
-60,0,-21
-62,0,-23
-60,0,-21
-60,0,-22
-60,1,-23
-61,1,-23
-61,1,-24
-61,2,-23
-61,2,-23
-60,2,-23
-61,2,-24
-60,2,-24
-60,2,-24
-60,2,-24
-60,2,-25
-60,3,-25
-60,3,-25
-60,3,-25
-59,3,-25
-60,3,-25
-59,4,-26
-59,4,-26
-59,4,-26
-59,4,-26
-59,4,-26
-59,4,-26
-59,5,-27
-59,4,-27
-58,4,-27
-59,5,-27
-58,5,-27
-58,5,-27
-58,5,-28
-58,5,-28
-58,5,-27
-59,5,-27
-58,5,-27
-58,5,-27
-58,5,-27
-58,5,-27
-58,5,-27
-58,5,-28
-58,5,-28
-58,5,-29
-58,5,-29
-58,5,-30
-57,5,-29
-57,5,-29
-57,5,-29
-57,5,-29
-57,5,-29
-57,5,-29
-57,5,-29
-57,5,-29
-57,5,-29
-57,5,-29
-57,5,-30
-57,5,-30
-57,5,-30
-57,5,-30
-57,5,-30
-57,5,-30
-57,5,-30
-57,5,-30
-57,5,-30
-57,5,-30
-57,5,-30
-57,5,-30
-57,5,-30
-56,5,-30
-57,5,-31
-56,5,-30
-56,5,-31
-57,5,-31
-56,5,-31
-56,5,-31
-57,5,-31
-56,5,-31
-56,5,-31
-56,5,-31
-56,5,-31
-56,5,-31
-56,5,-31
-56,5,-31
-56,5,-31
-56,5,-31
-56,5,-31
-56,5,-31
-56,5,-31
-56,5,-31
-56,5,-31
-56,5,-31
-56,5,-31
-56,5,-31
-56,5,-31
-56,5,-30
-56,5,-30
-56,5,-31
-57,5,-31
-56,5,-31
-56,5,-31
-57,5,-30
-56,5,-31
-57,5,-30
-57,5,-31
-56,5,-31
-56,5,-31
-57,5,-30
-57,6,-30
-57,6,-30
-57,6,-30
-57,6,-30
-57,6,-30
-56,6,-30
-57,6,-30
-57,6,-31
-57,6,-30
-56,5,-30
-57,6,-30
-57,6,-30
-57,6,-30
-57,6,-30
-57,5,-30
-57,5,-29
-57,5,-30
-57,5,-30
-57,6,-30
-57,6,-30
-57,5,-30
-57,5,-30
-57,5,-30
-57,5,-29
-57,5,-29
-57,5,-29
-57,5,-29
-57,5,-29
-57,6,-29
-57,6,-29
-57,6,-29
-57,6,-29
-57,5,-29
-57,5,-29
-57,5,-29
-57,5,-29
-57,5,-29
-57,5,-29
-57,5,-29
-57,5,-29
-57,4,-29
-57,4,-29
-57,4,-29
-57,4,-29
-57,4,-30
-57,4,-30
-57,4,-30
-57,4,-30
-57,4,-30
-57,4,-30
-57,4,-30
-57,4,-31
-57,4,-30
-57,4,-30
-57,4,-30
-57,4,-30
-57,4,-30
-57,4,-30
-57,4,-30
-57,4,-30
-57,4,-30
-57,4,-30
-57,4,-30
-57,4,-30
-57,4,-30
-57,4,-30
-57,4,-30
-57,4,-31
-57,4,-30
-56,4,-31
-57,4,-31
-57,4,-31
-57,4,-31
-57,4,-30
-57,4,-30
-57,4,-30
-57,4,-30
-57,4,-30
-57,4,-31
-57,4,-30
-57,4,-31
-57,4,-31
-57,4,-30
-57,4,-30
-57,4,-30
-56,4,-30
-56,4,-30
-57,4,-30
-57,4,-30
-56,4,-30
-56,4,-30
-57,4,-30
-57,4,-30
-57,4,-30
-56,4,-31
-56,4,-30
-57,4,-30
-57,5,-30
-57,4,-31
-56,5,-31
-56,5,-30
-56,4,-30
-57,5,-31
-57,5,-31
-56,5,-31
-56,5,-31
-56,5,-31
-56,5,-31
-56,5,-31
-56,5,-31
-56,5,-31
-56,5,-31
-56,5,-30
-56,5,-30
-56,5,-30
-56,5,-30
-56,5,-30
-56,6,-31
-57,6,-30
-56,5,-31
-56,5,-30
-56,5,-31
-57,5,-31
-56,5,-30
-56,5,-31
-56,5,-31
-56,5,-31
-56,5,-31
-56,5,-31
-56,5,-31
-56,5,-31
-56,5,-31
-56,5,-31
-56,5,-31
-56,5,-31
-56,5,-31
-56,5,-31
-56,5,-31
-56,5,-31
-56,5,-31
-56,5,-30
-56,5,-31
-56,5,-31
-56,6,-31
-56,6,-31
-56,5,-31
-57,6,-31
-57,6,-31
-56,6,-30
-56,6,-30
-56,6,-31
-56,6,-31
-56,6,-30
-56,6,-31
-56,6,-31
-56,6,-31
-56,6,-31
-56,5,-31
-57,6,-31
-56,6,-31
-56,5,-30
-56,5,-31
-56,6,-31
-56,6,-31
-56,5,-31
-56,5,-31
-56,5,-31
-56,5,-31
-56,5,-31
-56,5,-31
-56,5,-31
-56,5,-31
-56,4,-31
-56,5,-31
-56,4,-30
-56,5,-31
-57,5,-30
-56,5,-30
-56,5,-31
-57,5,-31
-57,5,-31
-56,5,-31
-56,5,-31
-56,5,-31
-56,5,-31
-57,5,-31
-56,5,-30
-57,5,-31
-56,5,-30
-56,5,-30
-56,5,-31
-56,5,-31
-56,5,-30
-57,5,-30
-57,5,-31
-57,5,-30
-56,5,-30
-57,5,-31
-57,4,-31
-57,4,-30
-57,4,-30
-56,5,-30
-56,4,-30
-56,4,-31
-57,5,-31
-57,5,-31
-56,5,-30
-56,5,-30
-57,5,-31
-57,5,-30
-57,5,-30
-57,5,-30
-56,5,-30
-57,5,-30
-57,5,-31
-57,5,-30
-57,5,-30
-56,5,-30
-56,5,-30
-57,5,-30
-57,5,-31
-56,5,-31
-57,5,-30
-57,5,-30
-57,5,-29
-57,5,-30
-57,4,-30
-57,5,-30
-57,5,-30
-57,5,-30
-57,5,-30
-57,5,-30
-57,5,-30
-56,5,-31
-57,5,-31
-57,5,-31
-57,5,-30
-57,4,-30
-57,5,-30
-57,5,-30
-57,5,-30
-57,5,-30
-57,5,-31
-57,5,-30
-57,4,-29
-57,4,-30
-57,4,-30
-57,4,-30
-57,4,-30
-57,4,-29
-57,4,-29
-57,4,-29
-57,4,-29
-57,5,-30
-57,5,-30
-57,4,-30
-57,5,-30
-57,5,-30
-57,5,-29
-57,5,-30
-57,4,-30
-57,4,-29
-57,4,-30
-57,5,-30
-57,5,-31
-57,4,-30
-57,5,-30
-57,5,-29
-57,5,-30
-57,4,-30
-57,4,-30
-57,4,-30
-57,4,-30
-57,5,-30
-57,4,-30
-57,5,-30
-57,4,-30
-57,4,-30
-57,4,-30
-57,4,-30
-57,4,-30
-57,4,-30
-57,4,-30
-57,4,-30
-57,5,-30
-57,5,-30
-57,4,-30
-57,5,-30
-57,4,-30
-57,4,-30
-57,5,-30
-56,4,-30
-57,5,-30
-57,5,-30
-57,5,-30
-56,5,-30
-57,5,-30
-57,5,-31
-56,5,-31
-56,5,-31
-56,5,-31
-57,5,-30
-57,5,-31
-57,5,-30
-56,5,-31
-57,5,-31
-56,5,-31
-56,5,-30
-56,5,-31
-57,5,-31
-56,5,-31
-56,5,-31
-56,5,-31
-56,5,-31
-56,5,-31
-56,5,-31
-56,5,-31
-56,5,-31
-56,5,-31
-56,5,-31
-56,5,-31
-56,5,-31
-56,5,-31
-56,5,-31
-56,5,-31
-56,5,-31
-56,5,-31
-56,5,-31
-56,5,-31
-56,5,-31
-56,5,-31
-56,5,-31
-56,5,-31
-56,5,-31
-56,5,-31
-56,5,-31
-56,5,-31
-56,5,-31
-56,5,-31
-56,5,-31
-56,5,-31
-56,5,-31
-56,5,-31
-56,5,-31
-56,5,-31
-56,5,-31
-56,5,-31
-56,5,-31
-56,5,-31
-56,5,-31
-56,5,-31
-56,5,-31
-56,5,-31
-56,5,-31
-56,5,-31
-56,5,-31
-56,5,-31
-56,4,-31
-56,5,-31
-56,4,-31
-56,5,-31
-56,5,-31
-56,5,-31
-56,5,-31
-56,5,-32
-56,4,-32
-56,4,-32
-56,5,-32
-56,5,-32
-56,5,-31
-56,4,-31
-56,4,-32
-56,4,-32
-56,4,-32
-56,4,-32
-56,5,-32
-56,5,-32
-56,5,-31
-56,5,-31
-56,5,-31
-56,5,-31
-56,5,-31
-56,5,-32
-56,5,-32
-56,5,-31
-56,5,-32
-56,5,-32
-56,5,-32
-56,5,-32
-55,4,-32
-56,5,-32
-56,5,-32
-56,5,-32
-55,5,-32
-55,5,-32
-55,5,-32
-56,5,-32
-55,4,-32
-56,5,-32
-56,5,-32
-55,5,-32
-55,5,-32
-56,5,-32
-55,5,-32
-56,5,-32
-55,5,-32
-55,5,-32
-55,5,-32
-56,5,-32
-56,5,-32
-55,5,-32
-56,5,-32
-56,5,-32
-56,5,-32
-56,5,-32
-56,5,-32
-56,5,-32
-55,5,-32
-56,5,-32
-56,5,-32
-55,5,-32
-55,5,-32
-55,5,-32
-55,5,-32
-55,5,-32
-56,5,-32
-55,5,-32
-55,4,-32
-56,4,-32
-56,5,-33
-56,4,-32
-55,5,-32
-56,4,-32
-55,4,-32
-55,4,-32
-55,4,-32
-56,4,-32
-56,5,-32
-56,5,-32
-55,5,-32
-56,5,-32
-56,4,-32
-56,4,-32
-56,5,-32
-55,4,-32
-55,4,-31
-56,5,-32
-56,5,-32
-56,5,-32
-56,5,-32
-56,5,-32
-56,4,-32
-56,5,-32
-56,5,-32
-55,5,-32
-55,5,-32
-56,5,-32
-56,5,-32
-56,4,-32
-55,4,-32
-55,4,-32
-56,4,-32
-56,4,-32
-55,4,-32
-56,5,-32
-55,4,-32
-56,4,-32
-56,5,-32
-56,4,-32
-56,5,-32
-55,5,-32
-56,5,-33
-55,5,-32
-56,4,-32
-56,5,-32
-56,5,-32
-56,5,-32
-56,5,-32
-55,5,-32
-56,5,-32
-56,5,-31
-56,5,-32
-56,5,-32
-56,5,-32
-56,5,-32
-56,5,-32
-56,5,-32
-56,5,-32
-56,5,-32
-56,5,-32
-56,5,-32
-56,5,-32
-56,5,-32
-56,5,-32
-56,5,-32
-56,5,-32
-56,5,-32
-56,5,-32
-56,5,-32
-56,5,-32
-56,5,-32
-56,5,-32
-56,5,-32
-56,5,-32
-56,5,-31
-56,5,-32
-56,5,-32
-56,5,-32
-56,5,-32
-56,5,-32
-55,5,-32
-56,5,-32
-56,5,-32
-56,5,-32
-55,5,-32
-56,5,-32
-56,5,-31
-56,5,-32
-56,5,-32
-56,5,-32
-56,4,-32
-56,5,-32
-56,5,-31
-56,5,-32
-56,5,-32
-56,5,-32
-56,5,-32
-56,5,-32
-56,5,-31
-55,4,-31
-56,4,-31
-57,5,-31
-56,4,-31
-56,5,-31
-57,5,-31
-56,4,-32
-56,5,-31
-56,5,-31
-56,5,-31
-56,5,-31
-56,5,-31
-56,4,-31
-56,5,-32
-56,5,-31
-56,5,-31
-56,5,-31
-56,5,-31
-57,5,-32
-57,5,-32
-55,5,-31
-56,5,-31
-57,5,-32
-56,5,-31
-55,5,-31
-56,5,-32
-56,5,-32
-56,4,-32
-55,4,-32
-55,4,-32
-56,4,-32
-56,4,-33
-55,4,-32
-55,4,-32
-56,4,-33
-56,4,-32
-55,4,-32
-56,4,-32
-56,4,-32
-55,4,-31
-56,4,-31
-56,4,-31
-56,4,-30
-56,4,-31
-57,4,-31
-56,4,-30
-57,4,-30
-58,5,-31
-58,5,-29
-58,4,-28
-58,4,-27
-59,4,-25
-59,4,-26
-60,3,-25
-59,3,-23
-58,3,-25
-59,3,-26
-59,3,-26
-59,3,-26
-59,3,-27
-59,4,-26
-59,4,-27
-59,4,-27
-59,4,-26
-59,4,-27
-59,4,-26
-59,4,-26
-59,4,-27
-59,4,-26
-59,4,-27
-58,4,-27
-58,3,-26
-59,3,-26
-59,4,-26
-58,4,-27
-58,4,-28
-58,4,-28
-58,4,-29
-58,4,-29
-58,4,-29
-57,4,-29
-57,4,-29
-57,4,-29
-57,4,-29
-57,5,-30
-57,5,-30
-57,5,-31
-56,5,-30
-56,5,-31
-56,5,-31
-56,5,-32
-56,5,-31
-56,4,-31
-56,4,-32
-56,4,-32
-55,4,-32
-55,4,-32
-55,4,-33
-55,4,-34
-55,4,-34
-54,3,-34
-54,3,-34
-54,3,-35
-53,3,-35
-53,3,-36
-52,3,-36
-52,3,-37
-52,3,-37
-52,3,-37
-52,3,-37
-52,3,-38
-52,3,-38
-51,3,-38
-52,3,-38
-52,3,-38
-52,3,-38
-52,3,-37
-52,3,-37
-52,3,-37
-52,2,-37
-52,2,-38
-52,2,-37
-51,2,-37
-52,2,-38
-52,2,-38
-52,2,-38
-53,2,-37
-52,2,-37
-52,1,-36
-52,1,-36
-53,1,-36
-53,2,-36
-53,1,-36
-53,2,-36
-53,1,-36
-53,2,-36
-53,2,-36
-53,2,-36
-53,2,-35
-54,1,-35
-54,1,-36
-53,1,-35
-53,2,-36
-54,1,-35
-54,2,-35
-54,2,-35
-54,2,-35
-54,2,-34
-54,2,-34
-55,2,-34
-54,2,-33
-55,2,-34
-55,2,-34
-54,3,-33
-55,3,-34
-55,3,-34
-54,3,-34
-54,3,-34
-55,3,-34
-55,3,-34
-55,3,-34
-55,3,-33
-56,3,-33
-56,3,-31
-56,3,-31
-56,2,-31
-56,3,-30
-57,3,-30
-56,2,-30
-56,2,-30
-57,2,-31
-56,3,-31
-57,3,-31
-56,3,-31
-57,3,-31
-57,2,-31
-57,3,-30
-57,2,-30
-57,3,-31
-57,2,-30
-57,3,-31
-57,2,-30
-57,2,-30
-57,2,-29
-57,2,-28
-58,2,-28
-57,2,-28
-57,2,-29
-57,2,-30
-57,2,-30
-58,2,-29
-57,2,-30
-57,2,-29
-57,2,-29
-58,2,-29
-58,2,-29
-58,2,-29
-58,2,-29
-58,2,-29
-58,2,-29
-58,2,-29
-58,2,-28
-59,2,-28
-59,2,-27
-59,1,-26
-59,1,-26
-60,1,-26
-59,1,-26
-60,0,-25
-60,0,-24
-60,0,-24
-60,0,-23
-60,-1,-23
-61,-1,-23
-61,-1,-22
-61,-1,-22
-61,-1,-22
-61,-1,-22
-60,-1,-21
-61,-1,-22
-61,-1,-23
-61,-1,-23
-61,-1,-22
-61,-1,-22
-61,-1,-22
-61,-1,-22
-61,-1,-22
-61,-1,-22
-62,-1,-21
-62,-1,-20
-62,-1,-21
-62,-1,-19
-62,-1,-18
-62,-1,-18
-62,-1,-18
-62,-1,-17
-63,-1,-17
-62,-1,-15
-64,-1,-17
-63,-2,-16
-64,-1,-15
-63,-1,-14
-63,-2,-14
-64,-1,-13
-64,-1,-12
-64,-1,-12
-65,-1,-13
-63,-1,-12
-64,-1,-12
-65,0,-12
-66,0,-12
-65,0,-12
-64,0,-12
-64,0,-10
-64,1,-9
-65,1,-7
-66,0,-9
-64,1,-9
-65,0,-10
-65,0,-8
-66,0,-8
-64,0,-6
-66,1,-5
-67,1,-4
-66,1,-2
-65,1,-1
-66,1,1
-67,1,3
-67,1,4
-66,0,8
-66,1,10
-68,1,10
-67,1,12
-63,0,15
-64,-1,17
-66,-2,16
-63,-3,18
-62,-3,20
-63,-5,21
-61,-4,23
-61,-5,25
-61,-5,25
-61,-5,25
-59,-5,27
-58,-5,28
-58,-5,29
-59,-3,31
-57,-4,30
-55,-4,31
-54,-4,32
-52,-2,38
-48,-2,40
-51,0,42
-48,1,44
-47,2,46
-46,2,45
-46,3,46
-46,2,43
-46,2,43
-51,2,46
-54,3,46
-55,2,46
-53,2,42
-49,1,42
-47,1,43
-49,2,44
-51,2,45
-51,3,45
-50,3,45
-46,3,46
-47,2,45
-45,2,47
-47,2,46
-45,2,47
-45,2,49
-45,2,50
-44,2,49
-44,2,49
-42,2,51
-41,2,52
-41,2,52
-40,1,51
-40,1,52
-38,0,53
-38,0,53
-37,0,53
-39,1,53
-39,1,53
-38,1,54
-39,1,53
-38,1,54
-38,1,53
-37,1,54
-37,1,53
-37,1,54
-36,1,55
-36,1,54
-37,1,54
-37,1,54
-37,1,54
-37,2,54
-37,1,54
-37,1,54
-37,1,54
-38,1,54
-38,2,54
-38,2,53
-37,1,53
-37,1,53
-38,1,54
-38,1,54
-38,1,54
-38,1,53
-37,1,54
-38,1,54
-38,1,54
-37,1,54
-36,1,54
-36,1,55
-36,1,55
-35,0,55
-35,0,55
-36,0,54
-35,0,55
-35,0,55
-36,0,55
-35,0,55
-36,1,55
-36,1,55
-36,1,55
-36,1,55
-37,2,55
-36,1,55
-36,1,55
-36,1,55
-36,1,55
-36,1,55
-36,1,55
-35,1,55
-35,1,55
-36,1,55
-36,1,55
-36,1,55
-36,2,55
-36,2,55
-36,2,55
-35,1,55
-35,1,55
-35,1,55
-36,1,55
-36,2,55
-35,1,55
-35,1,55
-35,1,56
-35,1,56
-36,1,55
-35,1,55
-36,1,55
-35,1,55
-35,1,56
-35,1,55
-35,1,55
-35,1,55
-35,1,55
-35,2,56
-35,2,56
-35,2,55
-35,1,55
-35,2,55
-35,2,55
-35,1,56
-35,1,55
-34,1,55
-35,1,56
-35,2,56
-35,2,56
-35,2,55
-36,2,55
-35,2,55
-35,2,55
-35,2,55
-35,2,55
-36,2,55
-36,1,55
-35,2,55
-36,2,55
-36,1,55
-35,2,55
-36,2,55
-36,2,55
-36,2,55
-36,2,55
-36,2,55
-36,2,55
-36,2,55
-36,2,55
-36,1,55
-36,2,55
-36,2,55
-36,2,55
-36,2,55
-36,2,55
-36,2,55
-36,2,55
-36,2,55
-36,2,55
-35,2,55
-36,2,55
-36,2,55
-36,2,55
-36,2,55
-36,2,55
-35,1,55
-36,1,55
-36,2,55
-36,2,55
-36,2,55
-36,2,55
-36,2,55
-36,2,55
-36,1,55
-36,2,55
-36,2,55
-36,2,55
-36,2,55
-36,2,55
-36,2,55
-36,2,55
-36,2,55
-36,2,55
-36,2,55
-36,2,55
-36,2,55
-36,2,55
-36,2,55
-36,2,55
-36,1,55
-36,1,55
-36,1,55
-36,2,54
-36,1,55
-36,1,55
-36,1,54
-36,2,54
-36,2,55
-36,1,55
-36,1,55
-36,2,55
-36,2,55
-36,1,55
-36,2,55
-36,2,55
-36,2,54
-36,2,55
-36,1,55
-36,1,55
-36,1,54
-36,2,55
-36,1,54
-36,1,55
-36,1,55
-37,2,55
-37,1,55
-37,1,54
-37,1,54
-37,1,54
-36,1,55
-35,1,55
-34,1,56
-33,1,56
-32,0,57
-32,1,57
-32,0,57
-32,0,57
-32,0,56
-32,0,57
-32,0,57
-31,0,57
-31,0,57
-30,0,57
-30,0,58
-30,0,57
-30,0,58
-30,0,57
-30,0,58
-30,0,58
-30,0,58
-30,0,57
-31,0,57
-31,0,57
-31,0,58
-31,0,58
-31,0,57
-32,0,57
-32,0,57
-31,0,57
-32,0,57
-32,0,57
-32,0,57
-33,0,57
-33,0,56
-33,1,56
-33,1,56
-33,1,56
-33,1,56
-33,1,56
-33,0,56
-33,1,56
-33,1,56
-33,1,56
-33,1,56
-33,1,56
-34,1,56
-34,1,56
-34,1,56
-33,1,56
-33,1,56
-34,1,56
-34,1,56
-34,1,56
-34,1,56
-35,1,55
-34,1,56
-34,1,55
-35,1,56
-34,1,56
-34,1,56
-34,1,56
-34,1,56
-34,1,56
-34,1,56
-34,1,56
-34,1,56
-34,1,56
-35,1,55
-34,1,56
-35,1,56
-34,1,56
-34,1,56
-34,1,56
-34,1,56
-35,1,56
-35,1,56
-35,1,56
-35,1,56
-35,1,55
-35,1,56
-35,1,56
-35,1,55
-35,1,55
-35,1,56
-35,1,55
-35,1,55
-35,1,55
-35,1,55
-35,1,56
-35,1,55
-35,1,55
-35,1,55
-35,1,55
-35,1,56
-35,1,55
-35,1,55
-35,1,55
-35,1,56
-34,1,56
-35,1,55
-35,1,55
-35,1,55
-35,1,55
-35,1,55
-35,1,55
-35,1,55
-35,1,55
-35,1,55
-35,1,55
-35,1,55
-35,1,55
-35,1,56
-35,1,55
-35,1,55
-35,1,55
-35,1,56
-35,1,55
-35,1,55
-35,1,55
-35,1,55
-35,1,56
-35,1,55
-35,1,56
-35,1,56
-35,1,55
-35,1,55
-35,1,55
-35,1,56
-35,1,55
-35,1,55
-35,1,55
-35,1,55
-35,1,56
-35,1,55
-35,1,55
-35,1,55
-35,1,55
-35,1,55
-35,1,55
-35,1,55
-35,1,55
-35,1,55
-35,1,55
-35,1,56
-35,1,56
-35,1,55
-35,1,55
-35,1,55
-35,1,55
-35,1,55
-35,1,55
-35,1,55
-35,1,55
-35,1,55
-35,1,55
-35,1,55
-35,1,55
-35,1,55
-35,1,55
-35,1,56
-35,1,55
-35,1,55
-35,1,55
-35,1,55
-35,1,55
-35,1,55
-35,1,56
-35,1,55
-35,1,56
-35,1,55
-36,1,55
-35,1,56
-35,1,55
-35,1,55
-36,1,55
-36,1,54
-37,1,54
-37,1,54
-36,1,55
-36,1,54
-37,1,54
-38,1,54
-37,1,54
-36,2,55
-36,2,55
-37,2,54
-38,1,54
-37,2,54
-37,2,54
-38,1,54
-38,1,53
-38,1,54
-38,1,54
-37,1,54
-37,1,54
-37,1,54
-37,1,54
-37,1,54
-37,1,54
-38,1,54
-37,1,53
-37,1,54
-37,1,54
-37,1,54
-36,0,54
-36,0,54
-36,0,54
-37,1,54
-36,0,54
-36,1,55
-36,1,55
-36,0,54
-35,0,55
-36,1,55
-36,1,55
-35,0,55
-34,0,55
-35,0,55
-34,0,56
-33,0,55
-33,0,56
-33,0,56
-33,0,57
-32,1,56
-33,1,56
-34,1,56
-33,1,56
-33,0,56
-33,0,56
-33,0,56
-33,0,57
-33,0,56
-33,1,56
-33,0,56
-33,0,56
-33,0,56
-34,0,56
-34,0,56
-33,0,56
-34,0,55
-34,0,56
-34,1,56
-34,1,56
-35,1,55
-34,1,56
-35,1,56
-34,1,55
-34,0,56
-35,1,55
-35,1,55
-35,0,55
-35,1,55
-35,0,55
-36,0,55
-36,0,55
-36,0,54
-36,0,55
-37,1,54
-36,0,55
-36,1,55
-37,1,54
-37,0,55
-36,0,55
-36,0,54
-37,1,54
-37,1,54
-37,1,54
-37,1,54
-37,1,54
-37,1,53
-37,0,54
-37,1,54
-38,0,54
-37,1,54
-37,0,54
-37,0,54
-37,1,54
-37,0,54
-37,0,54
-37,1,55
-37,1,54
-37,1,54
-37,0,54
-37,0,54
-38,0,54
-37,0,54
-38,0,54
-37,0,54
-37,0,54
-37,0,54
-37,0,54
-37,0,54
-38,0,54
-38,0,54
-38,0,54
-38,0,53
-38,-1,53
-38,0,54
-38,0,54
-37,0,54
-37,0,54
-37,0,55
-37,0,55
-37,0,54
-37,0,55
-37,0,54
-37,0,55
-36,0,55
-35,0,55
-35,-1,55
-35,-1,55
-36,0,56
-36,0,56
-36,-1,55
-36,-1,55
-36,-1,54
-37,-1,55
-35,-1,55
-35,-1,55
-33,-2,55
-32,-2,55
-33,-1,57
-33,-1,56
-35,0,56
-36,0,55
-35,0,55
-35,0,55
-35,-1,56
-34,0,56
-33,0,56
-34,0,56
-33,0,57
-33,0,56
-34,0,56
-34,0,56
-34,0,56
-34,-1,56
-34,0,56
-34,0,56
-34,0,56
-34,0,55
-34,0,56
-34,0,56
-34,0,56
-34,0,56
-34,0,56
-34,0,56
-33,0,56
-33,0,56
-34,0,56
-35,0,55
-35,0,56
-35,0,55
-35,0,56
-35,0,55
-35,0,55
-35,0,55
-35,-1,55
-35,0,55
-35,0,55
-35,0,55
-35,0,55
-36,0,55
-36,0,55
-37,0,54
-36,0,55
-36,0,55
-35,0,55
-35,0,55
-36,0,55
-36,0,55
-36,0,55
-34,-1,54
-36,0,55
-37,1,56
-35,0,54
-36,1,55
-37,1,56
-36,1,54
-37,1,55
-37,1,54
-37,1,54
-35,1,54
-37,1,55
-38,1,55
-36,1,54
-35,1,54
-38,1,54
-37,1,55
-37,2,54
-38,2,55
-38,1,54
-37,1,54
-37,0,53
-37,0,54
-37,0,54
-36,0,55
-37,0,54
-37,0,55
-36,0,55
-36,0,55
-37,0,54
-36,0,55
-37,0,54
-36,0,55
-38,0,54
-38,1,54
-38,0,54
-36,1,54
-36,0,54
-37,1,55
-37,1,54
-37,0,54
-37,1,53
-38,1,54
-38,1,54
-38,1,54
-38,1,53
-38,1,54
-38,1,53
-39,1,53
-38,1,53
-38,1,53
-38,1,52
-40,2,53
-39,2,53
-39,2,53
-40,2,52
-39,2,52
-40,2,53
-39,2,52
-40,2,52
-41,2,52
-41,2,52
-40,2,52
-40,2,52
-40,3,52
-40,3,52
-41,2,52
-40,2,52
-40,2,52
-40,2,52
-40,2,51
-40,2,51
-40,2,51
-40,2,52
-40,2,51
-40,2,52
-40,2,52
-40,2,52
-40,2,52
-40,2,52
-40,2,52
-40,2,51
-40,2,52
-40,2,52
-40,2,52
-40,2,52
-40,2,52
-40,2,52
-41,2,52
-40,2,52
-40,2,52
-40,2,52
-40,2,52
-40,2,52
-40,2,52
-41,2,52
-41,1,52
-41,2,52
-40,1,52
-40,1,51
-41,1,52
-40,1,52
-40,1,52
-40,1,51
-41,1,51
-41,1,51
-41,1,51
-40,1,52
-41,1,51
-41,1,51
-41,1,51
-41,1,51
-41,1,51
-41,1,51
-41,1,51
-41,1,51
-41,1,51
-41,1,51
-41,1,51
-41,1,51
-41,1,51
-41,1,51
-41,1,51
-41,1,51
-41,1,51
-42,1,50
-41,1,51
-42,1,51
-41,1,51
-41,1,51
-41,1,51
-41,1,51
-42,1,50
-42,1,51
-42,1,50
-42,1,50
-42,1,50
-42,1,50
-42,1,50
-42,1,50
-42,2,50
-43,2,50
-43,1,50
-43,1,50
-41,1,50
-42,1,50
-44,1,50
-43,1,50
-42,1,50
-42,1,50
-42,2,50
-43,1,50
-43,1,50
-42,2,50
-42,1,50
-42,1,50
-42,1,50
-43,1,50
-42,1,50
-43,1,50
-43,1,50
-42,1,50
-42,1,50
-42,2,50
