1.5206e+09,1.5206e+09,1.5206e+09
32,32,32
49,-6,-40
48,-6,-40
47,-6,-39
48,-7,-40
47,-7,-40
48,-7,-41
49,-7,-41
49,-7,-41
48,-7,-40
49,-7,-40
48,-7,-40
49,-6,-40
49,-7,-40
49,-7,-40
49,-6,-39
49,-6,-39
48,-6,-38
49,-6,-38
50,-6,-38
50,-5,-38
49,-5,-38
48,-5,-37
51,-6,-38
49,-6,-38
50,-6,-37
51,-7,-38
51,-7,-38
52,-7,-37
51,-7,-37
52,-6,-36
52,-7,-36
52,-6,-36
51,-6,-35
52,-6,-34
52,-7,-34
53,-7,-34
52,-7,-33
54,-7,-32
54,-7,-32
54,-7,-32
54,-7,-31
56,-7,-30
55,-8,-30
57,-8,-29
56,-8,-28
57,-8,-28
57,-9,-27
57,-9,-26
57,-9,-25
57,-9,-24
58,-9,-24
59,-9,-23
60,-9,-22
58,-9,-21
59,-10,-20
59,-10,-18
59,-10,-18
59,-10,-16
60,-11,-16
61,-11,-15
61,-11,-14
61,-11,-13
61,-11,-11
60,-11,-11
60,-11,-8
61,-12,-6
59,-12,-5
59,-12,-4
61,-13,-3
60,-13,-3
59,-14,-3
59,-15,-2
58,-16,-3
59,-16,-2
57,-16,-2
58,-16,-2
58,-16,-1
58,-16,0
58,-16,0
62,-17,2
59,-18,1
60,-18,-2
62,-19,-2
63,-18,0
60,-18,-2
60,-17,-2
60,-16,-3
60,-16,-3
62,-17,-4
64,-17,-4
62,-17,-4
60,-17,-4
62,-17,-4
63,-17,-5
62,-17,-5
61,-16,-4
64,-16,-3
62,-15,-2
61,-15,-3
61,-15,-2
61,-16,-2
60,-16,-3
59,-16,-2
62,-18,-4
60,-16,-1
56,-16,0
60,-17,-1
59,-17,1
58,-17,2
62,-17,2
62,-17,3
60,-17,3
60,-17,5
60,-17,5
61,-17,6
60,-17,5
60,-16,5
60,-17,5
59,-16,6
60,-16,6
60,-16,5
59,-16,5
60,-16,5
63,-16,4
62,-16,4
62,-16,3
61,-16,3
61,-16,3
61,-16,4
61,-16,4
60,-16,4
59,-16,3
59,-16,4
58,-15,3
59,-15,3
62,-15,3
63,-15,2
62,-15,2
61,-15,2
61,-15,2
61,-14,1
61,-14,1
62,-14,1
63,-14,1
62,-15,1
62,-15,1
62,-15,1
62,-14,1
61,-14,1
60,-14,1
60,-14,1
61,-14,1
60,-14,-1
60,-14,0
58,-14,-1
58,-15,-2
57,-15,-5
60,-15,-6
61,-16,-10
61,-15,-13
62,-14,-14
64,-14,-16
64,-13,-16
63,-13,-16
63,-13,-15
63,-13,-13
59,-13,-11
57,-13,-12
57,-13,-11
57,-13,-12
57,-13,-15
59,-13,-17
61,-13,-19
59,-14,-21
57,-15,-22
56,-15,-21
56,-15,-21
58,-15,-19
59,-15,-18
57,-15,-17
61,-15,-16
61,-15,-15
58,-15,-16
58,-15,-15
60,-15,-13
59,-15,-13
59,-15,-14
60,-15,-13
60,-15,-14
59,-14,-15
59,-14,-15
59,-14,-15
61,-14,-16
60,-14,-15
60,-14,-16
60,-14,-15
58,-14,-15
60,-14,-14
60,-13,-15
61,-14,-15
61,-14,-14
59,-14,-15
59,-14,-15
59,-13,-14
57,-13,-15
59,-13,-15
62,-13,-16
62,-14,-16
60,-14,-17
61,-14,-16
59,-14,-16
60,-14,-15
59,-13,-15
59,-13,-15
59,-13,-15
59,-13,-16
59,-14,-16
58,-14,-16
59,-13,-16
59,-13,-16
60,-13,-16
59,-13,-16
59,-14,-16
59,-13,-16
60,-13,-16
60,-13,-17
60,-13,-16
60,-13,-16
59,-13,-16
59,-13,-16
59,-13,-16
60,-13,-17
59,-13,-17
59,-13,-17
59,-13,-17
59,-13,-17
60,-13,-16
58,-13,-17
60,-13,-17
59,-13,-17
60,-13,-17
59,-13,-17
61,-13,-17
59,-13,-17
59,-13,-17
59,-13,-17
60,-13,-17
59,-13,-16
58,-13,-16
58,-13,-16
59,-12,-16
59,-12,-16
59,-12,-17
60,-13,-17
60,-12,-17
60,-12,-17
60,-12,-17
60,-12,-17
60,-11,-17
59,-10,-17
59,-11,-18
60,-11,-17
58,-10,-17
59,-10,-17
59,-10,-18
59,-10,-18
60,-9,-17
60,-9,-16
60,-9,-16
60,-9,-16
61,-8,-17
62,-8,-16
62,-8,-16
61,-9,-16
60,-8,-16
59,-8,-16
60,-7,-17
61,-7,-17
60,-7,-16
60,-7,-17
59,-7,-17
61,-7,-16
62,-7,-17
61,-7,-17
61,-7,-17
62,-8,-17
62,-8,-18
59,-7,-18
61,-7,-17
59,-6,-16
58,-7,-16
59,-7,-17
61,-7,-17
60,-7,-16
61,-8,-17
60,-7,-17
61,-7,-17
62,-7,-17
61,-7,-17
61,-7,-16
60,-8,-17
60,-7,-16
61,-7,-17
60,-7,-16
59,-7,-16
59,-7,-16
61,-7,-17
61,-7,-16
61,-7,-15
60,-7,-15
61,-7,-15
61,-7,-15
61,-7,-15
60,-6,-16
63,-7,-15
62,-7,-15
61,-6,-15
61,-6,-15
61,-7,-14
62,-7,-15
60,-7,-15
61,-7,-15
61,-7,-15
60,-7,-16
60,-7,-15
61,-7,-15
61,-7,-15
61,-7,-15
61,-7,-15
61,-7,-15
61,-7,-15
61,-7,-15
61,-7,-15
61,-7,-15
61,-7,-15
61,-7,-15
61,-7,-15
61,-7,-15
60,-7,-15
61,-7,-15
61,-7,-15
61,-7,-15
61,-7,-15
61,-7,-15
61,-7,-15
61,-7,-15
61,-7,-15
61,-7,-15
61,-7,-15
61,-7,-15
61,-7,-15
60,-7,-15
61,-7,-15
61,-7,-15
60,-7,-15
60,-7,-15
60,-7,-15
60,-7,-15
61,-7,-15
60,-7,-14
60,-7,-16
60,-7,-17
60,-7,-17
62,-8,-18
62,-8,-19
59,-8,-19
58,-8,-19
57,-7,-20
57,-8,-21
56,-8,-22
58,-7,-22
59,-7,-23
57,-7,-23
57,-7,-23
56,-7,-24
56,-7,-25
55,-7,-25
54,-7,-28
55,-7,-30
56,-5,-30
57,-4,-28
56,-4,-28
59,-4,-31
60,-3,-32
57,-2,-30
57,-3,-30
58,-4,-33
56,-3,-35
52,-4,-33
52,-4,-33
52,-4,-34
51,-4,-35
50,-5,-35
49,-6,-34
51,-6,-35
52,-6,-37
52,-6,-36
53,-6,-36
54,-6,-37
52,-6,-38
53,-6,-37
52,-6,-36
52,-7,-36
53,-7,-36
54,-7,-35
54,-8,-35
54,-10,-35
52,-10,-31
52,-11,-31
53,-11,-30
51,-11,-27
50,-11,-26
52,-11,-25
54,-12,-25
54,-12,-25
55,-12,-25
54,-11,-28
62,-13,-26
60,-13,-27
60,-14,-27
59,-15,-26
57,-13,-23
57,-13,-24
56,-14,-26
57,-14,-25
55,-14,-23
54,-15,-22
53,-16,-20
53,-17,-18
54,-17,-18
55,-17,-18
57,-16,-17
58,-16,-17
57,-16,-17
59,-17,-16
60,-17,-16
60,-17,-17
61,-17,-17
60,-16,-17
58,-16,-17
54,-15,-18
53,-14,-18
53,-14,-20
55,-16,-24
55,-15,-26
54,-15,-29
55,-15,-29
55,-15,-31
53,-14,-33
51,-13,-34
51,-12,-34
52,-12,-34
52,-12,-35
50,-12,-37
48,-12,-38
50,-12,-37
52,-12,-37
52,-12,-38
52,-12,-38
55,-12,-35
55,-12,-34
52,-13,-32
53,-13,-29
56,-13,-27
55,-13,-26
54,-13,-25
55,-13,-23
57,-13,-23
56,-13,-22
57,-13,-21
59,-13,-21
58,-13,-21
57,-13,-20
59,-15,-21
59,-14,-21
57,-14,-20
55,-14,-21
54,-14,-21
59,-15,-24
60,-15,-25
60,-15,-24
59,-15,-23
58,-16,-23
58,-16,-23
57,-17,-22
56,-17,-21
56,-17,-19
55,-17,-19
56,-18,-20
56,-19,-20
57,-19,-19
58,-19,-19
56,-19,-17
55,-19,-18
56,-20,-16
58,-19,-15
56,-19,-15
54,-19,-15
56,-19,-15
57,-19,-14
57,-19,-15
53,-19,-16
54,-19,-16
55,-19,-17
55,-18,-21
53,-18,-23
53,-18,-24
54,-17,-24
53,-16,-27
52,-16,-28
53,-14,-31
54,-14,-33
53,-13,-34
55,-14,-35
56,-13,-35
54,-13,-34
54,-13,-33
52,-12,-34
55,-12,-33
54,-12,-33
53,-12,-34
53,-12,-32
54,-13,-31
54,-13,-31
53,-12,-31
53,-12,-30
54,-13,-30
53,-12,-31
53,-13,-31
53,-13,-30
51,-13,-30
50,-13,-32
52,-13,-33
50,-12,-34
53,-14,-36
52,-13,-36
49,-13,-36
48,-13,-38
49,-13,-36
51,-12,-37
50,-13,-37
52,-13,-37
51,-13,-36
54,-13,-35
57,-14,-34
56,-14,-32
53,-14,-28
54,-14,-26
56,-15,-22
56,-15,-22
55,-16,-20
56,-15,-17
57,-16,-17
58,-16,-16
57,-16,-16
59,-16,-14
58,-17,-13
60,-17,-13
55,-17,-11
54,-17,-11
55,-17,-11
57,-16,-12
57,-16,-16
63,-17,-19
61,-16,-19
56,-16,-18
55,-16,-19
58,-16,-20
59,-16,-20
54,-15,-21
52,-15,-22
55,-16,-24
59,-14,-26
56,-13,-26
54,-13,-26
55,-13,-27
58,-13,-29
57,-13,-29
56,-12,-28
57,-12,-28
56,-12,-28
55,-11,-28
54,-11,-28
56,-12,-28
57,-12,-28
54,-12,-27
55,-12,-27
56,-12,-28
55,-12,-28
55,-12,-27
55,-12,-27
55,-12,-28
55,-12,-28
56,-12,-28
55,-12,-28
55,-12,-29
55,-12,-28
56,-12,-28
54,-12,-28
53,-12,-28
54,-12,-29
54,-12,-29
54,-12,-30
53,-12,-31
53,-12,-32
54,-12,-31
54,-13,-31
52,-12,-32
53,-12,-32
52,-11,-32
54,-11,-32
54,-11,-32
51,-11,-32
51,-11,-33
53,-11,-33
52,-12,-33
52,-11,-33
52,-11,-34
55,-12,-35
51,-11,-33
52,-10,-32
52,-10,-33
53,-11,-34
54,-11,-33
55,-11,-32
52,-11,-33
53,-11,-31
55,-11,-30
55,-12,-31
53,-12,-30
53,-12,-28
56,-12,-28
59,-12,-25
53,-12,-23
54,-11,-24
61,-12,-24
63,-12,-23
55,-12,-20
55,-12,-21
59,-12,-21
58,-13,-20
56,-13,-20
57,-13,-20
59,-13,-19
59,-13,-18
59,-13,-19
58,-13,-19
58,-13,-18
59,-13,-17
60,-13,-17
61,-13,-17
57,-13,-16
56,-13,-15
59,-12,-17
60,-13,-17
61,-13,-18
59,-13,-17
59,-13,-18
60,-13,-17
59,-13,-17
59,-13,-17
57,-13,-17
58,-13,-17
59,-13,-17
60,-14,-17
56,-14,-18
58,-14,-20
59,-14,-20
56,-14,-21
55,-13,-21
57,-13,-21
59,-13,-20
59,-12,-20
58,-11,-19
58,-12,-20
57,-12,-22
59,-12,-23
59,-12,-23
57,-12,-24
55,-11,-24
57,-12,-25
55,-12,-26
52,-12,-30
52,-11,-29
54,-11,-29
52,-10,-29
52,-11,-31
54,-7,-31
55,-8,-33
55,-7,-33
55,-8,-33
53,-6,-35
53,-7,-37
54,-6,-37
53,-5,-35
52,-5,-36
52,-5,-35
52,-5,-35
52,-5,-35
54,-6,-35
54,-6,-33
53,-6,-33
55,-6,-32
56,-6,-31
53,-6,-31
55,-6,-31
55,-6,-30
56,-6,-29
55,-6,-28
55,-6,-27
57,-6,-27
55,-6,-26
55,-6,-27
55,-6,-27
57,-7,-28
54,-6,-29
52,-7,-30
58,-8,-31
59,-7,-29
51,-6,-28
54,-7,-32
58,-7,-32
54,-6,-30
52,-6,-30
52,-6,-34
53,-6,-34
54,-6,-34
52,-6,-34
53,-6,-34
54,-6,-35
53,-6,-35
53,-6,-34
53,-6,-34
52,-6,-34
52,-6,-33
53,-6,-33
54,-6,-33
53,-6,-33
53,-6,-33
54,-7,-33
53,-7,-32
53,-7,-33
54,-7,-32
54,-7,-33
54,-6,-32
54,-6,-32
53,-6,-32
53,-6,-32
54,-6,-32
55,-7,-33
53,-7,-33
53,-7,-32
54,-7,-32
54,-7,-33
53,-6,-31
54,-7,-32
53,-7,-32
54,-7,-32
55,-7,-31
54,-7,-32
54,-7,-32
54,-7,-32
54,-7,-31
54,-7,-30
53,-7,-31
53,-7,-31
55,-8,-31
55,-7,-31
54,-7,-31
53,-7,-30
55,-7,-31
54,-7,-31
55,-7,-31
53,-7,-31
55,-6,-31
56,-7,-31
53,-7,-32
52,-7,-32
55,-7,-31
56,-6,-30
53,-7,-32
53,-7,-32
55,-7,-31
53,-6,-30
54,-6,-31
55,-7,-31
55,-6,-30
54,-6,-30
54,-6,-31
54,-7,-31
54,-6,-31
55,-6,-30
54,-7,-31
55,-6,-31
54,-6,-31
55,-7,-31
54,-6,-31
54,-6,-30
54,-7,-31
57,-7,-31
54,-7,-30
52,-6,-29
54,-6,-31
55,-6,-32
56,-7,-31
55,-7,-31
54,-7,-30
55,-7,-31
55,-7,-30
55,-7,-30
55,-7,-30
54,-7,-30
54,-7,-30
53,-7,-29
54,-7,-30
53,-7,-31
54,-7,-31
55,-7,-32
54,-7,-33
54,-7,-34
52,-6,-34
50,-6,-35
50,-6,-37
52,-6,-38
52,-6,-37
51,-6,-37
51,-6,-37
52,-6,-37
50,-6,-37
49,-6,-37
51,-5,-36
52,-5,-35
52,-5,-36
51,-5,-36
52,-5,-35
52,-5,-35
52,-6,-36
52,-6,-35
51,-5,-35
51,-6,-36
52,-6,-37
51,-5,-36
49,-5,-36
48,-5,-37
51,-5,-38
50,-6,-38
48,-6,-40
47,-6,-41
47,-6,-42
47,-6,-42
46,-6,-43
44,-5,-44
44,-6,-44
45,-6,-45
45,-5,-45
44,-5,-45
46,-5,-45
48,-5,-44
47,-5,-42
45,-6,-41
49,-6,-40
49,-7,-38
49,-7,-36
51,-7,-36
51,-7,-36
51,-7,-35
52,-7,-35
52,-7,-35
52,-7,-34
52,-7,-34
53,-7,-34
52,-7,-34
52,-7,-34
51,-7,-35
53,-7,-35
53,-7,-34
51,-7,-35
52,-8,-36
58,-7,-31
51,-7,-34
53,-7,-34
50,-7,-36
51,-7,-36
51,-7,-36
53,-7,-34
52,-7,-34
52,-7,-34
53,-7,-34
53,-7,-34
53,-7,-34
52,-7,-34
52,-7,-34
52,-7,-34
53,-7,-34
53,-7,-34
53,-7,-34
52,-7,-34
52,-7,-33
53,-7,-34
52,-7,-33
55,-8,-34
54,-7,-33
53,-7,-32
55,-7,-32
54,-8,-32
53,-7,-32
53,-7,-32
54,-7,-31
55,-7,-31
54,-7,-32
54,-7,-31
54,-7,-31
55,-8,-31
54,-8,-31
53,-8,-30
55,-8,-31
54,-8,-31
54,-8,-31
55,-7,-31
54,-7,-31
53,-7,-31
53,-7,-31
54,-8,-32
55,-8,-31
52,-7,-31
53,-7,-31
58,-8,-32
57,-7,-31
51,-7,-31
53,-7,-31
56,-7,-31
53,-7,-32
52,-7,-32
54,-7,-31
54,-7,-31
55,-7,-31
54,-7,-32
55,-7,-31
54,-7,-30
54,-7,-31
55,-7,-31
54,-7,-31
54,-7,-31
54,-7,-31
54,-7,-30
53,-6,-30
52,-7,-31
52,-6,-30
51,-6,-31
52,-6,-32
52,-5,-34
55,-4,-35
54,-3,-37
55,-3,-36
57,-4,-35
54,-4,-34
53,-3,-34
53,-3,-33
53,-3,-34
51,-3,-34
53,-3,-34
53,-3,-34
53,-3,-35
52,-3,-35
54,-4,-33
53,-3,-34
54,-4,-34
53,-4,-34
53,-4,-34
53,-4,-33
53,-3,-34
52,-3,-34
53,-3,-34
53,-3,-33
53,-3,-34
53,-3,-34
54,-3,-33
52,-3,-34
52,-3,-33
53,-3,-33
54,-4,-35
54,-4,-34
53,-3,-33
53,-2,-33
54,-2,-34
54,-2,-34
54,-2,-34
53,-2,-34
53,-3,-33
53,-2,-34
54,-2,-34
53,-2,-34
53,-2,-34
53,-3,-36
56,-3,-33
53,-3,-33
53,-4,-32
53,-3,-32
52,-3,-32
55,-4,-33
54,-4,-33
53,-4,-32
53,-4,-33
54,-4,-33
54,-4,-33
54,-4,-33
54,-4,-33
54,-4,-32
54,-4,-32
53,-4,-33
55,-5,-32
54,-4,-31
53,-5,-32
53,-5,-32
54,-5,-31
53,-5,-31
53,-6,-32
54,-5,-31
54,-5,-30
53,-4,-30
53,-5,-32
55,-4,-32
54,-3,-32
52,-2,-32
55,-3,-33
56,-3,-34
55,-4,-34
55,-4,-34
54,-3,-33
55,-3,-33
54,-3,-33
56,-3,-31
56,-4,-29
55,-4,-30
55,-4,-29
54,-4,-29
54,-4,-29
54,-4,-30
55,-5,-30
54,-4,-29
54,-4,-29
55,-4,-30
57,-5,-30
55,-4,-29
53,-4,-31
56,-4,-33
55,-3,-31
52,-3,-32
54,-3,-33
55,-3,-33
55,-3,-32
55,-3,-32
54,-3,-31
55,-3,-32
54,-3,-32
55,-3,-31
55,-3,-31
54,-3,-32
53,-3,-32
54,-3,-32
55,-3,-32
54,-3,-32
54,-3,-31
54,-3,-32
54,-3,-32
54,-3,-32
53,-3,-32
54,-3,-31
54,-4,-31
54,-3,-32
54,-3,-32
55,-3,-31
54,-3,-32
54,-3,-32
55,-3,-31
54,-4,-32
55,-3,-32
54,-4,-32
55,-3,-31
54,-3,-32
54,-3,-31
54,-3,-32
54,-3,-31
54,-3,-32
54,-4,-32
54,-3,-31
54,-3,-32
54,-3,-32
54,-3,-32
54,-3,-32
54,-3,-31
55,-3,-31
54,-3,-31
54,-3,-31
54,-3,-31
54,-3,-32
54,-3,-31
54,-3,-31
55,-3,-31
55,-3,-32
54,-4,-31
55,-4,-31
54,-4,-32
55,-4,-32
54,-3,-31
54,-3,-31
54,-3,-32
54,-3,-31
54,-3,-31
54,-4,-31
55,-4,-32
55,-4,-32
54,-4,-31
54,-4,-32
54,-3,-32
54,-3,-32
54,-4,-32
54,-3,-31
54,-3,-32
54,-3,-32
54,-3,-32
54,-3,-31
54,-3,-32
54,-3,-31
54,-3,-32
54,-4,-32
54,-4,-31
55,-4,-32
54,-4,-32
55,-4,-31
54,-3,-32
54,-3,-31
54,-3,-31
54,-3,-32
55,-3,-32
54,-4,-32
55,-4,-32
54,-4,-32
53,-3,-32
54,-3,-32
54,-4,-32
54,-4,-32
54,-4,-32
54,-4,-32
54,-3,-32
54,-4,-32
54,-4,-32
54,-3,-32
54,-3,-32
54,-3,-32
54,-3,-31
55,-3,-32
54,-3,-32
54,-3,-31
54,-4,-32
54,-4,-32
54,-4,-32
54,-3,-32
54,-3,-32
54,-3,-32
54,-4,-32
54,-4,-32
54,-3,-32
54,-3,-32
54,-3,-32
54,-3,-32
54,-4,-32
54,-4,-32
54,-3,-32
54,-3,-32
54,-3,-32
53,-3,-32
54,-4,-32
54,-4,-33
54,-4,-32
54,-3,-32
54,-3,-32
54,-3,-32
54,-4,-32
54,-3,-32
54,-4,-32
54,-4,-32
54,-4,-33
54,-4,-32
54,-4,-32
54,-4,-33
53,-4,-32
53,-4,-32
55,-4,-33
54,-4,-32
54,-3,-32
54,-3,-32
54,-4,-32
54,-4,-31
53,-4,-32
54,-4,-32
54,-4,-33
55,-4,-32
54,-4,-32
54,-4,-32
53,-3,-32
54,-3,-31
54,-4,-32
55,-4,-32
54,-4,-32
53,-4,-33
52,-4,-32
54,-4,-32
55,-4,-32
55,-4,-34
54,-4,-33
54,-4,-33
53,-4,-33
52,-4,-34
54,-4,-33
53,-4,-33
54,-4,-33
55,-4,-33
55,-4,-33
57,-5,-33
56,-5,-33
52,-7,-28
51,-9,-26
51,-9,-27
52,-7,-30
53,-5,-32
53,-2,-32
58,-1,-32
55,2,-33
54,3,-33
55,3,-34
54,3,-32
54,3,-31
54,2,-32
56,1,-30
57,0,-29
56,-1,-30
55,-2,-31
55,-1,-28
57,-1,-29
55,0,-28
56,1,-28
56,1,-28
56,1,-27
56,2,-29
56,2,-30
58,2,-30
57,2,-31
54,2,-31
54,2,-31
54,2,-31
54,2,-31
55,2,-31
53,2,-31
53,2,-33
54,3,-33
54,3,-34
49,3,-37
52,2,-38
51,4,-38
50,3,-40
49,3,-42
48,3,-42
49,3,-41
47,3,-41
46,3,-41
47,3,-41
47,4,-40
48,3,-40
46,3,-40
47,4,-40
47,4,-40
46,4,-42
45,5,-43
46,6,-42
46,6,-43
45,6,-44
45,6,-44
45,6,-44
47,7,-44
47,7,-43
47,6,-43
47,6,-42
48,6,-40
48,7,-40
48,6,-39
49,6,-40
48,7,-39
49,7,-39
50,8,-39
49,8,-38
50,8,-38
51,8,-36
51,8,-36
51,8,-37
52,8,-36
53,8,-37
54,8,-36
54,7,-36
54,8,-35
55,8,-35
50,7,-35
49,7,-32
48,6,-30
55,4,-35
56,4,-34
55,2,-36
53,2,-34
55,0,-34
55,0,-34
58,-2,-36
69,-2,-40
71,-1,-38
74,-9,-34
72,-2,-30
63,-4,-25
49,-5,-20
45,-3,-17
33,-1,-16
34,1,-15
38,11,-14
38,17,-16
54,11,-18
72,4,-24
72,1,-25
67,-4,-21
65,-7,-23
66,-10,-23
66,-11,-24
59,-9,-20
59,-5,-17
59,-3,-16
55,1,-18
56,2,-18
61,3,-23
63,2,-25
57,3,-26
63,2,-22
62,2,-22
59,4,-23
60,3,-20
58,2,-21
55,-2,-25
64,-4,-30
71,-5,-37
67,-3,-34
55,1,-22
54,3,-17
50,7,-15
53,6,-15
60,3,-16
63,-2,-16
61,-4,-16
62,-7,-17
61,-8,-19
58,-9,-22
57,-12,-20
54,-11,-21
53,-5,-24
53,-8,-22
50,-1,-25
58,3,-27
59,10,-24
54,16,-22
50,19,-21
55,17,-23
60,12,-24
62,5,-23
62,2,-22
56,1,-18
57,1,-23
60,2,-26
63,4,-24
61,6,-23
62,6,-22
63,6,-21
64,7,-21
62,7,-20
63,8,-19
64,8,-18
60,8,-17
62,7,-16
59,8,-16
58,8,-15
59,7,-15
60,7,-16
62,9,-18
61,9,-19
58,8,-18
59,8,-19
63,6,-20
60,6,-19
59,6,-18
59,4,-18
59,4,-18
60,3,-18
58,3,-19
59,2,-19
59,3,-20
59,3,-20
59,4,-20
59,4,-19
60,4,-20
59,4,-21
60,3,-22
59,4,-22
60,4,-22
61,4,-23
60,5,-24
59,6,-22
58,5,-23
58,5,-23
58,5,-22
59,5,-22
58,5,-23
59,5,-23
59,4,-23
60,5,-22
60,4,-23
58,5,-23
59,5,-23
57,5,-22
58,5,-23
58,5,-23
58,4,-23
58,4,-23
59,4,-24
59,4,-24
59,4,-23
59,4,-23
59,4,-23
59,4,-24
59,4,-23
59,5,-23
59,5,-23
58,5,-23
58,5,-23
59,5,-23
58,5,-23
58,4,-23
59,4,-23
58,4,-24
58,4,-24
58,4,-24
59,4,-23
58,4,-24
59,4,-24
59,4,-23
58,4,-23
59,4,-23
59,4,-23
59,4,-23
59,4,-24
59,4,-23
58,4,-23
58,5,-23
58,4,-23
58,4,-23
59,4,-23
59,4,-23
59,4,-23
59,4,-23
59,4,-23
59,4,-23
58,4,-23
58,4,-23
59,4,-23
58,4,-23
59,4,-23
59,4,-23
59,4,-22
59,4,-22
59,5,-21
59,5,-21
59,5,-22
58,5,-22
58,5,-23
59,6,-23
60,5,-23
58,5,-23
58,6,-22
58,5,-21
58,5,-22
58,5,-21
61,4,-21
61,5,-19
61,5,-19
60,5,-18
61,5,-18
60,6,-17
60,6,-17
60,6,-18
60,6,-17
60,6,-17
60,6,-18
60,6,-18
60,6,-18
61,6,-18
60,6,-18
60,6,-18
60,5,-18
60,5,-18
61,5,-18
61,5,-19
60,5,-19
61,5,-19
61,5,-19
60,5,-19
60,5,-19
60,5,-19
59,5,-19
60,5,-20
61,4,-19
61,5,-19
62,5,-18
61,6,-18
60,6,-18
59,5,-18
59,4,-19
59,4,-19
59,3,-20
59,3,-20
62,4,-21
63,5,-21
66,4,-20
61,6,-18
59,6,-18
58,6,-19
56,6,-19
57,5,-22
59,5,-22
61,5,-20
60,5,-19
60,5,-19
60,5,-18
59,5,-17
58,5,-16
58,4,-17
58,4,-16
60,4,-16
60,4,-15
61,3,-15
61,3,-13
62,2,-15
64,2,-15
65,3,-15
64,3,-14
64,4,-14
61,4,-13
60,5,-12
62,5,-12
63,5,-13
63,6,-12
63,6,-12
64,6,-13
62,5,-14
61,5,-13
64,3,-12
64,3,-12
62,2,-12
62,1,-12
63,0,-11
62,0,-11
60,-1,-11
60,-1,-11
61,-1,-11
60,-1,-10
59,-1,-10
59,-1,-10
58,-1,-12
57,-1,-12
62,-1,-12
64,-1,-12
62,-1,-12
63,0,-12
64,0,-14
65,1,-14
64,1,-12
61,1,-10
64,0,-12
64,0,-11
64,1,-9
63,1,-8
57,1,-6
58,1,-5
62,1,-8
64,1,-7
65,1,-8
63,1,-8
63,0,-10
61,1,-9
61,1,-8
64,1,-7
62,2,-8
62,2,-8
64,2,-8
64,2,-7
64,2,-7
63,2,-7
63,2,-7
63,2,-6
62,2,-5
62,2,-4
62,1,-5
63,2,-4
63,2,-3
63,2,-3
63,2,-3
63,2,-3
63,2,-4
64,2,-4
63,2,-4
62,2,-4
62,2,-4
63,2,-5
64,2,-5
63,2,-5
62,2,-5
62,2,-6
61,2,-5
62,2,-5
62,3,-8
62,3,-9
64,3,-10
64,3,-11
64,3,-13
62,2,-12
61,3,-12
62,2,-13
63,2,-13
62,2,-12
61,3,-13
61,2,-12
62,2,-12
62,3,-12
61,3,-13
61,3,-13
63,3,-13
63,3,-13
62,3,-14
62,3,-13
61,4,-14
61,4,-14
62,4,-13
61,4,-14
62,4,-14
61,4,-14
61,4,-13
61,4,-13
61,4,-13
61,4,-13
61,5,-13
62,5,-13
60,6,-13
62,6,-13
62,6,-13
62,7,-13
62,7,-13
62,7,-12
62,7,-12
62,8,-12
63,8,-13
63,8,-13
64,8,-13
63,8,-13
62,7,-14
65,7,-13
64,6,-11
60,6,-11
60,6,-11
62,5,-12
61,5,-11
61,4,-11
61,4,-10
63,5,-11
61,5,-10
60,5,-10
63,5,-10
64,5,-10
63,5,-12
64,5,-11
69,5,-11
67,4,-12
67,3,-10
74,1,-8
70,0,-8
66,-4,-7
64,-5,-7
61,-8,-5
55,-12,-4
55,-13,-2
55,-15,-1
54,-15,-1
54,-15,0
54,-16,1
54,-17,0
56,-17,1
58,-18,1
61,-17,0
59,-17,-2
62,-17,-1
64,-17,-1
61,-17,-2
59,-17,-2
60,-16,-1
59,-16,-1
57,-17,-2
59,-17,-3
65,-16,-3
63,-17,-3
61,-17,-3
60,-17,-3
60,-17,-4
60,-17,-5
58,-17,-6
59,-17,-8
60,-17,-10
59,-17,-12
60,-17,-12
60,-16,-14
59,-16,-15
59,-16,-16
59,-16,-16
60,-16,-16
59,-16,-17
57,-17,-17
58,-17,-18
58,-17,-18
56,-16,-18
57,-16,-19
57,-16,-19
56,-16,-20
56,-16,-21
56,-15,-22
56,-15,-22
57,-15,-22
57,-15,-23
58,-15,-23
58,-16,-23
57,-15,-22
56,-15,-22
57,-15,-22
56,-15,-23
56,-15,-23
56,-15,-23
57,-15,-24
56,-15,-23
57,-15,-23
56,-15,-23
57,-15,-24
57,-15,-24
57,-15,-24
56,-15,-23
56,-15,-24
56,-15,-23
56,-15,-23
57,-15,-23
56,-15,-23
55,-15,-22
58,-16,-22
58,-16,-21
57,-16,-22
57,-16,-22
57,-16,-22
58,-16,-20
57,-16,-20
58,-16,-20
60,-16,-20
60,-16,-19
59,-18,-16
63,-19,-16
65,-19,-14
61,-19,-13
56,-20,-12
56,-21,-12
60,-22,-11
53,-20,-8
50,-20,-7
58,-21,-5
58,-20,-4
56,-21,-2
58,-21,-2
61,-22,-1
58,-22,-1
57,-22,-1
59,-22,0
59,-22,0
56,-23,0
55,-23,-1
59,-24,0
59,-24,0
60,-24,0
61,-25,1
62,-26,1
61,-27,1
60,-27,2
59,-27,2
56,-28,3
58,-28,2
57,-28,4
58,-28,5
57,-28,4
59,-27,6
53,-27,3
50,-26,4
56,-24,11
47,-27,13
45,-28,11
48,-26,14
48,-28,16
54,-29,19
45,-32,19
48,-34,19
51,-36,20
49,-36,23
47,-36,23
49,-35,24
47,-32,25
45,-32,27
43,-33,27
39,-34,26
38,-34,26
43,-35,25
53,-34,23
54,-33,24
46,-32,26
46,-32,24
50,-32,23
50,-33,24
48,-33,26
47,-33,24
50,-32,24
53,-33,21
50,-33,20
49,-33,21
50,-33,21
50,-33,20
49,-33,19
48,-33,19
48,-33,19
49,-33,20
49,-33,20
49,-33,20
49,-33,20
48,-33,20
49,-33,20
48,-33,19
49,-32,20
50,-33,19
51,-31,20
49,-31,19
52,-32,15
54,-30,12
50,-32,6
57,-32,3
61,-32,0
47,-31,3
51,-31,2
56,-32,2
59,-32,2
58,-30,2
56,-31,0
56,-30,-2
61,-31,-3
60,-31,-4
62,-32,-5
57,-32,-4
52,-32,-1
50,-33,3
49,-33,7
48,-33,10
52,-33,11
52,-34,11
54,-34,11
51,-34,13
50,-34,14
53,-35,14
48,-33,19
50,-34,21
40,-33,26
39,-33,28
42,-34,28
42,-33,29
37,-33,30
44,-34,28
46,-33,27
44,-32,23
43,-33,22
48,-33,18
52,-32,16
56,-32,11
56,-32,9
56,-32,10
56,-31,13
53,-31,13
53,-31,14
54,-31,14
56,-31,13
54,-30,11
54,-30,10
56,-31,9
56,-31,9
54,-31,8
54,-31,8
56,-31,8
53,-31,7
54,-31,7
54,-32,9
53,-32,9
53,-32,9
53,-32,10
53,-32,11
56,-32,12
56,-32,12
49,-31,15
49,-32,15
50,-32,17
50,-32,17
49,-32,17
48,-33,18
48,-33,19
50,-33,19
49,-33,19
52,-33,19
50,-32,20
50,-32,20
49,-32,22
48,-32,21
48,-32,22
49,-32,22
49,-32,21
50,-32,20
51,-33,19
47,-32,19
46,-32,20
51,-33,19
53,-33,17
51,-32,16
50,-32,16
50,-32,17
49,-31,17
47,-31,16
40,-28,16
44,-29,15
57,-30,11
53,-25,6
54,-26,3
61,-26,0
59,-24,0
57,-25,-5
56,-23,-4
54,-20,-5
55,-17,-6
57,-18,-11
54,-13,-13
54,-11,-14
66,-8,-24
66,-8,-26
65,-10,-25
57,-10,-24
55,-7,-23
57,-11,-14
65,-15,-15
76,-27,-21
72,-17,-21
64,-8,-15
59,-4,-18
60,-3,-20
61,1,-21
61,2,-18
60,1,-16
60,-1,-18
63,-4,-19
61,-3,-17
62,-2,-15
59,-1,-16
60,-1,-17
60,-2,-15
61,-2,-14
61,-2,-17
61,-2,-19
62,-1,-19
60,0,-18
60,-1,-18
62,-3,-19
62,-3,-17
60,-3,-17
61,-4,-19
60,-4,-19
59,-3,-20
59,-4,-21
59,-3,-21
59,-1,-21
59,-1,-22
61,-1,-22
62,0,-20
60,1,-19
58,0,-20
62,0,-17
61,1,-17
60,1,-19
61,2,-18
61,2,-18
56,0,-17
56,-1,-15
66,-3,-18
69,0,-21
57,1,-15
64,-2,-12
64,-2,-15
59,-3,-13
57,-3,-12
57,-4,-14
61,-4,-15
62,-3,-14
64,-4,-17
65,-4,-18
66,-2,-17
66,-1,-16
64,-2,-11
63,-3,-10
62,-4,-8
61,-4,-5
62,-5,-3
61,-5,0
60,-5,1
63,-6,2
63,-6,5
61,-6,5
60,-7,7
61,-7,7
61,-7,9
59,-8,10
59,-8,10
61,-8,11
61,-7,11
60,-7,11
59,-7,11
58,-7,10
61,-7,9
61,-6,9
61,-6,9
64,-6,8
65,-6,5
64,-6,4
64,-7,3
61,-7,2
61,-6,1
64,-7,-1
62,-6,-2
63,-6,-2
64,-6,-3
64,-6,-4
63,-5,-5
64,-5,-4
63,-5,-4
63,-6,-5
62,-6,-5
62,-6,-4
62,-6,-5
62,-6,-7
62,-6,-8
61,-6,-8
60,-6,-9
61,-7,-11
62,-7,-12
62,-6,-12
58,-6,-14
61,-5,-15
62,-6,-16
60,-5,-16
59,-5,-19
62,-6,-20
62,-4,-19
60,-4,-22
62,-5,-23
58,-4,-22
56,-5,-22
57,-5,-24
57,-5,-24
55,-5,-24
54,-5,-27
56,-4,-28
57,-3,-29
56,-4,-31
57,-3,-31
59,-4,-32
56,-3,-30
55,-3,-28
56,-3,-27
57,-4,-27
57,-4,-26
58,-4,-25
60,-5,-25
62,-4,-24
59,-4,-21
60,-4,-20
55,-3,-20
55,-3,-19
59,-4,-20
63,-5,-21
64,-5,-20
66,-6,-17
68,-6,-16
68,-6,-8
57,-5,-6
57,-7,-5
63,-6,1
57,-8,4
58,-8,3
61,-9,4
61,-8,8
62,-7,9
60,-7,9
54,-8,5
57,-8,4
68,-7,7
65,-6,10
52,-6,7
54,-6,2
71,-7,-2
68,-7,-1
66,-6,1
63,-6,2
63,-5,1
65,-5,1
64,-5,2
63,-7,4
66,-6,5
64,-6,6
62,-6,11
61,-6,12
59,-7,15
61,-7,15
54,-7,18
59,-8,20
59,-8,20
57,-9,22
56,-8,23
56,-9,24
56,-9,23
55,-8,24
56,-8,26
58,-8,26
56,-8,25
56,-9,25
59,-8,26
58,-8,25
56,-9,24
58,-8,25
57,-8,25
57,-9,24
56,-9,25
58,-8,25
57,-8,25
57,-8,24
57,-9,24
57,-8,24
58,-8,24
58,-8,24
57,-8,24
57,-8,24
57,-8,24
58,-8,24
58,-8,25
58,-8,24
57,-7,24
57,-7,25
57,-7,24
57,-8,24
57,-8,24
57,-7,24
58,-8,24
57,-8,24
58,-8,24
57,-8,24
57,-8,24
57,-8,24
57,-8,24
56,-8,23
56,-8,23
56,-8,24
55,-8,22
56,-8,22
56,-8,22
56,-7,21
57,-7,20
59,-7,21
59,-5,22
60,-4,22
60,-4,22
60,-3,23
60,-3,23
59,-4,24
59,-3,24
58,-4,25
59,-3,25
58,-3,24
59,-3,24
57,-3,25
59,-3,24
59,-3,24
58,-4,24
57,-4,25
58,-4,24
56,-4,23
57,-4,23
58,-4,24
59,-3,24
59,-3,24
58,-3,25
58,-3,24
57,-3,25
58,-3,25
59,-3,26
56,-3,25
56,-3,25
59,-3,25
58,-3,26
55,-3,26
58,-3,26
57,-3,27
56,-3,27
56,-3,26
57,-3,27
58,-3,28
56,-3,28
54,-3,26
57,-3,26
56,-4,25
56,-3,26
56,-4,25
57,-4,25
58,-4,25
58,-4,25
59,-4,24
59,-3,23
59,-3,24
58,-3,24
57,-3,23
59,-4,23
59,-3,24
58,-3,24
56,-4,24
56,-4,23
58,-4,23
59,-4,23
57,-4,24
57,-4,25
58,-4,25
57,-3,26
56,-3,26
56,-3,27
56,-3,27
55,-3,27
56,-3,27
58,-2,28
57,-2,28
56,-2,29
57,-2,29
57,-2,29
55,-3,28
55,-3,27
56,-3,27
56,-2,27
57,-2,26
58,-2,25
58,-2,26
58,-2,24
61,-3,24
57,-3,24
59,-2,23
60,-2,24
57,-2,24
58,-2,24
57,-2,21
57,-2,24
58,-2,24
58,-2,24
58,-3,22
57,-3,22
57,-2,22
59,-2,23
57,-3,24
59,-3,22
61,-2,22
60,-3,22
59,-2,22
58,-2,22
59,-2,21
59,-2,22
59,-3,23
61,-3,22
59,-2,22
58,-2,23
59,-2,23
58,-3,21
59,-2,22
59,-2,22
59,-3,22
60,-3,23
60,-3,22
59,-3,22
59,-3,22
58,-3,22
58,-3,22
59,-3,22
59,-3,22
58,-3,23
59,-3,23
59,-3,23
58,-3,22
59,-3,23
57,-3,24
57,-2,23
57,-3,26
58,-3,25
58,-3,25
60,-3,24
58,-3,22
59,-3,23
59,-3,24
60,-2,22
59,-2,20
60,-2,21
60,-3,19
58,-3,18
59,-3,19
59,-4,18
62,-4,16
61,-4,15
61,-4,15
59,-4,13
60,-4,13
61,-4,15
60,-4,14
62,-5,14
61,-5,15
61,-4,15
61,-3,15
61,-2,15
61,-2,15
60,-2,14
62,-2,15
61,-3,15
61,-3,14
61,-3,14
63,-4,14
62,-3,14
61,-4,14
62,-3,13
61,-4,12
62,-4,12
62,-3,13
62,-3,13
61,-3,14
60,-3,14
61,-3,13
61,-3,14
61,-3,14
62,-3,14
62,-3,14
62,-4,13
61,-4,13
62,-3,14
61,-3,14
61,-3,13
61,-4,14
62,-3,13
61,-4,14
61,-3,13
61,-3,13
61,-4,13
61,-3,13
62,-3,14
62,-3,13
62,-3,12
62,-3,13
62,-3,13
62,-3,13
62,-3,12
61,-3,12
61,-3,13
62,-3,13
62,-4,13
62,-3,13
62,-3,13
62,-4,13
60,-3,12
60,-5,10
61,-4,13
61,-4,13
61,-5,12
62,-4,11
63,-4,11
61,-4,11
61,-4,12
61,-4,12
61,-5,11
61,-4,12
62,-4,12
62,-4,12
62,-4,12
61,-4,12
62,-4,12
62,-4,12
61,-4,12
62,-5,12
61,-5,11
61,-5,12
61,-5,12
62,-5,12
61,-5,12
62,-4,12
62,-5,12
62,-5,12
62,-4,12
62,-4,12
61,-4,12
61,-4,11
61,-4,11
61,-4,10
61,-4,10
61,-4,10
61,-5,10
61,-4,10
63,-4,9
62,-4,9
62,-4,8
62,-4,8
64,-3,9
63,-3,8
63,-3,7
63,-3,8
62,-3,8
62,-3,8
62,-3,8
62,-3,9
63,-3,9
62,-3,10
61,-4,8
62,-3,9
63,-3,10
63,-3,10
62,-3,10
63,-2,10
63,-3,10
62,-2,11
62,-2,11
62,-2,11
62,-3,11
63,-3,10
62,-3,10
62,-3,11
62,-3,10
61,-4,10
62,-3,10
62,-3,10
61,-3,10
61,-3,10
62,-3,10
63,-3,11
63,-3,12
62,-3,11
62,-2,12
62,-3,12
63,-2,13
62,-3,13
61,-2,13
61,-2,13
61,-2,14
61,-3,14
61,-3,14
61,-2,15
62,-2,15
61,-3,14
61,-3,14
62,-3,14
62,-3,13
61,-3,12
63,-3,12
62,-3,12
62,-3,12
61,-3,12
62,-3,12
61,-3,12
61,-3,13
62,-3,13
61,-3,13
61,-3,14
62,-3,14
62,-3,14
60,-3,15
61,-3,15
62,-3,15
62,-3,15
60,-3,15
60,-4,15
62,-3,15
62,-3,15
61,-3,16
61,-3,15
62,-3,15
60,-4,16
61,-3,15
61,-4,16
61,-3,17
61,-3,17
61,-4,17
60,-4,16
60,-4,16
62,-4,16
61,-4,17
60,-4,17
61,-4,17
61,-4,17
60,-4,18
60,-4,18
61,-4,17
59,-4,18
60,-4,19
60,-4,19
60,-4,18
60,-4,17
61,-4,18
60,-4,19
60,-4,18
59,-4,19
59,-5,18
60,-4,18
59,-5,18
59,-4,18
61,-4,17
60,-5,18
60,-5,18
60,-4,18
60,-5,18
60,-5,17
59,-5,19
59,-5,19
60,-5,19
60,-5,19
60,-4,19
60,-5,19
60,-5,19
60,-4,19
60,-4,20
59,-5,20
60,-4,21
59,-5,21
59,-5,21
59,-5,21
60,-5,20
59,-5,22
59,-5,22
58,-5,22
58,-5,22
59,-5,22
58,-5,22
58,-5,23
59,-5,22
58,-5,22
58,-5,23
59,-5,23
59,-5,24
58,-5,23
58,-5,23
59,-5,24
58,-5,24
57,-5,24
57,-5,23
57,-5,24
57,-5,25
57,-5,25
58,-5,25
58,-5,25
56,-5,26
57,-6,25
57,-6,24
58,-6,24
58,-6,24
59,-6,24
58,-5,24
57,-5,23
57,-5,24
55,-6,25
56,-6,26
56,-6,26
56,-6,26
56,-5,26
57,-5,23
58,-6,22
59,-5,22
60,-5,22
60,-5,21
60,-6,21
60,-6,21
61,-6,19
59,-6,21
60,-6,20
61,-6,19
59,-6,19
60,-5,20
60,-5,20
59,-5,21
59,-5,21
59,-5,21
59,-5,21
59,-5,20
58,-6,21
59,-6,21
59,-6,21
59,-6,21
58,-6,21
59,-6,21
59,-5,22
59,-5,21
58,-6,21
59,-5,22
59,-5,22
59,-5,22
59,-5,22
58,-5,22
59,-6,21
59,-6,22
59,-6,22
58,-6,22
59,-6,21
58,-6,22
58,-5,22
59,-6,22
58,-5,22
59,-6,22
59,-5,22
59,-6,22
59,-5,22
59,-6,22
58,-6,22
59,-6,22
58,-5,22
58,-6,22
58,-6,22
59,-6,22
58,-6,22
58,-6,21
59,-5,22
57,-6,21
56,-6,21
59,-5,21
60,-4,22
60,-4,22
60,-3,21
60,-3,22
59,-3,22
59,-3,21
59,-3,22
58,-4,21
58,-3,21
59,-3,21
59,-4,21
59,-3,21
59,-3,21
59,-3,21
59,-3,21
60,-3,20
59,-2,20
59,-2,20
61,-2,20
61,-2,21
60,-2,20
62,-2,20
63,-2,20
60,-3,20
61,-2,20
61,-2,20
59,-4,21
60,-4,21
57,-4,21
58,-4,20
59,-5,21
57,-5,21
58,-6,20
57,-6,20
57,-6,22
58,-6,22
59,-6,22
57,-7,22
57,-7,22
57,-6,23
58,-5,22
57,-6,22
58,-6,22
59,-6,22
59,-6,22
60,-7,22
59,-6,22
57,-6,22
57,-6,22
56,-6,22
59,-6,21
58,-6,20
59,-6,20
62,-6,19
61,-5,19
61,-5,19
60,-5,19
60,-5,20
60,-5,20
59,-5,20
59,-5,21
59,-5,21
59,-5,21
59,-5,21
59,-5,21
59,-5,21
59,-5,20
59,-5,21
59,-6,20
59,-5,20
59,-5,20
59,-6,21
59,-6,20
59,-6,21
60,-6,21
59,-6,21
58,-6,20
59,-5,21
60,-5,21
59,-6,20
59,-5,21
59,-5,20
59,-6,21
59,-6,20
59,-5,21
59,-6,21
59,-6,20
59,-5,21
59,-6,21
59,-6,21
58,-5,21
59,-5,21
58,-6,21
59,-5,22
59,-5,21
58,-5,20
59,-5,20
59,-5,21
58,-5,21
60,-5,21
61,-6,19
61,-5,19
60,-4,20
60,-4,18
60,-4,17
61,-5,16
60,-5,15
61,-5,13
60,-5,14
60,-4,13
58,-4,10
60,-4,8
63,-4,4
66,-5,4
67,-5,4
59,-4,-3
62,-5,-6
64,-3,-8
64,-4,-8
59,-3,-12
58,-3,-16
62,-3,-15
59,-4,-16
50,-4,-22
59,-5,-26
60,-4,-27
60,-1,-23
55,0,-26
53,1,-33
56,3,-35
55,4,-34
55,2,-36
52,2,-38
53,1,-40
54,0,-40
50,0,-42
51,2,-36
53,3,-35
56,2,-34
54,3,-35
56,1,-31
63,0,-24
64,1,-22
61,-1,-19
63,-1,-15
60,0,-6
58,0,-2
59,0,3
60,1,7
61,0,7
61,0,5
64,-1,6
64,-1,10
63,-1,9
61,-2,9
61,-1,10
60,-1,10
60,-2,7
61,-2,6
64,-2,7
61,-2,7
62,-2,5
60,-2,3
64,-3,3
60,-1,1
60,-1,-1
64,-1,-6
64,0,-9
67,0,-9
63,1,-13
59,0,-18
61,-1,-21
62,-1,-21
59,-1,-20
58,-2,-21
59,-2,-24
59,-1,-24
58,-1,-25
56,-1,-27
57,-1,-28
57,-1,-28
56,-1,-28
55,-1,-29
52,-1,-30
50,-1,-33
49,-2,-38
51,-1,-40
50,-1,-41
48,-1,-41
47,-1,-44
47,0,-44
49,0,-43
47,1,-43
48,1,-42
49,1,-40
52,0,-39
50,0,-39
49,0,-39
54,0,-35
60,0,-28
57,0,-28
53,-1,-29
61,-1,-24
62,-2,-21
57,-2,-21
57,-2,-20
58,-3,-20
60,-3,-19
58,-3,-18
56,-3,-19
58,-3,-19
64,-4,-17
62,-3,-17
61,-4,-17
62,-3,-16
62,-3,-14
60,-3,-14
59,-3,-14
62,-3,-13
62,-3,-12
60,-2,-14
60,-2,-15
63,-2,-15
62,-2,-15
62,-2,-15
62,-2,-16
61,-3,-16
61,-3,-17
60,-3,-17
61,-2,-18
59,-2,-18
60,-2,-19
61,-3,-19
59,-3,-20
59,-3,-21
59,-3,-22
58,-3,-22
59,-3,-22
57,-3,-23
57,-2,-24
57,-2,-24
56,-2,-26
55,-2,-30
52,-2,-32
50,1,-32
49,-2,-37
49,-2,-45
48,-1,-46
51,-1,-44
46,-1,-45
46,-1,-45
41,0,-46
41,-1,-47
40,0,-47
41,-1,-45
43,0,-45
42,-1,-47
44,0,-45
41,1,-46
40,0,-47
38,0,-49
40,0,-48
44,-1,-50
44,0,-47
43,0,-46
52,0,-41
47,0,-41
51,0,-38
54,0,-34
54,1,-33
54,1,-33
58,1,-31
55,2,-28
55,1,-30
61,0,-28
59,0,-27
61,-1,-23
63,-1,-18
62,-1,-16
59,-2,-13
59,-2,-10
60,-1,-4
58,-2,-4
59,-2,-3
63,-2,0
61,-1,1
67,-2,0
66,-2,0
66,-1,1
67,-1,2
65,-1,5
61,-1,7
62,-1,8
62,-2,10
62,-1,12
58,-2,13
61,-2,14
61,-2,14
59,-3,16
59,-3,16
59,-3,15
58,-3,15
59,-2,15
63,-2,14
67,-2,13
63,-2,11
62,-2,11
61,-2,13
60,-2,14
61,-2,14
63,-2,12
62,-2,12
61,-2,12
62,-2,12
62,-2,12
60,-2,11
61,-2,10
62,-3,8
62,-3,7
63,-3,5
62,-3,4
62,-2,3
63,-3,1
63,-3,-2
62,-2,-2
62,-2,-4
65,-3,-8
62,-2,-8
61,-2,-10
62,-2,-11
62,-3,-16
62,-2,-16
62,-2,-16
60,-3,-19
59,-3,-19
60,-3,-17
61,-3,-18
59,-2,-23
58,0,-24
59,1,-22
60,1,-22
60,1,-24
56,1,-25
56,1,-25
53,1,-28
59,0,-30
59,0,-29
58,1,-28
61,1,-29
51,2,-29
50,3,-35
49,3,-37
51,5,-36
55,6,-38
49,7,-41
51,6,-42
52,6,-40
51,6,-41
50,5,-41
47,3,-40
49,3,-38
52,3,-36
50,3,-33
55,1,-37
55,1,-31
48,1,-30
49,0,-30
52,-1,-29
55,-1,-24
55,-2,-27
60,-2,-26
59,-1,-24
60,-1,-23
60,0,-25
60,0,-25
59,2,-25
59,2,-25
59,2,-24
59,3,-23
57,2,-24
60,1,-23
60,1,-22
57,0,-23
56,2,-23
60,0,-20
55,1,-22
54,3,-21
56,3,-22
57,2,-21
61,2,-17
65,1,-15
64,3,-13
63,14,-9
64,17,-10
63,15,-10
62,13,-12
67,11,-11
66,11,-12
62,11,-14
61,12,-12
63,12,-11
61,12,-12
58,10,-12
53,8,-10
54,6,-9
60,1,-10
65,-2,-10
62,-3,-9
69,-3,-6
75,-10,-4
67,-5,0
60,3,-8
63,1,-7
56,2,-11
57,3,-8
60,0,-6
59,0,-8
71,-2,-10
71,-1,-9
66,3,-3
63,6,-1
63,8,-3
61,11,-5
62,14,-6
61,15,-5
61,15,-5
62,14,-3
63,13,1
63,12,1
63,11,2
63,10,1
62,11,1
61,11,1
62,10,1
62,11,1
61,10,3
61,12,4
61,13,4
59,14,4
59,16,1
59,17,0
60,15,-2
63,15,-3
64,14,-4
64,13,-5
61,12,-2
62,13,0
62,13,1
62,13,1
62,13,-1
62,13,-3
61,14,-3
62,13,-4
64,12,-5
64,11,-5
63,11,-2
63,11,0
62,11,2
62,12,3
62,12,2
62,12,3
62,12,3
62,12,2
62,12,2
62,12,2
62,12,2
62,12,2
62,12,1
63,12,1
62,12,1
61,12,1
62,11,1
62,10,0
62,10,-2
63,10,0
63,10,1
63,10,0
62,9,0
63,9,-1
63,10,-2
62,10,-2
63,10,-1
62,11,-1
62,11,0
61,12,0
62,13,2
61,13,3
61,13,3
62,14,4
62,14,4
62,14,5
62,14,4
62,14,4
61,13,4
61,13,4
62,12,3
62,12,3
62,11,2
62,11,2
62,11,1
62,10,1
62,10,0
63,9,-1
63,9,-1
62,9,0
62,9,-1
62,9,-2
63,9,-1
63,10,0
63,10,0
63,9,-1
63,9,0
63,9,0
62,9,1
62,9,1
62,8,1
62,8,2
62,8,2
64,8,1
63,8,0
62,8,1
61,7,0
63,8,1
63,7,0
63,6,1
63,6,2
63,6,2
63,5,0
62,5,-1
62,6,0
63,6,-1
63,6,-1
63,6,-2
62,6,-2
63,6,-2
64,6,-2
63,6,-2
62,6,-1
62,6,-2
64,6,-2
63,5,-1
63,5,-1
63,4,-1
63,5,-2
63,5,-1
63,5,-1
63,5,0
62,5,-1
63,5,-1
70,5,-1
77,6,-2
65,5,3
57,6,5
52,7,2
58,5,-7
62,5,-9
63,3,-6
64,2,-4
62,3,-3
63,5,-2
67,9,-3
67,12,-5
70,11,-4
64,7,-3
61,5,-1
64,3,2
62,0,-1
67,-6,-1
63,-6,-4
59,-4,-3
59,-6,-4
57,-5,-3
51,-6,-5
53,-6,-5
50,-7,-11
46,-9,-17
48,-9,-19
55,-10,-18
62,-10,-20
79,-17,-36
65,-15,-19
57,-12,-16
53,-12,-15
60,-13,-23
58,-11,-32
53,-11,-31
55,-12,-30
57,-12,-32
53,-11,-31
54,-12,-29
55,-12,-28
53,-13,-29
52,-12,-30
52,-13,-32
51,-12,-34
51,-11,-34
51,-11,-36
50,-11,-36
53,-10,-32
54,-10,-31
53,-9,-31
54,-9,-31
55,-9,-31
55,-8,-29
54,-8,-30
54,-8,-31
54,-7,-31
54,-7,-33
53,-7,-33
54,-7,-33
53,-6,-34
53,-6,-35
53,-6,-35
53,-6,-34
53,-5,-34
54,-5,-34
53,-5,-34
53,-5,-35
53,-5,-35
54,-6,-35
54,-6,-34
53,-6,-33
54,-7,-33
54,-7,-33
54,-7,-33
54,-7,-32
54,-7,-31
54,-6,-31
54,-6,-31
55,-4,-31
55,-4,-30
56,-4,-31
55,-4,-32
54,-4,-30
54,-5,-32
54,-4,-31
56,-4,-29
54,-4,-28
58,-3,-30
57,-3,-31
59,-3,-30
62,-2,-29
61,-3,-28
66,-3,-26
65,-2,-23
64,-2,-19
65,-1,-15
60,-1,-8
59,-2,-7
60,-3,-4
58,-4,0
59,-5,1
61,-7,5
60,-8,8
57,-9,9
65,-10,9
64,-8,11
56,-11,7
56,-13,6
61,-12,7
62,-12,10
54,-11,12
60,-12,10
60,-11,8
61,-10,9
65,-10,7
66,-11,1
61,-9,0
60,-9,-2
61,-9,0
59,-10,-1
64,-9,-3
67,-9,-4
58,-9,-3
59,-9,-2
61,-9,-4
59,-9,-7
61,-11,-9
64,-10,-12
61,-10,-13
60,-8,-12
60,-8,-12
61,-8,-14
61,-9,-14
61,-9,-15
59,-11,-13
58,-12,-14
63,-12,-13
64,-13,-11
63,-14,-8
67,-13,-5
66,-12,-3
64,-10,4
62,-9,7
59,-7,10
58,-6,10
61,-5,10
63,-4,10
63,-3,11
59,-4,11
59,-3,12
61,-3,11
61,-3,9
63,-3,8
71,1,1
59,8,-8
67,4,-7
64,3,-4
64,0,-4
58,-2,-3
61,-3,-5
61,1,-7
65,2,-10
64,3,-19
61,2,-23
59,2,-26
57,2,-29
57,2,-30
57,1,-28
56,0,-27
57,-1,-25
58,-1,-24
60,-1,-23
60,0,-24
59,0,-24
58,1,-25
58,2,-26
58,2,-25
58,2,-24
58,2,-24
57,2,-25
58,2,-24
58,2,-23
57,3,-23
58,3,-24
58,3,-24
59,3,-24
57,2,-26
58,3,-26
57,2,-26
58,2,-27
57,1,-27
57,1,-26
58,1,-24
58,1,-26
59,1,-25
58,1,-21
59,1,-21
59,2,-21
60,3,-20
58,2,-21
59,1,-22
60,1,-23
59,2,-23
59,2,-22
61,2,-22
60,2,-21
59,1,-24
59,1,-23
61,1,-21
61,0,-19
63,1,-17
57,-1,-15
62,0,-11
65,0,-9
66,-2,-10
65,-2,-10
66,-2,-9
61,-1,-3
60,-1,4
62,-1,9
62,0,11
64,0,13
65,1,16
56,0,20
60,0,22
59,0,22
53,0,26
54,0,28
53,0,30
54,1,31
51,1,31
50,1,31
53,2,32
51,2,33
54,2,32
56,2,30
57,2,27
56,1,29
57,1,27
55,1,28
57,2,28
56,2,28
54,1,26
56,2,26
58,3,25
60,3,22
62,3,22
61,3,20
60,3,20
60,3,21
60,3,21
61,3,23
59,3,24
57,3,27
57,4,29
56,3,29
54,2,30
53,2,31
53,2,33
54,2,34
51,2,35
51,1,35
51,2,35
50,1,35
53,2,36
50,2,36
47,2,36
46,3,37
49,3,36
49,3,35
51,4,34
60,4,30
58,4,28
55,4,27
57,4,25
57,4,22
56,4,22
62,4,18
64,4,16
61,4,13
66,4,8
67,4,7
61,3,5
62,4,4
65,3,2
63,3,1
62,3,-1
63,3,-3
64,2,-4
63,3,-7
63,3,-8
63,2,-10
63,2,-10
63,2,-12
61,2,-12
61,2,-12
62,2,-12
62,2,-12
63,2,-14
63,2,-14
59,2,-14
59,1,-20
60,1,-19
60,-1,-27
61,1,-25
61,-1,-26
61,0,-21
56,0,-19
63,1,-12
62,1,-12
62,1,-13
63,1,-14
60,1,-15
62,1,-13
64,1,-12
61,1,-9
63,0,-10
62,0,-7
62,0,-8
64,1,-6
61,0,-5
62,0,-5
65,1,-5
63,0,-3
64,0,-3
65,-1,-3
61,-1,1
60,-1,0
63,-1,1
63,0,5
62,-1,6
64,-1,5
64,-1,5
61,-2,6
62,-1,7
63,-1,8
63,0,10
63,0,10
59,0,11
60,0,11
62,0,13
60,0,15
62,0,14
63,0,14
63,0,14
63,0,12
65,-1,12
63,-1,11
66,-2,14
62,-4,16
60,-5,15
60,-6,15
58,-7,16
57,-8,17
56,-5,15
61,-7,16
62,-7,16
60,-6,14
60,-7,13
65,-7,12
64,-8,13
59,-9,14
63,-10,15
63,-11,16
59,-11,16
60,-12,16
57,-13,17
56,-13,18
56,-13,19
56,-12,23
56,-11,25
55,-11,27
55,-11,27
54,-11,28
54,-11,28
54,-11,29
53,-11,31
52,-11,31
50,-11,29
50,-11,29
54,-10,30
58,-9,30
58,-10,30
58,-10,28
56,-10,27
56,-9,27
56,-8,27
55,-9,27
55,-9,27
56,-9,28
55,-10,28
55,-10,27
55,-10,28
55,-10,28
56,-9,28
58,-9,27
58,-9,27
57,-9,26
57,-9,26
56,-9,27
56,-9,27
55,-9,28
55,-9,29
55,-9,28
54,-9,29
54,-10,28
53,-9,30
54,-8,30
53,-8,30
54,-8,30
54,-8,29
55,-8,29
55,-9,29
55,-9,29
56,-9,29
56,-9,28
55,-9,29
54,-8,30
56,-8,29
56,-9,29
55,-9,29
55,-8,30
56,-9,29
54,-9,29
54,-9,29
54,-9,30
54,-9,31
54,-9,30
54,-9,31
54,-9,31
53,-8,32
52,-8,32
53,-9,31
53,-9,32
53,-9,32
53,-9,32
54,-9,31
53,-9,31
53,-8,31
55,-8,30
55,-8,30
54,-8,30
55,-8,30
55,-8,29
54,-8,29
55,-8,30
56,-8,28
56,-8,29
56,-8,29
55,-8,28
56,-8,28
55,-8,28
56,-8,27
55,-8,27
57,-8,27
56,-8,28
56,-9,28
56,-8,28
55,-8,28
55,-8,28
55,-8,28
55,-8,28
54,-8,28
56,-7,29
56,-7,29
56,-8,29
56,-8,29
56,-7,29
56,-7,28
55,-8,28
55,-8,29
55,-8,29
56,-9,29
55,-9,28
56,-8,29
55,-9,29
56,-9,29
55,-9,29
55,-9,30
54,-10,29
53,-10,30
54,-9,30
53,-10,30
53,-10,30
55,-10,29
55,-10,29
54,-10,30
53,-9,31
58,-9,30
56,-9,31
52,-9,31
53,-9,30
55,-9,29
54,-9,30
54,-9,31
53,-9,30
55,-9,30
55,-9,31
55,-9,31
54,-9,31
52,-9,30
52,-8,31
55,-8,31
53,-9,31
51,-9,31
52,-9,31
55,-8,31
55,-9,30
56,-9,29
57,-9,29
55,-9,29
54,-9,29
53,-9,30
55,-9,30
54,-8,30
54,-9,30
54,-9,30
56,-8,30
55,-9,29
55,-9,29
54,-9,29
55,-9,30
55,-9,29
54,-9,30
55,-9,31
55,-9,31
54,-9,30
54,-9,31
53,-9,31
53,-9,31
53,-9,31
54,-9,31
55,-9,30
54,-9,30
54,-9,31
53,-9,32
54,-9,31
53,-9,31
52,-9,32
52,-9,32
52,-9,32
52,-10,32
54,-9,31
53,-9,32
54,-10,30
54,-9,31
55,-9,30
55,-9,30
54,-9,30
56,-9,29
55,-9,30
54,-9,30
54,-9,30
54,-9,30
54,-9,30
54,-9,30
53,-9,30
55,-9,30
55,-9,30
54,-9,30
54,-9,30
56,-9,29
58,-9,30
56,-10,30
54,-10,31
57,-10,32
57,-11,32
53,-12,32
53,-11,34
53,-11,35
46,-13,33
44,-14,31
44,-13,31
44,-14,31
48,-15,28
50,-15,27
58,-14,26
63,-13,25
62,-15,21
64,-15,20
62,-14,19
63,-14,20
58,-14,22
55,-14,23
54,-13,26
58,-12,30
52,-12,32
48,-14,28
48,-14,28
51,-12,32
52,-12,33
52,-13,33
51,-13,31
53,-13,32
54,-13,32
54,-13,32
53,-13,31
53,-13,31
53,-13,32
52,-13,31
53,-12,31
53,-12,32
51,-12,31
54,-12,31
55,-12,32
53,-13,31
54,-13,31
53,-13,31
52,-13,31
53,-12,31
53,-12,31
53,-12,31
52,-13,31
53,-13,31
53,-13,32
52,-13,32
51,-12,31
53,-12,31
54,-12,32
53,-13,32
52,-13,31
53,-13,31
52,-13,31
53,-13,31
52,-12,31
54,-13,31
53,-13,31
54,-12,30
54,-13,30
55,-12,30
55,-12,29
53,-12,30
54,-13,31
55,-13,31
54,-13,31
54,-13,31
53,-13,30
53,-13,30
51,-13,31
52,-13,32
52,-13,32
52,-14,32
52,-14,32
53,-14,33
53,-14,32
52,-14,32
52,-14,33
51,-15,33
51,-15,32
50,-15,32
49,-15,33
49,-15,34
50,-14,34
51,-14,34
51,-14,34
51,-14,35
51,-14,34
50,-15,33
51,-14,33
52,-13,34
50,-14,33
51,-14,33
52,-14,33
52,-14,33
50,-14,33
51,-14,34
52,-14,33
52,-14,33
52,-14,33
52,-14,33
51,-14,32
51,-14,32
52,-13,32
52,-13,32
52,-13,32
52,-13,32
53,-13,32
54,-13,32
52,-14,31
53,-13,31
53,-13,31
52,-14,30
53,-13,31
54,-13,31
55,-13,31
53,-13,30
53,-13,30
54,-13,30
53,-13,30
52,-13,30
54,-13,30
54,-13,30
54,-13,30
54,-13,30
54,-14,29
53,-13,30
53,-13,31
52,-13,30
51,-14,30
53,-13,31
55,-13,31
54,-13,31
54,-13,30
54,-13,30
53,-13,30
52,-13,30
54,-13,30
53,-13,30
53,-13,31
52,-13,30
53,-13,31
53,-12,31
53,-13,31
52,-13,31
52,-13,30
53,-13,30
54,-13,31
54,-13,31
53,-13,31
53,-12,31
53,-12,31
52,-13,31
53,-13,31
53,-13,31
53,-13,30
52,-13,30
53,-13,31
53,-12,30
54,-12,30
53,-13,30
53,-13,30
54,-13,29
52,-13,29
54,-12,29
56,-12,30
53,-12,28
53,-12,27
56,-11,28
58,-11,28
57,-12,26
59,-12,27
59,-13,27
56,-13,26
55,-13,26
54,-13,27
54,-13,28
53,-13,30
53,-13,31
52,-13,30
50,-13,30
51,-13,31
52,-13,31
53,-13,30
54,-14,30
53,-14,29
55,-14,30
53,-14,30
53,-13,29
54,-13,28
54,-13,29
55,-13,29
56,-13,28
55,-14,28
54,-14,29
52,-13,31
54,-14,29
54,-14,28
53,-13,32
55,-13,30
55,-14,30
53,-14,31
51,-13,31
52,-13,31
52,-14,32
52,-13,32
52,-12,33
51,-13,31
50,-12,30
54,-12,30
53,-12,31
54,-13,26
56,-13,27
58,-12,25
60,-12,27
57,-12,20
59,-12,22
61,-11,21
59,-12,16
56,-11,13
61,-10,18
62,-9,19
61,-12,8
61,-13,6
63,-10,9
59,-14,5
61,-14,3
62,-13,0
59,-14,-1
65,-14,-3
65,-15,-6
59,-16,-10
65,-15,-9
61,-16,-9
60,-16,-12
59,-15,-12
59,-16,-12
60,-16,-12
57,-17,-15
58,-17,-15
57,-17,-15
59,-17,-15
58,-18,-15
59,-17,-15
61,-18,-15
58,-18,-15
57,-18,-15
57,-17,-16
58,-18,-14
56,-18,-16
58,-18,-14
60,-18,-15
55,-18,-16
60,-19,-15
58,-18,-15
59,-18,-13
57,-18,-14
58,-18,-15
59,-18,-15
59,-17,-14
56,-18,-15
56,-17,-15
57,-17,-14
57,-17,-15
59,-17,-15
60,-17,-16
59,-17,-16
59,-17,-16
61,-16,-15
60,-16,-15
59,-16,-15
59,-16,-15
59,-16,-15
60,-16,-16
61,-16,-14
60,-16,-14
61,-16,-14
59,-15,-13
60,-15,-14
60,-16,-12
59,-15,-13
59,-16,-12
58,-16,-12
60,-16,-13
59,-16,-12
62,-16,-12
57,-16,-11
58,-16,-10
64,-16,-10
62,-16,-11
58,-16,-10
61,-16,-10
62,-17,-8
56,-16,-7
60,-17,-6
60,-16,-1
56,-16,-1
62,-15,1
64,-16,0
60,-17,-1
59,-16,2
61,-16,0
61,-16,-1
58,-16,0
60,-15,-2
62,-15,-4
61,-14,-2
59,-15,-7
64,-15,-8
61,-15,-8
61,-15,-7
61,-15,-9
61,-15,-10
63,-15,-7
61,-15,-8
62,-14,-6
60,-13,-3
60,-14,-3
62,-14,-4
59,-13,0
59,-13,1
62,-15,-2
61,-15,0
61,-13,2
61,-13,1
62,-14,2
57,-12,4
56,-13,2
58,-13,-2
57,-13,-4
58,-12,-7
61,-12,-9
62,-13,-16
61,-13,-19
58,-13,-20
61,-12,-21
61,-12,-23
60,-12,-23
59,-11,-22
59,-11,-19
61,-11,-20
61,-12,-19
61,-11,-15
60,-10,-11
60,-12,-15
58,-11,-13
60,-11,-12
57,-12,-14
58,-12,-17
62,-12,-18
61,-12,-18
60,-12,-19
59,-12,-19
59,-12,-20
60,-12,-18
60,-12,-17
60,-12,-15
60,-12,-15
64,-12,-13
59,-12,-10
58,-12,-9
58,-11,-7
60,-12,-8
58,-12,-9
58,-12,-8
63,-12,-9
63,-12,-10
61,-12,-11
63,-12,-11
63,-12,-11
61,-12,-10
62,-12,-11
61,-12,-12
60,-13,-10
61,-12,-11
60,-13,-10
60,-13,-10
61,-13,-9
62,-13,-8
61,-13,-8
60,-12,-8
61,-12,-8
61,-12,-7
60,-13,-7
61,-12,-8
61,-12,-8
61,-13,-8
62,-12,-8
61,-13,-8
61,-12,-9
61,-13,-9
62,-12,-10
61,-12,-9
62,-12,-10
60,-12,-10
61,-12,-10
62,-13,-10
61,-13,-9
60,-13,-8
60,-12,-9
63,-12,-9
60,-12,-8
59,-13,-8
61,-12,-9
61,-13,-9
61,-13,-8
61,-13,-8
61,-13,-9
61,-13,-8
61,-13,-9
61,-13,-8
61,-13,-9
61,-13,-8
61,-13,-8
61,-13,-9
61,-13,-8
61,-13,-8
62,-13,-8
61,-13,-8
61,-13,-8
61,-13,-9
60,-13,-8
60,-13,-9
62,-13,-9
62,-13,-9
61,-13,-9
63,-13,-9
62,-13,-9
60,-13,-8
61,-12,-8
62,-13,-8
59,-13,-8
60,-12,-8
62,-13,-7
61,-13,-8
62,-13,-8
62,-13,-7
62,-13,-6
60,-13,-6
61,-13,-5
61,-13,-5
61,-13,-5
61,-13,-4
62,-12,-4
62,-13,-4
62,-13,-3
61,-13,-3
62,-13,-4
61,-13,-3
61,-13,-3
62,-13,-2
62,-13,-2
61,-13,-2
61,-13,-2
62,-13,-1
61,-13,-1
61,-13,-1
62,-13,-1
62,-13,-1
61,-13,0
62,-13,-1
62,-13,1
62,-13,1
62,-13,1
61,-13,1
61,-13,1
62,-13,2
62,-13,2
61,-14,2
62,-13,3
62,-13,4
61,-13,4
60,-14,5
61,-14,5
62,-14,5
61,-14,7
61,-14,7
60,-14,7
60,-14,7
61,-14,8
60,-14,9
60,-15,8
61,-14,8
61,-14,8
61,-14,8
60,-15,8
60,-15,7
61,-14,8
61,-14,8
60,-15,8
61,-15,7
61,-14,7
61,-14,8
61,-14,8
61,-14,8
61,-14,8
61,-14,9
61,-14,8
60,-15,8
59,-14,9
61,-14,9
61,-15,9
60,-15,8
61,-14,9
60,-15,9
60,-14,9
61,-15,8
60,-14,8
61,-14,8
61,-14,9
60,-14,8
61,-15,7
61,-15,8
60,-15,8
59,-15,8
61,-15,7
60,-15,7
60,-15,7
61,-14,4
61,-14,4
61,-14,3
62,-14,3
63,-15,3
60,-15,3
60,-14,1
62,-15,3
62,-14,3
61,-15,2
61,-15,1
61,-15,3
62,-14,2
62,-15,2
62,-15,2
61,-15,2
61,-14,4
62,-15,3
60,-15,4
61,-14,5
62,-15,4
60,-15,6
61,-15,7
61,-15,6
61,-15,7
61,-15,8
60,-15,8
60,-15,8
59,-15,8
60,-15,8
61,-15,8
61,-15,9
61,-15,9
61,-15,9
60,-15,9
60,-15,9
60,-15,10
61,-15,9
61,-15,9
60,-15,9
61,-15,9
60,-15,9
60,-15,8
60,-15,9
61,-15,10
60,-15,9
60,-15,8
61,-15,8
60,-15,9
61,-15,9
61,-15,8
60,-15,8
61,-15,8
61,-15,8
59,-15,7
60,-16,6
60,-15,6
61,-16,6
61,-16,6
60,-16,5
60,-15,5
60,-16,5
61,-15,4
61,-16,3
61,-15,4
62,-16,4
61,-15,3
60,-15,4
61,-15,3
61,-16,4
61,-16,5
60,-15,6
62,-16,4
59,-15,7
58,-15,7
62,-16,5
60,-16,6
60,-15,7
60,-15,7
61,-16,7
60,-15,7
61,-15,7
60,-15,8
60,-15,8
62,-16,7
61,-16,8
60,-15,8
59,-16,8
60,-15,8
61,-16,8
61,-15,8
61,-16,8
61,-15,9
60,-16,9
60,-16,9
59,-16,10
60,-16,11
60,-16,10
60,-16,10
61,-15,11
60,-15,11
60,-16,11
60,-15,12
60,-15,12
60,-16,12
59,-16,12
60,-15,13
60,-16,13
59,-16,12
59,-16,13
60,-16,14
59,-16,13
59,-16,13
59,-16,13
59,-16,13
59,-16,13
59,-16,14
60,-16,13
59,-16,13
59,-16,13
60,-16,13
59,-16,13
59,-16,13
59,-16,14
60,-16,14
59,-16,13
58,-16,13
60,-16,14
60,-16,13
59,-16,14
59,-16,14
59,-16,14
59,-16,14
59,-16,15
59,-16,15
58,-16,15
59,-16,15
59,-16,15
59,-16,15
59,-16,14
59,-16,15
59,-16,15
58,-16,15
59,-16,15
60,-16,15
59,-16,15
58,-16,15
58,-16,15
59,-16,16
59,-16,16
58,-16,16
58,-16,16
59,-16,16
59,-16,16
59,-16,17
58,-16,17
57,-16,16
58,-16,17
58,-16,17
59,-16,16
58,-16,16
59,-16,17
58,-16,17
58,-16,16
59,-16,17
58,-16,17
58,-16,16
58,-16,17
58,-16,16
58,-16,16
58,-16,16
60,-16,18
58,-16,17
57,-16,17
60,-15,18
58,-16,17
56,-16,17
61,-15,18
59,-15,17
56,-16,15
60,-13,19
56,-15,17
56,-14,19
61,-14,19
58,-15,17
59,-15,17
60,-14,19
59,-15,19
58,-16,18
58,-16,20
56,-16,18
56,-16,17
56,-15,18
57,-15,18
59,-15,19
59,-16,18
60,-16,18
55,-16,20
57,-15,19
59,-15,19
58,-15,19
58,-15,19
57,-15,19
57,-15,19
58,-16,15
59,-17,15
58,-15,18
61,-15,18
60,-16,16
58,-15,17
59,-15,17
59,-15,16
59,-15,17
60,-15,17
57,-16,16
57,-15,18
59,-15,16
60,-15,17
57,-15,17
58,-15,18
59,-14,18
58,-14,18
58,-13,17
61,-13,20
61,-14,20
56,-15,19
56,-15,19
57,-15,18
59,-15,17
59,-15,17
59,-15,17
58,-15,17
58,-16,18
59,-15,18
58,-15,17
58,-15,18
57,-15,18
59,-15,18
59,-15,17
57,-15,18
59,-15,18
58,-15,17
59,-15,18
58,-15,18
58,-15,19
58,-15,18
58,-15,18
57,-15,18
58,-15,19
59,-15,19
57,-15,18
58,-15,18
58,-15,19
58,-15,18
58,-15,18
59,-15,19
58,-15,18
57,-15,17
59,-15,18
59,-15,18
58,-16,17
59,-15,18
59,-15,18
57,-16,17
57,-15,18
59,-15,18
59,-15,18
57,-15,16
58,-15,17
60,-15,17
59,-15,16
59,-15,16
58,-15,16
59,-14,16
59,-15,16
59,-15,15
59,-15,16
59,-15,16
59,-15,16
59,-15,16
58,-15,16
58,-15,17
59,-15,17
59,-15,17
57,-15,17
58,-15,17
59,-15,18
59,-15,18
57,-16,17
59,-15,17
59,-15,19
58,-15,17
58,-15,17
59,-15,17
58,-15,17
59,-15,16
59,-15,16
59,-15,16
59,-15,17
59,-15,17
59,-15,16
58,-15,16
59,-15,16
60,-16,16
59,-15,16
59,-15,16
59,-15,16
59,-15,16
58,-16,17
57,-15,17
58,-15,17
58,-15,17
58,-16,17
58,-16,18
58,-15,18
59,-15,17
58,-15,17
59,-15,18
59,-15,18
57,-16,18
58,-16,17
58,-15,18
58,-15,19
57,-15,19
58,-15,18
59,-15,18
59,-15,18
58,-15,19
58,-15,19
58,-15,18
58,-15,19
57,-15,19
58,-15,19
58,-15,19
58,-15,19
59,-15,20
58,-16,20
57,-16,20
57,-16,21
57,-16,21
56,-16,20
56,-16,21
57,-16,22
55,-16,21
56,-16,20
57,-15,21
57,-16,21
56,-16,20
57,-16,21
57,-16,19
58,-16,19
59,-16,18
57,-16,19
57,-16,19
58,-15,19
59,-15,18
57,-16,16
60,-15,16
60,-15,16
59,-16,16
59,-16,16
59,-16,16
59,-16,16
59,-15,18
57,-15,19
58,-16,18
58,-16,18
58,-15,19
58,-15,19
57,-16,19
56,-16,19
58,-15,20
58,-15,20
57,-16,20
58,-15,20
58,-16,19
58,-16,19
57,-16,19
57,-15,20
57,-16,20
56,-16,20
58,-15,21
57,-16,21
56,-16,20
56,-16,21
57,-16,21
57,-16,21
56,-16,21
57,-16,21
57,-16,21
57,-16,21
56,-16,21
56,-16,21
56,-16,21
57,-16,21
57,-16,21
57,-16,21
58,-16,21
57,-16,21
57,-16,20
57,-16,20
56,-16,20
56,-16,21
57,-15,20
56,-16,20
57,-15,20
57,-16,21
57,-16,20
57,-16,20
57,-15,19
59,-15,19
58,-16,19
57,-16,20
57,-15,19
57,-15,19
57,-15,19
58,-15,19
59,-16,19
59,-16,17
59,-16,17
59,-16,18
58,-16,18
57,-15,18
58,-15,19
58,-15,19
58,-16,19
57,-15,19
57,-16,19
57,-15,19
58,-15,19
58,-15,19
59,-16,19
57,-16,19
58,-16,19
58,-15,19
58,-16,19
58,-15,19
58,-15,19
57,-16,19
57,-15,19
57,-15,20
57,-16,19
58,-15,20
58,-16,20
58,-15,20
57,-16,19
57,-16,19
58,-15,19
58,-16,20
57,-16,20
57,-16,20
57,-15,20
56,-16,20
56,-15,20
58,-15,21
57,-16,20
57,-16,20
58,-15,20
57,-16,20
57,-15,20
58,-15,20
57,-16,20
57,-16,20
57,-15,20
58,-15,20
58,-16,20
57,-15,20
58,-16,19
58,-16,20
57,-16,20
58,-15,20
58,-16,20
58,-15,20
58,-15,20
57,-15,20
56,-16,20
58,-16,19
58,-15,19
59,-16,20
58,-16,20
58,-16,20
57,-16,20
56,-15,19
57,-15,20
57,-15,20
57,-15,18
58,-15,18
57,-15,18
59,-15,18
58,-15,17
59,-15,17
59,-15,17
59,-15,17
59,-15,17
59,-15,16
59,-15,17
58,-15,17
59,-15,18
58,-16,17
58,-15,18
58,-15,20
57,-16,20
55,-16,19
55,-16,20
58,-15,21
57,-16,20
57,-16,19
58,-16,20
58,-16,20
57,-16,20
57,-16,20
57,-16,20
57,-16,20
57,-16,20
58,-16,20
58,-15,20
57,-16,20
58,-15,20
56,-16,20
57,-16,20
57,-16,20
57,-16,20
57,-16,20
58,-16,20
57,-16,20
57,-16,20
57,-16,20
57,-16,20
57,-16,20
57,-16,20
58,-15,20
58,-15,20
57,-15,21
56,-16,20
57,-16,20
57,-16,20
58,-16,19
59,-16,19
58,-16,19
57,-16,20
57,-16,20
57,-16,19
58,-15,20
57,-16,20
57,-16,19
57,-16,20
58,-16,20
58,-16,19
58,-16,19
57,-16,19
57,-16,19
57,-16,19
58,-16,19
57,-16,19
58,-15,19
58,-16,19
57,-16,19
57,-16,19
58,-16,19
57,-16,19
57,-16,18
58,-16,19
59,-16,19
57,-16,18
58,-16,18
57,-16,18
57,-16,19
57,-16,18
58,-16,18
59,-16,18
59,-16,17
58,-16,17
59,-16,17
58,-16,17
58,-16,16
58,-15,17
59,-15,17
59,-16,16
58,-16,16
59,-15,16
59,-15,16
58,-15,15
59,-15,16
58,-15,16
59,-15,16
59,-15,15
59,-15,16
59,-15,16
60,-15,17
58,-15,17
58,-15,16
57,-15,18
58,-15,19
57,-15,19
58,-15,18
57,-15,19
58,-15,20
58,-15,19
58,-15,18
59,-15,20
59,-15,20
58,-15,19
58,-15,19
57,-15,19
57,-15,19
57,-15,19
57,-15,19
59,-14,19
57,-15,19
58,-15,18
59,-15,19
59,-15,18
58,-15,18
58,-15,19
57,-15,19
56,-15,18
57,-15,18
59,-15,17
59,-15,18
58,-15,18
59,-15,17
59,-15,17
59,-15,17
60,-15,17
59,-15,17
58,-15,17
59,-15,17
58,-15,17
58,-15,16
59,-15,16
59,-15,16
59,-15,15
59,-15,15
59,-16,15
59,-15,15
59,-16,15
59,-15,14
59,-15,15
59,-15,14
59,-15,13
59,-15,13
60,-15,13
60,-15,12
60,-15,12
60,-15,12
60,-15,11
60,-15,10
61,-15,11
61,-15,11
61,-15,11
61,-15,9
61,-15,10
60,-15,10
59,-15,10
60,-15,10
61,-14,10
61,-14,8
60,-15,8
61,-14,8
62,-15,8
62,-14,7
61,-14,7
61,-14,8
61,-14,8
61,-13,8
61,-14,8
62,-14,8
61,-14,9
61,-14,8
60,-14,10
60,-14,10
59,-14,10
58,-14,11
58,-14,11
61,-13,11
61,-13,11
61,-14,9
61,-14,8
61,-14,9
61,-14,9
61,-14,9
61,-14,7
60,-14,8
60,-14,9
60,-14,9
60,-14,7
61,-13,7
61,-13,9
61,-13,6
62,-13,5
62,-13,7
62,-13,7
61,-14,7
60,-14,7
61,-14,7
61,-14,6
61,-14,5
61,-15,4
61,-15,2
61,-15,1
63,-15,1
62,-15,-1
61,-15,-3
61,-15,-4
61,-15,-2
60,-15,-2
61,-16,-1
60,-16,-2
60,-16,-4
61,-16,-5
61,-17,-5
61,-17,-5
60,-17,-7
60,-18,-8
60,-18,-8
59,-19,-11
58,-20,-13
57,-20,-14
59,-20,-15
60,-20,-13
58,-20,-16
54,-20,-19
53,-20,-19
53,-19,-17
53,-19,-17
54,-20,-17
55,-20,-20
57,-20,-20
59,-21,-17
58,-21,-17
58,-20,-16
58,-20,-15
58,-19,-12
61,-18,-12
59,-18,-10
59,-18,-10
60,-18,-10
60,-18,-6
60,-18,-5
60,-17,-5
60,-17,-4
61,-17,-2
61,-16,0
62,-16,0
62,-16,0
62,-16,2
63,-15,3
62,-16,3
60,-16,3
61,-15,6
60,-15,6
58,-15,4
58,-16,4
60,-16,6
60,-16,7
59,-16,4
60,-15,3
61,-14,4
61,-14,2
58,-14,1
64,-13,-2
65,-12,1
63,-12,0
63,-12,-1
62,-12,-1
62,-12,-3
62,-12,-1
62,-11,-1
65,-11,-2
63,-12,-3
61,-12,-4
60,-12,-4
61,-12,-5
60,-12,-5
61,-12,-10
60,-13,-13
59,-13,-12
60,-13,-15
60,-13,-16
60,-13,-18
60,-13,-18
59,-13,-17
57,-13,-19
56,-13,-20
58,-13,-20
57,-13,-20
56,-13,-24
57,-13,-26
57,-12,-24
54,-12,-26
53,-12,-30
53,-12,-34
53,-11,-32
55,-11,-33
56,-11,-37
53,-12,-37
53,-12,-35
55,-11,-38
58,-9,-40
59,-11,-35
59,-17,-27
51,-16,-26
53,-18,-26
61,-20,-25
63,-20,-25
57,-21,-22
54,-21,-20
53,-23,-20
53,-23,-18
51,-20,-18
48,-21,-17
45,-21,-20
41,-21,-23
44,-21,-25
42,-18,-27
43,-17,-32
46,-17,-39
50,-19,-45
43,-18,-47
45,-18,-49
44,-19,-50
44,-18,-48
44,-18,-46
47,-18,-45
45,-18,-44
45,-17,-44
47,-17,-40
49,-18,-37
55,-21,-34
54,-21,-27
54,-22,-26
53,-22,-25
55,-24,-24
59,-23,-21
59,-24,-20
60,-24,-15
56,-25,-13
49,-25,-8
43,-26,-5
42,-26,-1
48,-28,5
51,-28,4
53,-29,4
53,-31,5
52,-31,5
53,-31,4
52,-30,4
53,-29,4
53,-28,4
53,-28,2
53,-26,2
53,-26,1
52,-24,-3
56,-24,-1
54,-21,4
52,-20,3
60,-18,5
65,-19,7
65,-19,7
61,-18,8
60,-18,6
68,-17,3
73,-16,0
66,-14,1
59,-12,-5
59,-11,-7
65,-10,-7
67,-12,-4
60,-11,-3
61,-13,-4
65,-12,-3
64,-13,0
63,-13,0
57,-12,-2
55,-11,-2
66,-12,-3
65,-12,2
66,-13,7
56,-12,3
52,-9,8
69,-10,11
70,-10,6
67,-7,11
67,-5,16
64,0,25
59,-3,16
56,-1,19
48,-1,30
52,-2,30
52,-3,30
48,-4,33
51,-4,38
48,-5,40
46,-5,40
48,-5,39
52,-3,38
51,-1,36
50,0,33
59,-1,30
65,0,29
62,-1,27
57,-3,21
53,-5,15
52,-7,9
61,-6,3
65,-7,0
66,-6,-6
67,-6,-6
69,-5,-9
66,-5,-10
62,-6,-13
65,-6,-10
67,-5,-10
70,-6,-11
63,-7,-11
61,-9,-7
60,-8,-3
64,-7,6
59,-9,8
60,-9,9
60,-10,11
60,-10,15
61,-9,19
53,-10,19
57,-10,22
54,-11,23
52,-10,26
55,-10,28
55,-10,28
57,-10,29
56,-9,30
52,-9,30
52,-9,30
53,-10,29
54,-9,28
54,-9,27
57,-10,23
61,-11,21
56,-9,21
61,-10,18
63,-10,16
59,-9,17
58,-9,17
61,-9,14
61,-9,14
60,-9,12
62,-9,11
62,-9,10
60,-9,8
61,-9,7
65,-10,8
63,-9,8
61,-9,6
65,-9,3
63,-8,3
59,-8,3
58,-8,2
67,-8,1
63,-7,1
64,-7,1
63,-8,0
64,-7,0
62,-8,0
61,-7,0
62,-7,-1
63,-7,-1
62,-8,-1
62,-8,-2
62,-8,-3
63,-8,-3
62,-7,-3
61,-7,-4
62,-7,-6
62,-7,-5
61,-6,-5
60,-6,-7
62,-6,-9
63,-6,-11
63,-6,-11
63,-5,-12
63,-5,-12
63,-5,-14
62,-5,-14
62,-5,-14
64,-5,-13
63,-4,-12
62,-5,-11
63,-5,-11
62,-5,-8
63,-6,-7
62,-5,-5
61,-5,-4
63,-4,-3
64,-5,-2
60,-5,0
60,-5,1
62,-5,0
63,-6,1
61,-6,3
63,-6,2
62,-6,2
61,-6,2
62,-6,0
62,-6,0
62,-6,-2
61,-5,-5
63,-5,-7
65,-5,-8
63,-5,-8
64,-5,-10
64,-5,-10
63,-5,-9
62,-5,-9
62,-5,-8
62,-5,-6
62,-5,-5
63,-6,-5
63,-6,-5
62,-6,-3
63,-5,-3
65,-5,-3
64,-6,-1
63,-6,-1
62,-6,0
63,-6,1
60,-5,4
62,-4,5
61,-4,5
61,-4,4
62,-4,3
63,-4,2
62,-4,1
61,-4,-2
61,-4,-4
61,-3,-6
68,-2,-9
70,-1,-10
64,-2,-9
64,-2,-9
65,-2,-6
61,-4,-3
60,-4,-1
63,-4,0
63,-5,2
61,-5,4
61,-6,4
63,-6,4
61,-6,6
61,-6,8
62,-5,8
62,-5,8
63,-5,10
63,-5,9
61,-5,8
62,-6,9
61,-6,9
62,-5,9
59,-6,9
60,-5,7
66,-4,7
65,-4,5
59,-5,4
59,-4,4
67,-3,3
66,-3,2
61,-4,1
61,-4,1
63,-4,1
63,-3,1
63,-3,1
64,-3,1
63,-3,0
62,-3,-1
63,-2,0
64,-2,0
63,-2,-1
62,-2,-1
63,-2,-2
64,-2,-2
63,-2,-1
62,-2,-2
65,-1,-1
63,-1,-1
63,-2,-1
62,-2,-1
62,-1,-1
63,-2,0
63,-1,-1
63,-1,-1
63,-1,-1
63,-2,-1
63,-2,0
64,-2,0
63,-2,-1
63,-2,0
63,-2,0
63,-2,-1
62,-2,-1
62,-2,0
61,-2,0
63,-2,0
65,-1,-2
64,-1,-3
59,-2,-5
61,-2,-5
65,-1,-5
64,-1,-6
62,-1,-9
64,1,-9
65,1,-9
61,1,-10
61,1,-11
62,1,-11
62,1,-12
62,1,-12
62,1,-12
61,1,-12
62,2,-12
62,2,-14
62,2,-15
62,2,-15
64,2,-15
63,2,-15
60,1,-15
62,1,-13
64,1,-12
61,1,-11
62,0,-10
63,0,-9
64,0,-8
63,0,-8
64,0,-6
62,-1,-6
62,-1,-5
64,-1,-3
63,-1,-2
63,-1,0
62,-1,1
63,-1,2
64,-1,3
62,-1,4
59,-2,4
60,-2,5
66,0,5
66,0,5
61,-1,3
56,-1,2
65,0,2
67,0,2
61,0,1
60,-1,1
63,0,0
64,0,-1
62,0,-3
61,0,-4
64,1,-5
65,1,-6
64,0,-8
63,0,-9
64,0,-9
65,0,-8
63,0,-7
63,-1,-6
65,-1,-5
62,-1,-3
62,-1,-1
63,-1,-2
64,-1,-2
63,0,0
64,-1,-2
62,-2,-2
57,-2,-3
60,-2,-4
63,-2,-5
62,-2,-7
63,-3,-8
63,-3,-9
63,-3,-9
62,-2,-8
64,-2,-9
64,-2,-8
63,-2,-7
62,-2,-5
63,-2,-4
63,-2,-3
63,-2,-2
63,-2,-2
62,-2,0
64,-1,0
64,-1,1
63,-2,2
65,-2,3
64,-2,3
64,-2,4
64,-1,5
62,-2,7
59,-3,8
58,-2,9
60,-2,9
59,-3,9
59,-3,8
63,-2,7
63,-2,6
59,-2,4
65,-1,1
67,-1,3
62,-2,2
63,-2,-1
66,-2,-3
64,-2,1
62,-2,1
63,-2,0
63,-2,2
62,-2,4
61,-2,4
63,-2,4
62,-2,5
63,-1,5
63,-2,5
62,-2,5
61,-2,4
62,-2,3
64,-1,3
61,-2,2
63,-1,1
65,-1,1
64,-2,1
62,-2,0
62,-2,0
63,-2,0
64,-2,1
64,-2,2
63,-2,2
63,-2,3
63,-2,3
64,-2,3
64,-2,4
63,-2,6
62,-2,7
63,-2,6
63,-2,6
62,-2,8
63,-1,9
62,-2,10
61,-3,10
60,-3,11
62,-2,13
62,-2,13
62,-2,13
61,-2,13
61,-2,13
60,-2,13
61,-2,13
63,-2,12
62,-2,12
61,-2,10
63,-2,7
63,-2,7
63,-1,5
62,-1,5
63,-1,4
64,-2,2
63,-2,1
63,-2,0
63,-2,-1
63,-2,-1
62,-2,-1
63,-1,-3
64,-1,-4
62,-1,-5
63,-1,-6
63,-2,-7
60,-2,-10
60,-2,-11
63,-1,-12
62,-1,-14
61,-1,-19
61,-1,-19
61,-1,-20
60,-1,-23
59,-1,-24
59,-1,-22
59,-2,-23
60,-2,-24
58,-3,-23
58,-3,-24
57,-3,-25
56,-2,-24
57,-3,-29
56,-4,-33
54,-4,-38
51,-3,-39
49,-4,-41
46,-6,-43
45,-7,-45
39,-10,-48
37,-10,-48
35,-11,-48
34,-11,-50
35,-12,-51
30,-12,-53
31,-12,-55
33,-10,-55
32,-9,-55
29,-9,-55
28,-10,-54
25,-11,-54
21,-12,-56
21,-11,-55
18,-10,-54
16,-12,-59
14,-12,-59
14,-9,-59
14,-9,-61
13,-7,-62
13,-6,-62
10,-7,-63
11,-6,-61
10,-5,-58
8,-3,-57
8,-2,-57
9,4,-54
8,7,-53
6,2,-62
5,1,-63
5,1,-63
5,1,-68
4,-1,-70
6,-1,-68
6,-1,-66
4,-3,-65
4,-2,-63
3,-1,-62
3,0,-61
4,0,-60
3,1,-60
3,0,-62
1,0,-64
6,1,-63
8,1,-62
8,0,-63
6,0,-64
5,-1,-63
6,0,-61
8,1,-59
8,0,-63
10,1,-61
12,1,-57
11,1,-60
20,1,-64
25,1,-64
23,3,-61
30,2,-57
35,1,-57
40,2,-54
41,2,-52
50,0,-49
51,-1,-45
52,-3,-43
56,-5,-38
59,-7,-35
57,-13,-28
52,-13,-26
47,-11,-23
42,-6,-20
42,-5,-21
50,2,-23
48,5,-29
52,11,-32
50,7,-37
52,9,-33
68,6,-31
60,5,-31
56,1,-36
59,-1,-38
64,-1,-32
65,0,-28
54,-1,-32
60,-1,-31
57,1,-29
54,2,-29
50,1,-32
59,1,-29
56,2,-29
55,1,-30
51,-1,-34
54,-1,-33
60,-1,-29
57,-2,-31
51,-4,-33
52,-3,-31
56,-2,-27
55,-1,-24
54,0,-24
57,-1,-27
60,-1,-28
58,-1,-28
57,-2,-29
55,-2,-29
56,-3,-30
54,-1,-29
56,-1,-28
57,-1,-29
57,-1,-28
56,-2,-27
56,-1,-28
56,-1,-28
55,-1,-28
56,-1,-29
56,0,-29
56,0,-29
56,-1,-29
56,0,-29
57,-1,-27
57,-1,-27
57,-3,-27
60,-3,-27
62,-2,-24
58,-2,-22
58,-2,-20
59,-1,-20
59,-1,-20
56,-2,-17
58,-1,-16
63,0,-18
60,0,-18
61,0,-17
61,0,-16
60,-1,-17
60,0,-19
61,-1,-20
60,0,-19
61,-1,-19
60,-1,-20
61,-1,-19
62,-1,-18
64,-1,-16
64,-2,-16
62,-1,-13
63,-2,-12
63,-2,-10
61,-3,-8
60,-3,-6
59,-3,-4
58,-2,-5
58,-2,-4
61,-2,-10
62,-2,-11
61,-1,-13
60,-1,-13
64,-1,-16
64,-1,-18
63,-1,-19
62,-1,-22
62,-1,-23
61,-2,-23
60,-2,-23
58,-3,-23
57,-4,-23
57,-5,-24
55,-5,-24
56,-5,-25
55,-4,-25
54,-5,-27
56,-4,-29
56,-3,-28
55,-3,-31
57,-3,-34
57,-3,-33
55,-3,-32
54,-3,-33
54,-4,-33
52,-4,-33
50,-4,-35
53,-4,-35
55,-3,-34
54,-3,-32
53,-3,-34
53,-3,-32
52,-2,-31
52,-3,-32
55,-4,-34
55,-3,-32
55,-3,-32
55,-3,-31
55,-3,-31
56,-3,-31
56,-3,-31
57,-3,-30
56,-3,-29
58,-3,-27
60,-3,-25
59,-3,-21
58,-3,-19
60,-4,-18
63,-4,-14
61,-4,-13
61,-4,-12
62,-5,-11
64,-5,-8
61,-4,-7
60,-5,-7
61,-5,-6
61,-5,-7
61,-5,-7
60,-5,-10
60,-4,-12
63,-4,-12
62,-4,-13
60,-4,-15
60,-4,-17
62,-4,-20
61,-4,-21
59,-5,-23
57,-5,-24
57,-5,-25
58,-4,-26
57,-3,-27
58,-3,-28
57,-3,-29
55,-3,-31
50,-4,-35
49,-4,-36
51,-5,-39
50,-5,-40
46,-4,-43
48,-5,-44
48,-5,-42
48,-5,-41
52,-5,-39
54,-5,-34
55,-6,-31
57,-5,-24
60,-5,-18
62,-5,-15
59,-5,-11
59,-5,-10
60,-5,-8
61,-4,-8
62,-4,-7
61,-4,-8
60,-4,-9
62,-4,-12
63,-4,-13
62,-5,-13
62,-5,-14
60,-5,-16
60,-4,-17
61,-4,-18
60,-4,-19
60,-4,-20
60,-4,-21
60,-4,-22
59,-4,-23
58,-4,-25
58,-4,-25
58,-4,-25
57,-4,-25
57,-4,-26
57,-5,-26
58,-4,-26
59,-5,-24
58,-5,-24
59,-5,-25
60,-5,-24
57,-5,-23
58,-5,-23
58,-5,-23
60,-6,-22
59,-6,-22
59,-6,-22
59,-6,-23
57,-6,-24
57,-6,-24
57,-6,-24
56,-6,-26
57,-6,-25
57,-7,-25
56,-8,-25
58,-9,-25
58,-9,-25
59,-10,-26
62,-12,-25
62,-13,-24
62,-15,-21
61,-15,-20
58,-13,-23
60,-12,-21
59,-10,-22
58,-7,-23
58,-6,-23
60,-4,-21
56,-4,-21
57,-3,-20
61,-1,-18
56,0,-16
52,4,-14
50,6,-13
58,4,-10
63,2,-10
66,0,-4
