,Binary,Multiclass
2018-02-21 08:00:00,1.0,1.0
2018-02-21 08:00:05,1.0,1.0
2018-02-21 08:00:10,1.0,1.0
2018-02-21 08:00:15,1.0,1.0
2018-02-21 08:00:20,1.0,1.0
2018-02-21 08:00:25,1.0,1.0
2018-02-21 08:00:30,1.0,1.0
2018-02-21 08:00:35,1.0,1.0
2018-02-21 08:00:40,1.0,1.0
2018-02-21 08:00:45,1.0,1.0
2018-02-21 08:00:50,1.0,1.0
2018-02-21 08:00:55,1.0,1.0
2018-02-21 08:01:00,1.0,1.0
2018-02-21 08:01:05,1.0,1.0
2018-02-21 08:01:10,1.0,1.0
2018-02-21 08:01:15,1.0,1.0
2018-02-21 08:01:20,1.0,1.0
2018-02-21 08:01:25,1.0,1.0
2018-02-21 08:01:30,1.0,1.0
2018-02-21 08:01:35,1.0,1.0
2018-02-21 08:01:40,-1.0,1.0
