1.5198e+09,1.5198e+09
2136.9,0.76566
2179.5,0.64065
2180.2,0.71878
2180.8,0.59378
2233.4,0.65628
2234.1,0.68753
2234.8,0.62503
2235.4,0.64065
2236.1,0.70316
2236.8,0.67191
2237.4,0.65628
2258.5,0.6094
2270,0.57815
2270.7,0.6094
2271.2,0.5469
2271.8,0.59378
