1.5192e+09,1.5192e+09,1.5192e+09
32,32,32
-68,9,1
-66,11,2
-67,9,3
-63,8,17
-64,8,19
-64,9,20
-60,9,25
-55,10,33
-51,10,37
-42,9,45
-47,10,45
-44,6,51
-34,7,57
-33,7,59
-29,8,60
-24,7,58
-22,7,58
-20,5,62
-18,4,62
-15,2,62
-11,1,63
-10,1,64
-10,-1,64
-8,-1,63
-5,-4,62
-4,-6,61
-6,-9,56
3,-12,61
4,-13,62
0,-14,56
2,-14,57
6,-15,62
2,-16,57
5,-16,60
5,-16,57
4,-17,56
6,-17,62
7,-17,62
5,-16,60
7,-16,61
7,-16,60
6,-15,61
5,-15,62
5,-14,60
6,-15,61
4,-14,62
4,-15,63
0,-15,60
4,-15,62
4,-15,63
1,-16,58
1,-15,58
2,-15,61
1,-14,62
2,-13,61
4,-14,62
3,-14,62
3,-14,62
2,-14,62
3,-15,63
4,-15,63
2,-15,61
1,-15,62
3,-15,63
1,-15,62
0,-15,61
2,-15,62
2,-15,62
2,-15,62
2,-15,61
3,-15,62
2,-14,62
2,-14,62
3,-15,61
3,-15,62
2,-15,62
2,-15,63
3,-15,62
3,-15,62
3,-15,62
2,-15,62
4,-14,62
3,-14,62
3,-14,63
3,-14,63
1,-13,62
2,-13,62
3,-13,63
2,-13,62
2,-12,62
3,-12,63
3,-13,63
2,-12,61
3,-12,61
3,-11,62
4,-11,63
3,-11,63
3,-10,61
4,-11,62
4,-11,62
4,-11,62
4,-12,62
4,-12,63
4,-12,63
3,-12,62
4,-11,63
4,-11,63
4,-11,63
3,-11,62
4,-11,63
3,-11,62
3,-11,63
4,-11,62
4,-11,62
4,-11,62
3,-11,62
3,-11,63
4,-11,64
4,-10,64
4,-10,65
5,-11,65
5,-11,65
5,-11,64
7,-11,64
7,-11,64
7,-11,63
7,-11,63
9,-10,63
9,-10,64
10,-10,64
11,-10,64
11,-9,64
12,-9,64
13,-8,65
14,-7,65
16,-6,64
17,-4,63
19,-2,62
20,-1,63
22,1,60
22,2,58
24,3,55
25,4,53
25,5,52
25,7,48
27,8,48
28,9,47
29,10,47
30,11,48
32,10,51
32,10,53
28,10,52
28,9,53
32,8,58
32,7,57
29,6,57
29,6,57
29,6,57
27,6,55
27,6,54
28,6,55
27,6,55
27,6,54
28,5,55
27,5,55
31,3,59
35,3,62
31,1,54
27,0,47
12,1,37
0,0,32
-13,-2,25
-42,2,10
-36,4,10
-57,10,5
-62,14,6
-61,19,-2
-78,27,-15
-82,31,-16
-81,34,-18
-84,34,-21
-88,33,-22
-80,30,-16
-77,28,-15
-79,26,-19
-76,23,-19
-62,19,-24
-54,16,-25
-53,14,-30
-55,12,-29
-56,12,-31
-64,10,-30
-60,11,-31
-70,10,-36
-76,8,-36
-76,9,-36
-61,10,-23
-55,12,-15
-52,11,-3
-47,7,14
-60,1,28
-53,-1,37
-59,4,36
-62,5,32
-53,4,35
-56,4,30
-57,4,26
-53,6,28
-49,5,25
-66,4,7
-68,-1,10
-64,0,15
-68,2,2
-76,4,-9
-75,2,1
-76,5,0
-66,4,10
-74,9,-6
-75,7,-1
-69,7,4
-73,7,5
-72,10,3
-71,11,4
-73,14,5
-66,14,22
-60,15,25
-63,17,22
-65,20,21
-57,19,29
-56,21,33
-54,22,32
-43,20,38
-47,22,33
-42,22,36
-39,22,37
-30,23,38
-28,24,32
-28,21,33
-38,15,43
-41,17,41
-36,15,43
-34,15,42
-26,15,42
-35,16,7
-42,13,-8
-64,19,-20
-63,16,-6
-57,15,-7
-74,14,-14
-85,17,-15
-77,15,-6
-92,15,-10
-79,15,-4
-72,11,0
-85,12,-19
-77,9,-19
-66,9,-17
-56,2,-11
-62,4,-18
-64,10,-21
-50,8,-19
-63,13,-26
-59,12,-27
-58,14,-27
-56,20,-22
-50,21,-20
-55,18,-15
-60,18,-16
-62,19,-15
-60,19,-17
-66,22,-20
-64,20,-15
-64,19,-14
-62,19,-18
-62,18,-16
-58,16,-13
-61,17,-14
-59,18,-13
-60,19,-13
-56,18,-11
-58,19,-10
-61,19,-11
-63,19,-10
-63,20,-8
-63,20,-8
-65,24,-9
-65,24,-9
-66,24,-7
-66,24,-8
-67,25,-8
-67,26,-7
-67,27,-6
-67,25,-3
-67,25,-5
-68,25,-8
-63,24,-5
-55,24,-2
-56,24,-3
-55,25,-2
-51,25,1
-50,25,2
-52,25,2
-53,24,3
-53,24,4
-56,24,4
-58,25,4
-71,28,-5
-74,28,-4
-58,30,13
-44,30,29
-46,30,46
-54,28,42
-46,26,51
-46,25,54
-51,25,47
-34,23,59
-30,22,57
-29,19,57
-24,17,53
-18,13,55
-11,12,59
-11,11,60
-8,9,55
-5,7,56
-3,3,59
-9,2,50
-12,1,48
-10,1,47
-17,2,46
-37,2,41
-41,5,30
-44,5,29
-59,8,28
-62,11,22
-61,15,33
-50,17,45
-50,24,39
-37,23,35
-59,25,14
-44,24,9
-67,24,0
-73,18,-10
-89,1,-14
-106,19,-8
-101,26,-36
-92,11,-17
-94,14,-5
-82,13,-1
-82,15,5
-81,12,0
-57,16,21
-66,16,19
-75,22,14
-65,19,22
-63,20,23
-53,17,34
-53,19,31
-41,18,32
-33,15,40
-34,12,39
-42,13,41
-30,9,51
-17,8,59
-12,8,57
-23,6,45
-47,5,31
-54,7,29
-46,5,33
-49,8,33
-58,8,28
-52,7,30
-60,9,25
-65,9,23
-63,9,26
-60,7,30
-63,7,27
-71,8,21
-66,8,23
-67,8,22
-69,8,22
-65,9,24
-60,9,25
-63,9,25
-60,8,24
-57,7,25
-55,7,27
-60,7,25
-61,7,25
-56,7,28
-56,6,28
-59,5,28
-57,5,28
-56,5,30
-58,3,31
-58,4,30
-58,3,32
-59,3,32
-59,2,31
-59,2,33
-59,2,32
-57,1,32
-59,2,31
-58,2,32
-59,3,31
-58,3,30
-58,3,31
-59,3,30
-58,4,32
-58,4,32
-59,4,31
-59,5,31
-59,5,31
-58,5,32
-58,6,32
-58,6,31
-57,6,31
-56,7,31
-57,6,30
-58,6,32
-58,6,31
-58,6,31
-58,6,32
-59,6,31
-57,6,30
-58,7,30
-58,8,30
-57,9,29
-57,10,29
-57,10,30
-58,11,30
-58,11,29
-58,11,30
-59,11,30
-58,10,29
-58,10,29
-59,10,28
-58,10,28
-58,10,27
-58,10,26
-58,11,25
-58,12,24
-58,12,23
-60,14,22
-59,15,23
-59,15,23
-59,17,21
-61,17,21
-61,17,20
-62,18,19
-63,18,19
-64,18,19
-66,18,19
-69,17,18
-68,17,18
-69,16,17
-66,15,17
-59,15,21
-61,14,21
-62,14,20
-59,13,22
-60,13,22
-62,12,21
-62,12,21
-60,11,23
-62,11,22
-65,11,21
-65,11,21
-61,11,24
-54,11,30
-50,11,33
-46,11,38
-46,11,40
-52,11,39
-54,11,39
-53,11,39
-50,12,41
-49,12,42
-51,11,41
-51,11,39
-51,12,39
-51,11,39
-50,11,38
-52,11,37
-51,11,38
-54,11,38
-54,12,38
-53,11,40
-54,10,38
-55,10,37
-55,10,38
-53,10,38
-52,10,38
-51,9,40
-54,9,39
-55,8,41
-51,8,42
-49,8,45
-50,7,45
-52,7,43
-52,7,43
-52,7,42
-52,7,42
-52,7,42
-52,6,42
-51,6,42
-52,6,41
-52,6,42
-51,5,42
-50,5,41
-51,5,41
-51,5,41
-51,5,42
-52,5,41
-54,5,41
-54,5,41
-50,4,44
-49,5,45
-58,6,40
-57,5,42
-41,5,51
-41,5,51
-40,4,53
-32,3,58
-30,3,59
-30,2,57
-30,2,58
-26,2,59
-21,3,65
-22,4,61
-23,4,59
-21,4,60
-23,3,61
-23,3,62
-26,3,60
-25,4,61
-24,4,62
-23,5,60
-22,5,61
-19,6,60
-19,6,59
-21,6,59
-21,6,61
-20,6,61
-19,6,59
-20,6,58
-21,5,60
-22,5,61
-21,6,60
-22,5,59
-22,5,60
-22,5,61
-22,5,61
-23,5,61
-22,5,61
-21,5,61
-22,6,60
-21,6,60
-22,6,61
-21,6,61
-22,7,60
-22,7,60
-22,7,60
-23,7,60
-23,7,60
-24,7,60
-24,7,60
-25,7,60
-24,7,60
-24,7,60
-23,8,61
-24,8,60
-24,8,59
-24,8,60
-25,8,60
-25,8,59
-25,8,59
-25,8,60
-25,9,60
-24,9,60
-25,9,60
-27,10,61
-25,10,61
-25,10,60
-25,9,60
-24,10,60
-23,9,58
-23,9,58
-23,9,59
-22,10,58
-22,10,58
-22,10,59
-23,10,58
-24,11,59
-20,11,58
-22,12,60
-20,10,64
-16,8,66
-12,6,64
-12,5,64
-9,3,68
-7,2,68
-4,1,66
-6,0,63
-4,-1,64
-1,-2,65
-3,-2,63
-14,-1,53
-11,-2,58
-6,-1,64
-7,1,62
-12,1,62
-12,2,64
-15,2,63
-15,3,62
-15,3,63
-16,3,62
-21,2,62
-23,2,61
-16,2,59
-12,2,52
-18,-2,33
-23,-2,20
-30,1,15
-31,8,14
-35,11,12
-47,13,11
-60,13,9
-73,18,-2
-94,26,-12
-99,31,-7
-119,64,14
-111,41,17
-91,6,-13
-81,5,-23
-60,0,-18
-56,0,-11
-62,2,-12
-55,2,-19
-64,5,-19
-66,5,-18
-71,5,-31
-67,6,-29
-64,3,-20
-68,4,-21
-58,7,-18
-60,9,-19
-54,9,-26
-60,15,-26
-65,14,-16
-60,21,-12
-63,19,-6
-72,19,-9
-70,19,-8
-57,17,-4
-52,15,0
-58,15,1
-62,20,1
-57,22,6
-62,24,9
-59,22,12
-60,22,12
-63,22,11
-56,23,15
-56,24,15
-57,24,15
-53,24,18
-47,23,22
-49,23,32
-52,23,38
-52,23,42
-54,24,38
-54,23,36
-48,22,40
-49,22,40
-48,23,38
-46,23,39
-47,23,39
-45,23,47
-44,24,50
-44,26,50
-44,26,52
-46,22,56
-50,19,56
-46,17,55
-42,17,55
-41,17,53
-35,16,55
-32,17,54
-31,18,50
-26,18,50
-25,18,49
-22,18,49
-22,17,49
-24,16,49
-23,16,51
-23,17,53
-23,18,55
-24,17,57
-22,17,59
-22,17,58
-22,16,60
-22,16,62
-23,16,61
-22,15,59
-22,15,60
-23,15,60
-24,15,59
-23,14,56
-23,14,56
-22,14,58
-26,14,53
-26,14,52
-28,14,54
-27,14,53
-26,15,53
-30,16,49
-34,18,41
-42,18,42
-37,18,45
-42,20,43
-47,22,35
-55,22,31
-62,20,28
-66,19,29
-63,21,25
-65,21,24
-66,20,34
-68,20,38
-76,21,38
-64,23,22
-60,21,17
-55,17,15
-55,16,15
-58,17,16
-59,17,18
-60,17,21
-60,18,23
-60,19,23
-61,21,22
-60,23,21
-61,22,21
-62,22,20
-59,19,22
-60,15,21
-59,15,20
-59,12,21
-59,12,21
-62,11,22
-61,12,24
-62,14,25
-60,14,26
-62,13,26
-63,15,21
-61,16,18
-61,16,16
-62,17,13
-64,16,13
-54,17,21
-52,17,19
-68,22,1
-71,25,-4
-57,24,6
-58,24,3
-70,28,-16
-57,27,-21
-62,25,-21
-57,22,-32
-54,23,-31
-56,14,-24
-56,24,-27
-51,21,-22
-37,27,-16
-47,28,-19
-52,31,-19
-45,31,-17
-62,26,-19
-73,24,-29
-59,26,-26
-64,27,-30
-69,26,-28
-43,27,-23
-40,26,-18
-53,28,-23
-58,22,-22
-51,19,-18
-62,19,-25
-59,17,-21
-59,23,-24
-58,24,-23
-62,27,-9
-60,32,-6
-59,32,-8
-57,25,-13
-56,25,-16
-58,22,-16
-60,21,-14
-60,21,-8
-58,25,-4
-59,27,-4
-58,30,-4
-58,30,-4
-57,30,-4
-58,30,-5
-59,30,-8
-61,28,-7
-62,27,-6
-62,26,-3
-62,26,-1
-64,25,0
-66,26,-1
-68,28,1
-65,29,5
-62,30,9
-56,30,16
-53,27,22
-56,26,25
-54,26,26
-54,26,26
-57,27,22
-58,27,22
-53,28,23
-52,29,26
-51,29,25
-51,30,22
-48,30,22
-48,30,21
-46,29,22
-45,29,18
-45,29,17
-42,28,15
-41,29,0
-44,28,-12
-61,28,-24
-65,26,-27
-58,28,-24
-44,26,-21
-58,23,-20
-63,19,-12
-62,17,-13
-68,14,-13
-73,11,-10
-89,10,-2
-91,15,-3
-69,18,-14
-63,11,-21
-59,11,-22
-51,13,-22
-52,14,-18
-61,13,-14
-64,14,-15
-62,14,-18
-63,12,-16
-61,11,-15
-63,12,-18
-58,12,-17
-53,11,-22
-60,11,-32
-66,15,-38
-64,17,-37
-59,19,-34
-61,20,-40
-56,18,-39
-47,23,-34
-38,21,-25
-48,20,-25
-46,20,-18
-42,21,-13
-59,19,-11
-65,20,-12
-69,23,-14
-66,23,-14
-63,21,-15
-58,20,-17
-56,20,-18
-54,21,-17
-55,21,-18
-54,21,-18
-55,21,-18
-56,21,-18
-60,21,-20
-59,20,-21
-57,19,-19
-59,18,-18
-64,17,-15
-67,18,-14
-67,19,-15
-67,20,-20
-60,18,-18
-56,16,-15
-57,16,-16
-60,16,-16
-61,17,-14
-61,17,-15
-61,17,-15
-60,17,-15
-61,18,-15
-62,18,-15
-62,18,-15
-62,17,-16
-62,17,-16
-61,17,-15
-61,17,-16
-61,16,-15
-61,16,-15
-61,16,-17
-66,15,-19
-68,15,-14
-75,21,-13
-79,26,-15
-78,31,-9
-73,32,-5
-62,30,5
-62,30,12
-62,28,14
-54,29,18
-54,30,18
-51,32,19
-47,30,23
-42,30,31
-46,30,34
-43,29,38
-31,26,48
-20,25,57
-21,24,59
-22,24,58
-14,22,61
-4,19,65
-2,19,63
2,15,59
5,14,57
5,10,56
12,7,58
15,5,59
19,3,59
20,2,60
25,3,60
27,4,61
32,5,60
32,6,60
27,7,56
27,10,56
28,11,57
29,13,56
25,13,54
23,14,50
27,16,49
24,17,47
34,19,46
36,20,45
40,19,40
37,19,37
38,19,37
38,17,39
38,15,39
40,16,41
41,17,41
38,18,40
39,18,40
41,19,43
41,18,45
41,18,45
41,18,46
41,18,47
41,17,48
40,17,49
41,16,49
40,15,48
40,15,47
39,16,48
38,15,47
40,15,49
41,15,50
41,15,49
39,15,47
39,14,46
40,15,46
39,15,45
40,15,44
40,15,44
41,16,43
43,17,42
44,17,42
44,19,41
44,19,40
43,20,40
43,19,40
42,19,40
42,18,40
42,18,41
42,18,43
41,18,45
40,19,44
42,19,44
44,18,44
44,19,43
45,19,43
46,19,41
46,18,41
45,17,40
45,16,39
45,17,40
44,17,40
45,17,40
43,19,40
44,19,40
46,18,40
44,18,42
41,17,42
43,18,44
44,18,43
45,19,44
46,18,44
44,19,41
46,18,46
45,19,48
53,18,50
54,18,50
46,20,41
42,22,42
37,22,38
30,21,39
24,21,40
11,18,47
5,16,51
-6,16,59
0,16,65
3,17,69
2,19,69
1,21,69
-1,22,67
0,22,64
0,21,59
5,20,57
8,21,57
0,23,54
-7,20,53
-13,22,50
-12,23,47
-9,27,45
-7,27,45
-11,26,42
-7,29,40
-11,30,37
-8,29,33
-17,30,25
-26,32,16
-23,32,13
-27,36,9
-31,41,2
-41,41,5
-52,44,0
-61,43,1
-81,43,2
-88,38,-5
-88,40,-6
-86,37,-3
-87,34,-3
-96,25,-6
-104,25,4
-82,26,-1
-73,28,-20
-66,26,-19
-56,19,-12
-53,17,-11
-54,16,-11
-58,17,-12
-63,17,-12
-63,18,-13
-63,18,-14
-62,19,-13
-62,20,-13
-63,20,-12
-62,19,-11
-61,18,-12
-61,18,-13
-62,17,-13
-62,16,-12
-62,16,-12
-63,17,-12
-62,17,-13
-62,17,-13
-62,17,-12
-62,17,-12
-61,17,-12
-62,17,-12
-61,17,-12
-62,17,-10
-61,16,-10
-62,17,-14
-64,16,-13
-70,19,-16
-71,21,-14
-79,24,-13
-76,26,-10
-82,24,-13
-80,29,-8
-69,29,-2
-45,30,21
-38,27,33
-38,23,50
-35,23,46
-43,21,40
-21,18,54
-20,18,56
-21,18,54
-22,19,50
-14,20,54
-10,20,56
-10,19,55
-8,19,55
-4,18,59
-3,17,60
-3,17,60
-1,15,61
1,13,63
2,12,62
4,10,62
5,9,60
4,7,60
5,7,62
7,6,62
8,5,61
7,4,61
10,4,61
10,3,61
12,3,61
13,3,62
13,3,62
14,3,63
13,3,62
15,3,62
15,3,61
15,4,62
15,4,63
15,5,63
14,6,61
14,6,61
15,8,63
14,9,61
13,10,61
14,10,61
13,11,62
12,12,61
13,13,61
13,14,60
12,14,59
12,16,59
17,17,59
16,18,58
14,18,57
16,18,58
15,18,60
11,19,57
12,19,57
15,19,58
12,19,57
12,19,58
12,19,59
11,18,59
10,19,59
12,18,62
12,18,62
9,18,60
11,17,63
12,17,64
9,18,61
8,18,60
11,17,62
10,18,62
6,18,60
9,18,61
11,19,62
9,19,60
8,19,59
9,20,60
11,20,61
9,20,60
5,21,58
9,20,60
10,20,61
4,21,56
8,21,61
9,21,62
5,21,61
4,21,60
6,21,61
6,21,61
4,21,60
4,22,59
5,22,60
4,22,60
3,22,59
5,22,59
5,21,60
7,22,61
4,22,59
7,22,60
7,23,60
5,23,60
5,23,60
5,24,60
4,24,59
3,24,58
5,24,58
6,24,59
6,25,58
4,24,57
8,24,59
5,25,57
-1,25,53
6,25,57
6,25,58
4,25,59
3,25,59
4,24,59
2,23,59
3,23,60
1,23,59
1,23,59
3,23,61
2,23,60
2,23,60
1,23,59
1,23,59
2,23,60
2,23,60
2,23,60
1,23,59
2,23,59
1,23,60
1,23,59
1,23,59
1,23,59
1,23,61
1,23,60
1,22,60
0,23,60
1,23,60
0,23,61
0,23,61
0,22,61
0,22,59
0,22,60
0,22,60
0,22,59
0,22,59
0,22,60
0,22,60
0,23,60
0,23,60
-1,22,60
-1,22,60
-1,22,60
-1,22,60
-1,22,61
-1,22,61
-1,22,61
-1,22,60
-1,22,61
-1,22,60
-1,22,60
-1,22,60
-1,22,60
-1,22,61
-1,22,60
-2,22,60
-1,22,61
-1,22,61
-1,22,60
-1,22,60
-1,21,60
-2,22,60
-1,22,60
-1,22,60
-1,22,60
-2,22,60
-1,22,60
-2,22,60
-1,22,60
-1,23,60
-2,23,60
-2,23,60
-2,23,60
-2,23,60
-2,23,60
-2,22,60
-1,23,60
-2,22,60
-2,22,60
-1,22,60
-2,22,60
-2,22,60
-1,22,60
-2,22,59
-1,22,60
-2,22,60
-2,22,60
-2,22,60
-3,22,60
-2,22,61
-3,22,60
-2,22,60
-2,22,60
-2,23,60
-3,23,60
-3,23,60
-2,23,61
-3,23,60
-2,23,60
-3,24,60
-3,23,60
-3,25,60
-2,24,60
-2,24,59
-2,24,59
-1,24,59
-1,23,59
-2,24,59
-1,23,60
-2,22,60
-2,21,61
-2,21,61
-3,21,61
-2,22,61
-3,21,61
-2,22,60
-2,21,60
-2,21,60
-3,21,60
-3,21,59
-2,21,59
-2,21,59
-4,21,57
-4,21,57
-3,21,58
-3,21,58
-5,19,56
-3,20,59
-3,20,62
-6,20,63
-7,20,63
-9,19,64
-9,19,64
-11,18,63
-10,17,62
-11,16,62
-12,16,60
-12,16,61
-12,15,61
-14,15,61
-14,15,62
-14,15,63
-14,16,63
-14,15,62
-14,15,62
-15,15,62
-15,15,62
-14,13,63
-15,14,62
-15,14,63
-14,14,63
-15,14,62
-15,15,63
-14,14,63
-14,15,62
-14,15,62
-14,16,62
-13,16,62
-13,17,62
-12,17,62
-12,18,62
-12,18,62
-12,19,61
-11,19,61
-11,19,61
-11,20,60
-10,20,60
-9,20,59
-9,21,58
-6,20,57
-6,21,57
-7,21,57
-8,22,58
-8,21,58
-10,21,58
-10,21,59
-10,20,60
-11,20,60
-11,19,60
-12,18,61
-12,17,61
-13,16,61
-13,15,61
-13,15,61
-13,15,62
-13,15,63
-13,15,63
-14,15,62
-14,15,63
-15,15,63
-14,15,63
-14,15,62
-15,15,62
-14,14,62
-15,14,61
-14,14,61
-14,14,61
-14,14,62
-15,15,62
-14,15,63
-15,16,62
-14,16,63
-15,17,64
-14,17,64
-14,18,63
-13,18,62
-12,18,61
-12,19,59
-12,19,58
-9,20,58
-9,21,58
-8,22,57
-10,22,57
-8,22,58
-8,22,59
-8,21,59
-9,21,58
-9,21,59
-9,21,60
-9,21,61
-10,21,61
-11,21,61
-10,21,61
-10,21,62
-10,21,61
-11,21,61
-10,21,61
-10,21,60
-10,21,59
-10,21,59
-10,21,59
-9,21,60
-10,21,60
-10,21,60
-10,21,60
-10,21,61
-10,21,60
-10,21,61
-11,21,61
-10,21,60
-10,22,60
-10,21,60
-10,21,60
-10,21,60
-10,21,60
-10,21,60
-9,21,60
-10,21,59
-10,21,60
-10,21,60
-9,21,60
-10,21,60
-11,21,60
-10,21,60
-10,21,59
-10,21,60
-10,21,60
-10,21,60
-10,21,60
-10,21,59
-10,21,61
-10,21,61
-10,21,60
-10,21,60
-10,21,60
-10,21,60
-10,21,60
-10,21,60
-11,21,60
-10,21,61
-10,21,60
-10,21,60
-10,21,60
-10,21,60
-10,21,59
-10,21,61
-10,21,60
-10,21,60
-10,21,60
-11,21,60
-10,21,60
-10,21,60
-11,21,60
-10,21,60
-11,21,60
-11,21,60
-11,21,61
-11,21,60
-10,21,60
-11,21,60
-10,21,60
-10,21,60
-11,20,60
-11,20,61
-10,21,60
-10,20,60
-11,20,60
-10,21,61
-10,21,60
-11,21,60
-10,20,61
-11,20,60
-11,20,60
-11,20,60
-11,20,60
-11,20,60
-10,20,60
-11,20,60
-11,20,61
-11,20,60
-10,20,61
-11,20,60
-11,20,60
-11,20,60
-10,20,60
-11,20,60
-11,20,60
-10,20,60
-11,20,60
-11,20,60
-10,20,60
-11,20,60
-10,21,61
-10,21,60
-11,21,60
-11,20,60
-12,20,60
-12,20,60
-11,21,61
-11,20,61
-10,21,61
-11,21,60
-11,20,60
-11,20,61
-11,20,60
-11,20,60
-11,20,60
-11,20,61
-11,20,60
-10,20,60
-10,20,60
-11,20,60
-11,20,60
-10,20,61
-11,20,60
-11,21,60
-11,21,60
-11,21,60
-11,21,60
-11,21,60
-11,21,59
-11,21,60
-11,21,60
-11,21,60
-11,21,60
-11,21,60
-12,21,60
-11,21,60
-11,21,60
-11,21,60
-11,21,60
-11,21,60
-11,21,60
-11,21,60
-11,21,60
-11,21,59
-11,21,59
-11,21,60
-11,21,60
-11,21,60
-11,21,61
-11,21,60
-11,20,60
-11,20,60
-10,20,61
-11,20,60
-11,20,60
-11,20,60
-11,20,60
-11,20,60
-11,21,60
-11,21,60
-11,21,60
-11,21,60
-11,21,60
-11,21,60
-12,21,60
-11,21,60
-11,20,60
-11,21,60
-11,20,60
-11,21,60
-11,21,60
-11,21,59
-11,21,60
-11,21,59
-11,19,60
-12,19,61
-12,19,61
-11,21,61
-11,21,61
-11,20,60
-12,20,60
-11,20,61
-11,21,60
-11,21,60
-11,21,59
-11,21,59
-10,21,59
-11,21,60
-11,21,60
-11,21,60
-11,21,60
-11,21,60
-11,21,60
-11,21,60
-11,21,60
-11,21,60
-11,21,60
-11,21,60
-11,21,60
-11,21,60
-10,21,60
-11,21,60
-11,21,60
-11,21,60
-11,21,60
-11,21,60
-11,21,60
-11,21,60
-11,21,60
-11,21,59
-11,21,60
-11,21,59
-11,21,60
-11,21,60
-11,21,60
-11,21,59
-11,21,59
-10,22,60
-11,22,59
-10,22,60
-11,22,60
-11,22,60
-11,22,60
-11,22,60
-11,22,60
-11,22,60
-10,22,60
-10,22,60
-10,22,60
-11,22,59
-11,22,60
-11,22,59
-11,22,59
-11,22,60
-11,22,60
-10,22,59
-11,22,60
-11,22,60
-10,22,60
-11,21,59
-10,22,60
-10,22,60
-11,22,59
-11,22,60
-11,22,60
-11,22,60
-11,21,60
-11,21,60
-11,22,60
-10,22,60
-10,22,60
-9,22,59
-9,23,59
-9,22,59
-10,23,59
-10,23,59
-10,23,59
-10,23,59
-10,23,60
-11,22,60
-11,22,60
-11,22,60
-10,22,60
-10,21,60
-11,21,60
-10,21,60
-10,21,60
-10,21,61
-11,21,59
-11,21,60
-11,21,59
-12,21,59
-12,21,60
-11,20,59
-11,20,59
-11,20,60
-10,21,60
-11,21,60
-10,21,60
-10,21,61
-10,22,60
-10,22,59
-10,22,59
-10,23,59
-10,23,59
-11,22,60
-11,22,60
-11,22,60
-11,23,60
-11,22,60
-11,23,60
-11,22,60
-11,23,60
-11,22,60
-11,23,60
-11,23,60
-11,22,59
-12,21,60
-11,21,60
-10,21,59
-10,22,60
-11,22,60
-11,22,60
-11,22,60
-12,22,60
-12,23,59
-12,22,59
-12,22,59
-12,22,59
-12,22,59
-11,21,60
-11,22,60
-10,22,60
-11,21,60
-12,21,60
-13,20,60
-14,20,60
-13,19,60
-14,20,60
-13,21,60
-13,20,60
-12,20,59
-12,21,60
-12,21,60
-12,21,60
-14,21,60
-14,21,61
-14,20,60
-12,21,61
-12,22,61
-12,23,61
-11,23,60
-11,22,60
-11,22,60
-11,22,59
-11,22,58
-11,22,59
-12,22,59
-11,22,59
-11,22,59
-11,22,59
-11,22,60
-10,22,60
-11,22,59
-10,22,60
-11,22,59
-10,22,60
-10,22,60
-10,22,60
-10,22,59
-10,22,59
-10,22,59
-10,23,59
-10,22,60
-10,22,59
-10,22,60
-10,22,59
-10,22,60
-11,22,60
-10,22,60
-11,22,60
-10,22,60
-10,22,60
-10,22,59
-10,22,60
-10,22,59
-10,22,60
-11,22,59
-11,22,60
-11,22,60
-10,22,59
-10,22,60
-11,22,60
-10,22,60
-11,22,60
-10,22,60
-11,22,60
-10,22,60
-10,22,60
-11,23,60
-11,22,59
-11,22,60
-11,22,60
-11,22,59
-11,22,60
-10,22,60
-11,22,60
-11,22,60
-10,22,60
-11,22,60
-11,22,59
-11,22,60
-11,22,59
-11,22,59
-10,22,60
-11,22,60
-11,22,60
-10,22,60
-12,22,60
-11,22,60
-11,22,60
-10,22,60
-12,22,59
-10,22,60
-12,22,60
-10,22,60
-10,22,60
-11,22,60
-11,22,60
-11,22,59
-11,23,59
-10,22,60
-12,22,57
-10,21,59
-9,21,61
-12,22,59
-10,22,60
-11,22,60
-11,22,60
-11,22,60
-11,22,60
-11,22,60
-10,22,60
-11,22,59
-11,22,60
-11,22,59
-11,22,60
-12,22,59
-11,22,59
-11,22,59
-11,22,60
-11,22,60
-11,22,60
-10,22,60
-11,21,59
-11,22,60
-11,22,59
-11,22,59
-11,22,60
-11,22,60
-11,22,59
-12,22,60
-12,22,60
-12,22,60
-11,23,60
-11,23,60
-12,23,60
-11,23,59
-12,22,59
-11,22,60
-11,23,59
-12,23,59
-11,22,59
-11,22,60
-11,22,59
-11,22,59
-11,22,59
-11,22,60
-11,22,59
-11,22,60
-11,22,59
-11,22,60
-11,22,59
-12,22,59
-11,22,60
-12,22,60
-12,22,59
-12,22,59
-12,22,60
-11,22,59
-12,22,59
-12,22,59
-13,22,60
-13,22,60
-13,22,60
-12,22,60
-12,22,60
-12,22,60
-12,22,60
-12,22,59
-12,22,60
-12,22,60
-13,22,59
-12,22,59
-13,22,59
-12,22,59
-12,22,59
-12,22,60
-12,22,60
-12,22,60
-12,22,59
-12,22,59
-12,22,59
-12,22,59
-13,22,59
-12,22,60
-13,22,59
-13,22,59
-12,22,60
-12,22,59
-12,22,59
-12,23,59
-12,22,59
-12,22,60
-13,22,59
-13,22,60
-12,22,60
-12,22,60
-13,22,59
-12,22,60
-12,22,60
-12,22,59
-12,22,59
-12,22,59
-12,23,59
-12,22,59
-12,23,59
-12,22,59
-12,23,59
-12,23,59
-13,22,59
-13,22,59
-12,22,59
-12,22,59
-12,22,59
-12,22,59
-12,22,59
-12,23,59
-12,22,59
-13,23,59
-13,23,60
-12,22,59
-12,22,59
-13,22,59
-13,22,60
-13,22,60
-12,21,60
-13,21,59
-13,22,60
-12,22,60
-13,22,60
-13,23,59
-13,22,59
-12,22,59
-13,22,59
-12,22,59
-12,22,59
-12,22,59
-11,22,59
-12,22,59
-12,22,59
-12,22,60
-13,22,60
-12,22,60
-13,22,60
-13,22,59
-13,22,59
-13,22,60
-13,22,60
-12,22,60
-12,22,59
-13,22,60
-12,23,59
-13,23,59
-12,22,59
-13,22,59
-13,22,59
-14,21,59
-14,21,59
-14,21,60
-13,21,60
-12,22,60
-12,22,59
-12,23,59
-12,23,59
-13,23,59
-14,22,59
-14,22,59
-14,22,59
-13,22,59
-14,22,60
-14,21,60
-13,21,60
-13,21,60
-13,21,59
-12,21,59
-13,22,59
-12,22,59
-13,22,59
-13,22,59
-13,22,59
-13,22,59
-13,22,59
-12,22,59
-12,22,59
-12,23,59
-12,23,59
-12,23,59
-12,23,59
-12,23,59
-12,23,58
-12,23,59
-12,24,59
-12,24,59
-13,24,59
-13,24,59
-13,24,58
-13,23,59
-12,23,59
-13,23,59
-12,23,59
-13,23,59
-12,23,59
-13,23,58
-13,23,59
-13,23,59
-13,23,59
-13,23,59
-13,23,59
-13,23,59
-12,23,59
-13,23,58
-12,23,59
-13,23,58
-13,23,59
-13,23,59
-13,23,59
-13,23,59
-13,23,59
-12,23,59
-13,23,59
-13,23,59
-13,23,59
-13,23,59
-13,23,58
-13,24,58
-12,24,59
-13,24,58
-13,24,59
-13,24,59
-14,23,58
-13,23,58
-13,24,59
-13,24,59
-13,24,59
-13,24,59
-13,24,59
-13,24,59
-13,24,59
-13,23,59
-12,23,59
-12,23,58
-12,24,58
-12,24,58
-13,24,58
-13,24,58
-14,24,58
-13,24,59
-13,24,59
-13,24,59
-13,24,59
-14,24,59
-14,24,59
-14,23,59
-13,23,59
-14,24,59
-13,24,59
-13,24,59
-13,23,58
-13,23,59
-14,24,58
-14,23,59
-13,24,59
-14,24,59
-13,24,58
-13,24,58
-13,24,59
-13,24,58
-13,24,58
-13,24,59
-14,24,58
-13,24,58
-13,24,59
-14,24,59
-13,24,59
-13,23,59
-14,23,58
-13,24,58
-13,23,59
-13,24,59
-13,23,59
-14,23,59
-14,24,59
-13,23,59
-14,24,59
-13,24,59
-13,24,58
-13,24,58
-14,23,59
-14,23,58
-13,23,58
-13,23,58
-13,24,59
-14,23,59
-13,24,59
-14,23,58
-14,23,59
-14,23,59
-14,23,59
-13,23,59
-13,23,59
-14,23,59
-13,23,59
-14,23,59
-14,23,59
-14,23,59
-13,23,59
-14,24,58
-13,22,59
-14,24,58
-13,24,59
-13,23,59
-14,23,59
-14,23,59
-14,23,58
-14,23,59
-14,23,59
-14,23,59
-14,23,59
-14,23,59
-13,23,59
-14,23,58
-14,23,58
-14,23,59
-14,23,58
-14,23,59
-14,23,59
-14,23,58
-14,24,59
-14,23,59
-14,23,59
-14,23,59
-14,24,59
-14,23,59
-14,23,59
-14,23,58
-14,23,59
-14,23,59
-14,23,58
-14,23,59
-14,23,59
-14,23,59
-14,23,59
-14,23,59
-14,23,59
-14,23,59
-14,23,58
-14,23,59
-14,23,59
-14,23,59
-14,23,59
-14,23,59
-14,24,58
-14,24,59
-14,23,59
-14,23,59
-14,23,59
-14,23,59
-14,23,59
-14,23,58
-14,23,58
-15,23,59
-14,23,58
-15,23,58
-14,23,59
-15,23,59
-14,23,59
-15,23,59
-14,23,60
-14,23,59
-14,23,59
-14,23,59
-14,23,59
-14,23,58
-14,23,58
-14,23,59
-14,23,59
-14,23,59
-14,24,59
-14,23,59
-14,23,59
-14,23,59
-14,23,59
-14,23,59
-14,23,58
-14,23,59
-14,23,58
-14,23,58
-14,23,58
-15,23,59
-14,23,59
-14,23,59
-14,23,59
-15,23,59
-15,23,59
-15,23,59
-14,23,59
-14,23,59
-14,23,59
-14,24,59
-14,23,58
-14,23,58
-14,23,58
-14,23,58
-14,23,58
-14,23,58
-14,23,59
-15,23,59
-14,23,59
-15,23,59
-15,23,59
-14,23,59
-15,23,59
-14,23,58
-14,23,58
-14,23,59
-14,23,59
-15,23,59
-14,23,59
-14,23,58
-14,23,59
-14,23,59
-15,23,58
-14,23,59
-15,23,59
-14,23,59
-15,23,59
-14,23,59
-14,23,59
-15,23,58
-14,23,58
-14,23,59
-14,23,59
-14,24,59
-15,23,59
-14,23,58
-15,23,59
-15,23,59
-15,23,59
-15,23,59
-15,23,59
-14,23,59
-14,23,59
-14,23,58
-15,23,58
-14,23,59
-14,23,58
-14,23,58
-14,24,59
-14,24,59
-14,23,58
-14,23,58
-14,23,58
-14,24,58
-14,24,58
-15,24,58
-15,24,59
-15,23,59
-15,23,59
-15,23,59
-15,23,59
-15,23,59
-15,23,58
-14,23,59
-14,24,58
-15,24,58
-14,24,58
-15,24,58
-14,23,58
-15,23,59
-14,23,58
-14,24,59
-14,24,58
-14,24,59
-15,24,58
-15,24,59
-14,24,58
-15,23,58
-14,23,59
-14,23,58
-14,23,58
-15,23,59
-15,23,59
-15,23,59
-15,23,58
-16,23,59
-15,23,60
-15,24,58
-15,23,58
-15,23,58
-15,23,58
-15,23,58
-15,23,59
-15,23,59
-15,23,59
-15,24,58
-15,24,59
-15,24,58
-15,23,58
-15,23,58
-15,23,58
-15,23,58
-15,23,58
-15,23,58
-14,24,59
-15,24,58
-15,24,58
-15,24,59
-15,24,59
-15,24,58
-15,24,59
-16,23,59
-15,23,58
-15,23,59
-15,23,59
-15,23,59
-15,22,59
-15,22,59
-15,22,59
-15,23,58
-14,23,58
-15,23,58
-14,24,58
-16,23,58
-15,23,58
-16,24,59
-15,24,59
-15,24,59
-15,24,59
-15,24,59
-15,23,59
-15,23,59
-16,23,58
-15,23,58
-16,23,58
-15,23,58
-15,24,58
-15,23,58
-15,23,59
-15,24,58
-16,24,59
-16,24,59
-16,24,59
-16,24,58
-15,24,58
-15,24,58
-15,24,59
-15,24,58
-15,24,58
-15,24,58
-16,24,57
-14,24,58
-14,24,58
-15,24,58
-15,24,58
-15,24,58
-15,24,58
-15,24,58
-15,25,58
-15,25,58
-16,25,58
-16,25,57
-15,26,57
-16,26,57
-16,26,57
-16,25,58
-15,26,58
-15,26,57
-15,26,57
-15,26,57
-15,25,57
-14,26,57
-15,26,57
-15,26,58
-15,26,57
-15,27,57
-15,27,57
-16,26,57
-15,26,57
-16,26,57
-16,26,57
-15,26,58
-15,26,58
-15,25,58
-16,25,58
-15,25,58
-15,25,58
-15,25,58
-15,25,58
-15,25,58
-15,25,58
-15,25,57
-15,25,58
-15,25,57
-15,26,57
-15,25,57
-15,26,57
-15,26,57
-15,25,58
-15,25,58
-15,25,58
-16,25,58
-15,25,58
-15,26,58
-15,26,58
-16,26,57
-16,26,57
-15,26,57
-16,25,57
-15,25,57
-15,26,57
-15,26,57
-15,26,57
-15,26,58
-16,26,58
-16,25,58
-16,25,58
-15,26,58
-15,26,58
-15,26,58
-16,25,58
-15,25,58
-16,25,57
-15,25,57
-15,26,57
-15,25,58
-15,26,57
-15,26,57
-16,25,58
-15,25,57
-16,26,57
-15,26,58
-14,26,58
-15,25,58
-16,25,58
-16,25,58
-17,25,57
-16,25,58
-15,26,58
-16,26,57
-15,25,58
-16,25,58
-16,25,57
-15,25,57
-16,25,57
-15,25,57
-16,25,57
-16,25,57
-16,25,57
-16,25,57
-16,26,58
-16,25,58
-16,25,58
-16,25,57
-16,25,57
-16,26,58
-16,25,57
-16,26,57
-16,25,58
-16,25,57
-16,25,57
-16,25,58
-16,25,57
-16,25,58
-16,26,57
-16,26,57
-16,25,58
-16,25,57
-16,25,57
-16,25,57
-16,26,57
-16,25,57
-16,25,58
-16,25,58
-16,24,58
-15,24,57
-17,25,57
-18,26,58
-17,26,59
-16,26,57
-15,25,57
-16,25,57
-15,25,57
-16,25,57
-16,25,57
-17,25,58
-16,25,58
-16,25,58
-16,25,58
-16,25,58
-16,24,57
-16,25,57
-16,25,58
-16,25,57
-16,25,57
-16,25,57
-16,25,58
-16,25,58
-17,24,58
-16,25,58
-16,25,58
-16,25,58
-16,25,57
-16,25,57
-16,24,57
-16,24,58
-16,24,58
-16,24,58
-16,24,58
-16,24,58
-15,25,58
-16,26,57
-16,26,57
-16,26,57
-17,26,56
-17,25,57
-16,25,57
-16,25,57
-16,25,58
-16,24,59
-16,24,59
-16,24,58
-16,24,58
-16,24,58
-16,24,57
-15,24,57
-16,24,57
-16,25,57
-16,24,57
-17,25,57
-16,24,58
-16,24,58
-16,24,58
-16,25,59
-16,24,58
-16,24,58
-16,24,58
-16,24,57
-16,25,57
-16,25,57
-16,26,57
-16,26,57
-17,26,57
-17,26,57
-17,25,57
-17,25,57
-17,25,57
-17,26,58
-17,25,58
-16,25,57
-17,25,58
-17,24,58
-17,24,57
-17,25,57
-16,25,58
-17,25,58
-17,25,58
-16,25,57
-17,25,57
-17,25,58
-17,25,57
-17,25,57
-16,25,58
-17,25,58
-16,25,58
-17,25,57
-17,25,57
-16,25,58
-17,25,57
-16,25,57
-17,25,57
-16,25,57
-17,25,57
-16,25,58
-16,24,57
-17,24,58
-17,25,57
-16,25,57
-17,25,58
-16,25,58
-17,25,57
-16,25,57
-17,25,57
-17,25,57
-17,25,57
-17,25,57
-16,25,57
-17,25,57
-16,25,57
-17,25,57
-17,25,58
-17,25,57
-17,25,58
-17,25,58
-17,25,58
-17,25,57
-17,25,58
-17,25,58
-17,26,57
-17,25,57
-17,25,57
-17,26,57
-17,26,57
-16,26,57
-17,26,57
-16,25,57
-17,25,57
-16,25,57
-17,26,57
-17,25,57
-17,25,58
-16,25,57
-17,25,58
-17,25,57
-17,25,57
-16,25,57
-17,25,57
-17,25,58
-16,25,57
-16,25,57
-16,25,57
-17,25,57
-16,25,57
-17,26,57
-16,26,57
-17,26,57
-16,25,57
-16,25,57
-16,26,57
-16,26,57
-17,26,57
-17,25,57
-17,25,58
-16,25,58
-16,25,58
-16,25,57
-16,26,57
-16,25,58
-17,25,57
-17,25,57
-16,25,57
-17,26,57
-16,26,57
-16,25,57
-17,26,58
-16,26,58
-17,26,57
-16,25,57
-16,25,57
-17,26,57
-16,26,57
-17,26,57
-17,25,57
-17,25,58
-17,26,58
-18,25,58
-16,24,58
-16,24,57
-16,25,58
-16,26,56
-16,26,57
-17,25,56
-16,25,57
-18,25,57
-17,25,57
-16,26,57
-15,26,58
-16,26,57
-16,27,57
-16,26,57
-17,25,57
-17,25,57
-17,25,57
-16,26,57
-16,26,58
-16,26,57
-17,26,57
-16,25,58
-17,25,58
-16,25,57
-16,25,57
-16,25,57
-16,26,56
-16,25,57
-17,25,57
-17,25,57
-17,25,58
-16,25,58
-16,25,58
-16,25,58
-16,26,58
-16,25,57
-17,25,57
-16,25,57
-17,25,57
-16,25,57
-16,25,57
-16,25,57
-16,26,57
-17,26,57
-16,26,58
-17,26,57
-17,26,57
-17,26,57
-17,26,57
-16,26,57
-16,26,57
-17,26,57
-16,26,57
-17,25,57
-16,26,57
-17,25,58
-16,25,57
-16,25,57
-16,25,58
-16,25,57
-16,25,57
-16,25,57
-16,25,57
-17,24,57
-17,24,58
-16,24,58
-16,24,58
-17,24,58
-16,24,58
-16,24,58
-16,24,57
-17,25,57
-17,25,57
-17,25,57
-17,25,57
-17,26,57
-17,26,57
-17,27,57
-17,27,57
-17,27,57
-17,26,57
-18,26,56
-18,26,57
-18,25,56
-17,25,57
-18,25,57
-17,25,57
-17,25,57
-19,25,56
-17,25,58
-19,25,58
-18,25,57
-18,26,57
-18,26,57
-19,26,57
-18,26,56
-19,26,56
-17,27,57
-19,27,56
-18,26,56
-18,26,57
-18,27,56
-17,27,56
-18,27,56
-18,27,56
-19,27,56
-18,27,56
-19,27,56
-18,27,56
-18,27,57
-18,27,56
-19,26,57
-18,26,56
-19,26,57
-19,26,57
-19,25,56
-19,25,56
-19,25,57
-19,26,57
-18,26,57
-19,26,57
-19,27,57
-19,27,56
-18,27,57
-19,27,56
-19,27,56
-19,27,56
-19,27,56
-19,27,56
-18,28,56
-18,28,56
-18,27,56
-18,27,56
-18,27,56
-18,27,56
-18,27,56
-18,27,56
-19,27,56
-19,27,56
-19,26,56
-19,26,57
-19,27,56
-19,26,56
-19,26,56
-19,26,56
-19,26,56
-19,27,56
-19,26,56
-19,26,56
-19,26,56
-19,26,56
-18,26,56
-19,27,56
-18,27,57
-18,27,56
-19,27,56
-19,27,56
-19,27,56
-18,27,56
-19,27,56
-18,27,56
-19,27,56
-19,26,56
-19,27,56
-19,27,56
-19,27,56
-19,26,57
-19,27,56
-19,27,55
-19,27,56
-19,27,56
-19,26,56
-19,27,56
-19,27,56
-19,26,56
-18,26,56
-19,26,56
-19,26,57
-19,26,56
-19,26,56
-19,26,56
-19,27,56
-19,27,56
-19,27,56
-19,27,56
-19,27,56
-20,27,56
-20,26,57
-20,26,56
-22,26,61
-18,24,53
-21,26,55
-20,26,58
-20,25,58
-21,25,57
-19,25,57
-20,25,56
-20,25,58
-20,25,58
-20,25,57
-19,25,56
-19,25,56
-20,24,56
-18,24,58
-17,25,56
-19,25,55
-19,25,56
-20,24,58
-20,24,59
-20,24,57
-20,24,58
-20,24,57
-18,24,58
-19,24,57
-19,25,57
-19,24,57
-19,23,56
-19,23,57
-19,24,57
-19,24,57
-19,24,57
-19,24,57
-19,24,57
-19,24,57
-19,24,57
-20,24,57
-19,24,57
-19,24,57
-18,24,57
-19,24,57
-18,24,57
-19,25,57
-19,24,57
-19,24,57
-19,24,57
-19,25,57
-19,25,57
-19,25,57
-19,24,57
-19,24,57
-19,24,57
-18,24,57
-20,24,57
-20,24,57
-19,24,57
-20,24,57
-19,24,58
-19,24,57
-19,24,57
-19,24,57
-19,24,57
-19,24,58
-18,24,57
-19,24,58
-20,25,57
-19,24,57
-19,24,57
-20,25,56
-19,25,56
-19,25,56
-18,25,57
-19,25,56
-19,25,56
-19,25,57
-19,25,57
-18,24,57
-19,24,57
-19,24,58
-19,25,57
-19,24,57
-19,25,57
-18,25,57
-19,25,56
-18,25,56
-18,25,56
-18,25,56
-19,25,56
-19,25,56
-19,24,57
-19,24,57
-18,24,57
-19,24,57
-19,25,57
-20,24,57
-20,24,57
-20,24,57
-20,24,57
-20,24,57
-20,24,57
-20,24,57
-20,25,57
-20,25,57
-20,25,57
-20,24,57
-19,24,57
-20,25,57
-20,25,57
-19,25,57
-20,25,57
-20,25,57
-20,25,56
-20,25,56
-20,25,56
-20,25,56
-20,25,56
-20,24,56
-20,24,56
-20,24,56
-20,24,56
-20,25,56
-20,25,56
-21,25,56
-20,24,55
-21,25,55
-22,25,55
-21,26,56
-22,26,55
-22,27,54
-23,27,55
-24,28,55
-25,28,54
-25,28,54
-25,28,55
-25,28,55
-27,28,53
-27,28,53
-27,28,53
-27,28,53
-27,28,53
-27,28,53
-27,28,54
-27,27,53
-28,27,53
-27,26,54
-27,27,54
-27,27,54
-27,26,54
-27,26,53
-27,26,54
-27,26,54
-27,26,53
-27,27,54
-27,27,53
-27,27,53
-27,27,53
-27,27,53
-27,27,53
-27,27,53
-27,27,53
-27,27,53
-26,27,53
-27,27,53
-27,27,53
-27,27,52
-27,27,53
-27,27,53
-27,27,53
-27,27,54
-27,26,53
-27,26,53
-27,27,54
-27,27,53
-27,26,53
-27,26,53
-27,26,53
-28,26,53
-27,27,53
-27,27,53
-27,27,53
-27,27,53
-27,27,53
-26,27,53
-27,27,53
-27,27,53
-27,27,53
-27,26,53
-27,27,53
-27,27,53
-25,28,54
-25,28,54
-27,28,53
-27,26,52
-27,26,52
-27,26,53
-27,26,53
-26,26,53
-26,26,53
-26,27,53
-27,27,53
-27,27,53
-29,26,52
-29,26,52
-28,28,52
-29,28,52
-27,29,53
-28,29,52
-28,29,52
-28,30,52
-27,30,52
-28,29,51
-28,30,51
-28,29,51
-29,28,52
-29,28,51
-29,28,51
-28,29,52
-27,29,52
-27,30,53
-28,32,52
-28,31,52
-28,31,53
-28,30,52
-28,29,52
-27,30,51
-27,30,50
-26,28,50
-27,28,50
-27,28,51
-26,29,51
-26,29,51
-26,30,52
-27,29,52
-28,29,52
-27,28,53
-28,28,52
-28,28,52
-28,27,52
-28,26,51
-28,25,52
-27,26,53
-28,27,53
-27,28,54
-27,28,53
-28,29,53
-30,28,53
-29,27,53
-30,27,52
-29,27,52
-29,27,52
-27,27,52
-28,27,51
-27,27,52
-28,27,53
-27,27,53
-27,27,53
-28,27,53
-28,27,53
-28,27,52
-28,28,53
-28,28,53
-27,28,52
-28,28,52
-28,28,52
-28,28,52
-28,28,52
-27,27,53
-27,28,52
-27,28,52
-27,28,52
-27,28,52
-27,28,52
-27,28,52
-27,28,52
-27,28,53
-27,28,53
-27,28,52
-27,28,53
-27,28,52
-27,28,52
-27,28,52
-27,28,52
-27,28,52
-27,28,52
-27,29,52
-27,29,52
-27,28,52
-27,28,52
-27,28,52
-27,28,52
-27,28,52
-28,28,52
-27,28,52
-27,28,52
-27,28,52
-27,28,52
-27,28,52
-28,28,52
-28,29,52
-28,28,53
-27,28,52
-28,28,52
-28,29,53
-28,28,52
-28,28,53
-27,28,52
-28,28,52
-28,28,52
-27,28,52
-27,28,52
-28,28,52
-27,28,52
-27,28,52
-27,28,52
-28,28,52
-28,28,52
-28,28,52
-28,28,52
-27,28,52
-28,28,52
-27,28,52
-28,28,52
-27,28,52
-28,28,52
-27,28,52
-28,28,51
-28,28,52
-28,28,52
-28,28,52
-28,28,52
-28,28,52
-28,28,52
-28,28,52
-28,28,53
-28,28,52
-28,28,52
-29,28,52
-28,28,52
-28,28,52
-28,28,52
-28,28,52
-28,28,52
-28,29,51
-28,28,52
-28,28,52
-29,28,51
-28,28,52
-28,28,52
-28,28,52
-28,28,52
-28,28,52
-28,28,52
-28,28,52
-28,28,51
-28,28,51
-29,28,51
-28,28,52
-28,28,52
-28,28,51
-28,28,52
-28,29,52
-29,28,52
-29,28,52
-29,28,52
-29,28,51
-28,29,52
-28,28,51
-28,28,52
-29,28,51
-29,28,52
-28,28,52
-29,28,51
-28,28,52
-28,28,52
-28,28,52
-29,28,52
-29,28,52
-28,28,52
-29,28,52
-28,28,52
-28,28,52
-29,28,52
-28,28,52
-28,28,52
-29,28,52
-28,28,52
-29,28,52
-28,28,52
-28,28,52
-28,28,51
-29,28,52
-28,28,52
-28,28,51
-28,28,52
-29,28,51
-28,28,52
-29,28,52
-29,28,51
-28,28,51
-29,28,51
-28,28,51
-28,28,51
-29,28,51
-28,28,52
-28,28,51
-29,28,51
-29,28,52
-29,28,51
-29,28,52
-29,28,52
-29,28,52
-28,28,52
-29,28,52
-29,28,52
-29,28,52
-29,28,52
-29,28,52
-29,28,52
-28,28,52
-29,28,52
-29,28,52
-28,28,51
-29,28,51
-29,28,51
-29,28,51
-29,28,51
-29,28,52
-29,28,52
-29,28,52
-29,28,52
-29,28,52
-29,28,51
-29,28,52
-29,28,51
-29,28,52
-29,28,51
-29,27,51
-29,27,51
-29,28,52
-29,28,51
-29,28,52
-29,28,52
-29,28,52
-28,28,51
-29,27,52
-29,27,51
-29,28,51
-29,28,52
-29,28,51
-29,28,51
-29,28,52
-29,28,52
-29,27,51
-30,27,51
-29,27,52
-30,27,52
-29,27,52
-29,28,51
-29,28,52
-29,28,51
-29,28,51
-29,28,52
-29,27,51
-29,27,52
-29,27,52
-29,27,52
-29,28,51
-29,28,51
-29,27,51
-29,27,51
-29,27,51
-29,28,51
-30,28,51
-29,28,51
-29,28,51
-30,28,52
-30,28,51
-30,27,51
-30,28,52
-30,27,51
-30,28,51
-29,28,52
-30,28,51
-30,28,51
-30,27,51
-30,28,51
-29,28,51
-30,27,51
-30,28,51
-30,27,51
-30,26,51
-30,26,51
-31,26,52
-31,26,52
-30,26,52
-30,26,53
-30,27,52
-30,27,52
-30,27,52
-30,28,51
-31,28,51
-30,28,50
-30,28,51
-30,28,50
-30,28,51
-30,28,50
-30,27,52
-30,27,52
-30,27,52
-30,27,51
-30,27,51
-30,28,51
-30,28,51
-30,27,51
-30,27,51
-31,27,51
-30,27,51
-30,27,51
-30,27,51
-31,27,51
-30,27,52
-31,27,51
-31,27,51
-30,27,51
-30,27,51
-31,27,51
-30,27,51
-31,27,50
-30,27,52
-31,27,51
-30,28,52
-30,28,52
-31,28,52
-31,27,52
-31,28,52
-31,29,54
-30,29,55
-31,29,54
-30,28,55
-29,28,53
-28,28,52
-27,28,52
-27,28,52
-25,28,51
-25,29,51
-25,28,52
-24,29,51
-24,29,51
-24,29,52
-23,30,53
-23,30,53
-23,30,53
-22,30,53
-22,31,53
-22,31,53
-22,31,54
-22,31,54
-22,32,54
-21,32,55
-21,32,55
-20,33,55
-20,33,55
-18,32,55
-18,32,54
-18,32,53
-16,32,53
-15,32,53
-14,33,51
-14,32,51
-13,32,52
-14,33,52
-13,33,52
-11,33,53
-11,34,53
-11,34,53
-11,34,52
-11,33,53
-11,34,53
-11,34,53
-11,35,52
-11,35,53
-11,36,52
-11,36,51
-11,36,52
-11,36,52
-11,37,52
-9,37,52
-9,36,52
-10,36,52
-10,36,52
-10,36,52
-11,35,53
-10,35,53
-11,36,53
-11,36,53
-12,36,52
-12,35,53
-12,35,53
-12,36,53
-12,36,52
-13,36,53
-13,35,53
-12,35,53
-13,35,53
-14,35,53
-13,35,53
-13,35,53
-13,35,53
-13,36,53
-13,35,53
-14,35,53
-15,34,53
-15,34,53
-15,33,53
-14,32,53
-15,33,53
-15,33,54
-15,33,54
-16,33,54
-16,33,55
-16,33,54
-15,32,55
-15,32,54
-14,33,54
-14,35,54
-15,35,54
-15,35,53
-16,35,52
-16,34,52
-16,34,52
-15,35,53
-15,36,52
-15,36,52
-14,36,52
-15,35,52
-14,35,52
-14,35,51
-15,35,51
-15,35,52
-14,35,52
-17,34,52
-17,34,52
-16,33,53
-18,34,53
-17,33,54
-18,33,53
-18,33,53
-18,32,53
-19,32,52
-18,32,52
-18,32,52
-18,31,53
-18,31,55
-18,31,54
-19,31,55
-19,31,56
-20,30,56
-21,30,56
-21,30,57
-20,30,57
-20,29,56
-20,30,56
-20,30,55
-19,30,54
-19,30,53
