1.521e+09,1.521e+09
3030.5,0.84379
3031.3,0.79691
3045.5,0.75003
3046.2,0.78129
3047,0.75003
3047.8,0.82816
3048.7,0.92192
3049.6,0.84379
3050.5,0.90629
3051.4,0.92192
3052.3,0.89067
3053.2,0.85941
3054,0.87504
3054.9,0.81254
3055.7,0.85941
3056.5,0.82816
3057.4,0.81254
3058.3,0.90629
3059.2,0.93754
3060.1,0.85941
3061,0.90629
3061.9,0.90629
3062.7,0.82816
3063.5,0.81254
3064.3,0.82816
3065.2,0.84379
3066,0.85941
3066.9,0.81254
3067.7,0.85941
3068.6,0.85941
3069.3,0.76566
3070.3,1
3080.7,0.79691
3081.5,0.84379
3082.3,0.82816
3083.1,0.75003
3083.9,0.78129
3084.6,0.76566
3085.5,0.82816
3086.3,0.81254
3087,0.76566
3087.8,0.81254
3088.6,0.79691
3089.5,0.82816
3090.3,0.82816
3091.2,0.85941
3092,0.87504
3092.9,0.85941
3093.8,0.85941
3094.6,0.82816
3095.3,0.73441
3096.2,0.90629
3096.9,0.67191
3097.6,0.71878
3098.4,0.82816
3099.1,0.68753
3099.8,0.70316
3100.6,0.81254
3101.5,0.90629
3131.9,0.73441
3132.7,0.78129
3133.5,0.81254
3134.3,0.79691
3135.1,0.79691
3135.9,0.79691
3144.9,0.84379
3145.8,0.89067
3146.5,0.73441
3147.3,0.82816
3148.1,0.73441
3148.8,0.76566
3149.6,0.79691
3150.4,0.78129
3151.4,0.96879
3152.2,0.81254
3153,0.82816
3153.8,0.81254
3154.6,0.79691
3155.4,0.78129
3156.2,0.79691
3157,0.76566
3157.8,0.78129
3158.6,0.79691
3159.4,0.81254
3160.2,0.84379
3161,0.81254
3161.9,0.82816
3185.5,0.6094
3186.2,0.73441
3186.9,0.70316
3187.7,0.73441
3188.3,0.65628
3189.1,0.78129
3189.8,0.67191
3190.6,0.79691
3191.4,0.79691
3192.2,0.81254
3193,0.79691
3193.8,0.87504
3194.6,0.79691
3195.5,0.81254
3196.3,0.79691
3197,0.73441
3201.8,0.82816
3202.7,0.84379
3209.3,0.76566
3210.1,0.85941
3210.9,0.82816
3211.8,0.84379
3212.7,0.92192
