1.5193e+09,1.5193e+09,1.5193e+09
32,32,32
-31,5,-49
-31,7,-55
-31,6,-55
-29,9,-57
-31,10,-58
-31,7,-57
-30,6,-55
-31,7,-54
-28,7,-54
-29,6,-51
-30,8,-54
-29,7,-52
-25,6,-52
-31,5,-56
-30,8,-56
-30,7,-56
-32,7,-57
-31,6,-55
-31,6,-55
-28,4,-54
-26,6,-54
-31,5,-55
-29,7,-57
-32,8,-56
-34,6,-56
-29,7,-57
-25,5,-47
-34,4,-55
-32,3,-53
-31,6,-52
-33,3,-57
-33,2,-58
-31,11,-54
-30,14,-54
-34,8,-54
-28,3,-54
-27,6,-54
-40,7,-58
-48,9,-61
-25,17,-46
-33,14,-47
-32,16,-44
-35,16,-48
-40,16,-50
-27,1,-43
-35,10,-50
-20,13,-45
-21,10,-45
-40,13,-54
-31,14,-56
-38,26,-49
-46,6,-55
-42,15,-51
-22,1,-40
-63,-10,-52
-43,1,-49
-32,14,-33
-30,6,-36
-41,5,-58
-26,23,-39
-47,3,-34
-45,7,-43
-43,16,-54
-49,12,-55
-35,20,-51
-53,28,-54
-39,33,-49
-33,7,-43
-41,-4,-39
-47,16,-41
-46,12,-40
-46,10,-45
-41,13,-44
-27,-9,-39
-43,36,-45
-53,37,-58
-45,19,-53
-35,9,-43
-43,24,-40
-51,15,-54
-45,10,-48
-35,24,-32
-44,5,-40
-45,-4,-37
-52,-16,-38
-28,37,-39
-49,21,-60
-40,24,-53
-46,24,-49
-46,21,-50
-37,25,-50
-36,8,-52
-31,-1,-39
-48,-1,-44
-50,5,-47
-37,32,-47
-44,24,-51
-38,13,-44
-36,13,-41
-72,18,-62
-46,9,-58
-38,-37,-44
-51,20,-44
-54,15,-41
-52,21,-29
-49,15,-25
-60,11,-24
-67,27,-29
-47,22,-17
-59,10,-11
-58,2,-7
-51,18,-5
-61,15,-5
-63,-4,-7
-51,24,-3
-53,36,-3
-64,24,-10
-54,21,-5
-75,1,-11
-64,7,-13
-73,5,-19
-47,28,-12
-71,31,-20
-61,34,-21
-59,26,-21
-55,1,-18
-63,15,-22
-66,15,-26
-56,-7,-18
-54,-10,-17
-54,23,-25
-46,28,-27
-56,28,-27
-68,12,-29
-68,-2,-30
-46,10,-28
-54,19,-26
-47,17,-27
-50,13,-29
-50,30,-32
-62,21,-37
-61,15,-35
-58,9,-29
-58,12,-29
-47,24,-24
-43,20,-23
-46,25,-25
-66,2,-34
-77,-10,-35
-52,14,-27
-51,23,-25
-55,23,-29
-59,22,-29
-58,17,-23
-48,21,-17
-62,12,-24
-61,13,-24
-61,18,-21
-60,5,-21
-60,19,-17
-61,15,-13
-66,15,-14
-62,18,-12
-60,11,-9
-60,3,-8
-73,17,-7
-63,12,3
-56,2,-1
-72,14,-4
-69,12,5
-67,7,12
-65,9,16
-58,6,25
-66,6,22
-58,-6,22
-67,15,23
-62,14,31
-56,-3,39
-46,-3,42
-49,7,40
-47,13,41
-49,18,37
-53,15,43
-55,15,44
-44,13,43
-40,9,41
-47,9,51
-44,-2,54
-44,-8,52
-46,8,43
-41,13,46
-37,25,51
-44,19,50
-43,7,52
-43,11,50
-39,17,47
-38,31,46
-37,37,48
-36,19,52
-35,-7,58
-36,-13,54
-35,-11,54
-26,13,57
-30,33,51
-28,28,54
-23,10,62
-22,16,62
-19,20,56
-26,5,62
-17,22,64
-9,13,67
-16,5,63
-16,19,63
-12,25,58
-7,10,56
-33,25,40
-62,21,21
-92,-8,10
-80,-7,20
-29,52,35
-53,41,25
-75,2,22
-62,8,32
-44,15,34
-82,10,23
-70,1,33
-44,24,40
-57,25,39
-52,24,42
-44,18,44
-36,7,43
-57,-1,44
-61,-6,44
-51,13,46
-50,5,46
-49,-5,50
-43,-11,55
-32,23,47
-34,24,48
-27,6,58
-24,11,56
-26,18,53
-23,7,61
-22,-10,66
-22,11,65
-10,-9,70
-17,-7,65
-26,9,54
-24,9,56
-35,-2,63
-39,-1,60
-36,-3,54
-18,7,55
-27,26,61
-14,10,61
-10,-2,59
-15,-6,58
-26,1,56
-36,14,51
-67,19,36
-63,27,33
-60,24,38
-55,12,41
-43,-38,49
-41,69,43
-29,69,27
-38,1,42
-58,-39,56
-48,-21,46
-44,8,39
-53,42,39
-61,34,39
-44,-5,41
-48,-13,48
-54,-8,46
-52,1,41
-51,8,39
-46,17,42
-45,12,43
-58,4,47
-44,1,43
-43,11,48
-41,5,47
-46,10,45
-61,8,37
-59,10,38
-47,6,47
-58,7,39
-79,11,26
-63,7,38
-27,5,57
14,8,78
7,-4,74
-14,4,36
-119,23,-44
-128,32,-48
-30,18,10
17,13,43
-13,3,78
3,-2,86
17,4,65
-103,23,-41
-128,26,-61
-58,16,-17
1,14,22
-4,-8,83
-6,-4,84
34,-3,94
-56,11,1
-112,22,-12
-64,13,-4
-54,13,0
-52,14,24
-24,22,49
-18,15,50
18,6,55
30,0,60
-8,-4,72
-29,-8,69
-1,6,66
-3,1,62
-10,5,66
-26,13,59
-28,30,36
-80,20,-17
-79,-7,-55
-54,9,23
-50,-3,59
-77,9,39
-9,-9,48
43,-2,73
42,7,84
10,-2,61
-72,11,26
-62,6,2
-69,4,3
-44,11,39
-26,12,51
-19,16,47
6,4,56
27,3,85
14,-4,66
-37,3,30
-84,5,14
-60,16,8
-78,6,-36
-92,9,-35
-72,9,14
-51,5,36
-47,18,22
70,9,63
85,-5,86
-2,2,52
-47,-8,57
-9,-5,76
-3,2,61
-12,2,60
-14,0,66
-11,0,66
-4,-1,63
-4,0,62
-8,-3,65
-4,-1,63
-4,0,62
-4,0,60
-16,-3,58
1,4,70
-22,-6,57
-1,-15,66
-16,-12,66
-8,-14,65
5,11,65
3,11,64
6,25,69
3,22,64
-1,-31,65
-8,-28,69
-1,-22,67
-2,22,64
8,12,69
-30,47,47
-18,18,45
-7,-18,65
-26,-7,57
-66,-1,36
-42,24,53
-18,3,63
-48,-6,52
-42,-4,55
-36,7,56
-44,-4,52
-47,-8,49
-40,3,51
-44,-1,48
-49,2,43
-34,3,47
-58,-4,37
-47,-1,46
-49,1,48
-34,17,57
-30,29,51
-33,14,51
-52,-9,44
-56,-9,42
-32,20,54
-35,25,54
-38,11,40
-61,1,36
-51,6,45
-46,8,43
-47,14,43
-51,29,37
-46,10,39
-48,21,41
-47,19,41
-47,22,46
-58,20,35
-51,20,39
-50,19,40
-51,25,39
-51,23,36
-50,24,35
-51,25,34
-51,25,33
-48,26,33
-46,27,30
-47,29,28
-45,32,20
-44,35,16
-50,35,11
-54,35,7
-56,38,3
-52,38,-3
-54,39,-10
-52,42,-16
-48,42,-16
-46,41,-21
-44,43,-28
-41,45,-28
-47,46,-34
-38,41,-32
-38,44,-35
-36,46,-35
-33,45,-33
-34,45,-33
-31,44,-34
-34,43,-30
-31,42,-30
-37,42,-32
-33,42,-31
-30,41,-30
-30,53,-26
-29,44,-32
-32,45,-38
-30,43,-37
-34,43,-40
-31,43,-37
-30,41,-33
-34,39,-37
-32,44,-36
-27,40,-37
-30,43,-40
-24,42,-35
-23,37,-32
-34,50,-48
-28,42,-40
-29,47,-43
-34,32,-46
-25,34,-38
-33,37,-40
-33,33,-38
-25,41,-35
-29,38,-41
-27,41,-44
-28,33,-50
-24,34,-49
-30,35,-52
-25,36,-47
-40,39,-53
-32,34,-44
-34,37,-45
-31,37,-46
-24,31,-41
-33,38,-43
-23,38,-39
-29,37,-37
-35,37,-46
-33,31,-42
-37,40,-43
-35,37,-42
-26,33,-35
-28,36,-38
-38,35,-42
-32,34,-38
-128,127,-56
-81,-12,-63
-56,24,-2
-12,26,5
-67,58,-30
-128,-31,-6
-21,31,-10
-52,39,-21
-72,37,-29
-59,32,-24
-51,29,-16
-52,30,-16
-51,30,-17
-48,33,-25
-50,33,-29
-51,35,-29
-54,37,-31
-44,35,-29
-46,35,-28
-44,36,-28
-43,38,-29
-45,38,-30
-44,38,-28
-46,37,-32
-43,35,-28
-42,37,-28
-33,31,-37
-46,42,-32
-37,34,-31
-39,35,-30
-40,40,-34
-40,38,-38
-40,40,-38
-35,33,-37
-43,34,-40
-44,31,-41
-34,35,-35
-36,34,-37
-44,35,-41
-41,35,-38
-40,35,-36
-39,33,-35
-39,34,-36
-37,32,-33
-40,33,-35
-40,35,-39
-39,34,-37
-38,33,-37
-41,32,-39
-40,33,-39
-39,33,-39
-36,33,-39
-36,36,-41
-37,37,-43
-34,35,-40
-38,32,-37
-40,31,-38
-41,32,-38
-40,32,-39
-39,33,-38
-39,34,-38
-36,34,-37
-33,34,-42
-38,36,-45
-38,30,-39
-37,34,-41
-36,32,-39
-35,31,-39
-40,30,-42
-35,33,-42
-37,32,-42
-38,32,-41
-36,32,-42
-36,30,-41
-37,31,-43
-37,32,-43
-38,32,-40
-37,31,-41
-37,30,-41
-42,34,-42
-38,34,-42
-37,32,-43
-35,32,-43
-36,31,-41
-35,32,-41
-36,32,-42
-36,30,-42
-36,29,-42
-36,30,-41
-36,31,-40
-37,30,-42
-35,32,-43
-38,34,-44
-33,35,-42
-36,33,-44
-34,33,-43
-34,31,-42
-32,32,-41
-34,33,-40
-35,32,-41
-36,33,-45
-34,33,-44
-35,33,-43
-34,32,-42
-34,32,-43
-38,31,-43
-37,32,-43
-36,31,-42
-40,33,-42
-38,32,-39
-40,33,-39
-38,33,-39
-38,34,-38
-39,33,-38
-37,33,-38
-36,33,-37
-36,31,-43
-39,34,-40
-49,37,-41
-34,25,-31
-41,36,-36
-50,34,-40
-40,30,-43
-38,35,-34
-38,32,-37
-50,36,-33
-43,33,-36
-38,36,-31
-40,34,-31
-41,34,-33
-42,34,-32
-40,35,-32
-44,36,-34
-44,34,-34
-44,33,-35
-44,32,-34
-44,33,-30
-44,38,-31
-42,39,-31
-42,35,-33
-41,33,-34
-36,35,-37
-37,35,-34
-41,36,-35
-40,36,-39
-40,34,-39
-39,35,-37
-39,35,-38
-40,35,-38
-42,34,-39
-39,34,-32
-46,36,-33
-43,36,-32
-40,35,-34
-40,36,-35
-42,35,-34
-42,35,-34
-36,25,-31
-44,33,-31
-44,34,-33
-41,36,-35
-41,35,-35
-40,34,-34
-40,34,-34
-43,34,-36
-43,38,-38
-44,35,-34
-46,34,-33
-45,34,-32
-40,32,-33
-40,32,-33
-39,34,-37
-37,37,-36
-34,38,-33
-40,35,-36
-42,37,-39
-35,33,-34
-36,34,-35
-41,34,-39
-38,32,-36
-38,35,-37
-40,40,-36
-45,19,-55
-28,34,-37
-36,36,-39
-33,38,-40
-33,39,-40
-31,36,-39
-32,31,-45
-31,35,-41
-32,35,-41
-32,37,-42
-30,37,-42
-34,32,-40
-34,36,-43
-31,35,-43
-30,37,-41
-29,34,-41
-32,35,-46
-30,40,-44
-28,34,-44
-33,32,-46
-28,32,-50
-31,34,-47
-33,41,-49
-27,34,-45
-32,31,-45
-31,28,-42
-30,31,-44
-31,34,-46
-32,34,-47
-31,33,-47
-30,33,-47
-31,32,-44
-33,32,-45
-32,33,-46
-30,31,-41
-34,31,-43
-33,36,-45
-31,33,-42
-31,35,-44
-32,33,-43
-33,35,-43
-30,36,-41
-32,32,-41
-36,34,-40
-36,34,-41
-32,36,-46
-27,37,-42
-28,36,-38
-33,37,-42
-32,35,-42
-32,32,-40
-35,37,-41
-32,36,-44
-30,35,-44
-28,34,-43
-32,36,-45
-32,35,-45
-36,35,-40
-41,35,-43
-34,32,-41
-34,32,-43
-33,34,-45
-33,35,-42
-35,31,-43
-37,32,-44
-37,34,-42
-36,33,-39
-37,33,-40
-39,35,-42
-41,38,-43
-39,29,-39
-42,33,-38
-39,32,-31
-35,35,-28
-50,30,-33
-50,36,-39
-47,31,-32
-46,31,-28
-46,39,-35
-50,39,-35
-52,37,-34
-54,36,-29
-35,39,-20
-44,42,-21
-60,36,-24
-44,42,-21
-35,38,-21
-34,43,-20
-37,36,-14
-35,49,-9
-33,45,-12
-48,49,-15
-48,45,-21
-44,41,-28
-42,45,-29
-41,43,-27
-41,44,-26
-38,44,-27
-46,44,-31
-43,49,-25
-36,47,-17
-57,54,-10
-72,37,-16
-50,36,0
-54,18,45
-72,16,41
-37,24,32
-3,2,48
7,-7,61
-2,-4,69
15,0,70
17,8,68
5,8,62
5,5,62
-1,-1,57
0,-3,59
-4,-8,61
-3,-8,63
12,-6,63
9,-10,64
-1,-16,66
6,-13,70
14,-8,65
7,-14,59
14,-17,63
22,-15,62
21,-16,59
8,-6,61
1,-22,60
-3,-16,59
22,-12,61
22,-16,58
-7,-28,60
-7,-25,60
32,-11,57
36,-10,61
11,-22,58
22,-12,54
13,-14,58
-3,-16,63
7,-10,63
12,-11,68
7,-16,64
8,-15,62
15,-13,63
17,-8,66
-7,-15,70
20,-26,77
-18,-22,46
-27,-18,51
-6,-15,66
1,-16,67
-12,-19,61
-20,-22,36
10,-25,62
4,-28,61
14,-15,63
15,-20,70
-7,-22,54
-15,-26,44
22,-23,64
23,-23,68
7,-20,63
-6,-22,64
-5,-20,72
0,-18,77
-10,-16,67
-37,-5,53
-43,-3,54
-24,-4,67
-24,-2,66
-38,0,59
-44,3,57
-30,4,61
-17,6,62
-25,4,59
-28,-1,60
-23,3,57
-15,3,58
-5,9,62
-8,12,55
-25,8,50
-12,8,54
33,8,67
18,19,56
11,15,59
20,14,67
21,15,63
25,11,60
22,11,58
10,8,54
10,11,49
-6,11,35
6,14,38
22,1,59
-9,-14,61
0,-19,61
40,-22,72
28,-25,68
30,-23,67
50,-10,72
36,-12,73
-5,-11,56
-9,-5,56
-8,4,50
-44,-4,43
-40,1,52
-8,4,65
0,6,69
-2,9,70
-4,14,64
7,16,60
-13,22,53
-3,17,57
10,13,64
10,11,66
-3,6,62
-25,3,60
-7,0,67
-3,0,65
-9,1,64
-14,2,61
-10,6,60
-7,7,62
-8,8,62
-12,8,62
-17,7,63
-14,7,64
-12,8,63
-18,6,61
-10,10,61
-15,2,60
-18,6,63
-6,8,64
-3,13,64
-24,4,57
-5,1,61
1,-1,68
2,0,70
-11,-15,66
-11,-2,59
-4,13,61
5,25,64
3,9,65
1,3,60
0,7,63
3,9,64
-1,-14,61
26,-14,72
23,24,63
23,26,56
25,-9,61
7,19,60
20,7,59
12,-5,60
7,-16,60
15,-8,63
18,6,63
13,6,58
20,8,60
21,29,57
12,-9,60
5,-14,63
5,-12,66
3,1,67
7,7,68
14,12,65
16,17,58
8,20,60
13,-3,62
-6,-8,60
-13,-11,63
4,8,72
-7,-12,63
-7,-23,62
1,15,67
-3,32,66
6,22,59
5,4,56
-11,2,63
-15,-4,63
-16,-14,66
-5,5,70
-6,20,69
-1,3,63
5,3,64
-13,8,58
-35,3,58
-21,1,62
-14,5,61
-10,10,63
-8,8,64
-7,11,61
-4,9,59
-14,10,61
-21,-7,60
-7,-2,62
-12,0,64
-10,9,62
-6,17,60
-9,20,58
-12,10,59
-8,5,56
-17,4,55
-7,-7,61
-6,2,64
-5,8,64
-1,18,69
9,10,69
6,4,68
-6,-11,64
-4,-13,67
-4,8,66
-14,11,62
-5,6,64
-7,11,60
5,-4,67
-7,7,63
-9,5,64
-3,0,69
4,-7,73
-12,0,60
6,14,70
9,17,73
-37,4,49
-24,-3,54
-8,-6,63
-4,-1,66
-9,14,66
-18,3,61
-7,7,64
2,6,66
-2,6,65
-11,4,62
-9,4,64
-4,5,64
-29,8,35
19,-2,79
-12,15,57
-34,17,62
-4,-8,69
7,5,71
-20,12,61
-12,6,65
-11,8,66
-26,0,56
2,21,69
-23,-23,52
-19,-17,59
-29,-5,54
-28,10,55
-22,20,59
-11,10,62
-16,5,60
-27,9,59
-30,12,59
-29,20,59
-30,-1,60
-43,-8,53
-26,19,56
-25,19,58
-27,27,60
-28,22,60
-35,11,56
-4,-3,75
-43,16,54
-27,2,59
-28,9,58
-12,14,67
-26,22,64
-35,22,53
-22,4,61
-17,16,62
-17,5,57
-41,13,45
-17,-2,69
-17,13,71
-50,24,44
-18,-9,59
-27,8,59
-18,13,63
-17,6,61
-10,17,68
-24,17,60
-28,18,60
-23,14,59
-19,25,61
-22,14,59
-21,14,61
-16,7,61
-27,12,56
-25,26,56
-27,23,56
-21,29,60
-21,14,66
-24,17,63
-28,8,59
-25,20,60
-34,10,52
-21,14,56
-23,-3,58
-15,8,58
-21,16,58
-13,15,63
-11,10,64
-18,18,61
-14,17,62
-18,18,62
-31,20,55
-28,14,53
-23,15,61
-25,11,55
-30,28,55
-35,10,52
-32,19,55
-33,29,62
-19,26,66
-45,8,49
-36,17,47
-25,8,49
-52,3,43
-49,16,44
-25,11,52
-46,-5,43
-39,26,50
-35,21,55
-33,27,54
-38,10,49
-37,13,59
-38,21,52
-38,24,49
-35,20,52
-32,22,54
-32,27,51
-33,32,42
-33,26,47
-38,13,56
-37,15,59
-9,45,62
-44,28,45
-21,35,50
-33,8,50
-38,-4,59
-28,29,57
-39,40,39
-23,16,49
-31,2,53
-35,20,58
-56,37,35
-18,17,54
-56,18,45
-27,21,55
-55,30,46
-17,7,58
-12,30,63
-21,21,60
-34,21,52
-27,22,54
-26,22,55
-25,23,54
-14,12,50
-28,31,56
-22,29,53
-20,22,55
-21,21,57
-27,23,55
-20,19,61
-28,24,56
-25,24,56
-19,25,59
-19,19,58
-25,18,57
-17,20,59
-13,21,60
-21,19,55
-22,22,55
-10,26,61
-8,18,64
-21,13,59
-24,25,60
-18,20,58
-26,15,53
-26,24,55
-5,26,61
-13,22,58
-21,24,57
-23,16,58
-27,20,57
-26,14,57
-19,20,60
-11,22,60
-13,23,61
-20,20,56
-25,19,57
-20,20,58
-20,19,57
-21,23,58
-19,15,59
-17,18,63
-27,21,55
-16,20,62
-23,18,58
-23,21,58
-26,20,56
-27,14,56
-32,18,56
-31,16,54
-26,17,56
-31,15,55
-30,16,55
-34,20,56
-20,22,58
-20,17,57
-32,21,58
-17,19,59
-6,12,64
-8,24,60
-33,10,51
-13,20,60
-11,20,60
-6,26,63
-6,23,62
5,26,64
-15,19,58
-6,22,60
-3,23,61
-13,16,59
-8,20,60
-3,23,59
5,25,61
0,25,63
1,29,60
-7,15,57
-12,21,57
0,22,60
1,23,60
-2,21,61
7,25,61
3,23,57
5,20,57
2,20,57
3,18,60
2,21,60
5,24,60
2,19,60
7,21,59
6,24,56
4,20,60
5,23,60
3,24,57
3,26,61
9,25,60
17,18,61
2,23,58
2,20,56
3,25,57
3,25,57
5,23,59
4,24,59
0,25,59
-1,23,57
3,28,60
3,25,62
5,23,62
5,22,60
-2,24,57
-3,21,59
2,30,60
2,25,60
-7,18,62
6,30,61
15,24,60
3,31,53
1,31,51
-1,29,55
4,30,55
7,31,64
1,28,60
12,31,58
9,28,59
6,30,57
3,30,56
10,33,59
3,28,59
7,24,58
-4,28,57
-7,22,54
0,26,56
2,26,57
-3,25,55
4,30,58
5,31,58
-1,29,57
3,29,59
2,30,58
5,33,64
4,31,61
1,22,54
1,26,50
1,30,49
5,22,59
4,29,59
-3,24,59
-4,26,65
4,29,63
10,33,61
-4,33,55
-11,25,57
3,34,60
-14,22,57
-1,25,64
-12,24,57
-7,25,61
-7,28,61
-11,22,57
-42,14,36
14,23,71
-3,40,60
-13,38,53
-10,11,59
13,14,68
-14,8,60
-18,15,58
0,54,55
1,55,57
-13,-12,65
-19,-23,62
-15,19,63
-7,54,58
-9,66,50
-6,7,57
-14,-31,64
-16,-2,61
-11,52,57
-14,40,51
2,45,51
8,20,56
-12,-9,71
-16,-20,69
-4,52,62
-2,50,55
-7,33,59
-49,-8,51
16,-3,61
-13,48,57
-29,10,54
-5,23,61
-15,16,56
-12,19,57
-5,17,56
-6,16,55
8,14,57
15,13,59
27,10,59
18,6,64
14,6,64
20,4,62
23,4,60
26,4,60
26,4,59
31,5,58
31,6,55
30,5,55
27,5,56
28,4,57
24,6,57
18,5,54
25,1,57
17,0,55
13,-2,53
-2,-7,50
-10,-10,52
-21,-12,53
-20,-11,54
-11,-9,57
-22,-5,60
-15,-7,66
-4,-12,68
-6,-13,68
-5,-18,70
-2,-18,71
-5,-17,65
-9,-16,54
-13,-14,52
-16,-5,53
-20,-5,55
-21,-11,61
-19,-13,64
-25,-19,59
-29,-24,61
-34,-26,59
-39,-23,49
-45,-17,48
-42,-25,52
-37,-24,48
-62,-44,77
-38,-26,78
-20,-22,61
-27,-27,35
-31,-30,40
-36,-31,54
-31,-29,55
-25,-27,48
-35,-31,48
-38,-30,47
-35,-30,47
-33,-30,47
-33,-29,47
-34,-29,47
-36,-27,45
-36,-29,49
-34,-29,51
-34,-28,52
-35,-29,50
-33,-29,46
-31,-27,43
-32,-31,42
-36,-31,50
-36,-30,51
-33,-29,50
-33,-29,48
-33,-29,46
-33,-29,46
-32,-30,48
-30,-28,49
-32,-28,48
-35,-27,48
-36,-27,48
-36,-28,48
-34,-28,47
-31,-29,48
-34,-27,49
-35,-26,48
-36,-25,47
-34,-26,48
-33,-28,49
-34,-29,48
-32,-30,48
-30,-30,48
-30,-30,48
-31,-30,49
-32,-29,49
-36,-27,48
-36,-27,49
-34,-27,54
-32,-26,57
-41,-31,63
-31,-28,78
-36,-30,86
-42,-26,79
-46,-27,74
-44,-25,66
-37,-27,64
-35,-23,60
-28,-17,58
-31,-14,55
-38,-3,42
-40,0,40
-30,3,42
-17,11,43
-17,13,42
-21,14,40
-18,17,42
-16,17,46
-9,17,52
-8,16,54
-6,22,54
-4,29,52
4,31,55
5,29,58
3,30,56
10,27,58
11,26,57
4,29,52
6,29,53
11,29,57
11,30,56
21,27,71
-6,23,64
-32,30,49
-25,41,40
-18,39,44
-9,41,49
-9,40,47
0,38,46
3,37,46
0,37,44
-2,35,40
1,33,37
4,30,29
-2,27,24
0,17,31
25,14,40
35,12,45
23,10,32
-4,-2,36
-60,-38,73
-39,-27,72
-38,-12,65
-52,-16,74
-45,-11,76
-53,-18,65
-36,-30,71
-30,-41,74
-30,-37,70
-36,-38,64
-32,-32,48
-30,-29,58
-27,-27,71
-20,-34,69
-18,-37,50
-16,-32,37
-27,-37,42
-33,-33,53
-30,-30,54
-27,-27,52
-24,-30,56
-32,-25,46
-29,-28,48
-30,-29,47
-30,-32,50
-28,-32,51
-29,-30,50
-29,-30,51
-31,-29,49
-28,-29,47
-34,-30,51
-32,-29,49
-30,-28,47
-31,-29,47
-30,-29,50
-30,-31,52
-32,-30,49
-23,-30,51
-37,-29,47
-30,-28,49
-30,-27,49
-30,-27,51
-30,-28,51
-29,-26,48
-31,-30,50
-31,-29,50
-33,-30,49
-27,-28,48
-32,-30,51
-30,-29,50
-28,-29,49
-28,-29,50
-29,-28,49
-32,-29,50
-32,-29,51
-31,-29,52
-32,-27,50
-29,-27,50
-25,-27,52
-33,-30,46
-27,-28,48
-35,-28,47
-37,-28,47
-33,-30,47
-30,-31,48
-30,-32,49
-29,-33,50
-28,-29,49
-33,-27,44
-41,-27,44
-44,-26,46
-40,-26,47
-37,-28,45
-36,-30,43
-35,-32,45
-34,-30,48
-34,-30,48
-35,-29,47
-38,-29,45
-40,-29,43
-41,-29,43
-42,-28,43
-40,-27,43
-39,-27,44
-40,-30,45
-39,-30,45
-36,-30,44
-36,-29,44
-36,-28,44
-36,-27,45
-36,-28,46
-36,-28,47
-36,-29,46
-38,-34,45
-38,-33,47
-39,-30,44
-38,-26,40
-40,-27,40
-44,-29,41
-41,-30,43
-37,-30,44
-38,-31,44
-37,-30,45
-35,-31,45
-36,-31,44
-39,-31,43
-38,-31,42
-37,-32,44
-36,-34,46
-36,-34,44
-40,-33,39
-42,-33,38
-42,-30,40
-39,-28,43
-38,-29,44
-38,-29,45
-37,-30,45
-34,-30,45
-33,-30,45
-33,-30,47
-34,-29,47
-38,-31,45
-36,-31,46
-35,-32,46
-34,-29,46
-34,-29,46
-36,-27,45
-36,-28,46
-37,-29,46
-37,-29,46
-37,-29,46
-36,-29,47
-35,-29,47
-37,-28,46
-38,-28,45
-37,-28,46
-35,-28,47
-35,-28,47
-35,-29,47
-35,-30,47
-34,-30,46
-34,-30,47
-35,-30,46
-34,-30,47
-34,-30,47
-35,-30,47
-35,-29,46
-35,-30,45
-34,-31,46
-33,-32,46
-32,-31,47
-33,-31,46
-35,-31,46
-34,-31,46
-33,-31,46
-33,-31,46
-34,-31,46
-34,-30,46
-33,-30,46
-34,-31,47
-33,-31,47
-33,-31,47
-33,-31,46
-34,-31,45
-34,-31,46
-33,-31,46
-33,-32,46
-33,-31,47
-34,-30,47
-33,-29,47
-32,-30,47
-33,-31,47
-34,-31,47
-34,-31,46
-35,-32,46
-34,-31,47
-34,-31,46
-34,-31,46
-33,-31,46
-33,-31,46
-33,-32,46
-32,-32,47
-32,-32,46
-32,-32,46
-33,-32,46
-33,-32,46
-32,-32,46
-31,-32,47
-32,-32,47
-32,-32,47
-32,-32,47
-33,-32,46
-33,-31,47
-33,-32,46
-32,-32,47
-32,-32,47
-32,-31,47
-33,-32,46
-32,-32,46
-32,-32,46
-32,-32,46
-32,-32,47
-33,-32,46
-33,-32,46
-32,-31,47
-32,-32,47
-32,-32,47
-33,-32,47
-32,-32,46
-31,-31,46
-32,-32,46
-34,-32,46
-36,-34,45
-37,-34,43
-35,-32,44
-34,-28,45
-34,-27,46
-36,-26,46
-39,-30,45
-39,-32,44
-38,-35,42
-38,-36,41
-35,-34,41
-33,-33,42
-32,-33,45
-34,-34,45
-34,-34,44
-34,-36,43
-33,-36,43
-36,-36,44
-37,-36,43
-34,-34,42
-34,-33,42
-36,-33,42
-37,-32,42
-38,-31,40
-39,-31,38
-40,-29,40
-38,-27,47
-38,-28,50
-37,-29,47
-39,-32,40
-40,-33,37
-46,-34,36
-43,-32,37
-33,-30,45
-27,-31,48
-28,-33,48
-32,-35,45
-35,-35,42
-41,-33,36
-44,-32,36
-45,-34,37
-39,-37,40
-39,-38,39
-37,-40,39
-38,-40,39
-35,-38,38
-36,-39,37
-41,-35,36
-43,-30,36
-42,-27,37
-44,-24,38
-47,-24,38
-46,-28,37
-47,-30,36
-54,-35,33
-52,-38,35
-43,-36,36
-42,-28,32
-47,-25,30
-52,-25,31
-51,-28,33
-50,-35,32
-47,-33,30
-47,-31,29
-47,-28,31
-46,-29,32
-46,-30,33
-48,-30,33
-52,-32,32
-50,-31,33
-50,-31,32
-48,-31,33
-47,-31,34
-47,-30,34
-47,-30,34
-46,-31,34
-47,-31,34
-47,-32,33
-46,-33,33
-46,-33,33
-45,-32,34
-45,-31,35
-45,-31,35
-45,-31,35
-46,-31,35
-45,-31,36
-45,-31,36
-44,-32,36
-44,-32,36
-45,-32,36
-44,-31,37
-44,-31,37
-44,-31,37
-44,-31,37
-44,-31,37
-44,-32,37
-44,-32,37
-44,-31,38
-44,-31,38
-43,-32,37
-43,-31,37
-43,-32,38
-42,-33,38
-42,-33,37
-44,-32,36
-44,-32,36
-44,-31,37
-45,-31,36
-44,-32,36
-43,-32,37
-42,-32,38
-42,-32,38
-42,-32,38
-42,-31,38
-42,-31,38
-42,-32,38
-41,-32,38
-41,-33,39
-42,-32,39
-42,-32,38
-43,-32,38
-43,-32,38
-42,-31,38
-43,-31,38
-43,-31,38
-41,-32,39
-42,-32,39
-42,-32,38
-42,-32,38
-43,-31,38
-43,-31,38
-43,-31,38
-42,-32,38
-42,-32,38
-43,-32,38
-43,-32,38
-42,-32,38
-43,-32,38
-43,-32,37
-43,-31,38
-43,-32,38
-43,-32,38
-43,-32,38
-43,-32,38
-43,-32,37
-43,-32,37
-43,-31,38
-43,-32,38
-43,-32,38
-43,-32,38
-43,-32,37
-43,-32,37
-43,-31,37
-43,-32,37
-43,-32,38
-43,-32,37
-43,-33,37
-43,-33,36
-44,-34,37
-43,-33,38
-41,-32,36
-43,-30,35
-49,-27,36
-48,-26,36
-46,-25,31
-53,-23,31
-52,-23,31
-52,-19,29
-54,-19,28
-55,-22,24
-52,-23,21
-58,-28,21
-54,-31,22
-49,-32,24
-57,-35,24
-69,-37,26
-58,-32,16
-33,-28,20
-69,-41,17
-58,-39,9
-44,-44,14
-53,-50,14
-61,-62,10
-60,-68,11
-58,-68,11
-64,-63,8
-55,-53,11
-49,-48,15
-46,-45,17
-45,-44,16
-44,-43,14
-43,-43,13
-39,-41,11
-35,-36,11
-34,-35,12
-35,-31,13
-35,-29,13
-37,-25,14
-39,-24,14
-45,-27,16
-46,-30,19
-46,-30,19
-47,-29,20
-48,-29,21
-50,-27,24
-51,-27,26
-56,-29,29
-54,-28,33
-53,-27,35
-50,-22,35
-48,-20,34
-46,-16,31
-46,-15,31
-51,-15,28
-52,-17,25
-57,-19,23
-63,-29,24
-65,-32,26
-69,-40,25
-60,-40,26
-61,-42,26
-57,-41,32
-54,-40,32
-44,-31,30
-40,-26,29
-38,-20,26
-39,-17,25
-41,-16,25
-45,-17,27
-48,-17,28
-52,-18,29
-55,-18,29
-62,-19,30
-64,-20,31
-69,-22,31
-75,-28,28
-75,-31,26
-68,-34,19
-59,-32,18
-49,-27,16
-56,-27,14
-58,-31,13
-53,-35,13
-48,-34,14
-47,-29,15
-47,-29,15
-48,-29,15
-48,-29,15
-49,-29,18
-54,-29,18
-57,-30,19
-57,-31,22
-56,-29,22
-56,-26,21
-64,-33,21
-63,-36,22
-60,-37,21
-59,-34,20
-54,-32,19
-51,-34,20
-53,-38,22
-52,-39,22
-51,-37,21
-46,-31,20
-43,-30,20
-46,-29,20
-48,-31,20
-54,-35,22
-58,-39,20
-58,-40,20
-56,-41,21
-54,-39,21
-51,-35,20
-51,-34,20
-50,-36,20
-50,-36,20
-49,-34,20
-51,-30,20
-51,-28,20
-52,-26,20
-53,-26,21
-55,-25,22
-57,-25,23
-58,-24,23
-56,-22,24
-55,-22,25
-56,-21,24
-55,-21,24
-56,-21,23
-56,-22,22
-57,-22,22
-57,-23,22
-58,-24,21
-59,-25,21
-60,-26,21
-59,-27,21
-59,-29,21
-57,-29,21
-56,-29,21
-55,-29,20
-56,-29,20
-55,-28,20
-55,-29,20
-56,-30,20
-55,-30,21
-56,-28,21
-56,-28,21
-55,-28,22
-55,-28,22
-55,-28,22
-55,-28,22
-55,-28,22
-56,-28,22
-55,-27,22
-56,-26,23
-56,-25,23
-58,-26,22
-57,-26,23
-58,-27,22
-58,-27,23
-56,-26,23
-54,-25,22
-55,-25,22
-55,-24,22
-56,-24,22
-56,-24,22
-57,-25,22
-56,-25,23
-55,-25,23
-54,-24,25
-58,-25,33
-70,-26,43
-79,-22,40
-90,-17,44
-93,-19,51
-93,-10,56
-93,0,50
-92,9,41
-61,18,26
-47,21,23
-35,21,21
-30,23,19
-12,19,22
-4,25,27
9,22,28
16,33,47
15,34,45
18,30,31
35,29,22
54,23,24
43,17,10
48,17,-15
48,25,-20
41,26,-20
41,41,-24
36,55,-31
39,76,-23
37,70,-14
19,75,-2
15,69,8
16,63,12
17,55,16
17,52,17
20,49,16
22,47,17
19,46,22
14,40,30
16,43,30
20,49,28
20,49,28
13,49,30
14,55,28
13,62,27
1,65,32
-9,65,33
-23,70,32
-27,68,36
-46,58,44
-45,56,45
-29,53,48
-31,50,44
-29,48,40
-26,45,34
-25,44,33
-26,41,31
-26,43,35
-24,41,38
-22,37,41
-27,37,39
-25,38,40
-24,41,39
-21,47,36
-21,46,34
-29,57,30
-25,55,30
-25,58,26
-29,55,23
-37,51,24
-42,55,24
-47,45,36
-58,9,46
-12,-3,26
29,-3,19
32,-29,19
-51,10,23
-112,-33,25
-90,-19,95
-87,-14,100
-85,-21,65
-78,-25,65
-53,-7,63
-79,-24,21
-81,-34,-12
-72,-32,10
-68,-30,5
-58,-41,-10
-40,-37,-10
-28,-43,2
-30,-40,3
-21,-34,5
-34,-27,-2
-39,-28,4
-35,-23,-3
-38,-27,-5
-56,-40,-16
-39,-38,-13
-17,-42,-8
-34,-56,-1
-30,-59,9
-53,-51,16
-72,-51,19
-92,-67,40
-128,-89,83
-111,-45,77
-37,-5,38
-47,14,29
-19,11,46
-32,-3,55
-49,-28,51
-43,-27,39
-52,-26,29
-59,-35,27
-55,-34,29
-46,-27,35
-43,-22,35
-33,-15,42
-30,-14,50
-30,-8,51
-43,-8,42
-50,-12,41
-49,-7,43
-55,-10,55
-68,-3,59
-56,0,55
-57,-2,37
-68,-7,27
-50,-10,31
-47,-19,30
-43,-26,35
-29,-26,45
-30,-21,35
-36,-20,30
-46,-25,28
-46,-24,29
-88,-16,40
-103,-7,44
-39,-4,71
2,-8,73
-32,-7,46
-47,-17,35
-52,-32,44
-66,-42,39
-48,-36,36
-15,-27,48
-20,-27,50
-32,-29,49
-41,-23,45
-51,-19,44
-60,-17,43
-63,-20,41
-35,-19,47
-31,-20,50
-35,-18,51
-28,-20,47
-30,-23,45
-49,-25,48
-51,-23,46
-41,-19,46
-44,-17,46
-46,-17,45
-46,-22,45
-40,-23,43
-33,-22,43
-38,-23,44
-46,-24,45
-44,-23,43
-43,-22,40
-53,-20,40
-53,-19,41
-47,-16,43
-43,-17,44
-46,-18,44
-50,-19,43
-52,-18,42
-51,-16,40
-50,-15,40
-48,-16,40
-49,-17,40
-45,-18,41
-52,-19,41
-54,-19,41
-43,-17,39
-44,-18,39
-51,-21,37
-53,-21,37
-49,-21,39
-48,-18,40
-48,-15,41
-45,-13,39
-43,-11,41
-61,-15,42
-61,-14,39
-51,-16,37
-52,-19,35
-49,-21,37
-51,-19,37
-50,-17,38
-51,-15,38
-53,-15,38
-52,-14,39
-52,-15,40
-50,-15,40
-50,-15,39
-50,-14,39
-53,-14,37
-53,-13,37
-53,-14,37
-53,-15,37
-53,-14,36
-56,-13,34
-57,-13,34
-55,-12,34
-55,-12,34
-55,-13,35
-54,-13,35
-54,-13,34
-54,-14,34
-55,-13,34
-56,-13,33
-56,-12,32
-58,-12,32
-58,-12,32
-57,-12,32
-57,-13,32
-57,-14,33
-55,-15,33
-53,-15,33
-54,-14,33
-55,-13,33
-55,-13,33
-55,-14,33
-55,-14,34
-56,-14,34
-56,-13,34
-56,-12,32
-57,-12,31
-57,-13,30
-57,-13,30
-57,-13,31
-56,-13,33
-56,-13,33
-55,-12,33
-56,-12,33
-56,-12,32
-56,-13,31
-57,-13,31
-57,-12,31
-56,-12,32
-57,-12,32
-56,-12,32
-57,-12,31
-57,-12,32
-56,-12,32
-57,-12,32
-57,-12,32
-57,-12,31
-57,-12,31
-57,-12,32
-56,-13,32
-57,-13,32
-57,-12,32
-56,-12,33
-56,-12,32
-56,-12,32
-57,-12,31
-57,-12,31
-57,-12,32
-57,-12,32
-57,-12,32
-56,-12,32
-57,-12,31
-57,-12,32
-57,-12,32
-56,-12,32
-57,-12,32
-57,-12,32
-56,-12,32
-57,-12,31
-57,-12,31
-57,-12,32
-57,-12,32
-57,-11,32
-56,-11,32
-57,-11,32
-57,-12,31
-57,-12,30
-57,-12,31
-57,-12,31
-56,-13,31
-56,-13,31
-57,-11,31
-57,-11,31
-57,-11,31
-57,-12,31
-57,-12,31
-57,-12,30
-57,-12,30
-58,-12,31
-57,-12,31
-57,-12,31
-57,-12,31
-57,-11,31
-57,-12,30
-57,-12,31
-57,-12,31
-57,-12,31
-57,-13,31
-57,-12,30
-57,-12,30
-57,-12,30
-57,-12,31
-57,-12,31
-57,-12,31
-57,-11,31
-57,-12,31
-57,-11,30
-57,-11,30
-57,-12,30
-57,-12,31
-57,-12,30
-57,-11,31
-58,-11,31
-57,-11,31
-57,-12,31
-57,-11,31
-58,-11,31
-57,-11,31
-57,-11,31
-58,-11,31
-58,-11,31
-57,-11,30
-57,-11,30
-57,-11,30
-57,-11,31
-57,-11,31
-57,-11,31
-57,-11,31
-57,-11,31
-57,-11,31
-57,-11,31
-57,-11,31
-57,-11,31
-57,-11,31
-57,-11,31
-57,-11,31
-57,-11,31
-57,-11,31
-57,-11,31
-57,-11,30
-57,-11,31
-57,-11,31
-57,-11,31
-57,-11,30
-58,-11,31
-57,-11,31
-58,-11,30
-58,-11,30
-57,-11,30
-57,-11,31
-58,-11,31
-57,-11,30
-57,-11,30
-57,-11,31
-57,-11,31
-57,-11,31
-58,-11,31
-58,-11,30
-57,-11,30
-58,-11,30
-58,-11,30
-58,-11,30
-58,-11,31
-58,-11,30
-57,-11,30
-58,-11,30
-58,-11,30
-58,-11,30
-57,-11,30
-58,-11,30
-58,-11,30
-57,-11,31
-58,-12,30
-58,-11,30
-58,-11,30
-57,-11,30
-57,-11,30
-58,-11,30
-58,-11,30
-58,-11,30
-58,-11,30
-58,-11,30
-58,-11,30
-58,-11,30
-58,-11,30
-58,-11,30
-58,-11,30
-58,-11,30
-58,-11,30
-58,-11,30
-58,-11,30
-57,-11,30
-58,-11,30
-58,-11,30
-58,-11,30
-58,-11,30
-58,-11,30
-58,-11,30
-58,-11,30
-58,-11,30
-58,-11,30
-58,-11,30
-58,-11,30
-58,-11,30
-58,-11,30
-57,-11,30
-58,-11,30
-58,-11,30
-58,-11,30
-58,-11,30
-58,-11,30
-57,-11,30
-58,-11,30
-58,-11,30
-58,-11,30
-58,-11,30
-58,-11,30
-58,-11,30
-58,-11,30
-58,-11,30
-58,-11,30
-58,-11,30
-57,-11,30
-57,-11,30
-58,-11,30
-58,-10,30
-58,-11,30
-58,-11,29
-58,-11,29
-58,-11,29
-58,-11,30
-58,-11,30
-58,-11,30
-58,-11,30
-58,-10,30
-58,-11,30
-58,-10,30
-58,-11,29
-58,-11,30
-58,-11,30
-58,-11,30
-58,-10,30
-58,-10,29
-58,-10,30
-58,-10,30
-58,-11,29
-58,-11,29
-58,-11,29
-58,-11,30
-58,-11,30
-58,-11,29
-59,-10,29
-59,-10,29
-58,-10,29
-61,-11,31
-62,-11,35
-69,-17,40
-79,-22,51
-96,-20,55
-112,1,47
-97,5,52
-93,21,47
-75,31,25
-55,36,13
-29,45,14
-35,40,8
-27,33,-1
-8,31,9
-13,28,14
1,25,23
-7,25,27
-17,21,30
5,15,36
41,1,32
28,-2,21
64,-3,-4
112,30,-34
99,51,-40
46,68,-34
63,49,-28
61,103,-35
33,86,-20
18,57,4
15,45,18
15,32,34
24,23,41
14,25,33
12,19,46
15,19,49
15,25,49
13,35,46
11,38,36
23,45,35
31,44,44
17,45,30
34,39,42
27,38,41
34,44,37
42,43,42
34,48,30
34,47,22
57,40,33
56,34,31
37,29,10
50,31,6
59,22,12
53,19,13
49,26,5
59,23,5
65,22,5
60,23,8
61,27,15
61,29,16
53,33,2
56,32,1
53,33,1
55,34,-2
53,36,-6
47,40,-6
43,41,-2
41,50,-2
40,54,2
27,61,11
20,72,16
16,73,19
1,74,24
-11,75,23
-18,78,19
-12,75,19
-17,62,13
-16,46,27
-23,46,26
-26,36,25
-23,28,29
-12,35,42
-10,45,47
-30,51,34
-30,59,39
-14,61,44
-18,58,39
-20,57,33
-29,47,31
-27,47,33
-22,49,44
-20,53,36
-15,55,33
-29,50,33
-26,52,36
-15,53,34
-17,53,32
-15,48,41
-24,53,34
-19,55,38
-30,60,19
-30,56,24
-12,49,38
-9,52,37
-15,50,34
-15,53,32
-16,55,31
-18,54,32
-15,53,35
-16,52,35
-16,52,37
-16,50,37
-14,55,35
-17,55,35
-20,54,33
-21,57,27
-22,59,29
-17,59,32
-7,62,32
-5,54,37
-11,57,33
9,56,33
7,57,35
0,49,33
-8,53,22
8,53,24
13,48,29
13,48,27
10,56,29
15,58,29
8,54,28
11,57,30
8,59,26
6,59,31
11,57,34
1,59,33
4,58,36
0,56,37
0,57,34
2,55,33
4,54,32
3,55,31
7,56,31
5,56,31
7,59,34
8,61,35
2,59,35
0,58,35
1,57,34
5,57,30
8,56,29
22,58,25
19,54,24
23,52,20
34,54,16
32,53,15
33,55,13
37,56,15
27,52,18
21,51,16
20,50,13
32,47,17
41,53,18
38,60,17
29,57,18
23,52,19
24,49,15
46,43,0
37,52,17
21,49,12
32,53,21
36,52,18
32,56,22
30,53,26
30,58,33
19,55,25
14,56,20
25,58,20
28,54,22
25,47,31
19,56,23
19,56,24
28,51,31
17,54,23
25,49,31
28,48,30
17,52,25
27,48,19
38,42,20
41,37,36
19,52,24
24,47,24
47,45,35
32,50,25
27,42,34
25,41,30
47,43,30
46,35,31
47,45,26
64,56,31
32,48,16
39,37,30
22,27,29
29,31,28
34,40,7
43,51,-8
20,56,-13
21,69,48
0,75,49
-67,78,14
-5,69,37
18,48,53
8,49,51
-24,52,29
7,61,30
1,50,31
1,55,29
-4,54,29
0,59,31
7,63,31
7,61,30
2,60,26
9,55,24
6,54,27
5,58,31
10,59,29
11,56,26
5,57,27
9,57,31
12,61,26
15,59,26
7,52,26
8,45,31
8,58,39
11,61,40
10,56,32
11,61,26
9,62,24
15,57,21
16,57,22
11,54,22
15,55,24
13,55,27
17,62,24
21,66,24
13,61,22
12,59,26
11,58,36
11,58,37
10,60,41
9,72,40
10,73,39
13,70,27
18,69,21
34,55,14
37,50,11
58,40,15
40,33,14
34,30,11
36,23,13
34,23,12
47,24,14
55,25,22
34,30,17
62,35,25
50,31,18
60,30,21
57,30,20
48,35,10
45,32,9
37,27,23
68,33,27
59,33,27
44,30,17
47,28,18
49,35,19
56,35,22
59,36,24
54,33,25
52,31,22
51,29,23
48,28,25
43,31,19
46,30,17
58,29,24
48,20,22
46,25,22
54,34,17
45,34,15
33,27,14
45,34,10
33,34,15
7,51,26
4,53,40
-3,70,47
5,75,45
12,66,33
11,62,37
20,61,38
10,52,32
9,52,32
16,55,31
6,55,29
16,52,37
16,51,33
10,55,26
19,60,30
20,60,32
13,59,33
11,57,31
14,55,33
13,57,33
19,57,32
14,56,29
15,57,26
13,50,25
22,51,27
25,55,22
21,52,23
20,55,27
16,56,30
15,56,31
17,58,29
17,55,29
17,52,29
16,55,30
13,55,28
13,49,24
12,48,22
20,54,24
23,56,25
26,62,21
24,60,21
17,55,19
31,54,24
34,52,28
24,54,25
23,54,27
23,53,28
21,53,25
19,50,25
18,46,22
18,43,23
17,38,21
17,36,20
10,39,20
5,46,19
6,49,18
-16,54,30
-27,68,31
-40,67,38
-47,64,41
-50,61,42
-48,60,37
-45,58,36
-41,57,29
-38,57,26
-39,52,22
-41,49,22
-40,45,22
-39,48,25
-39,48,26
-38,44,29
-35,42,30
-36,42,28
-35,43,28
-33,45,27
-35,46,26
-35,47,25
-36,49,22
-37,53,20
-39,54,21
-46,48,24
-46,45,25
-45,42,26
-44,41,25
-35,44,25
-34,46,24
-36,48,24
-35,48,26
-39,47,26
-41,47,26
-41,48,26
-43,49,25
-41,49,25
-39,48,24
-38,47,23
-35,47,22
-35,48,21
-35,46,20
-37,45,21
-38,46,22
-40,49,23
-41,49,24
-42,50,25
-41,49,24
-40,47,24
-38,47,23
-38,48,22
-38,48,22
-38,48,21
-38,49,22
-39,47,22
-39,47,22
-39,46,22
-39,47,22
-40,48,22
-40,48,23
-41,47,23
-40,48,22
-40,48,23
-39,48,23
-39,47,22
-39,48,22
-39,48,22
-39,49,22
-40,47,22
-41,46,23
-42,46,23
-42,46,24
-38,47,24
-38,47,23
-36,48,24
-37,47,24
-37,47,23
-38,48,23
-38,48,23
-40,48,22
-39,47,23
-40,47,22
-38,48,22
-38,48,23
-39,48,23
-38,48,22
-38,49,22
-38,49,22
-38,50,22
-38,50,22
-39,47,23
-41,45,24
-41,45,25
-37,45,26
-36,46,24
-36,51,23
-37,52,22
-40,51,22
-45,49,21
-44,47,22
-42,45,23
-39,45,23
-35,45,24
-34,47,24
-34,47,25
-37,47,24
-38,49,23
-40,52,22
-42,51,23
-45,47,23
-44,43,23
-42,43,23
-37,45,23
-36,45,23
-36,47,24
-38,48,24
-39,48,24
-41,48,23
-41,48,23
-41,48,22
-40,48,22
-40,47,22
-40,46,22
-39,46,22
-39,46,22
-39,46,23
-39,47,23
-40,47,23
-40,47,24
-40,48,24
-41,48,23
-40,47,23
-40,47,23
-40,47,23
-39,47,22
-39,46,22
-39,47,22
-39,47,22
-39,48,22
-39,48,22
-39,48,23
-40,47,23
-40,47,23
-40,47,23
-40,47,22
-39,47,22
-40,47,22
-40,47,22
-40,47,22
-39,48,22
-39,48,22
-39,49,22
-40,48,22
-39,48,22
-39,48,22
-40,49,21
-40,49,22
-40,48,22
-40,48,22
-40,48,22
-40,49,22
-39,49,21
-39,48,21
-39,48,21
-37,47,22
-37,47,22
-36,48,22
-36,48,22
-37,49,22
-38,49,22
-39,49,23
-41,49,23
-41,49,24
-42,50,24
-41,50,25
-42,51,28
-45,54,30
-55,63,32
-49,68,29
-46,72,26
-29,68,21
-20,64,19
-3,60,16
2,55,12
21,48,12
23,42,14
27,40,15
27,42,15
26,41,17
28,45,21
32,46,24
20,42,21
39,44,26
49,42,35
30,44,32
24,45,27
44,49,29
42,50,26
31,43,28
36,41,32
35,42,28
36,41,22
39,41,24
32,44,25
30,47,28
40,44,30
34,45,27
34,44,29
36,48,27
34,48,26
29,46,24
28,44,22
46,43,25
31,44,23
34,46,26
23,46,30
38,49,30
37,52,27
34,52,22
35,53,17
30,46,32
29,44,33
33,47,30
30,44,32
33,43,35
32,44,33
35,44,39
32,50,27
35,53,28
33,47,36
25,46,37
37,49,33
35,43,31
22,39,28
27,40,31
30,40,33
26,36,29
29,44,23
35,43,16
39,45,14
35,53,20
37,60,15
44,62,18
42,64,22
46,58,35
17,43,32
40,46,29
28,47,27
27,49,28
32,48,30
26,51,27
28,51,27
26,50,26
25,47,30
18,48,31
23,50,31
25,51,30
23,50,25
31,50,25
22,52,26
25,50,26
26,49,27
27,54,24
27,56,24
26,58,24
25,59,26
21,58,26
20,59,25
20,58,25
19,57,24
18,57,24
18,57,24
17,56,24
16,56,25
16,57,26
16,57,26
16,57,25
16,57,25
16,57,24
17,58,24
16,58,24
15,58,25
15,58,25
15,56,26
14,57,25
16,57,25
15,57,25
14,59,24
15,59,26
12,58,27
7,59,27
5,59,27
2,59,25
0,60,25
-3,57,26
2,56,29
4,57,29
3,58,29
3,58,28
3,59,27
3,60,27
3,60,27
2,60,26
2,60,26
2,58,26
1,58,26
1,58,27
3,58,27
3,59,28
2,59,27
2,59,28
1,58,28
1,58,28
1,58,29
2,58,29
2,58,27
3,60,26
4,60,26
4,59,25
3,59,25
3,58,26
2,58,26
2,59,27
2,60,28
2,59,28
2,59,28
2,59,27
2,59,27
3,59,26
3,59,27
3,59,26
3,59,26
3,59,27
3,59,27
2,59,27
3,59,26
3,59,26
3,59,26
3,59,26
3,59,27
3,59,27
3,59,27
3,59,26
3,59,26
3,59,26
4,59,26
4,59,27
3,59,27
3,59,27
3,59,27
3,59,27
3,59,27
3,59,26
3,59,27
3,59,27
3,59,27
3,59,27
4,59,27
4,58,28
6,55,30
7,56,25
5,59,23
3,65,24
2,65,24
-1,62,26
0,60,26
4,59,25
12,62,23
17,63,30
-1,53,29
-9,59,26
-14,57,21
-17,57,20
-16,57,20
-12,59,23
-8,61,26
-3,64,27
7,79,33
9,85,35
37,103,26
48,102,30
24,69,52
-3,46,42
-35,14,26
-27,7,37
-34,10,43
-35,15,35
-31,15,34
-23,20,34
-24,22,36
-21,27,43
-17,33,48
-19,36,46
-20,34,42
-18,34,43
-20,38,46
-16,31,45
-10,28,45
-17,36,45
-9,31,49
-4,36,55
-13,42,58
-10,39,61
-5,40,66
-21,43,64
-20,44,62
-15,43,65
-29,36,57
-28,37,56
-22,36,57
-25,34,56
-31,31,51
-35,31,48
-36,31,48
-36,31,48
-36,31,47
-36,32,47
-36,32,47
-36,31,46
-36,30,46
-35,30,46
-36,30,46
-37,30,46
-35,30,46
-36,30,45
-36,30,46
-38,31,44
-39,30,45
-38,30,45
-38,30,45
-39,30,45
-38,30,45
-37,31,44
-37,31,43
-37,32,43
-39,32,43
-40,32,43
-40,31,43
-41,30,43
-40,30,44
-40,30,43
-39,30,43
-38,30,43
-39,30,43
-39,30,43
-40,30,43
-40,30,43
-39,30,43
-40,30,43
-39,30,43
-39,30,43
-40,31,43
-40,30,43
-40,30,42
-40,31,42
-40,31,42
-41,31,43
-41,31,43
-41,30,43
-40,30,44
-40,29,42
-38,28,42
-38,29,42
-38,30,42
-38,31,41
-40,30,41
-41,30,41
-41,29,41
-42,31,42
-42,31,43
-41,31,43
-40,32,40
-39,33,42
-39,33,41
-40,32,41
-41,31,41
-42,31,41
-41,31,41
-41,31,41
-41,31,41
-42,31,41
-41,31,42
-42,32,42
-42,32,42
-41,32,40
-41,32,40
-39,32,38
-39,32,38
-38,31,37
-37,30,37
-38,29,38
-45,27,38
-47,30,39
-47,34,38
-47,34,36
-46,33,35
-42,31,34
-42,31,34
-42,30,35
-46,30,34
-51,32,34
-51,34,34
-53,35,33
-51,33,34
-50,30,34
-46,29,34
-46,28,35
-51,27,36
-52,27,34
-50,30,33
-51,31,32
-52,31,31
-50,30,30
-50,30,30
-48,31,30
-49,30,30
-48,29,31
-48,28,32
-49,29,32
-49,29,32
-50,29,33
-55,28,33
-52,28,33
-51,29,32
-52,30,31
-51,30,31
-51,28,29
-50,27,29
-44,26,29
-43,26,29
-38,24,29
-62,14,29
-66,16,31
-65,19,33
-66,23,30
-57,28,30
-55,27,28
-54,25,27
-48,25,26
-47,22,26
-53,17,26
-62,13,26
-63,16,28
-61,19,30
-62,20,28
-61,21,29
-59,21,30
-59,20,30
-57,20,30
-54,22,29
-52,23,28
-52,23,27
-51,22,26
-51,21,25
-46,20,23
-42,20,23
-40,15,24
-50,6,27
-57,0,28
-71,-2,28
-70,1,27
-59,4,32
-61,3,32
-66,1,27
-63,-1,26
-61,-6,28
-79,-17,42
-74,-18,41
-55,-19,41
-46,-15,37
-55,-12,27
-62,-12,28
-61,-12,29
-56,-11,30
-56,-12,33
-57,-12,33
-57,-12,32
-56,-13,31
-58,-13,32
-60,-12,32
-54,-11,31
-56,-11,31
-55,-15,34
-51,-17,34
-52,-20,32
-54,-17,30
-56,-15,32
-57,-12,35
-56,-11,34
-54,-13,34
-54,-13,33
-57,-15,31
-59,-12,31
-57,-10,31
-58,-10,32
-57,-11,34
-52,-15,36
-52,-16,34
-52,-18,32
-60,-16,29
-58,-14,29
-57,-13,28
-59,-12,27
-59,-13,28
-57,-14,30
-57,-14,32
-57,-14,31
-57,-13,30
-58,-12,29
-60,-12,28
-60,-12,29
-58,-13,29
-56,-14,30
-54,-14,32
-55,-13,33
-58,-11,33
-58,-11,33
-57,-14,29
-57,-16,28
-56,-16,28
-59,-13,28
-59,-12,28
-58,-11,30
-58,-11,30
-57,-11,32
-57,-10,32
-57,-11,31
-58,-11,30
-59,-11,30
-58,-12,31
-57,-13,31
-55,-15,32
-56,-14,31
-56,-13,31
-56,-14,30
-56,-15,30
-57,-16,31
-57,-15,32
-55,-14,32
-56,-13,32
-56,-11,31
-57,-12,33
-57,-12,33
-55,-10,32
-56,-11,33
-54,-13,36
-55,-13,35
-56,-14,32
-57,-12,30
-55,-10,31
-56,-7,33
-58,-7,34
-55,-8,36
-57,-9,31
-58,-11,32
-57,-14,33
-54,-15,34
-52,-16,36
-52,-16,35
-55,-15,33
-56,-13,31
-57,-13,31
-57,-13,32
-56,-14,32
-56,-13,31
-57,-12,30
-58,-12,30
-58,-12,31
-57,-12,31
-57,-11,33
-57,-11,33
-55,-13,34
-55,-13,34
-56,-13,32
-57,-12,30
-57,-12,30
-57,-12,31
-58,-12,31
-56,-11,33
-57,-11,33
-56,-11,33
-56,-11,33
-56,-11,32
-56,-12,33
-56,-11,33
-56,-12,33
-56,-11,33
-56,-11,32
-56,-11,33
-56,-11,33
-56,-11,33
-56,-11,33
-56,-12,33
-56,-12,33
-56,-12,33
-56,-12,33
-56,-12,33
-56,-12,33
-56,-12,33
-56,-12,32
-56,-12,33
-56,-12,33
-56,-12,33
-56,-12,33
-56,-11,32
-56,-12,33
-56,-12,33
-56,-12,33
-56,-12,32
-56,-12,33
-56,-11,33
-56,-12,33
-56,-12,32
-56,-13,33
-57,-12,33
-55,-11,34
-53,-11,33
-55,-11,33
-57,-12,32
-56,-12,33
-56,-13,34
-55,-13,34
-55,-12,34
-56,-11,33
-56,-11,34
-55,-11,34
-55,-11,33
-55,-11,33
-55,-11,32
-55,-10,32
-58,-10,35
-58,-10,35
-56,-12,33
-56,-13,33
-56,-11,31
-57,-11,31
-56,-10,33
-55,-11,34
-55,-12,34
-55,-13,33
-55,-12,33
-55,-12,34
-55,-12,34
-55,-11,34
-56,-11,33
-56,-11,33
-56,-11,33
-57,-11,33
-56,-11,33
-56,-11,33
-56,-11,33
-56,-11,33
-56,-11,33
-55,-11,33
-55,-12,34
-56,-11,33
-55,-12,33
-55,-12,34
-57,-12,32
-56,-11,32
-57,-11,32
-56,-11,33
-56,-11,33
-56,-11,33
-56,-11,33
-56,-11,32
-56,-12,33
-55,-12,33
-57,-12,32
-56,-11,33
-56,-11,33
-59,-11,32
-54,-13,35
-55,-12,33
-56,-12,31
-55,-12,33
-56,-12,33
-55,-11,33
-55,-11,33
-56,-12,33
-56,-11,34
-55,-12,34
-56,-11,33
-56,-12,34
-55,-11,33
-56,-11,32
-57,-11,33
-57,-11,33
-55,-12,34
-56,-12,34
-56,-11,34
-56,-11,33
-55,-11,34
-55,-11,34
-55,-12,34
-56,-11,33
-56,-12,33
-55,-12,33
-56,-12,34
-56,-12,32
-56,-11,33
-55,-11,34
-56,-12,33
-56,-11,33
-56,-12,33
-55,-12,33
-56,-12,33
-55,-12,33
-56,-11,33
-56,-12,33
-56,-11,33
-55,-12,33
-56,-12,33
-56,-12,33
-56,-12,33
-56,-12,33
-56,-12,33
-56,-11,33
-56,-11,33
-56,-11,33
-56,-12,33
-56,-12,33
-55,-12,33
-56,-12,33
-55,-12,33
-56,-12,33
-56,-12,33
-56,-12,33
-56,-12,33
-56,-12,33
-56,-12,33
-56,-12,33
-56,-12,33
-56,-12,33
-56,-12,33
-56,-12,33
-56,-12,33
-56,-12,33
-56,-12,33
-56,-12,33
-56,-12,33
-56,-12,33
-56,-12,33
-56,-12,33
-56,-12,33
-56,-12,34
-55,-11,34
-56,-12,33
-56,-12,33
-56,-12,33
-56,-12,33
-56,-11,33
-55,-11,34
-56,-12,33
-55,-12,34
-56,-12,34
-56,-12,34
-56,-12,34
-56,-12,33
-56,-12,33
-56,-12,34
-56,-12,34
-55,-11,33
-56,-12,34
-56,-12,34
-55,-11,34
-55,-11,34
-55,-12,34
-55,-12,33
-56,-12,34
-55,-12,34
-55,-12,34
-56,-12,33
-55,-12,35
-55,-11,34
-56,-12,33
-56,-12,33
-55,-12,34
-55,-11,34
-55,-12,34
-55,-12,34
-55,-12,33
-55,-12,34
-56,-12,34
-55,-12,34
-55,-11,34
-55,-12,34
-55,-12,34
-56,-12,34
-55,-12,34
-55,-12,34
-56,-12,34
-55,-11,34
-55,-11,34
-55,-12,34
-56,-12,34
-56,-12,34
-55,-12,34
-55,-12,34
-55,-12,34
-55,-12,34
-55,-12,34
-55,-12,34
-55,-12,34
-55,-12,34
-55,-12,34
-55,-12,34
-55,-12,34
-56,-12,34
-55,-12,34
-55,-12,34
-55,-12,34
-56,-12,34
-55,-12,34
-55,-11,34
-55,-12,34
-55,-12,34
-55,-12,34
-55,-12,34
-55,-11,34
-55,-12,34
-55,-12,34
-55,-12,34
-55,-11,34
-55,-11,34
-55,-12,34
-55,-12,34
-55,-12,34
-55,-12,34
-55,-12,34
-55,-12,34
-55,-12,34
-55,-12,34
-55,-12,34
-55,-12,34
-55,-12,34
-55,-12,33
-56,-12,34
-56,-12,34
-55,-12,34
-55,-12,34
-55,-12,34
-55,-12,34
-55,-12,34
-55,-12,34
-55,-12,34
-55,-12,34
-55,-12,34
-55,-12,34
-56,-11,33
-55,-12,34
-55,-12,34
-56,-12,34
-56,-12,34
-55,-12,34
-55,-12,34
-55,-12,34
-55,-12,33
-55,-12,34
-55,-12,34
-55,-12,34
-55,-13,34
-55,-12,34
-55,-12,35
-56,-13,34
-58,-14,34
-51,-12,35
-53,-12,34
-57,-12,33
-57,-12,33
-53,-15,35
-54,-16,34
-55,-15,33
-55,-14,33
-56,-14,32
-55,-15,33
-54,-16,34
-55,-14,33
-56,-12,33
-57,-12,33
-55,-12,33
-55,-12,33
-56,-12,33
-56,-12,34
-55,-12,34
-55,-12,33
-55,-11,33
-57,-11,33
-56,-11,33
-56,-11,34
-56,-11,34
-56,-11,34
-55,-11,34
-55,-11,34
-55,-12,34
-55,-13,34
-56,-13,34
-56,-12,34
-55,-11,34
-54,-12,34
-54,-13,34
-54,-14,34
-54,-14,33
-56,-13,33
-57,-12,34
-54,-12,35
-55,-13,35
-55,-13,34
-54,-11,34
-54,-12,34
-57,-12,34
-55,-12,35
-53,-12,35
-57,-12,33
-56,-13,34
-54,-11,36
-56,-11,35
-57,-11,35
-55,-12,36
-52,-12,36
-54,-13,34
-55,-14,34
-55,-15,34
-55,-15,34
-54,-14,35
-55,-13,35
-55,-12,35
-55,-12,34
-54,-12,35
-54,-13,35
-54,-14,34
-55,-14,33
-57,-12,33
-56,-11,34
-53,-12,35
-54,-13,36
-55,-14,35
-55,-13,35
-55,-12,35
-55,-11,35
-55,-11,34
-54,-12,34
-54,-12,34
-55,-12,34
-55,-12,34
-55,-13,35
-54,-12,35
-55,-12,35
-55,-12,35
-54,-12,35
-54,-13,35
-55,-13,36
-55,-12,39
-58,-14,43
-62,-17,43
-71,-12,44
-80,-11,45
-92,-3,39
-77,0,43
-65,3,40
-66,9,30
-55,15,33
-47,21,35
-57,25,28
-42,28,37
-42,33,34
-33,38,30
-28,32,39
-39,31,27
-32,30,26
-38,30,23
-34,34,26
-30,34,31
-36,40,26
-29,37,36
-33,37,37
-32,42,36
-34,41,39
-32,37,43
-30,31,44
-31,28,42
-30,27,43
-27,27,44
-23,26,49
-25,26,46
-23,26,48
-21,31,48
-24,29,50
-23,27,49
-25,25,47
-27,23,51
-29,23,51
-31,22,49
-33,25,48
-32,23,53
-30,16,49
-37,18,47
-34,19,51
-29,23,52
-35,27,53
-35,27,53
-40,27,54
-41,27,53
-39,27,52
-44,31,55
-42,34,56
-43,40,58
-50,41,55
-40,39,64
-38,39,59
-34,39,54
-32,36,54
-27,37,48
-26,29,48
-26,28,45
-26,20,41
-31,19,32
-39,24,23
-52,30,10
-56,30,12
-52,28,21
-54,30,20
-53,30,20
-57,34,16
-55,32,16
-56,30,21
-56,28,19
-50,25,18
-53,26,16
-47,30,22
-62,35,12
-55,33,17
-56,30,16
-51,30,20
-58,31,17
-56,31,20
-51,32,24
-57,31,19
-54,30,21
-53,35,19
-56,38,15
-53,40,13
-55,41,10
-54,43,8
-54,44,3
-54,45,2
-46,43,3
-45,43,0
-47,44,-3
-46,42,-7
-44,45,-1
-43,46,-1
-45,46,-1
-47,50,1
-47,53,2
-43,50,6
-39,48,9
-39,48,11
-39,49,11
-39,50,11
-35,51,11
-37,52,11
-40,50,8
-37,48,9
-33,52,11
-35,54,12
-28,56,15
-34,60,16
-35,60,17
-34,62,21
-36,60,18
-35,57,19
-32,53,22
-30,53,21
-27,52,20
-26,52,21
-22,53,22
-21,55,21
-20,56,22
-16,57,28
-17,57,26
-16,56,26
-18,54,27
-14,53,27
-14,52,26
-14,55,26
-11,55,30
-13,55,29
-16,57,30
-16,58,31
-17,60,29
-21,58,30
-22,56,32
-25,58,26
-23,57,26
-21,55,26
-23,55,25
-23,56,24
-22,56,22
-26,55,20
-22,54,26
-21,56,24
-25,57,21
-27,56,22
-25,57,23
-31,57,20
-34,57,18
-33,58,18
-36,60,17
-36,65,22
-31,67,21
-12,62,36
-11,58,37
-23,56,24
-21,55,10
-28,52,0
-21,48,8
-24,43,17
-26,41,22
-14,49,17
-14,53,14
-28,54,10
-28,56,10
-19,54,19
-24,53,20
-28,53,19
-19,55,20
-23,54,19
-33,61,21
-33,60,22
-34,56,20
-37,54,19
-37,58,21
-37,59,18
-40,61,14
-44,63,9
-45,62,10
-44,57,8
-43,55,4
-42,53,0
-36,50,-1
-35,47,-3
-35,45,-4
-34,44,0
-31,42,7
-29,43,8
-30,50,10
-25,55,12
-24,57,14
-29,54,12
-31,57,10
-34,58,7
-36,54,7
-38,52,10
-44,54,7
-48,53,6
-48,53,7
-48,53,8
-49,52,7
-48,51,7
-49,46,7
-50,45,4
-50,44,3
-49,44,3
-48,44,3
-49,45,2
-48,45,3
-47,45,2
-49,45,3
-48,46,3
-48,46,1
-49,46,0
-47,46,1
-48,46,0
-49,46,-1
-47,45,0
-47,45,0
-47,44,1
-47,44,1
-48,45,2
-48,45,3
-47,45,4
-48,45,4
-49,46,3
-48,46,5
-48,46,6
-47,45,7
-46,44,9
-45,43,11
-43,42,14
-43,43,15
-44,44,16
-43,44,15
-43,44,14
-42,44,13
-50,44,7
-47,44,6
-48,43,7
-51,43,6
-48,44,6
-45,44,6
-49,44,1
-51,44,-3
-50,44,-8
-50,42,-9
-54,40,-8
-53,41,-8
-52,40,-7
-54,41,-8
-52,41,-9
-52,42,-10
-51,43,-10
-50,44,-12
-51,44,-14
-47,45,-15
-48,43,-16
-46,43,-15
-43,43,-15
-45,42,-15
-45,42,-13
-44,43,-13
-45,43,-13
-46,45,-14
-45,45,-14
-44,45,-14
-44,45,-14
-43,45,-17
-45,45,-20
-41,47,-17
-40,47,-15
-43,46,-16
-45,45,-15
-44,45,-15
-42,45,-16
-44,45,-17
-42,48,-18
-40,49,-15
-41,48,-15
-40,50,-17
-38,49,-17
-39,48,-17
-38,49,-18
-40,47,-20
-40,48,-19
-37,48,-18
-40,47,-19
-40,46,-20
-40,47,-22
-40,47,-21
-41,48,-19
-40,49,-19
-40,47,-18
-40,48,-19
-40,47,-18
-40,46,-18
-40,46,-18
-39,47,-20
-40,46,-19
-41,45,-20
-43,47,-21
-39,47,-21
-46,43,-21
-50,44,-24
-39,50,-22
-37,46,-15
-36,44,-14
-36,42,-10
-41,43,-11
-49,48,-13
-46,51,-11
-41,50,-7
-47,51,-7
-45,51,-7
-41,48,-2
-45,47,-2
-51,49,-7
-46,48,-5
-44,47,0
-46,47,-1
-45,46,0
-47,45,0
-49,45,-1
-48,46,-2
-44,47,1
-46,46,3
-45,47,4
-43,47,6
-41,47,8
-41,46,8
-47,46,4
-50,46,2
-49,46,3
-49,46,4
-52,46,3
-44,46,9
-43,46,11
-37,46,14
-39,46,11
-54,47,2
-46,47,8
-44,48,10
-50,48,6
-52,47,6
-38,48,16
-36,46,19
-46,49,12
-40,48,17
-35,47,22
-35,47,22
-36,47,22
-37,47,22
-40,47,21
-41,47,20
-42,47,20
-44,47,18
-43,47,19
-43,47,19
-41,48,19
-41,47,20
-40,47,20
-40,47,20
-40,47,20
-39,47,20
-39,47,19
-42,47,15
-44,47,14
-45,46,13
-45,46,13
-45,46,12
-46,46,11
-46,46,10
-46,46,9
-46,46,8
-46,46,8
-47,46,5
-48,46,5
-48,45,4
-48,45,4
-49,46,3
-46,45,3
-47,45,3
-47,46,2
-47,46,2
-47,46,2
-47,46,2
-47,46,3
-48,46,2
-48,46,2
-46,46,2
-47,46,2
-47,45,2
-47,46,2
-47,45,2
-47,45,2
-46,45,2
-47,45,2
-47,45,1
-46,46,1
-47,45,1
-47,45,0
-48,45,0
-48,46,0
-47,45,0
-47,45,0
-47,45,0
-47,45,0
-48,45,0
-48,45,1
-48,45,1
-47,45,1
-47,44,1
-48,44,0
-49,44,0
-48,44,0
-49,45,-1
-49,45,-2
-48,45,0
-48,44,0
-48,44,0
-48,44,0
-48,44,0
-48,44,0
-49,44,0
-48,44,0
-48,44,0
-48,44,1
-48,44,0
-49,44,0
-49,44,0
-49,44,1
-48,44,1
-49,44,1
-48,44,1
-48,44,1
-48,44,1
-49,44,1
-49,44,1
-48,43,2
-46,43,2
-48,43,1
-49,44,2
-48,43,3
-50,44,1
-51,43,1
-51,43,3
-52,44,3
-49,44,3
-50,43,3
-49,43,3
-48,43,4
-48,43,4
-49,43,3
-49,44,3
-47,44,3
-48,43,3
-49,43,4
-50,44,2
-50,44,2
-49,44,3
-49,44,3
-49,44,2
-49,44,2
-49,43,2
-46,45,3
-48,43,2
-52,43,3
-47,41,3
-53,46,1
-46,43,4
-49,44,3
-53,44,3
-48,43,2
-45,41,4
-49,40,2
-55,44,1
-49,44,3
-49,43,1
-51,42,1
-49,43,1
-49,43,2
-48,42,3
-52,42,2
-51,42,3
-50,42,4
-49,42,3
-49,43,2
-50,42,3
-49,42,3
-50,43,2
-49,43,2
-49,42,2
-50,43,1
-49,43,2
-50,40,3
-47,40,6
-53,44,2
-54,43,-2
-51,43,0
-50,43,1
-50,43,1
-49,41,3
-52,40,1
-52,42,0
-50,42,1
-51,42,0
-49,41,-1
-47,40,1
-55,40,-1
-51,41,1
-52,41,0
-51,42,-1
-51,42,-1
-46,39,-3
-43,39,-2
-61,40,-5
-56,40,0
-49,41,2
-52,40,-4
-56,39,-7
-54,40,-3
-53,41,1
-50,40,1
-52,40,-1
-54,39,-3
-52,40,-2
-50,40,-2
-51,40,-3
-52,40,-3
-52,40,-2
-52,40,-2
-52,40,-2
-53,40,-2
-53,40,-2
-53,40,-2
-52,40,-2
-52,40,-2
-52,40,-2
-52,40,-2
-52,40,-2
-51,40,-2
-52,40,-2
-51,40,-2
-52,40,-2
-52,40,-2
-52,40,-1
-52,40,-1
-52,40,-1
-52,40,-1
-52,40,-2
-52,40,-2
-52,40,-1
-52,40,-1
-52,40,-1
-52,40,-1
-52,40,-1
-51,40,-1
-52,40,0
-52,40,-1
-52,40,-1
-51,40,0
-52,40,-1
-52,40,-1
-52,40,-1
-52,41,-1
-52,40,-1
-51,40,0
-52,39,0
-52,40,-1
-52,40,0
-53,40,-1
-52,40,0
-52,40,-1
-52,40,-1
-52,40,-1
-53,40,-1
-52,40,-1
-52,40,-1
-52,40,-1
-52,40,-1
-51,40,-1
-52,40,-1
-51,40,-1
-52,40,-2
-52,39,-2
-57,40,-4
-54,40,-2
-50,41,3
-51,41,4
-50,41,4
-50,40,4
-51,40,4
-52,40,4
-52,40,4
-53,40,4
-53,39,2
-52,40,1
-49,39,0
-49,38,0
-51,42,1
-52,43,2
-52,43,2
-53,43,1
-53,42,0
-52,40,-1
-52,39,-1
-51,40,0
-51,40,0
-52,40,1
-52,40,1
-51,40,0
-51,40,1
-52,40,0
-51,40,0
-51,40,1
-51,41,1
-52,40,0
-52,40,1
-51,40,1
-52,40,0
-51,41,0
-52,41,0
-52,41,0
-52,40,0
-52,40,0
-52,40,0
-52,41,0
-52,41,0
-52,40,0
-52,40,0
-52,40,0
-52,40,0
-52,40,0
-52,40,0
-51,41,0
-52,41,-1
-52,41,-1
-51,40,0
-51,40,0
-51,41,0
-51,41,0
-51,41,0
-51,41,0
-51,40,0
-52,41,-1
-52,41,0
-52,40,0
-52,40,-1
-52,41,-1
-52,41,-1
-52,41,-1
-51,41,-1
-51,42,-1
-50,42,-1
-49,41,-1
-50,41,-1
-50,41,0
-50,41,0
-51,41,-1
-51,41,-1
-51,41,-1
-51,42,0
-51,41,0
-51,41,-1
-51,41,-1
-51,41,-1
-51,41,0
-51,41,-1
-52,41,-1
-51,41,0
-50,41,1
-50,42,1
-54,42,-2
-53,42,-1
-50,41,3
-50,42,3
-50,42,2
-51,41,2
-50,41,2
-50,41,2
-51,41,1
-50,41,1
-51,41,1
-49,41,1
-51,41,-2
-51,41,-4
-53,41,-5
-56,41,-9
-58,41,-10
-54,42,-6
-47,42,3
-50,43,5
-50,41,6
-48,42,15
-47,40,18
-49,41,18
-46,40,21
-44,41,26
-45,42,23
-44,40,24
-41,40,26
-41,40,26
-42,40,21
-44,41,18
-48,41,9
-49,42,4
-45,42,1
-50,42,-9
-57,42,-16
-54,41,-22
-53,41,-21
-47,41,-14
-49,42,-14
-49,42,-15
-50,41,-16
-50,40,-16
-49,39,-15
-49,40,-15
-49,40,-14
-49,40,-13
-50,40,-14
-50,41,-14
-50,40,-13
-51,40,-11
-50,41,-10
-50,42,-9
-50,42,-7
-49,42,-6
-48,42,-6
-49,42,-5
-49,42,-5
-49,42,-4
-50,41,-3
-50,42,-3
-49,42,-2
-49,42,-3
-50,42,-3
-51,42,-3
-51,43,-3
-50,43,-3
-49,43,-3
-49,43,-3
-49,43,-4
-49,43,-3
-49,42,-3
-50,43,-3
-50,42,-3
-50,42,-3
-49,42,-3
-50,43,-3
-49,42,-3
-49,43,-3
-49,43,-3
-49,43,-3
-49,43,-2
-49,43,-3
-50,43,-4
-49,43,-3
-48,43,-2
-50,43,-3
-49,43,-3
-49,43,-3
-49,43,-3
-50,43,-3
-50,43,-3
-49,42,-2
-49,43,-2
-49,43,-2
-49,43,-1
-49,43,-2
-49,43,-1
-50,43,-2
-50,43,-2
-51,42,-2
-50,42,-2
-50,43,-2
-49,43,-2
-49,43,-2
-49,43,-2
-49,44,-2
-49,43,-2
-50,43,-2
-50,41,-2
-50,42,-2
-50,43,-2
-50,44,-2
-50,43,-2
-49,42,-2
-48,43,-2
-49,42,-2
-49,42,-3
-49,41,-5
-47,40,-4
-46,40,0
-50,42,-3
-50,43,-4
-49,44,-4
-49,44,-4
-51,45,-5
-52,44,-4
-52,44,-3
-51,42,-2
-50,42,-2
-49,40,0
-50,42,-1
-54,42,-4
-53,42,-4
-53,41,-3
-51,39,-1
-51,39,-2
-53,39,-3
-53,41,-3
-52,41,-1
-56,41,-3
-50,42,3
-47,41,11
-49,40,14
-46,39,18
-47,40,18
-50,42,17
-50,41,17
-47,41,18
-44,40,19
-44,40,19
-46,40,17
-46,40,16
-52,41,10
-52,41,9
-52,41,7
-53,41,5
-52,41,5
-50,41,3
-45,41,4
-41,39,-4
-51,39,-10
-56,38,-12
-54,32,-14
-48,43,-15
-54,38,-28
-50,40,-23
-48,36,-19
-51,37,-23
-50,36,-24
-47,34,-23
-49,34,-24
-50,33,-24
-50,34,-26
-47,32,-25
-55,35,-30
-55,37,-31
-52,34,-23
-51,33,-19
-58,34,-24
-54,33,-23
-50,32,-18
-51,32,-18
-51,34,-17
-53,34,-15
-54,36,-15
-57,31,-12
-60,31,-11
-55,31,-2
-58,32,-4
-55,33,-3
-55,34,-2
-58,35,-1
-54,33,0
-57,34,-1
-56,32,-2
-60,31,0
-58,32,0
-59,32,-1
-60,32,-2
-55,32,-2
-54,32,0
-49,34,6
-44,30,3
-53,34,-7
-62,34,-19
-60,35,-17
-57,35,-14
-57,34,-15
-52,34,-20
-50,33,-18
-53,33,-18
-52,34,-17
-51,33,-18
-51,34,-18
-50,34,-18
-54,34,-22
-52,35,-22
-51,35,-21
-50,35,-22
-49,34,-22
-51,35,-23
-50,35,-23
-50,34,-25
-52,36,-25
-49,36,-24
-47,38,-24
-44,39,-22
-46,38,-21
-47,38,-22
-47,38,-21
-47,38,-20
-47,38,-20
-48,37,-22
-49,38,-22
-48,39,-21
-47,39,-21
-46,39,-23
-49,40,-22
-49,41,-22
-46,40,-21
-46,39,-20
-50,39,-21
-53,39,-22
-72,38,-38
-49,44,-16
-41,48,-2
-36,46,3
-37,47,1
-36,48,3
-34,49,6
-32,50,13
-37,49,15
-39,47,16
-40,46,16
-42,45,17
-40,47,11
-39,48,12
-40,49,16
-44,47,14
-45,46,14
-42,48,14
-43,49,13
-48,49,9
-50,50,8
-42,46,18
-50,44,9
-48,42,4
-45,46,3
-43,45,4
-45,48,4
-47,48,2
-48,48,2
-48,47,3
-49,47,3
-51,43,2
-53,43,2
-49,48,4
-45,46,7
-40,45,14
-44,45,11
-46,46,9
-45,44,12
-45,44,15
-48,44,8
-47,44,4
-49,42,5
-46,42,5
-47,42,4
-50,44,2
-50,42,3
-50,42,1
-54,41,-2
-54,43,-3
-56,40,-4
-54,40,-4
-51,39,-4
-52,39,-4
-56,38,-7
-47,39,-3
-49,38,-2
-54,42,-8
-51,44,-7
-53,41,-7
-53,42,-9
-50,42,-7
-50,40,-5
-51,41,-6
-51,41,-6
-53,41,-7
-47,42,-5
-49,41,-6
-51,41,-6
-49,42,-6
-49,41,-5
-53,42,-6
-50,42,-6
-50,41,-5
-51,41,-5
-49,42,-5
-51,41,-7
-52,41,-6
-47,41,-5
-47,41,-5
-52,42,-7
-51,42,-6
-50,42,-5
-51,42,-6
-50,42,-5
-50,41,-5
-50,42,-5
-51,42,-6
-49,42,-5
-49,42,-6
-50,42,-5
-52,42,-6
-48,41,-5
-48,41,-4
-52,43,-6
-48,42,-5
-49,42,-5
-50,42,-5
-50,42,-5
-49,42,-5
-50,42,-5
-49,43,-5
-49,43,-6
-50,42,-5
-50,42,-6
-49,42,-5
-50,42,-5
-49,42,-6
-50,42,-6
-50,42,-6
-48,43,-6
-50,42,-6
-49,42,-5
-50,43,-6
-50,42,-6
-49,42,-6
-49,42,-6
-49,42,-6
-50,42,-6
-50,42,-6
-49,42,-7
-49,42,-7
-49,42,-6
-49,42,-7
-49,42,-7
-50,43,-7
-49,42,-7
-49,42,-7
-49,42,-8
-50,42,-7
-51,42,-8
-49,42,-7
-51,42,-8
-50,42,-8
-50,42,-8
-49,42,-8
-50,42,-8
-50,42,-7
-49,42,-7
-50,42,-7
-50,42,-8
-49,42,-7
-49,42,-6
-49,42,-7
-49,42,-7
-50,42,-6
-50,42,-7
-50,42,-6
-50,43,-7
-49,42,-6
-50,42,-7
-50,42,-6
-51,42,-7
-48,42,-7
-52,42,-8
-48,43,-6
-47,43,-5
-50,42,-7
-48,42,-7
-50,42,-7
-50,42,-6
-51,42,-6
-48,42,-7
-48,43,-7
-51,42,-7
-49,42,-6
-50,43,-6
-50,42,-7
-48,41,-8
-49,42,-7
-50,42,-7
-50,43,-7
-50,42,-7
-49,42,-7
-50,42,-8
-49,42,-7
-49,42,-6
-50,43,-7
-50,41,-7
-48,42,-6
-49,41,-7
-49,42,-7
-49,43,-7
-49,43,-7
-50,43,-8
-50,42,-7
-49,42,-7
-49,42,-7
-49,42,-7
-49,42,-7
-49,42,-6
-50,42,-7
-50,42,-7
-50,42,-7
-50,42,-7
-49,42,-6
-50,42,-6
-50,43,-6
-51,42,-6
-51,42,-7
-48,42,-4
-48,41,-4
-51,42,-8
-50,42,-7
-50,42,-5
-50,43,-5
-50,42,-6
-50,41,-6
-49,42,-6
-51,43,-6
-51,43,-6
-50,41,-6
-50,42,-7
-50,42,-6
-49,42,-6
-49,42,-6
-49,41,-6
-49,41,-7
-49,43,-5
-51,43,-5
-51,42,-7
-48,41,-7
-49,42,-6
-51,41,-7
-51,41,-8
-51,41,-7
-49,40,-6
-49,40,-7
-50,42,-9
-51,41,-9
-49,42,-5
-50,42,-6
-53,42,-10
-51,42,-10
-50,40,-9
-49,40,-9
-49,39,-9
-50,40,-9
-49,40,-9
-50,41,-8
-50,41,-10
-49,43,-9
-49,42,-9
-50,42,-7
-51,41,-8
-50,40,-9
-49,40,-8
-50,41,-8
-49,42,-9
-50,41,-8
-50,42,-8
-49,42,-8
-51,42,-8
-49,43,-8
-50,41,-8
-51,42,-8
-50,42,-9
-48,42,-9
-49,41,-10
-48,41,-9
-49,41,-8
-50,40,-8
-51,42,-9
-51,41,-9
-50,41,-8
-49,40,-8
-50,41,-8
-53,39,-9
-50,40,-9
-51,40,-10
-50,41,-7
-50,41,-7
-50,40,-7
-50,41,-7
-50,40,-7
-50,40,-7
-51,41,-8
-49,40,-9
-48,40,-6
-51,39,-5
-53,39,-8
-53,40,-11
-52,40,-9
-52,40,-10
-52,38,-10
-52,37,-10
-51,38,-12
-51,38,-14
-50,39,-13
-48,39,-13
-48,38,-12
-51,39,-14
-49,40,-13
-54,39,-11
-53,40,-10
-51,39,-14
-48,37,-13
-44,37,-14
-58,38,-18
-49,39,-16
-50,38,-16
-49,38,-16
-53,38,-19
-52,38,-17
-51,38,-17
-51,37,-14
-52,38,-15
-51,39,-14
-50,38,-12
-49,39,-12
-51,39,-11
-52,38,-10
-49,40,-12
-50,39,-12
-51,38,-11
-49,40,-11
-51,40,-11
-52,40,-12
-51,40,-12
-50,40,-11
-49,40,-10
-52,39,-12
-51,40,-12
-50,40,-12
-51,40,-11
-51,40,-11
-50,39,-11
-50,39,-11
-50,41,-11
-50,41,-11
-50,39,-12
-51,38,-12
-50,38,-11
-52,39,-12
-52,39,-12
-53,39,-12
-52,40,-12
-52,40,-12
-52,39,-12
-51,40,-12
-50,40,-11
-49,40,-11
-50,40,-12
-50,39,-12
-51,39,-12
-51,39,-12
-51,39,-12
-52,39,-12
-51,39,-11
-51,39,-12
-50,39,-11
-51,39,-12
-51,39,-12
-51,39,-12
-51,39,-12
-51,39,-12
-51,39,-12
-51,39,-12
-51,39,-12
-51,39,-12
-51,39,-12
-51,39,-12
-50,39,-11
-50,39,-11
-50,40,-11
-50,40,-11
-50,40,-11
-50,40,-11
-51,40,-11
-52,40,-12
-51,39,-12
-51,40,-12
-51,40,-11
-51,39,-11
-51,40,-11
-50,39,-11
-49,40,-11
-50,41,-11
-49,40,-11
-50,41,-11
-50,41,-11
-51,41,-11
-51,40,-11
-51,40,-11
-51,40,-11
-51,40,-10
-50,40,-10
-50,40,-11
-50,40,-10
-51,40,-11
-51,40,-11
-51,40,-11
-50,40,-11
-51,40,-11
-50,40,-11
-50,40,-10
-50,40,-10
-50,40,-10
-50,40,-10
-50,40,-10
-50,40,-10
-51,41,-10
-50,40,-12
-50,40,-9
-52,40,-10
-50,40,-10
-50,40,-11
-50,40,-10
-50,40,-11
-50,40,-11
-49,40,-10
-50,40,-10
-50,40,-11
-51,40,-9
-50,40,-8
-51,42,-11
-51,41,-11
-50,41,-10
-50,40,-10
-50,40,-10
-51,40,-10
-50,40,-10
-50,40,-10
-50,40,-10
-50,41,-10
-50,40,-10
-51,40,-10
-50,41,-10
-50,40,-10
-50,40,-10
-50,40,-10
-50,40,-10
-50,40,-10
-50,40,-10
-50,40,-10
-50,40,-10
-50,40,-10
-50,40,-10
-50,40,-10
-50,40,-10
-50,41,-11
-50,40,-10
-51,41,-10
-50,40,-10
-50,40,-11
-50,40,-10
-51,40,-10
-49,40,-10
-50,40,-10
-50,40,-10
-50,40,-10
-50,40,-10
-50,40,-10
-50,40,-10
-50,40,-10
-50,40,-10
-51,40,-10
-51,41,-10
-51,40,-10
-51,40,-10
-50,40,-10
-51,40,-10
-50,39,-10
-49,40,-10
-50,40,-11
-50,40,-11
-52,40,-10
-51,40,-11
-51,41,-10
-50,40,-10
-50,40,-10
-50,40,-10
-50,40,-10
-50,40,-10
-50,40,-10
-51,41,-10
-51,41,-10
-51,40,-10
-51,41,-10
-51,40,-10
-51,40,-10
-50,40,-10
-50,40,-10
-50,40,-10
-50,40,-10
-50,40,-9
-50,40,-10
-50,41,-10
-50,41,-10
-50,41,-9
-51,41,-10
-51,40,-10
-50,41,-10
-50,41,-10
-50,40,-10
-50,40,-9
-50,40,-9
-50,40,-9
-50,40,-10
-49,41,-9
-49,41,-9
-50,41,-9
-50,41,-10
-50,41,-10
-50,41,-9
-50,40,-10
-50,40,-10
-50,40,-10
-50,40,-10
-50,40,-10
-50,41,-10
-49,41,-9
-50,41,-9
-51,41,-9
-51,40,-10
-51,40,-9
-51,40,-9
-51,39,-10
-51,40,-10
-50,40,-9
-50,40,-9
-50,41,-10
-50,41,-10
-50,40,-10
-51,40,-10
-50,40,-10
-50,40,-10
-50,40,-9
-50,40,-10
-50,40,-10
-50,40,-10
-51,40,-10
-50,40,-10
-50,40,-10
-50,40,-10
-50,41,-10
-50,40,-10
-50,41,-10
-50,41,-10
-50,40,-10
-50,41,-10
-51,40,-10
-50,40,-10
-50,40,-10
-50,40,-10
-50,40,-10
-51,41,-10
-50,41,-10
-51,41,-10
-51,40,-10
-50,40,-10
-50,40,-10
-50,40,-10
-50,40,-10
-50,40,-10
-50,40,-11
-50,40,-10
-51,40,-10
-50,40,-10
-50,41,-10
-51,40,-11
-51,40,-10
-51,40,-10
-50,40,-10
-51,40,-10
-50,40,-10
-50,40,-10
-50,40,-9
-50,40,-9
-50,41,-10
-50,41,-9
-50,41,-10
-50,41,-10
-50,41,-10
-50,40,-9
-50,40,-10
-50,41,-10
-50,41,-10
-50,41,-9
-51,41,-10
-51,41,-10
-50,41,-10
-51,41,-10
-50,41,-8
-49,40,-8
-51,40,-9
-50,41,-10
-49,41,-10
-49,40,-8
-49,42,-9
-48,41,-7
-50,41,-9
-50,40,-7
-51,41,-8
-50,41,-7
-50,41,-8
-51,42,-8
-50,42,-8
-50,41,-7
-50,41,-7
-50,41,-8
-50,41,-9
-50,41,-8
-49,41,-8
-50,41,-8
-50,41,-8
-50,41,-8
-49,41,-8
-49,41,-8
-50,42,-9
-50,41,-8
-50,41,-9
-49,42,-10
-50,40,-9
-49,41,-9
-49,41,-8
-50,41,-10
-49,42,-10
-49,41,-10
-49,42,-11
-50,42,-10
-50,41,-11
-49,41,-10
-49,41,-10
-50,40,-10
-50,41,-10
-51,42,-11
-50,41,-10
-49,41,-9
-49,41,-9
-49,42,-10
-49,41,-10
-49,41,-9
-50,41,-11
-49,41,-10
-50,41,-10
-50,41,-10
-50,42,-10
-50,41,-11
-49,41,-10
-50,41,-10
-49,41,-10
-50,41,-10
-50,41,-10
-49,41,-10
-49,41,-10
-49,41,-10
-49,41,-10
-49,42,-10
-50,41,-10
-51,42,-11
-49,42,-11
-49,42,-12
-49,41,-11
-50,41,-11
-49,41,-11
-50,41,-11
-49,40,-12
-51,42,-12
-48,41,-10
-50,41,-11
-49,41,-10
-49,41,-11
-49,41,-10
-50,41,-11
-49,41,-11
-50,41,-11
-50,41,-11
-49,41,-11
-49,41,-11
-50,41,-11
-49,41,-11
-50,41,-11
-49,41,-11
-49,41,-11
-49,41,-11
-49,41,-10
-50,41,-11
-50,41,-11
-49,41,-11
-49,42,-11
-49,41,-11
-50,42,-12
-51,41,-12
-49,40,-11
-50,42,-11
-49,41,-11
-49,41,-11
-49,41,-11
-50,41,-11
-49,41,-11
-49,41,-11
-49,40,-11
-49,42,-11
-50,42,-12
-49,41,-11
-49,42,-11
-50,42,-11
-50,41,-11
-50,41,-12
-49,41,-11
-49,41,-11
-49,41,-12
-49,41,-12
-49,41,-11
-49,41,-9
-50,40,-8
-50,42,-11
-51,41,-9
-50,41,-10
-50,41,-10
-49,41,-10
-49,41,-10
-49,41,-10
-49,41,-10
-48,41,-10
-49,40,-10
-50,41,-11
-52,41,-11
-49,41,-11
-50,41,-11
-49,41,-11
-49,41,-11
-49,42,-11
-49,41,-11
-49,41,-11
-49,42,-12
-49,42,-11
-49,41,-11
-50,41,-11
-50,41,-11
-50,41,-11
-49,42,-11
-49,41,-11
-49,41,-11
-49,41,-11
-49,41,-12
-49,41,-11
-49,41,-12
-49,42,-12
-49,41,-11
-49,41,-11
-49,41,-11
-49,41,-11
-49,41,-11
-49,41,-12
-49,41,-11
-50,40,-12
-52,42,-13
-49,42,-11
-49,41,-11
-49,41,-12
-50,41,-11
-49,41,-11
-49,41,-11
-50,41,-11
-49,41,-11
-49,41,-11
-49,41,-11
-49,41,-11
-49,42,-11
-49,42,-12
-49,41,-11
-49,41,-10
-51,41,-11
-50,42,-13
-49,42,-12
-49,41,-11
-49,41,-10
-48,40,-10
-49,41,-12
-48,41,-11
-49,41,-11
-49,41,-11
-49,40,-9
-51,42,-13
-51,40,-12
-51,40,-12
-51,41,-15
-50,41,-13
-46,41,-11
-44,42,-10
-44,40,-10
-43,39,-15
-55,42,-22
-50,39,-23
-53,39,-25
-53,42,-22
-42,39,-17
-42,35,-19
-47,37,-20
-51,39,-19
-46,39,-17
-51,39,-20
-52,36,-23
-46,40,-19
-50,41,-21
-50,40,-20
-54,41,-24
-50,33,-18
-44,38,-14
-46,38,-13
-46,39,-12
-56,38,-15
-46,36,-8
-47,38,-11
-51,40,-19
-49,38,-17
-55,39,-18
-55,39,-18
-48,38,-13
-49,36,-12
-53,38,-15
-52,34,-16
-55,40,-20
-51,38,-17
-49,42,-16
-51,40,-18
-54,39,-14
-51,38,-14
-47,33,-9
-54,32,-11
-47,40,-16
-44,39,-14
-54,40,-17
-56,44,-18
-52,37,-14
-48,36,-14
-51,36,-12
-51,38,-13
-49,40,-16
-50,38,-15
-53,40,-14
-52,38,-13
-50,38,-16
-51,37,-13
-50,37,-14
-49,36,-13
-50,37,-13
-52,39,-16
-50,38,-16
-51,40,-17
-50,38,-14
-54,38,-15
-53,37,-16
-50,38,-16
-52,40,-15
-54,40,-15
-52,38,-15
-49,37,-13
-47,36,-13
-48,36,-14
-50,39,-17
-51,39,-18
-50,39,-15
-51,40,-14
-52,39,-14
-50,38,-15
-50,38,-15
-51,38,-14
-52,39,-15
-53,40,-15
-50,40,-15
-52,38,-14
-50,38,-14
-51,38,-14
-51,39,-9
-54,39,-7
-53,38,-7
-55,37,-5
-54,36,-5
-51,38,-4
-51,37,-4
-54,38,-4
-51,39,-4
-51,38,-3
-54,39,-4
-54,39,-4
-52,39,-3
-52,38,-3
-54,38,-4
-53,38,-3
-53,38,-3
-54,38,-3
-54,39,-4
-52,38,-2
-54,39,-3
-54,39,-3
-54,40,-4
-53,39,-4
-52,38,-2
-53,38,-3
-53,39,-2
-51,39,-1
-53,39,-3
-53,39,-4
-51,38,-2
-51,40,-4
-52,40,-4
-53,40,-4
-52,40,-4
-52,39,-3
-52,40,-4
-51,38,-2
-49,39,-2
-52,40,-6
-49,42,-14
-46,38,-9
-55,38,-11
-49,36,-14
-46,38,-17
-54,36,-20
-48,37,-16
-53,35,-31
-50,41,-20
-46,40,-17
-49,38,-24
-53,38,-22
-44,40,-19
-46,38,-20
-46,38,-17
-50,40,-21
-47,40,-22
-48,39,-21
-50,39,-22
-44,38,-14
-45,36,-16
-49,35,-17
-50,35,-22
-48,35,-22
-54,36,-24
-53,38,-23
-50,42,-24
-49,38,-22
-51,37,-20
-49,35,-20
-48,34,-19
-45,33,-18
-47,36,-22
-49,34,-21
-52,35,-23
-53,39,-20
-52,41,-23
-49,40,-20
-52,38,-17
-51,36,-15
-47,37,-15
-51,37,-16
-49,35,-14
-45,35,-10
-48,36,-13
-50,39,-15
-53,38,-16
-51,39,-16
-54,39,-16
-49,39,-15
-50,37,-16
-50,38,-16
-50,38,-15
-49,37,-15
-50,39,-16
-50,38,-16
-50,37,-16
-51,38,-15
-51,39,-15
-52,38,-15
-51,38,-15
-51,38,-16
-52,39,-17
-50,39,-17
-49,37,-12
-50,38,-13
-51,38,-14
-50,38,-14
-50,39,-17
-55,38,-20
-53,40,-13
-50,41,-10
-48,36,-12
-58,41,-21
-49,40,-15
-50,43,-12
-50,42,-12
-51,43,-15
-49,41,-12
-44,40,-7
-50,38,-6
-53,39,-10
-41,41,-7
-44,45,-8
-52,48,-15
-48,40,-4
-40,42,-1
-50,43,-5
-54,44,-7
-44,46,-6
-48,44,-5
-49,46,-3
-48,44,-2
-49,44,-2
-47,45,-3
-49,43,-3
-45,44,-1
-46,45,-2
-53,45,-2
-48,40,5
-48,39,7
-53,40,4
-51,40,5
-49,43,5
-54,41,3
-51,39,7
-52,39,10
-49,40,8
-57,39,6
-53,39,9
-49,41,11
-59,41,8
-49,41,10
-50,41,4
-56,44,5
-48,38,9
-55,41,6
-51,43,11
-51,40,7
-51,42,7
-53,42,3
-50,44,4
-53,43,5
-50,39,11
-51,39,9
-53,43,3
-53,43,5
-48,46,5
-52,44,7
-43,42,12
-49,43,8
-50,40,5
-48,41,3
-50,42,3
-54,40,9
-55,44,7
-50,42,4
-44,43,-2
-49,42,1
-51,42,3
-52,43,5
-50,41,7
-52,43,4
-52,43,4
-51,42,3
-50,42,1
-48,42,3
-48,42,4
-50,42,3
-51,42,2
-51,42,4
-51,42,3
-52,43,-1
-50,41,1
-50,41,2
-50,41,2
-52,43,3
-50,41,3
-54,41,1
-49,42,0
-49,42,2
-52,41,1
-52,42,1
-50,41,3
-48,41,6
-48,42,3
-47,41,2
-54,43,-5
-52,42,-4
-50,43,-1
-48,42,4
-46,38,4
-53,42,-4
-45,40,-1
-48,37,-7
-47,42,-10
-55,40,-8
-52,42,-6
-53,43,-8
-52,42,-9
-54,43,-14
-44,41,-13
-45,40,-12
-50,40,-18
-47,41,-17
-46,41,-17
-48,40,-17
-53,42,-20
-47,43,-21
-45,42,-21
-44,37,-17
-47,38,-18
-52,41,-22
-44,40,-20
-42,39,-19
-49,39,-21
-50,40,-23
-47,40,-23
-46,39,-22
-47,37,-21
-48,38,-23
-45,38,-21
-48,38,-22
-46,39,-21
-47,39,-23
-45,39,-23
-46,39,-24
-46,39,-26
-42,40,-23
-45,37,-26
-46,37,-27
-47,39,-25
-45,39,-25
-44,38,-28
-45,39,-27
-47,38,-28
-47,38,-27
-45,38,-25
-46,37,-25
-46,37,-25
-44,38,-25
-44,37,-24
-44,37,-24
-45,38,-27
-45,38,-27
-46,40,-28
-43,39,-25
-45,38,-27
-46,38,-27
-45,38,-26
-46,38,-28
-44,39,-28
-44,39,-28
-43,39,-26
-46,38,-25
-46,37,-27
-46,37,-28
-44,38,-27
-45,38,-27
-46,38,-26
-45,38,-27
-44,37,-25
-45,38,-25
-44,38,-26
-46,38,-27
-46,37,-26
-46,37,-26
-45,38,-26
-45,38,-26
-44,38,-27
-44,39,-29
-45,38,-27
-46,37,-27
-46,36,-28
-45,38,-28
-45,37,-27
-45,37,-28
-46,37,-28
-45,37,-28
-46,38,-29
-44,39,-29
-44,38,-29
-45,37,-29
-42,36,-28
-43,36,-29
-47,36,-29
-46,37,-29
-44,37,-30
-45,36,-29
-51,35,-28
-37,39,-23
-34,35,-20
-53,35,-27
-49,40,-27
-41,36,-25
-47,36,-28
-47,39,-27
-49,37,-27
-49,36,-28
-46,36,-27
-46,36,-28
-45,35,-28
-45,35,-27
-45,36,-28
-46,36,-29
-44,37,-28
-45,37,-29
-45,37,-29
-45,36,-29
-46,36,-29
-44,36,-27
-45,37,-29
-45,36,-30
-46,36,-29
-45,36,-28
-45,36,-29
-44,36,-28
-45,36,-29
-44,37,-29
-45,37,-29
-45,37,-28
-45,37,-29
-45,36,-29
-46,36,-27
-47,35,-28
-50,35,-26
-49,38,-36
-37,41,-20
-39,33,-22
-39,29,-14
-49,34,-28
-63,34,-40
-40,41,-29
-36,39,-21
-60,37,-28
-58,38,-29
-49,32,-18
-56,35,-24
-53,34,-21
-46,34,-17
-47,33,-20
-52,35,-25
-51,38,-19
-44,33,-14
-57,36,-18
-56,37,-18
-50,36,-15
-51,36,-16
-54,35,-16
-53,36,-15
-52,35,-15
-53,35,-15
-53,35,-14
-52,35,-16
-52,36,-16
-51,37,-16
-52,37,-15
-53,36,-16
-52,37,-15
-52,36,-15
-52,36,-15
-52,36,-16
-52,36,-15
-52,35,-15
-53,36,-16
-51,36,-14
-51,36,-15
-53,37,-16
-53,36,-15
-51,36,-14
-52,36,-15
-53,36,-15
-52,36,-15
-52,36,-15
-52,36,-15
-52,36,-15
-53,36,-15
-52,36,-15
-52,36,-15
-52,36,-15
-52,36,-15
-52,36,-15
-53,36,-15
-52,36,-15
-53,36,-15
-51,37,-15
-52,36,-15
-52,36,-15
-52,35,-15
-52,36,-15
-53,36,-15
-52,37,-15
-53,36,-15
-52,37,-15
-52,37,-15
-52,36,-15
-51,36,-15
-53,37,-16
-52,37,-15
-52,36,-14
-52,36,-15
-54,37,-15
-52,37,-14
-53,37,-14
-52,36,-15
-52,36,-15
-51,37,-14
-51,36,-14
-51,37,-14
-52,37,-14
-51,37,-14
-53,37,-14
-53,37,-14
-52,36,-15
-52,37,-15
-52,37,-14
-52,37,-13
-51,37,-13
-52,38,-15
-52,37,-14
-52,37,-13
-52,37,-14
-52,37,-14
-53,38,-14
-53,37,-14
-53,36,-15
