1.5199e+09,1.5199e+09
2099.2,0.85941
2100,0.84379
2100.8,0.79691
2101.6,0.78129
2111.4,0.78129
2112.2,0.71878
2113,0.87504
2113.9,0.82816
2114.7,0.82816
2115.5,0.78129
2116.4,0.96879
2117.2,0.78129
2118,0.79691
2118.8,0.79691
2119.7,0.87504
2120.5,0.79691
2121.3,0.76566
2122.1,0.85941
2122.9,0.81254
2139.8,0.82816
2140.6,0.81254
2141.4,0.81254
2142.3,0.84379
2143.1,0.82816
2144,0.89067
2152.4,0.87504
2153.2,0.85941
2154.1,0.84379
2154.9,0.85941
2155.8,0.87504
2156.7,0.84379
2157.5,0.81254
2158.3,0.82816
2159.1,0.82816
2159.9,0.76566
2160.7,0.81254
2161.6,0.85941
2162.4,0.79691
2163.2,0.79691
2164,0.85941
2164.8,0.82816
2165.6,0.79691
2166.4,0.79691
2167.3,0.82816
2168,0.75003
2168.8,0.75003
2169.5,0.76566
2170.4,0.84379
2171.2,0.78129
2172,0.81254
2172.8,0.84379
2173.6,0.79691
2174.4,0.81254
2175.2,0.81254
2176,0.75003
2176.8,0.79691
2177.6,0.81254
2178.4,0.79691
2179.2,0.84379
2180.1,0.84379
2180.9,0.82816
2181.7,0.79691
2182.5,0.81254
2183.3,0.79691
2184.1,0.75003
2184.8,0.75003
2185.6,0.81254
2186.4,0.78129
2187.2,0.79691
2188.1,0.84379
2188.9,0.84379
2189.7,0.79691
2190.5,0.78129
2191.3,0.84379
2192.1,0.76566
2192.9,0.76566
2193.6,0.78129
2194.4,0.81254
2195.2,0.79691
2196.1,0.84379
2196.9,0.82816
2197.7,0.78129
2198.5,0.82816
2199.3,0.81254
2200.1,0.79691
2200.9,0.81254
2201.8,0.82816
2202.6,0.78129
2203.4,0.81254
2204.2,0.84379
2205,0.76566
2205.7,0.76566
2206.6,0.82816
2207.4,0.78129
2208.1,0.75003
2208.9,0.81254
2209.7,0.79691
2210.5,0.75003
2211.3,0.81254
2212.1,0.84379
2212.9,0.78129
2213.8,0.90629
2214.6,0.81254
2215.4,0.78129
2216.2,0.82816
2217,0.78129
2217.8,0.75003
2218.5,0.78129
2219.3,0.78129
2220.1,0.73441
2220.8,0.76566
2221.6,0.81254
2222.4,0.78129
2223.2,0.82816
2224.1,0.87504
2224.9,0.79691
2225.7,0.82816
2226.5,0.79691
2227.3,0.76566
2228.1,0.81254
2228.9,0.76566
2229.7,0.82816
2230.5,0.81254
2231.4,0.87504
2232.3,0.87504
2233.1,0.82816
2233.9,0.79691
2234.7,0.76566
2235.4,0.76566
2236.3,0.82816
2237,0.78129
2237.9,0.82816
2238.8,0.89067
2239.6,0.84379
2249.8,0.76566
2250.8,1.0313
2251.7,0.89067
2252.5,0.76566
2253.4,0.89067
2260.8,0.87504
2261.6,0.84379
2262.5,0.87504
2263.3,0.82816
2264.1,0.78129
2264.9,0.79691
2265.9,0.96879
2266.7,0.81254
2267.5,0.85941
2268.4,0.87504
2269.2,0.75003
2270.1,0.92192
2270.9,0.82816
2336.1,0.85941
2336.8,0.78129
2337.7,0.81254
2338.5,0.85941
2339.3,0.78129
2340.2,0.85941
2340.9,0.73441
2341.9,0.98442
2342.6,0.75003
2343.5,0.84379
2344.3,0.82816
2345.1,0.81254
2345.8,0.73441
2346.6,0.79691
2347.4,0.79691
2348.2,0.76566
2349,0.84379
2349.8,0.78129
2367.4,0.81254
2384.1,0.84379
2384.9,0.75003
2385.7,0.84379
2386.5,0.82816
2387.3,0.79691
2388.1,0.73441
2389,0.98442
2389.8,0.78129
2390.5,0.71878
2397.2,0.85941
2398,0.81254
2398.8,0.82816
2399.6,0.84379
2400.5,0.89067
2401.4,0.84379
2429.3,0.96879
2430,0.79691
2434.9,1.0157
2435.7,0.78129
2436.5,0.82816
2437.4,0.84379
2438.2,0.81254
2439.1,0.89067
2440.1,0.98442
2441,0.95317
2441.9,0.87504
2442.8,0.89067
2443.6,0.84379
2444.5,0.84379
2445.3,0.85941
2446.2,0.84379
2447,0.84379
2447.9,0.92192
2448.8,0.90629
2449.7,0.82816
2450.5,0.85941
2451.4,0.89067
2452.2,0.76566
2453,0.84379
2453.9,0.85941
2454.8,0.85941
2455.6,0.81254
2456.5,0.90629
2457.3,0.82816
2458.1,0.82816
2458.9,0.79691
2459.7,0.79691
2460.6,0.87504
2467.9,0.78129
2468.7,0.78129
2469.5,0.84379
2470.3,0.84379
2471.2,0.84379
2472.1,0.90629
2472.9,0.79691
2473.7,0.81254
2474.6,0.84379
2475.4,0.81254
2476.2,0.85941
2491.6,0.78129
2492.5,0.85941
2493.3,0.81254
2494.1,0.85941
2495,0.84379
2495.8,0.81254
2496.6,0.84379
2497.6,0.93754
2498.4,0.81254
2499.3,0.87504
2500.2,0.89067
2501,0.84379
2501.8,0.76566
2502.7,0.89067
2503.5,0.87504
2504.3,0.76566
2505.1,0.84379
2506.1,0.98442
2507,0.89067
2507.9,0.87504
2508.8,0.89067
2509.7,0.95317
2510.6,0.90629
2511.5,0.84379
2512.4,0.89067
2513.3,0.93754
2527.7,0.93754
2528.6,0.92192
2529.5,0.82816
2530.4,0.87504
2537.5,0.82816
2538.5,0.96879
2539.3,0.75003
2540.2,0.96879
2541.1,0.87504
2542,0.92192
2542.9,0.89067
2563.4,0.87504
2564.3,0.93754
2565.2,0.92192
2566,0.81254
2567,1.0157
2579.2,0.82816
2580.1,0.85941
2580.9,0.89067
2581.8,0.85941
2582.6,0.79691
2589.6,0.81254
2590.4,0.79691
2591.3,0.84379
2592.1,0.85941
2592.9,0.79691
2593.7,0.76566
2594.4,0.70316
2595.2,0.75003
2596,0.82816
2596.8,0.78129
2597.5,0.68753
2598.2,0.70316
2598.9,0.76566
2599.8,0.84379
2600.7,0.87504
2601.4,0.76566
2602.2,0.73441
2602.9,0.78129
2603.8,0.90629
2604.6,0.79691
2605.5,0.84379
2606.4,0.87504
2607.2,0.84379
2608,0.81254
2608.8,0.79691
2609.7,0.87504
2610.5,0.82816
2611.4,0.84379
2612.2,0.85941
2613.1,0.85941
2613.9,0.85941
2614.9,0.93754
2615.9,0.98442
2616.7,0.81254
2617.5,0.87504
2618.4,0.81254
2628.5,0.85941
2629.4,0.90629
2630.2,0.76566
2631.2,0.93754
2632,0.89067
2633,0.92192
2633.7,0.70316
2634.6,0.90629
2635.4,0.82816
2636.2,0.78129
2637,0.82816
2638,1
2646.2,0.84379
2675.9,0.76566
2676.9,1.0469
2703.7,0.90629
2704.5,0.73441
2705.2,0.71878
2706,0.78129
2706.8,0.84379
2707.8,1
2720,0.90629
2721,0.95317
2721.8,0.87504
2722.7,0.90629
2723.6,0.90629
2731.6,0.85941
2732.4,0.78129
2733.3,0.92192
2748.5,0.82816
2787.5,0.82816
2788.4,0.89067
2789.2,0.82816
2790,0.82816
2790.9,0.92192
2791.8,0.90629
2792.7,0.87504
2793.5,0.78129
2794.5,1.0157
2834.9,0.85941
2835.7,0.84379
2836.7,0.95317
2843.4,0.87504
2844.3,0.90629
2845.2,0.95317
2846.1,0.84379
2847.1,0.96879
2847.9,0.85941
2848.8,0.87504
2849.7,0.90629
2850.6,0.89067
2851.5,0.87504
2852.4,0.95317
2853.3,0.93754
2854.2,0.81254
2865.6,0.79691
2866.4,0.89067
2867.3,0.85941
2868.1,0.84379
2869,0.89067
2870,0.95317
2870.9,0.90629
2871.8,0.90629
2872.7,0.85941
2873.5,0.81254
2874.3,0.82816
2875.2,0.87504
2876,0.85941
2876.9,0.85941
2877.8,0.89067
2878.6,0.81254
2879.4,0.82816
2880.3,0.85941
2881.1,0.84379
2882,0.82816
2882.8,0.85941
2883.7,0.84379
2884.5,0.82816
2885.4,0.85941
2886.2,0.87504
2887.1,0.82816
2887.9,0.87504
2888.8,0.85941
2889.6,0.81254
2890.5,0.85941
2891.4,0.89067
2892.2,0.81254
2893,0.79691
2893.8,0.85941
2894.7,0.87504
2895.5,0.82816
2896.4,0.85941
2897.2,0.85941
2898.1,0.82816
2898.9,0.87504
2899.8,0.85941
2900.6,0.84379
2901.5,0.89067
2902.4,0.87504
2903.3,0.84379
2904.1,0.84379
2904.9,0.84379
2905.7,0.78129
2906.5,0.81254
2907.4,0.89067
2908.3,0.84379
2909.1,0.84379
2909.9,0.82816
2910.8,0.81254
2911.6,0.85941
2912.4,0.81254
2913.3,0.82816
2914,0.78129
2914.8,0.79691
2915.6,0.75003
2916.4,0.78129
2917.2,0.81254
2917.9,0.75003
2918.7,0.78129
2919.5,0.79691
2920.3,0.76566
2921.1,0.78129
2921.9,0.84379
2922.7,0.78129
2923.4,0.75003
2924.2,0.81254
2925,0.78129
2925.8,0.73441
2926.5,0.78129
2927.4,0.85941
2928.3,0.87504
2929.1,0.87504
2930,0.84379
2930.9,0.87504
2931.6,0.78129
2932.4,0.79691
2937.7,1.0469
2938.6,0.81254
2939.4,0.85941
2940.2,0.82816
2941.1,0.87504
2941.9,0.81254
2942.8,0.87504
2943.7,0.85941
2944.5,0.82816
2945.3,0.82816
2946.2,0.90629
2947,0.78129
2947.9,0.84379
2948.8,0.92192
2949.6,0.78129
2950.5,0.90629
2951.3,0.87504
2952.2,0.85941
2953.1,0.87504
2971.3,0.82816
2972.2,0.98442
3006.1,0.92192
3006.8,0.78129
3007.7,0.90629
3008.6,0.89067
3009.5,0.81254
3010.3,0.82816
3011.1,0.84379
3012,0.85941
3012.9,0.90629
3013.9,0.96879
3014.8,0.90629
3015.6,0.87504
3016.4,0.73441
3017.2,0.84379
3018,0.81254
3018.8,0.78129
3019.7,0.85941
3020.6,0.92192
3021.5,0.85941
3022.4,0.90629
3023.3,0.93754
3024.1,0.81254
3025,0.92192
3025.8,0.81254
3026.7,0.89067
3027.6,0.85941
3034.5,0.79691
3035.4,0.84379
3036.2,0.85941
3037.1,0.82816
3037.9,0.84379
3038.8,0.90629
3039.7,0.87504
3040.6,0.93754
3041.5,0.85941
3060.5,0.85941
3061.3,0.81254
3062.2,0.82816
3063,0.85941
3063.8,0.78129
3064.6,0.82816
3065.4,0.79691
3066.2,0.76566
3067,0.79691
3067.9,0.85941
3068.7,0.87504
3069.6,0.82816
3070.4,0.84379
3071.2,0.79691
3072,0.78129
3072.8,0.84379
3073.6,0.79691
3074.4,0.76566
3075.2,0.79691
3076.1,0.87504
3076.9,0.81254
3083.4,0.81254
3084.2,0.78129
3085,0.81254
3085.8,0.78129
3086.6,0.82816
3087.4,0.79691
3088.3,0.85941
3089.1,0.81254
3090,0.85941
3090.7,0.76566
3091.6,0.84379
3092.3,0.78129
3093.1,0.76566
3093.9,0.82816
3094.7,0.76566
3095.5,0.82816
3096.3,0.81254
3097.2,0.85941
3098,0.76566
3098.7,0.71878
3099.4,0.71878
3115,0.92192
3157.1,0.89067
3158.1,0.96879
3159,0.90629
3159.9,0.90629
3160.7,0.85941
3161.6,0.89067
3162.4,0.81254
3163.3,0.85941
3164.2,0.89067
3165,0.84379
3165.9,0.90629
3166.9,0.96879
3167.8,0.95317
3168.8,0.92192
3169.6,0.87504
3170.5,0.82816
3171.3,0.84379
3172.2,0.89067
3173.2,0.95317
3174,0.84379
3174.9,0.89067
3175.8,0.90629
3176.7,0.85941
3177.6,0.89067
3178.4,0.89067
3179.3,0.90629
3180.2,0.87504
3181.1,0.87504
3182,0.85941
3182.9,0.90629
3183.8,0.89067
3184.6,0.85941
3185.5,0.89067
3186.5,0.96879
3190.7,0.84379
3196.9,0.89067
3197.8,0.92192
3213.2,0.84379
3214.1,0.85941
3215,0.89067
3215.8,0.84379
3216.7,0.84379
3217.6,0.87504
3218.4,0.81254
3219.2,0.84379
3220.1,0.87504
3220.9,0.81254
3221.7,0.79691
