1.5192e+09,1.5192e+09
738.5,0.68753
739.17,0.67191
739.83,0.65628
740.49,0.65628
741.17,0.68753
741.83,0.65628
742.5,0.67191
743.17,0.67191
743.85,0.67191
744.52,0.67191
745.19,0.67191
745.86,0.67191
746.57,0.70316
747.24,0.67191
747.92,0.68753
748.58,0.65628
749.27,0.68753
749.94,0.67191
750.6,0.65628
751.3,0.70316
751.93,0.62503
756.11,0.70316
756.85,0.73441
757.57,0.71878
758.32,0.75003
770.3,0.79691
771,0.70316
771.77,0.76566
772.5,0.73441
773.24,0.73441
773.99,0.75003
774.71,0.71878
775.39,0.68753
776.08,0.68753
776.75,0.67191
777.39,0.64065
778.04,0.64065
778.69,0.65628
779.44,0.75003
780.04,0.59378
780.8,0.76566
781.46,0.65628
782.21,0.75003
782.9,0.68753
783.63,0.73441
784.32,0.68753
785.02,0.70316
785.69,0.67191
786.36,0.67191
791.04,0.67191
791.72,0.68753
792.44,0.71878
793.16,0.71878
793.9,0.73441
794.58,0.68753
809.52,0.71878
810.22,0.70316
810.91,0.68753
811.63,0.71878
812.3,0.67191
812.99,0.68753
813.65,0.65628
814.32,0.67191
815.01,0.68753
815.69,0.68753
816.4,0.70316
817.07,0.67191
817.8,0.73441
818.37,0.56253
819.05,0.68753
819.71,0.65628
820.38,0.67191
821.02,0.64065
821.69,0.67191
822.38,0.68753
823.02,0.64065
823.68,0.65628
832.16,0.65628
832.82,0.65628
833.49,0.67191
834.16,0.67191
834.84,0.67191
835.49,0.65628
836.16,0.67191
836.82,0.65628
837.46,0.64065
838.13,0.67191
838.8,0.67191
839.51,0.70316
840.23,0.71878
840.93,0.70316
841.62,0.68753
