1.5206e+09,1.5206e+09,1.5206e+09
32,32,32
62,-4,16
62,-4,16
61,-4,16
61,-4,17
60,-4,17
60,-4,17
60,-4,17
60,-5,17
60,-5,17
60,-5,17
59,-5,17
59,-5,17
59,-5,17
59,-6,17
59,-5,18
61,-5,18
61,-5,18
62,-4,18
61,-4,18
61,-4,17
61,-5,17
60,-5,18
59,-5,18
59,-5,18
59,-5,19
59,-5,19
60,-4,19
61,-4,19
60,-4,18
60,-4,19
59,-4,18
59,-4,18
60,-4,18
60,-4,19
60,-4,18
60,-4,18
61,-4,17
61,-4,17
61,-4,17
61,-4,17
61,-4,16
61,-4,16
61,-5,15
61,-5,14
60,-5,14
62,-5,13
62,-5,13
62,-5,12
62,-5,12
62,-5,12
62,-6,11
61,-6,11
61,-5,11
61,-6,11
61,-6,11
62,-6,11
61,-6,11
62,-7,11
62,-7,11
62,-7,12
62,-7,11
62,-7,12
62,-7,11
61,-7,11
62,-8,11
61,-7,11
61,-7,11
61,-7,11
61,-7,11
62,-7,10
61,-8,9
62,-8,10
60,-9,10
62,-9,10
60,-9,10
59,-9,11
61,-8,10
61,-8,11
61,-8,11
60,-8,10
62,-8,12
62,-8,12
61,-7,11
63,-7,12
63,-7,13
65,-7,13
64,-7,13
60,-7,12
61,-8,11
64,-7,11
61,-8,10
61,-8,10
62,-8,9
63,-8,8
60,-8,8
60,-8,7
61,-9,6
61,-9,6
61,-9,7
60,-9,8
61,-9,8
63,-9,8
62,-8,8
61,-9,8
62,-9,7
62,-9,7
61,-9,9
62,-9,8
61,-9,8
61,-9,8
61,-9,9
61,-9,8
61,-9,8
61,-10,8
61,-10,8
62,-9,7
63,-9,7
63,-9,7
63,-9,7
63,-10,7
62,-10,7
62,-10,7
62,-10,7
61,-10,7
61,-11,7
61,-11,7
61,-11,7
61,-11,7
61,-11,7
61,-11,7
61,-11,7
61,-11,7
62,-10,8
63,-10,8
62,-11,7
62,-11,7
62,-11,8
62,-10,8
61,-10,8
61,-10,8
62,-10,9
63,-10,9
63,-10,10
62,-10,9
66,-11,11
66,-11,11
64,-11,10
63,-10,10
60,-9,13
59,-9,13
57,-10,12
58,-10,11
59,-11,12
61,-11,12
60,-11,11
60,-11,10
61,-12,10
61,-12,11
60,-13,11
59,-13,10
60,-13,11
60,-13,11
60,-13,10
61,-13,11
62,-12,13
60,-11,12
60,-11,12
62,-11,13
61,-12,14
59,-12,13
60,-12,12
61,-12,13
61,-13,14
61,-13,14
61,-13,12
61,-13,13
61,-12,13
60,-12,14
60,-11,14
60,-11,14
60,-10,14
60,-10,14
60,-9,14
61,-8,15
61,-8,16
60,-8,16
59,-8,16
60,-8,16
59,-8,16
60,-8,15
61,-9,15
60,-10,15
60,-10,14
60,-11,14
60,-12,14
61,-11,14
60,-11,14
59,-11,14
59,-11,15
59,-10,15
59,-11,15
60,-11,15
60,-10,16
60,-10,17
59,-10,16
60,-10,17
60,-11,18
60,-11,17
60,-11,17
59,-11,18
60,-11,18
60,-11,18
60,-11,17
60,-11,17
60,-11,18
60,-10,17
59,-10,17
59,-10,17
59,-9,18
59,-9,19
59,-9,19
58,-9,19
59,-9,19
59,-10,20
60,-9,20
60,-10,20
59,-10,21
59,-10,21
58,-10,20
59,-10,20
58,-11,22
59,-11,22
59,-11,21
57,-11,21
57,-11,22
57,-11,22
58,-12,22
58,-12,23
56,-12,23
56,-12,22
57,-12,23
57,-12,24
56,-12,23
56,-12,24
56,-12,24
57,-12,24
56,-12,25
55,-12,25
55,-12,25
56,-12,25
56,-12,26
55,-13,25
56,-13,25
56,-13,25
56,-13,25
55,-12,25
56,-13,25
57,-13,24
56,-13,25
56,-13,24
56,-13,24
56,-13,24
56,-13,24
56,-13,23
57,-13,23
57,-13,24
56,-13,24
56,-13,24
56,-13,25
55,-13,25
56,-13,26
55,-13,26
54,-13,26
55,-13,26
55,-13,26
55,-13,27
55,-13,27
55,-13,27
55,-13,27
55,-14,27
55,-13,28
54,-14,27
55,-14,28
55,-14,28
54,-14,28
54,-13,29
53,-14,29
54,-13,29
54,-13,29
54,-14,29
54,-14,29
54,-14,29
54,-14,30
54,-14,30
54,-14,30
54,-14,30
54,-13,30
53,-13,30
53,-14,30
53,-13,31
53,-13,31
52,-14,31
52,-14,31
53,-13,31
52,-14,31
53,-14,31
52,-14,31
52,-14,31
52,-14,31
52,-14,31
52,-14,31
51,-14,31
51,-14,31
52,-15,32
52,-15,32
52,-15,32
52,-14,32
53,-14,32
53,-14,32
52,-14,32
52,-14,31
52,-13,31
52,-13,31
52,-14,31
52,-14,31
52,-14,31
52,-14,32
52,-15,32
52,-14,32
53,-14,33
52,-14,33
52,-14,32
52,-14,33
52,-13,32
51,-13,31
51,-13,31
55,-13,31
54,-13,31
53,-13,30
54,-13,30
54,-13,30
55,-13,29
54,-13,29
53,-13,29
54,-13,29
54,-13,29
53,-13,29
54,-13,29
54,-13,30
52,-13,30
52,-13,30
53,-13,30
55,-13,30
56,-13,29
56,-13,30
52,-13,31
52,-13,32
53,-13,31
52,-13,31
53,-12,31
53,-12,31
53,-12,31
52,-12,30
52,-13,31
53,-12,31
52,-12,31
54,-12,31
53,-12,31
54,-13,31
53,-12,32
52,-12,32
53,-12,33
53,-12,33
52,-12,32
53,-12,32
53,-12,32
53,-12,32
53,-12,31
54,-12,32
52,-12,32
53,-12,31
51,-12,33
52,-12,31
54,-12,30
53,-12,31
53,-12,32
54,-12,32
53,-12,31
53,-12,31
54,-12,32
54,-12,32
53,-12,32
52,-12,31
53,-12,31
53,-12,31
53,-12,31
53,-12,31
53,-12,31
53,-12,31
53,-12,31
53,-12,31
53,-12,31
53,-12,31
53,-12,32
53,-12,31
53,-12,31
53,-12,32
53,-12,31
53,-12,31
53,-12,31
53,-12,31
53,-12,31
53,-12,31
53,-12,31
53,-12,31
53,-12,31
