1.5193e+09,1.5193e+09
268.26,0.68753
269.12,0.85941
281.5,0.67191
286.31,0.85941
292.45,0.70316
298.62,0.68753
333.86,0.73441
334.55,0.68753
335.3,0.75003
335.89,0.59378
336.5,0.6094
337.16,0.65628
337.77,0.6094
338.44,0.67191
350.8,0.67191
351.38,0.57815
361.05,0.65628
361.7,0.65628
362.41,0.70316
363.03,0.62503
363.66,0.62503
364.3,0.64065
369.53,0.6094
370.1,0.56253
370.7,0.6094
371.28,0.57815
371.89,0.6094
372.45,0.56253
373.05,0.59378
373.64,0.59378
374.24,0.59378
378.33,0.65628
378.92,0.59378
394.11,0.57815
394.71,0.59378
395.33,0.62503
401.82,0.70316
402.5,0.68753
403.16,0.65628
403.85,0.68753
404.53,0.68753
405.32,0.78129
405.94,0.62503
406.63,0.68753
445.83,0.5469
467.24,0.64065
467.87,0.62503
468.52,0.65628
469.16,0.64065
469.82,0.65628
470.49,0.67191
471.16,0.67191
487.91,0.62503
488.55,0.64065
495.12,0.65628
495.79,0.67191
496.4,0.6094
496.94,0.5469
497.65,0.70316
498.23,0.57815
502.76,0.68753
503.43,0.67191
503.94,0.51565
524.48,0.64065
525.13,0.65628
525.85,0.71878
526.49,0.64065
527.2,0.70316
527.9,0.70316
528.56,0.65628
529.2,0.64065
529.84,0.64065
530.52,0.68753
549.28,0.62503
550.01,0.73441
550.67,0.65628
551.37,0.70316
566.37,0.67191
566.92,0.5469
567.56,0.64065
568.23,0.67191
568.85,0.62503
574.7,0.64065
575.31,0.6094
575.92,0.6094
592.51,0.71878
593.11,0.59378
593.78,0.67191
605.45,0.71878
606.04,0.59378
606.72,0.67191
607.39,0.67191
636.75,0.70316
637.44,0.68753
638.15,0.71878
638.83,0.67191
639.51,0.68753
640.17,0.65628
640.75,0.57815
659.17,0.62503
659.78,0.6094
660.45,0.67191
661.09,0.64065
661.75,0.65628
685.2,0.6094
685.84,0.64065
686.52,0.67191
687.2,0.68753
687.86,0.65628
688.55,0.68753
689.25,0.70316
689.83,0.57815
690.5,0.67191
691.16,0.65628
691.77,0.6094
692.39,0.62503
693.02,0.62503
698.53,0.78129
699.34,0.81254
708.03,0.70316
708.67,0.64065
709.36,0.68753
723.52,0.62503
724.22,0.70316
731.53,0.71878
732.22,0.68753
732.86,0.64065
733.56,0.70316
734.25,0.68753
739.08,0.73441
739.85,0.76566
740.52,0.67191
741.3,0.78129
746.02,0.65628
760.74,0.62503
761.38,0.64065
762.02,0.64065
762.66,0.64065
763.38,0.71878
764.11,0.73441
764.85,0.73441
765.5,0.65628
766.21,0.70316
766.85,0.64065
774.16,0.57815
789.9,0.64065
790.54,0.64065
791.24,0.70316
791.86,0.62503
792.61,0.75003
793.26,0.64065
793.91,0.65628
794.58,0.67191
795.32,0.73441
796.02,0.70316
802.99,0.67191
803.65,0.65628
804.36,0.71878
805.1,0.73441
805.8,0.70316
806.58,0.78129
807.26,0.67191
808.07,0.81254
808.82,0.75003
820.83,0.65628
821.49,0.65628
841.82,0.64065
842.59,0.76566
843.34,0.75003
844.02,0.68753
844.68,0.65628
845.34,0.65628
846.04,0.70316
846.76,0.71878
847.51,0.75003
852.34,0.65628
852.96,0.62503
853.68,0.71878
854.35,0.67191
855.07,0.71878
859.2,0.76566
859.93,0.73441
860.6,0.67191
861.46,0.85941
864.88,0.70316
865.57,0.68753
866.27,0.70316
866.95,0.67191
867.63,0.68753
868.35,0.71878
869.02,0.67191
869.74,0.71878
870.51,0.76566
871.21,0.70316
871.93,0.71878
872.62,0.68753
873.26,0.64065
873.93,0.67191
874.62,0.68753
875.23,0.6094
876.01,0.78129
876.71,0.70316
877.32,0.6094
878.04,0.71878
878.7,0.65628
879.38,0.68753
880.13,0.75003
880.76,0.62503
881.43,0.67191
882.12,0.68753
882.81,0.68753
883.54,0.73441
884.27,0.73441
884.99,0.71878
885.67,0.67191
886.35,0.68753
887.07,0.71878
887.81,0.73441
888.57,0.76566
889.35,0.78129
890.03,0.67191
890.73,0.70316
891.43,0.70316
892.17,0.73441
892.96,0.79691
893.7,0.73441
894.4,0.70316
895.13,0.73441
917,0.71878
917.67,0.67191
918.32,0.65628
919,0.67191
919.7,0.70316
920.43,0.73441
921.15,0.71878
921.85,0.70316
922.53,0.67191
923.23,0.70316
923.95,0.71878
924.64,0.68753
925.29,0.65628
925.95,0.65628
926.65,0.70316
927.4,0.75003
928.17,0.76566
928.89,0.71878
929.61,0.71878
930.28,0.67191
930.95,0.67191
931.65,0.70316
932.37,0.71878
933.09,0.71878
933.78,0.68753
934.5,0.71878
935.15,0.65628
935.89,0.73441
936.65,0.76566
937.37,0.71878
938.07,0.70316
938.78,0.70316
939.51,0.73441
940.28,0.76566
941.06,0.78129
941.79,0.73441
942.45,0.65628
943.18,0.73441
943.81,0.62503
948.01,0.70316
948.78,0.76566
958.95,0.59378
959.48,0.53127
960.09,0.6094
960.7,0.6094
961.31,0.6094
961.95,0.64065
962.56,0.6094
963.2,0.64065
963.81,0.6094
964.42,0.6094
965.04,0.62503
965.68,0.64065
966.36,0.67191
967.03,0.67191
967.65,0.62503
968.36,0.70316
968.98,0.62503
969.7,0.71878
970.37,0.67191
971.04,0.67191
971.7,0.65628
972.39,0.68753
973.11,0.71878
973.84,0.73441
974.58,0.73441
975.28,0.70316
976,0.71878
976.76,0.76566
977.48,0.71878
978.2,0.71878
979.11,0.90629
982.39,0.70316
983.08,0.68753
983.78,0.70316
984.53,0.75003
985.31,0.78129
986.01,0.70316
986.72,0.70316
987.34,0.62503
988.11,0.76566
1008.7,0.71878
1020.4,0.67191
1021.1,0.68753
1021.7,0.68753
1022.4,0.67191
1023.1,0.67191
1023.8,0.68753
1024.5,0.67191
1025.1,0.64065
1025.8,0.70316
1026.5,0.70316
1027.3,0.75003
1028,0.71878
1028.7,0.70316
1029.4,0.70316
1030.1,0.73441
1030.8,0.71878
1031.5,0.70316
1032.2,0.70316
1032.9,0.65628
1033.5,0.65628
1034.3,0.70316
1035,0.73441
1035.7,0.73441
1036.5,0.78129
1037.2,0.70316
1038,0.76566
1038.7,0.76566
1039.5,0.78129
1040.3,0.75003
1041,0.70316
1041.7,0.70316
1042.3,0.67191
1043.1,0.75003
1043.8,0.68753
1044.5,0.68753
1045.1,0.65628
1045.9,0.73441
1046.6,0.73441
1060.9,0.70316
1061.6,0.67191
1062.3,0.71878
1063,0.70316
1063.7,0.68753
1076.4,0.64065
1088.8,0.71878
1089.5,0.67191
1090.2,0.70316
1090.9,0.70316
1091.6,0.71878
1092.3,0.68753
1093,0.70316
1093.7,0.71878
1094.5,0.76566
1095.3,0.76566
1096,0.75003
1096.7,0.71878
1097.4,0.70316
1098.1,0.64065
1098.9,0.81254
1102.1,0.64065
1102.8,0.70316
1103.5,0.71878
1104.3,0.71878
1104.9,0.67191
1105.6,0.68753
1112.2,0.65628
1113,0.78129
1113.6,0.65628
1114.3,0.68753
1115,0.70316
1115.8,0.73441
1135,0.68753
1135.6,0.67191
1136.3,0.67191
1137,0.67191
1137.7,0.70316
1138.4,0.71878
1139.1,0.75003
1143.4,0.76566
1144.2,0.76566
1144.9,0.73441
1145.6,0.70316
1146.3,0.70316
1147.1,0.71878
1147.8,0.73441
1148.5,0.75003
1149.3,0.71878
1149.9,0.68753
1150.6,0.68753
1151.3,0.71878
1152.1,0.75003
1152.8,0.71878
1153.5,0.68753
1154.2,0.68753
1154.9,0.68753
1155.6,0.73441
1156.4,0.75003
1157.1,0.68753
1177.3,0.6094
1178,0.65628
1178.7,0.67191
1179.3,0.65628
1180,0.65628
1180.7,0.68753
1181.3,0.64065
1187.4,0.78129
1188.2,0.76566
1188.9,0.75003
1189.7,0.71878
1193.3,0.68753
1194,0.70316
1200.4,0.75003
1201.1,0.68753
1201.8,0.67191
1202.4,0.68753
1203.2,0.71878
1203.9,0.73441
1204.6,0.68753
1205.3,0.67191
1205.9,0.65628
1206.6,0.71878
1207.4,0.73441
1208.1,0.75003
1208.9,0.75003
1209.6,0.71878
1210.3,0.68753
1211,0.76566
1211.9,0.85941
1212.7,0.78129
1213.4,0.75003
1214.2,0.78129
1215,0.78129
1215.8,0.79691
1216.6,0.76566
1217.3,0.73441
1218,0.71878
1218.7,0.73441
1219.5,0.76566
1220.3,0.79691
1221.1,0.75003
1221.8,0.70316
1222.5,0.70316
1223.2,0.73441
1224,0.78129
1224.8,0.79691
1225.5,0.71878
1226.2,0.68753
1226.8,0.64065
1227.6,0.75003
1228.3,0.73441
1229.1,0.75003
1229.8,0.78129
1230.6,0.73441
1231.3,0.71878
1235.7,0.73441
1242.4,0.75003
1243.1,0.73441
1243.8,0.71878
1244.6,0.78129
1245.4,0.79691
1246.2,0.78129
1251,0.78129
1251.7,0.75003
1252.4,0.71878
1253.2,0.78129
1253.9,0.70316
1254.7,0.75003
1255.4,0.76566
1256.2,0.71878
1256.9,0.70316
1257.6,0.71878
1258.4,0.79691
1259.2,0.79691
1259.9,0.76566
1260.7,0.73441
1261.4,0.75003
1262.2,0.73441
1263,0.79691
1263.7,0.78129
1264.5,0.73441
1265.2,0.71878
1265.9,0.75003
1266.7,0.76566
1267.5,0.81254
1268.2,0.71878
1269,0.71878
1269.7,0.70316
1270.3,0.65628
1271.1,0.79691
1271.9,0.73441
1272.5,0.67191
1273.2,0.68753
1274,0.76566
1274.8,0.81254
1275.6,0.82816
1276.3,0.71878
1277.1,0.73441
1277.8,0.71878
1278.5,0.75003
1279.2,0.68753
1279.9,0.67191
1280.6,0.70316
1281.3,0.70316
1282.1,0.78129
1282.9,0.82816
1283.7,0.79691
1284.5,0.76566
1285.2,0.76566
1286,0.79691
1286.8,0.76566
1287.6,0.76566
1288.3,0.68753
1289,0.73441
1289.6,0.59378
1290.3,0.68753
1291,0.70316
1291.8,0.78129
1292.5,0.76566
1293.3,0.78129
1294.1,0.75003
1294.8,0.76566
1295.6,0.78129
1296.4,0.81254
1297.2,0.81254
1298,0.75003
1298.7,0.67191
1299.4,0.75003
1300.1,0.68753
1300.8,0.73441
1301.6,0.75003
1302.3,0.70316
1303,0.67191
1303.7,0.70316
1326.9,0.6094
1327.5,0.64065
1328.1,0.64065
1328.8,0.62503
1329.4,0.6094
1330,0.6094
1330.6,0.6094
1331.2,0.64065
1331.9,0.67191
1332.6,0.73441
1333.4,0.73441
1334.1,0.70316
1334.8,0.71878
