,EDA,rise_time,max_deriv,amp,decay_time,SCR_width,AUC
2018-02-22 11:46:46.500000,1.7486,1.125,0.05701239198646135,0.027549999999999963,0.25,1.375,0.03788124999999995
2018-02-22 11:46:56.625000,1.812,4.0,0.03780540926237386,0.07810000000000006,,,
2018-02-22 11:47:00.875000,1.9842,4.0,0.024759285495454364,0.13379999999999992,1.75,3.5,0.4682999999999997
2018-02-22 11:47:08.750000,1.9496,4.0,0.00902179967435579,0.06010000000000004,0.75,2.5,0.1502500000000001
2018-02-22 11:47:12.500000,2.079,4.0,0.02446216859717154,0.1191000000000002,1.125,2.875,0.34241250000000056
2018-02-22 11:47:38,1.7038,4.0,0.06648602150557004,0.05509999999999993,,,
2018-02-22 11:47:41.500000,1.9471,4.0,0.016682947643683832,0.1473,1.5,3.25,0.47872499999999996
2018-02-22 11:47:53.125000,2.29475,4.0,0.0233009180275765,0.1684000000000001,0.75,2.625,0.4420500000000003
2018-02-22 11:48:18,1.7576,4.0,0.02708287976906476,0.04360000000000008,,,
2018-02-22 11:48:21.875000,1.8088,4.0,0.014176124661407385,0.03139999999999987,1.625,3.0,0.09419999999999962
2018-02-22 11:48:29.375000,2.6860999999999997,4.0,0.11170377562089584,0.4604999999999997,,,
2018-02-22 11:48:36.625000,2.19945,1.75,0.01387352265312991,0.02815000000000012,0.375,1.75,0.04926250000000021
2018-02-22 11:48:43.125000,2.3453,4.0,0.19934559432591925,0.3982000000000001,1.375,2.75,1.0950500000000003
2018-02-22 11:48:47.250000,2.2864,4.0,0.02950160445958261,0.03710000000000013,0.75,2.625,0.09738750000000035
2018-02-22 11:48:50.125000,2.3209999999999997,1.125,0.09241390257713356,0.04989999999999961,0.5,1.5,0.07484999999999942
2018-02-22 11:48:56,2.8506,4.0,0.08818351924025869,0.4706999999999999,1.625,3.25,1.5297749999999997
2018-02-22 11:49:04.625000,2.7603999999999997,4.0,0.07321682503826743,0.34899999999999975,1.375,3.0,1.0469999999999993
2018-02-22 11:49:12.375000,2.76165,4.0,0.12204726115231423,0.34514999999999985,0.625,2.25,0.7765874999999997
2018-02-22 11:49:14.875000,2.6227,1.0,0.15613672019821756,0.043549999999999756,0.25,1.25,0.054437499999999694
2018-02-22 11:49:19.500000,2.7289999999999996,1.5,0.14579108928241524,0.16259999999999986,1.25,2.625,0.4268249999999996
2018-02-22 11:49:38.375000,2.8173500000000002,4.0,0.2596495032714774,0.3105000000000002,1.25,2.375,0.7374375000000005
2018-02-22 11:49:43.750000,2.7328,4.0,0.08360272090650511,0.33550000000000013,,,
2018-02-22 11:49:52.500000,2.7289999999999996,1.875,0.08200615372139097,0.25544999999999973,,,
2018-02-22 11:50:05,2.6522,4.0,0.18025368605320047,0.25229999999999997,,,
2018-02-22 11:50:16.500000,2.6125,4.0,0.05134984541616916,0.19079999999999986,,,
2018-02-22 11:50:24.750000,2.5561,1.375,0.09576504764530291,0.1248499999999999,1.625,2.75,0.34333749999999974
2018-02-22 11:50:33.250000,2.7315,4.0,0.04911671169962517,0.25349999999999984,1.375,3.125,0.7921874999999995
2018-02-22 11:50:39.750000,2.4703,1.625,0.017003706393486695,0.03584999999999994,,,
2018-02-22 11:50:43,2.6368,4.0,0.039655041810055636,0.16389999999999993,1.25,2.875,0.4712124999999998
2018-02-22 11:50:53.500000,2.542,1.75,0.08768875901427897,0.2163999999999997,,,
2018-02-22 11:51:02.750000,2.8711,4.0,0.2390860988914003,0.40080000000000027,,,
2018-02-22 11:51:07.250000,2.8494,1.375,0.10304464272461367,0.13895000000000035,,,
2018-02-22 11:51:13.375000,2.97515,4.0,0.03421616205098488,0.1482000000000001,0.75,2.5,0.3705000000000003
2018-02-22 11:51:19.875000,3.01675,4.0,0.12070875406373283,0.14855000000000018,0.5,1.75,0.2599625000000003
2018-02-22 11:51:25.375000,2.7088,1.25,0.06379892356527073,0.06850000000000023,0.5,1.5,0.10275000000000034
2018-02-22 11:51:39.500000,2.9265,4.0,0.032541943098616244,0.1511,,,
2018-02-22 11:51:44.500000,3.1019,4.0,0.019556983128019567,0.1485000000000003,1.25,3.0,0.4455000000000009
2018-02-22 11:51:48.625000,3.2306,1.75,0.0868065753999776,0.20484999999999998,1.125,2.5,0.5121249999999999
2018-02-22 11:51:56.500000,3.1416,4.0,0.11351328401584126,0.22409999999999997,,,
2018-02-22 11:51:58.375000,3.1788,1.125,0.04323933965972593,0.025599999999999845,0.25,1.375,0.03519999999999979
2018-02-22 11:52:03.375000,3.06095,1.5,0.058519105881075006,0.06915000000000004,1.0,2.25,0.1555875000000001
2018-02-22 11:52:12.875000,3.2716000000000003,4.0,0.024871163061003898,0.046050000000000146,0.375,2.125,0.09785625000000031
2018-02-22 11:52:17.875000,3.1704,4.0,0.008787846314548986,0.08509999999999973,0.875,2.75,0.23402499999999926
2018-02-22 11:52:24,3.2991,1.5,0.20107104832525025,0.29190000000000005,,,
2018-02-22 11:52:31.375000,3.1839000000000004,4.0,0.044787764538346764,0.058900000000000396,0.125,2.125,0.12516250000000084
2018-02-22 11:52:34.500000,3.2915,4.0,0.13841964975401133,0.2997000000000001,,,
2018-02-22 11:52:46.250000,3.4806,4.0,0.12029108030822577,0.2185999999999999,1.25,2.625,0.5738249999999998
2018-02-22 11:52:53.500000,3.2757,1.375,0.02471799734241742,0.022400000000000198,,,
2018-02-22 11:52:58.375000,3.5158,4.0,0.06789581429878844,0.22405000000000008,1.875,3.375,0.7561687500000003
2018-02-22 11:53:08.125000,3.75655,4.0,0.19922305556989883,0.35855000000000015,0.875,2.375,0.8515562500000003
2018-02-22 11:53:10.750000,3.779,1.375,0.14634227912521247,0.15944999999999965,0.5,1.625,0.2591062499999994
2018-02-22 11:53:17.875000,3.39285,1.0,0.0694236092406868,0.030050000000000132,,,
2018-02-22 11:53:21,3.674,4.0,0.051612048835471214,0.19599999999999973,1.75,3.375,0.6614999999999991
2018-02-22 11:53:31.875000,3.66305,4.0,0.13046502540863258,0.2592500000000002,,,
2018-02-22 11:53:35.375000,3.9347000000000003,1.875,0.07836430007817974,0.21080000000000032,1.25,2.875,0.6060500000000009
2018-02-22 11:53:43.750000,3.7971,4.0,0.0669496938002716,0.06150000000000011,,,
2018-02-22 11:53:46,4.0237,1.625,0.08505084377570071,0.17539999999999978,0.75,2.125,0.37272499999999953
2018-02-22 11:53:56.750000,3.92,4.0,0.03260415791303117,0.18949999999999978,1.25,2.875,0.5448124999999994
2018-02-22 11:54:02.125000,3.9347000000000003,1.875,0.11363746037064004,0.19780000000000042,0.875,2.125,0.4203250000000009
2018-02-22 11:54:05.875000,4.01735,1.25,0.16701296682190048,0.14475000000000016,0.625,1.75,0.2533125000000003
2018-02-22 11:54:12.250000,3.984,1.875,0.11266761220364074,0.2766000000000002,,,
2018-02-22 11:54:15,4.1121,1.625,0.07995809312204827,0.12359999999999971,0.75,2.0,0.24719999999999942
2018-02-22 11:54:20.875000,3.8777,1.875,0.038588677256298,0.11909999999999998,,,
2018-02-22 11:54:23.875000,3.9852999999999996,1.75,0.054142485506902815,0.10114999999999963,1.0,2.25,0.22758749999999917
2018-02-22 11:54:30.625000,4.333600000000001,4.0,0.1449430188588252,0.32394999999999996,1.375,2.75,0.8908624999999999
2018-02-22 11:54:37.625000,3.92835,1.875,0.054813638496614914,0.03144999999999998,,,
2018-02-22 11:54:41,3.9981,4.0,0.005220726232938233,0.025599999999999845,,,
2018-02-22 11:54:43.625000,4.2939,4.0,0.09656382373145078,0.27529999999999966,1.75,3.25,0.8947249999999989
2018-02-22 11:54:57.625000,4.2036,1.625,0.05347234218068664,0.08000000000000007,0.75,2.0,0.16000000000000014
2018-02-22 11:55:03.125000,4.2677,1.875,0.08038013266203237,0.18509999999999938,1.375,2.75,0.5090249999999983
2018-02-22 11:55:10.250000,4.2414,1.75,0.09105475909193927,0.18179999999999996,,,
2018-02-22 11:55:14.750000,4.4219,4.0,0.03446089448342349,0.13060000000000027,0.75,2.375,0.31017500000000064
2018-02-22 11:55:22.375000,4.193300000000001,4.0,0.052436405338323056,0.06405000000000083,1.0,2.25,0.14411250000000186
2018-02-22 11:55:30.375000,4.3764,4.0,0.02059918346652978,0.10945000000000071,1.75,3.375,0.3693937500000024
2018-02-22 11:55:39.375000,4.450699999999999,1.875,0.08162271036036373,0.14539999999999953,,,
2018-02-22 11:55:51.750000,4.5602,4.0,0.012077623355160938,0.07169999999999987,1.125,2.875,0.20613749999999964
2018-02-22 11:56:06,4.3476,1.75,0.054126277643092635,0.04349999999999987,,,
2018-02-22 11:56:12.750000,4.6332,4.0,0.05486997296919682,0.2024000000000008,0.625,2.25,0.4554000000000018
2018-02-22 11:56:25.500000,4.5192,4.0,0.006531868858587586,0.04479999999999951,,,
2018-02-22 11:56:28.125000,4.59985,4.0,0.03726895522562401,0.07039999999999935,,,
2018-02-22 11:56:35,4.931,4.0,0.07215019317897742,0.33750000000000036,1.375,3.0,1.012500000000001
2018-02-22 11:56:52.375000,4.9259,4.0,0.07058642034794005,0.2632000000000003,1.625,3.25,0.855400000000001
2018-02-22 11:57:19,4.9745,4.0,0.11278336487698581,0.2907000000000002,,,
2018-02-22 11:57:30.125000,5.0328,4.0,0.060481063029449444,0.18634999999999913,1.5,3.0,0.5590499999999974
2018-02-22 11:57:39,4.9617,4.0,0.04249874624432337,0.11910000000000043,1.25,2.75,0.3275250000000012
2018-02-22 11:57:48.250000,5.0539,4.0,0.07036437391939288,0.25099999999999945,1.625,3.125,0.7843749999999983
2018-02-22 11:57:58.250000,5.1052,4.0,0.0691757721378714,0.24979999999999958,1.5,3.125,0.7806249999999987
2018-02-22 11:58:08.750000,4.7812,1.875,0.017890296933579464,0.03910000000000036,1.625,3.0,0.11730000000000107
2018-02-22 11:58:14.125000,5.29725,4.0,0.13703142393677226,0.3918999999999997,1.75,3.25,1.273674999999999
2018-02-22 11:58:20.500000,5.4772,4.0,0.28827484220549593,0.6871,1.75,3.25,2.2330750000000004
2018-02-22 11:58:31.125000,4.70945,1.125,0.07310984308670854,0.029450000000000642,0.5,1.5,0.044175000000000963
2018-02-22 11:58:55.625000,5.1295,4.0,0.14282625383093617,0.5181000000000004,1.625,3.25,1.6838250000000015
2018-02-22 11:59:03,5.0014,4.0,0.09081633953841362,0.40080000000000027,1.625,3.25,1.3026000000000009
2018-02-22 11:59:15.625000,4.88875,4.0,0.17405060091835267,0.2209500000000002,1.375,2.5,0.5523750000000005
2018-02-22 11:59:29.875000,5.051349999999999,4.0,0.11309947288836497,0.313699999999999,1.25,2.75,0.8626749999999972
2018-02-22 11:59:46.625000,4.9137,4.0,0.061406421976904824,0.14920000000000044,1.0,2.375,0.35435000000000105
2018-02-22 11:59:55.875000,5.1365,4.0,0.03163393094020961,0.025599999999999845,0.125,2.125,0.05439999999999967
2018-02-22 12:00:05.750000,4.785,1.75,0.018729831543172537,0.05250000000000021,0.75,2.125,0.11156250000000045
2018-02-22 12:00:10.625000,5.1442,1.75,0.15948695512279087,0.25675000000000026,0.75,2.0,0.5135000000000005
2018-02-22 12:00:23.250000,5.2857,4.0,0.18117341059456749,0.37650000000000006,1.375,2.75,1.0353750000000002
2018-02-22 12:00:47.625000,4.72675,1.75,0.03657724429284315,0.06660000000000021,1.625,3.0,0.19980000000000064
2018-02-22 12:00:53.375000,5.2326,4.0,0.059545301638227244,0.18445,1.0,2.625,0.48418125
2018-02-22 12:00:59.875000,5.3139,4.0,0.129733285533284,0.3188500000000012,,,
2018-02-22 12:01:03.500000,5.5143,1.5,0.13139246009010463,0.17100000000000026,,,
2018-02-22 12:01:07.500000,5.595,1.5,0.17464865592968337,0.2676999999999996,1.125,2.375,0.6357874999999991
2018-02-22 12:01:11.750000,5.44,1.75,0.07747439768946762,0.13700000000000045,,,
2018-02-22 12:01:14.250000,5.5911,1.5,0.09710792479292607,0.13699999999999957,0.625,1.875,0.2568749999999992
2018-02-22 12:01:25.250000,5.1365,4.0,0.04534605026199401,0.1280000000000001,1.125,2.75,0.3520000000000003
2018-02-22 12:01:37.250000,5.2844,4.0,0.12615077690941234,0.3149999999999995,,,
2018-02-22 12:01:44.375000,5.29145,0.875,0.23936885664712904,0.06594999999999995,,,
2018-02-22 12:01:46.250000,5.7064,1.5,0.20364218698845704,0.30930000000000035,1.0,2.25,0.6959250000000008
2018-02-22 12:01:50.875000,5.63535,4.0,0.08959174673807979,0.30355000000000043,1.0,2.5,0.7588750000000011
2018-02-22 12:01:55.125000,5.5604,1.375,0.24300140686739624,0.27919999999999945,1.125,2.25,0.6281999999999988
2018-02-22 12:02:07.500000,5.004,4.0,0.030841555815538158,0.1100999999999992,1.875,3.5,0.3853499999999972
2018-02-22 12:02:21.625000,5.4701,4.0,0.19134274970511456,0.6691000000000003,,,
2018-02-22 12:02:32.750000,4.9822,4.0,0.06336609801729054,0.1971999999999996,1.875,3.375,0.6655499999999986
2018-02-22 12:02:46.875000,4.9098500000000005,4.0,0.04049541926914557,0.11905000000000054,1.625,3.125,0.3720312500000017
2018-02-22 12:02:57.125000,5.37535,4.0,0.024324512389409136,0.23690000000000033,0.75,2.5,0.5922500000000008
2018-02-22 12:03:15.375000,4.718450000000001,4.0,0.0227592454762231,0.054450000000001,,,
2018-02-22 12:03:19.375000,4.966200000000001,4.0,0.028807936888526342,0.13955000000000073,1.0,2.75,0.383762500000002
2018-02-22 12:03:30.750000,4.899,4.0,0.03596369529446619,0.0871000000000004,0.375,2.25,0.1959750000000009
2018-02-22 12:03:41.750000,5.1218,4.0,0.10099689207666174,0.34580000000000055,1.625,3.125,1.0806250000000017
2018-02-22 12:03:51.875000,5.0046,4.0,0.030999255538514348,0.17409999999999926,1.5,3.25,0.5658249999999976
2018-02-22 12:03:56.375000,5.2479499999999994,1.75,0.1324006675383913,0.30349999999999966,1.25,2.625,0.7966874999999991
2018-02-22 12:04:00.250000,5.1858,1.5,0.07593449202845903,0.10370000000000079,0.75,2.0,0.20740000000000158
2018-02-22 12:04:06.375000,5.319649999999999,4.0,0.17509051818898058,0.4449999999999994,,,
2018-02-22 12:04:11.750000,5.6155,1.875,0.11315124831342871,0.34450000000000003,,,
2018-02-22 12:04:19.750000,5.5796,4.0,0.0701621066350171,0.24589999999999979,1.5,3.125,0.7684374999999993
2018-02-22 12:04:25.875000,5.72815,1.625,0.11603005154512402,0.27145000000000064,0.875,2.25,0.6107625000000014
