1.5206e+09,1.5206e+09
843.62,0.68753
844.23,0.6094
864.34,0.87504
867.88,0.84379
872.35,0.65628
873.07,0.71878
873.79,0.71878
874.52,0.73441
875.34,0.81254
876.12,0.78129
883.27,0.73441
884.09,0.81254
884.87,0.78129
885.62,0.75003
886.4,0.78129
887.09,0.68753
887.82,0.73441
888.57,0.75003
889.31,0.73441
889.99,0.68753
890.7,0.70316
891.42,0.71878
892.18,0.76566
892.88,0.70316
893.63,0.75003
894.38,0.75003
895.13,0.75003
895.88,0.75003
896.56,0.67191
897.26,0.70316
897.95,0.68753
898.76,0.81254
899.42,0.65628
900.18,0.76566
900.92,0.73441
901.67,0.75003
902.39,0.71878
903.1,0.71878
903.84,0.73441
904.59,0.75003
905.35,0.76566
906.03,0.67191
906.73,0.70316
907.46,0.73441
908.18,0.71878
908.89,0.70316
909.57,0.68753
910.23,0.65628
910.99,0.76566
911.74,0.75003
912.51,0.76566
913.14,0.62503
913.87,0.73441
914.57,0.70316
915.31,0.73441
915.93,0.62503
916.59,0.65628
917.28,0.68753
917.93,0.65628
918.67,0.73441
919.35,0.68753
920.01,0.65628
920.71,0.70316
921.53,0.81254
922.25,0.71878
922.98,0.73441
923.75,0.76566
924.48,0.73441
925.23,0.75003
925.93,0.70316
926.62,0.68753
927.35,0.73441
928.1,0.75003
928.86,0.75003
929.57,0.71878
935.17,0.78129
935.81,0.64065
936.53,0.71878
937.23,0.70316
937.92,0.68753
938.59,0.67191
939.29,0.70316
940.03,0.73441
940.71,0.68753
941.42,0.70316
942.09,0.67191
942.9,0.81254
943.59,0.68753
944.32,0.73441
945.04,0.71878
945.81,0.76566
946.56,0.75003
947.29,0.73441
948.01,0.71878
948.73,0.71878
949.5,0.76566
950.29,0.79691
950.9,0.6094
951.7,0.79691
952.48,0.78129
953.26,0.78129
953.98,0.71878
954.72,0.73441
955.4,0.68753
956.18,0.78129
956.89,0.70316
957.58,0.68753
958.29,0.71878
963.42,0.65628
964.17,0.75003
964.89,0.71878
965.67,0.78129
966.29,0.62503
967.04,0.75003
967.78,0.73441
968.7,0.92192
971.92,0.73441
972.64,0.71878
973.36,0.71878
974.11,0.75003
974.87,0.76566
975.59,0.71878
976.39,0.79691
976.98,0.59378
977.54,0.56253
978.33,0.78129
978.92,0.59378
979.59,0.67191
980.28,0.68753
980.97,0.68753
981.67,0.70316
982.39,0.71878
983.11,0.71878
983.81,0.70316
984.53,0.71878
985.19,0.65628
985.9,0.71878
986.7,0.79691
991.59,0.73441
992.34,0.75003
993.01,0.67191
993.76,0.75003
994.56,0.79691
1000.2,0.62503
1001,0.78129
1001.6,0.62503
1002.3,0.64065
1003,0.76566
1003.8,0.75003
1004.5,0.75003
1005.3,0.71878
1006,0.71878
1006.7,0.76566
1007.4,0.65628
1008.1,0.71878
1008.8,0.68753
1009.5,0.71878
1010.3,0.78129
1011.2,0.84379
1011.9,0.78129
1012.6,0.70316
1013.5,0.82816
1014.2,0.78129
1015,0.76566
1015.7,0.73441
1016.6,0.81254
1017.3,0.73441
1018,0.75003
1018.7,0.68753
1019.5,0.76566
1020.3,0.76566
1021,0.75003
1021.8,0.75003
1022.5,0.78129
1023.4,0.81254
1024.2,0.81254
1027.7,0.68753
1028.3,0.68753
1029,0.65628
1029.8,0.75003
1030.4,0.68753
1031.3,0.81254
1031.9,0.62503
1032.7,0.79691
1033.4,0.71878
1034.1,0.71878
1034.8,0.68753
1035.5,0.68753
1036.1,0.64065
1040.5,0.6094
1047.2,0.67191
1048,0.82816
1048.6,0.64065
1049.5,0.82816
1050.3,0.79691
1053.7,0.73441
1054.5,0.75003
1055.1,0.67191
1055.8,0.71878
1056.6,0.73441
1066.3,0.78129
1067,0.70316
1067.7,0.70316
1068.4,0.75003
1071.8,0.64065
1072.5,0.75003
1073.2,0.65628
1084.5,0.67191
1085.2,0.67191
1085.9,0.71878
1086.6,0.68753
1087.2,0.67191
1088,0.79691
1088.7,0.68753
1089.4,0.70316
1090.3,0.82816
1091,0.79691
1091.7,0.68753
1092.5,0.76566
1093.1,0.64065
1093.8,0.68753
1094.6,0.73441
1095.2,0.67191
1095.9,0.67191
1096.6,0.71878
1097.4,0.73441
1098.1,0.78129
1098.9,0.75003
1099.6,0.70316
1100.3,0.73441
1101.1,0.71878
1101.8,0.70316
1102.4,0.65628
1103.1,0.67191
1103.8,0.68753
1104.5,0.75003
1105.2,0.68753
1105.9,0.73441
1106.7,0.71878
1107.4,0.75003
1108.2,0.78129
1108.9,0.68753
1109.6,0.71878
1110.3,0.70316
1111,0.70316
1115.9,0.71878
1116.5,0.57815
1134.9,0.82816
1135.6,0.65628
1136.3,0.75003
1137.1,0.71878
1137.7,0.62503
1138.3,0.67191
1139.1,0.71878
1139.7,0.62503
1140.4,0.75003
1141.2,0.71878
1141.8,0.65628
1142.6,0.75003
1143.3,0.71878
1144,0.68753
1144.7,0.71878
1145.4,0.71878
1146.2,0.75003
1146.9,0.71878
1147.6,0.76566
1148.4,0.78129
1149.2,0.81254
1150,0.75003
1150.8,0.76566
1151.4,0.65628
1161.2,0.65628
1162,0.76566
1166.6,0.68753
1167.3,0.71878
1168.1,0.81254
1168.9,0.81254
1169.6,0.68753
1170.4,0.79691
1171.1,0.70316
1171.9,0.78129
1172.6,0.68753
1173.3,0.75003
1174.1,0.76566
1174.9,0.81254
1175.7,0.81254
1176.5,0.81254
1177.3,0.75003
1178.1,0.78129
1178.9,0.85941
1179.8,0.85941
1180.6,0.79691
1181.4,0.81254
1182.3,0.87504
1183.1,0.82816
1183.9,0.76566
1184.7,0.84379
1185.5,0.84379
1186.4,0.85941
1187.2,0.79691
1188,0.79691
1188.8,0.79691
1189.6,0.81254
1190.4,0.81254
1191.1,0.71878
1191.9,0.79691
1192.7,0.81254
1193.7,0.96879
1194.5,0.81254
1195.4,0.84379
1196.2,0.84379
1197.1,0.84379
1197.8,0.75003
1198.5,0.73441
1199.3,0.73441
1200.1,0.81254
1200.9,0.84379
1201.7,0.76566
1202.5,0.79691
1203.3,0.79691
1204.1,0.81254
1204.8,0.73441
1205.6,0.76566
1206.4,0.75003
1207.2,0.89067
1208.1,0.81254
1208.9,0.84379
1209.7,0.81254
1210.5,0.82816
1211.3,0.76566
1212,0.71878
1212.8,0.73441
1213.6,0.82816
1214.3,0.75003
1215.1,0.81254
1215.9,0.76566
1216.8,0.87504
1217.6,0.79691
1218.4,0.79691
1219.2,0.82816
1220,0.82816
1223.6,0.68753
1231.2,0.78129
1231.9,0.76566
1232.7,0.78129
1233.4,0.71878
1234.2,0.73441
1234.9,0.73441
1235.7,0.78129
1236.4,0.75003
1237.2,0.78129
1238,0.78129
1238.9,0.87504
1254.2,0.71878
1254.9,0.73441
1255.7,0.71878
1256.4,0.76566
1257.1,0.68753
1257.8,0.71878
1258.5,0.71878
1259.4,0.81254
1272.8,0.78129
1276.7,0.71878
1277.6,0.93754
1283.5,0.73441
1284.2,0.68753
1284.9,0.68753
1285.5,0.62503
1286.3,0.78129
1295.2,0.68753
1296,0.73441
1296.7,0.75003
1297.5,0.76566
1298.2,0.73441
1299,0.78129
1299.8,0.81254
1300.6,0.76566
1301.4,0.78129
1302.1,0.76566
1302.9,0.78129
1303.7,0.82816
1304.5,0.73441
1305.2,0.75003
1312.7,0.75003
1313.5,0.79691
1314.3,0.78129
1315,0.70316
1319.4,0.75003
1320.1,0.67191
1320.9,0.76566
1321.7,0.85941
1322.6,0.84379
1323.4,0.85941
1327.1,0.71878
1327.9,0.79691
1328.7,0.78129
1329.5,0.79691
1330.4,0.84379
