,EDA,rise_time,max_deriv,amp,decay_time,SCR_width,AUC
2018-02-14 09:20:12.750000,0.64431,1.75,0.029406935157852754,0.05634000000000006,1.25,2.625,0.14789250000000015
2018-02-14 09:20:23.375000,0.6455900000000001,4.0,0.016993880747257606,0.04225000000000012,1.0,2.5,0.1056250000000003
2018-02-14 09:20:29.500000,0.94137,4.0,0.08838698201949446,0.16390000000000005,1.0,2.25,0.3687750000000001
2018-02-14 09:20:35.625000,0.83189,4.0,0.009354824085086921,0.07362500000000005,0.75,2.5,0.18406250000000013
2018-02-14 09:20:39.500000,0.87735,1.5,0.07517097956027952,0.10883999999999994,,,
2018-02-14 09:20:41.500000,0.9888100000000001,1.125,0.11223872942073676,0.07305000000000006,0.625,1.625,0.1187062500000001
2018-02-14 09:20:48.875000,0.9862500000000001,1.625,0.0847783071761401,0.20615000000000006,,,
2018-02-14 09:20:54.375000,1.02975,1.25,0.09157818486243485,0.06590999999999991,0.5,1.625,0.10710374999999986
2018-02-14 09:20:57.875000,0.975365,1.25,0.06017850089568366,0.05058000000000007,0.375,1.5,0.0758700000000001
2018-02-14 09:21:01.500000,0.96704,1.25,0.06579444437496029,0.06401999999999997,0.625,1.75,0.11203499999999994
2018-02-14 09:21:21.250000,0.8633299999999999,4.0,0.04486140235226266,0.13827999999999996,1.375,3.0,0.4148399999999999
2018-02-14 09:21:28.375000,1.0349,1.75,0.13527068574116452,0.26183999999999996,1.625,3.0,0.7855199999999999
2018-02-14 09:21:35.625000,0.93823,1.75,0.06269611492360028,0.11267499999999997,0.75,2.125,0.23943437499999992
2018-02-14 09:21:42.125000,0.8915,1.875,0.038862747152780486,0.08962999999999999,1.25,2.75,0.24648249999999997
2018-02-14 09:21:51.125000,0.9785649999999999,4.0,0.06280717480013909,0.17925999999999997,1.125,2.625,0.47055749999999996
