,EDA,rise_time,max_deriv,amp,decay_time,SCR_width,AUC
2018-02-20 04:13:22,5.1567,0.625,1.0682937587847583,0.21450000000000014,0.5,1.0,0.21450000000000014
2018-02-20 04:13:33.500000,5.3577,1.75,0.5056233136622161,0.8700000000000001,1.0,2.25,1.9575000000000002
2018-02-20 04:13:47.500000,7.0657,4.0,0.8131742682055147,0.8945999999999996,0.5,1.75,1.5655499999999993
2018-02-20 04:14:04.250000,4.4966,4.0,0.14562372192884254,0.3315999999999999,,,
2018-02-20 04:14:11.750000,4.3417,1.25,0.05633133031836124,0.05630000000000024,,,
2018-02-20 04:14:20,5.1785,4.0,0.21232057579377184,0.6293999999999995,,,
2018-02-20 04:14:23,6.3627,1.625,0.7260929976451536,1.1567000000000007,,,
2018-02-20 04:14:39.500000,5.2131,4.0,0.35882673703316925,0.5927999999999995,1.125,2.375,1.4078999999999988
2018-02-20 04:14:44.500000,4.8469,1.5,0.06602873226794514,0.06659999999999933,0.75,2.0,0.13319999999999865
2018-02-20 04:14:50,4.9736,4.0,0.03540420179716364,0.10880000000000045,,,
2018-02-20 04:14:53.750000,5.053,1.375,0.04944087631030669,0.054400000000000226,0.625,1.75,0.0952000000000004
2018-02-20 04:15:16.125000,5.649699999999999,4.0,0.4720297055845002,0.8431499999999996,1.25,2.5,2.107874999999999
2018-02-20 04:15:38.375000,5.44225,4.0,0.15859590229289822,0.34699999999999953,1.25,2.75,0.9542499999999987
2018-02-20 04:15:51.750000,5.722,4.0,0.30777837623869075,0.6978,1.625,3.125,2.180625
2018-02-20 04:16:11.125000,5.89515,4.0,0.34338711023445256,0.8146000000000004,1.125,2.625,2.138325000000001
2018-02-20 04:16:18.625000,7.60795,4.0,0.5818427123399132,0.6691499999999992,,,
2018-02-20 04:16:25,6.1071,4.0,0.21820879589803255,0.5528000000000004,,,
2018-02-20 04:16:30.625000,7.0809999999999995,1.5,1.0735821969076405,1.3247499999999999,1.25,2.5,3.3118749999999997
2018-02-20 04:16:36.250000,5.8804,1.375,0.12386763716002491,0.08124999999999982,,,
2018-02-20 04:16:40.250000,6.1109,0.875,0.4690946044061306,0.03329999999999966,,,
2018-02-20 04:16:44.750000,7.3377,4.0,0.2910487315914132,0.5819999999999999,1.0,2.375,1.3822499999999995
2018-02-20 04:16:53.500000,7.455,4.0,0.3151798078119903,0.6242999999999999,1.375,2.75,1.7168249999999996
2018-02-20 04:16:58.625000,6.89345,1.625,0.11631547537421838,0.16385000000000005,0.75,2.0,0.3277000000000001
2018-02-20 04:17:01,6.9754,0.75,0.2728623364907534,0.061499999999999666,1.5,2.125,0.1306874999999993
2018-02-20 04:17:12.125000,7.1533999999999995,1.75,0.1778598807762961,0.3521000000000001,0.625,2.0,0.7042000000000002
2018-02-20 04:17:14.500000,7.211,0.875,0.3320878841463184,0.08840000000000003,0.125,1.0,0.08840000000000003
2018-02-20 04:17:19.125000,7.3352,4.0,0.29381274216246567,0.30895000000000117,1.0,2.25,0.6951375000000026
2018-02-20 04:17:31,7.3308,1.0,0.2509396867294811,0.12929999999999975,0.125,1.125,0.14546249999999972
2018-02-20 04:17:35.250000,7.3461,1.5,0.1020980419710611,0.08699999999999974,1.0,2.125,0.18487499999999946
2018-02-20 04:17:39.750000,7.372999999999999,1.125,0.056091547896556904,0.03964999999999996,0.25,1.25,0.049562499999999954
2018-02-20 04:17:48,7.3474,1.625,0.07372658712915836,0.09534999999999982,1.75,3.25,0.3098874999999994
2018-02-20 04:18:08.375000,7.0509,1.5,0.05197021923528666,0.08060000000000045,0.875,2.0,0.1612000000000009
2018-02-20 04:18:19.750000,7.2916,1.875,0.2208398844779822,0.45704999999999973,1.125,2.5,1.1426249999999993
2018-02-20 04:18:46.750000,7.0329999999999995,4.0,0.1511460144181882,0.4275999999999991,,,
2018-02-20 04:19:04.625000,6.5362,1.5,0.0816514691692447,0.043550000000000644,0.125,1.5,0.06532500000000097
2018-02-20 04:19:31.250000,6.6008,1.75,0.2572910419751082,0.4276,1.625,2.875,1.22935
2018-02-20 04:19:35.625000,6.539350000000001,1.5,0.14723569932184333,0.19010000000000105,0.875,2.0,0.3802000000000021
2018-02-20 04:19:39.250000,6.4446,1.625,0.022357321928843987,0.03329999999999966,0.25,1.75,0.05827499999999941
2018-02-20 04:19:56.500000,6.2551,4.0,0.10216602238421757,0.14719999999999978,,,
2018-02-20 04:20:17.375000,5.9041,1.0,0.04987886472059344,0.024949999999999584,0.75,1.75,0.04366249999999927
2018-02-20 04:20:26.875000,6.0962,4.0,0.10053256723844228,0.2656999999999998,0.875,2.375,0.6310374999999996
2018-02-20 04:20:35.875000,5.867,1.625,0.07088337458607441,0.04549999999999965,,,
2018-02-20 04:20:47.750000,6.1199,1.875,0.05356130019202254,0.03330000000000055,0.375,2.125,0.07076250000000117
2018-02-20 04:21:12,5.874,1.375,0.1044295767217065,0.09919999999999973,,,
2018-02-20 04:21:20.125000,5.85355,1.25,0.09391713736419405,0.08389999999999986,0.5,1.625,0.13633749999999978
2018-02-20 04:21:25.250000,5.9355,4.0,0.019723871336047694,0.04100000000000037,0.875,2.75,0.11275000000000102
2018-02-20 04:21:33.500000,5.7486,1.375,0.05379901079924565,0.0365000000000002,0.375,1.625,0.05931250000000032
2018-02-20 04:21:37,5.6974,1.375,0.022175035204075044,0.020500000000000185,1.0,2.25,0.046125000000000416
2018-02-20 04:21:42.750000,5.7217,4.0,0.04180872391378898,0.11910000000000043,,,
2018-02-20 04:21:45.625000,5.7812,1.5,0.028858665705790543,0.04290000000000038,0.375,1.75,0.07507500000000067
2018-02-20 04:21:51.250000,7.0855,4.0,0.6304672767598447,1.2203999999999997,1.5,2.875,3.5086499999999994
2018-02-20 04:21:56,7.8135,4.0,0.5215095707775497,1.1231,1.125,2.5,2.80775
2018-02-20 04:22:01.500000,8.7717,4.0,0.9453409351571551,1.7847999999999988,1.125,2.5,4.461999999999997
2018-02-20 04:22:18.250000,7.487,4.0,0.16241773235399748,0.4501999999999997,1.875,3.375,1.5194249999999991
2018-02-20 04:22:38,7.1656,1.5,0.1254593390348333,0.17030000000000012,0.75,2.0,0.34060000000000024
2018-02-20 04:22:41.750000,7.4127,1.625,0.17723051131276435,0.2906000000000004,0.625,2.0,0.5812000000000008
2018-02-20 04:23:32.750000,6.2475,1.75,0.03435479316058476,0.06919999999999948,0.625,2.25,0.15569999999999884
2018-02-20 04:23:43.625000,6.172599999999999,4.0,0.052017141578822645,0.11399999999999899,,,
2018-02-20 04:23:46.125000,6.343500000000001,1.5,0.10950737809694644,0.154300000000001,0.875,2.125,0.3278875000000021
2018-02-20 04:23:55.125000,6.10595,1.75,0.021932104020027765,0.0248999999999997,0.5,1.75,0.043574999999999475
2018-02-20 04:23:58.375000,6.12645,1.125,0.05099537728276715,0.030050000000000132,0.25,1.375,0.04131875000000018
2018-02-20 04:24:02.750000,6.1335,1.75,0.019330867388219986,0.030699999999999505,0.5,0.75,0.02302499999999963
2018-02-20 04:24:55.625000,5.79015,1.625,0.046393467104934416,0.06974999999999998,1.0,2.25,0.15693749999999995
2018-02-20 04:25:30.250000,5.5517,1.625,0.0773016142703078,0.12485000000000035,1.25,2.5,0.3121250000000009
2018-02-20 04:25:48.625000,5.46275,4.0,0.054749400211772326,0.1344499999999993,,,
2018-02-20 04:25:53,5.7015,1.75,0.10748911444538223,0.2496999999999998,,,
2018-02-20 04:26:17.500000,5.4787,4.0,0.009329665418885469,0.021699999999999164,1.25,2.5,0.05424999999999791
2018-02-20 04:26:26.125000,5.58245,4.0,0.0724816542215514,0.14405,,,
2018-02-20 04:26:36.500000,5.5159,1.75,0.024182339786644746,0.044800000000000395,1.125,2.625,0.11760000000000104
