,Binary,Multiclass
2018-03-09 12:53:20,1.0,1.0
2018-03-09 12:53:25,1.0,1.0
2018-03-09 12:53:30,1.0,1.0
2018-03-09 12:53:35,1.0,1.0
2018-03-09 12:53:40,1.0,1.0
2018-03-09 12:53:45,1.0,1.0
2018-03-09 12:53:50,1.0,1.0
2018-03-09 12:53:55,1.0,1.0
2018-03-09 12:54:00,1.0,1.0
2018-03-09 12:54:05,1.0,1.0
2018-03-09 12:54:10,1.0,1.0
2018-03-09 12:54:15,1.0,1.0
2018-03-09 12:54:20,1.0,1.0
2018-03-09 12:54:25,1.0,1.0
2018-03-09 12:54:30,1.0,1.0
2018-03-09 12:54:35,1.0,1.0
2018-03-09 12:54:40,1.0,1.0
2018-03-09 12:54:45,1.0,1.0
2018-03-09 12:54:50,1.0,1.0
2018-03-09 12:54:55,1.0,1.0
2018-03-09 12:55:00,1.0,1.0
2018-03-09 12:55:05,1.0,1.0
2018-03-09 12:55:10,1.0,1.0
2018-03-09 12:55:15,1.0,1.0
2018-03-09 12:55:20,1.0,1.0
2018-03-09 12:55:25,1.0,1.0
2018-03-09 12:55:30,1.0,1.0
2018-03-09 12:55:35,1.0,1.0
2018-03-09 12:55:40,1.0,1.0
2018-03-09 12:55:45,1.0,1.0
2018-03-09 12:55:50,1.0,1.0
2018-03-09 12:55:55,1.0,1.0
2018-03-09 12:56:00,1.0,1.0
2018-03-09 12:56:05,1.0,1.0
2018-03-09 12:56:10,1.0,1.0
2018-03-09 12:56:15,1.0,1.0
2018-03-09 12:56:20,1.0,1.0
2018-03-09 12:56:25,1.0,1.0
2018-03-09 12:56:30,1.0,1.0
2018-03-09 12:56:35,1.0,1.0
2018-03-09 12:56:40,1.0,1.0
2018-03-09 12:56:45,1.0,1.0
2018-03-09 12:56:50,1.0,1.0
2018-03-09 12:56:55,1.0,1.0
2018-03-09 12:57:00,1.0,1.0
2018-03-09 12:57:05,1.0,1.0
2018-03-09 12:57:10,1.0,1.0
2018-03-09 12:57:15,1.0,1.0
2018-03-09 12:57:20,1.0,1.0
2018-03-09 12:57:25,1.0,1.0
2018-03-09 12:57:30,1.0,1.0
2018-03-09 12:57:35,1.0,1.0
2018-03-09 12:57:40,1.0,1.0
2018-03-09 12:57:45,1.0,1.0
2018-03-09 12:57:50,1.0,1.0
2018-03-09 12:57:55,1.0,1.0
2018-03-09 12:58:00,1.0,1.0
2018-03-09 12:58:05,1.0,1.0
2018-03-09 12:58:10,1.0,1.0
2018-03-09 12:58:15,1.0,1.0
2018-03-09 12:58:20,1.0,1.0
2018-03-09 12:58:25,1.0,1.0
2018-03-09 12:58:30,1.0,1.0
2018-03-09 12:58:35,1.0,1.0
2018-03-09 12:58:40,1.0,1.0
2018-03-09 12:58:45,1.0,1.0
2018-03-09 12:58:50,1.0,1.0
2018-03-09 12:58:55,1.0,1.0
2018-03-09 12:59:00,1.0,1.0
2018-03-09 12:59:05,1.0,1.0
2018-03-09 12:59:10,1.0,1.0
2018-03-09 12:59:15,1.0,1.0
2018-03-09 12:59:20,1.0,1.0
2018-03-09 12:59:25,1.0,1.0
2018-03-09 12:59:30,1.0,1.0
2018-03-09 12:59:35,1.0,1.0
2018-03-09 12:59:40,1.0,1.0
2018-03-09 12:59:45,1.0,1.0
2018-03-09 12:59:50,1.0,1.0
2018-03-09 12:59:55,1.0,1.0
2018-03-09 13:00:00,1.0,1.0
2018-03-09 13:00:05,1.0,1.0
2018-03-09 13:00:10,1.0,1.0
2018-03-09 13:00:15,1.0,1.0
2018-03-09 13:00:20,1.0,1.0
2018-03-09 13:00:25,1.0,1.0
2018-03-09 13:00:30,-1.0,1.0
