,EDA,rise_time,max_deriv,amp,decay_time,SCR_width,AUC
2018-02-14 09:20:00.875000,2.16065,86370.125,2.320304449281581,0.2156499999999999,,,
2018-02-14 09:20:05,2.4431,1.375,0.2023742749583306,0.23570000000000002,1.0,2.125,0.5008625
2018-02-14 09:20:11.875000,2.18255,4.0,0.019507309770057546,0.0365000000000002,0.375,1.5,0.0547500000000003
2018-02-14 09:20:14.500000,2.3151,1.0,0.22612027285015301,0.07560000000000011,0.5,1.375,0.10395000000000015
2018-02-14 09:20:17.500000,2.3497,1.375,0.12404670678018448,0.1530499999999999,0.75,1.875,0.28696874999999983
