1530519365.000000, IBI
26.344956,0.937543
27.204370,0.859414
28.063784,0.859414
28.891947,0.828163
29.688859,0.796911
30.470145,0.781286
31.298307,0.828163
32.157722,0.859414
33.017136,0.859414
33.782796,0.765660
34.595333,0.812537
35.501625,0.906291
36.423542,0.921917
37.267331,0.843789
38.032991,0.765660
38.767399,0.734409
120.521142,0.656280
121.208673,0.687531
121.880579,0.671906
122.427479,0.546900
123.115010,0.687531
180.727023,0.828163
181.492683,0.765660
182.242717,0.750034
182.945874,0.703157
183.649031,0.703157
184.320937,0.671906
185.008469,0.687531
185.664749,0.656280
186.336654,0.671906
187.086689,0.750034
187.836723,0.750034
188.618009,0.781286
189.477423,0.859414
190.243083,0.765660
191.008743,0.765660
191.727526,0.718783
204.384356,0.781286
205.134390,0.750034
205.853173,0.718783
206.556330,0.703157
207.196984,0.640654
207.822013,0.625029
208.447042,0.625029
213.009750,0.921917
213.947293,0.937543
214.806708,0.859414
215.619245,0.812537
216.384905,0.765660
217.119313,0.734409
217.822471,0.703157
218.525628,0.703157
219.275662,0.750034
220.103825,0.828163
220.931988,0.828163
221.713274,0.781286
222.525811,0.812537
223.353974,0.828163
224.104008,0.750034
224.854043,0.750034
225.604077,0.750034
226.385363,0.781286
227.135397,0.750034
227.916683,0.781286
228.697968,0.781286
229.494880,0.796911
230.307417,0.812537
231.135580,0.828163
232.010620,0.875040
232.838783,0.828163
233.635695,0.796911
234.370103,0.734409
235.088886,0.718783
235.776417,0.687531
236.495200,0.718783
237.245235,0.750034
237.932766,0.687531
238.682801,0.750034
239.589092,0.906291
247.120687,0.718783
247.901973,0.781286
248.652007,0.750034
255.246059,0.781286
256.105473,0.859414
256.933636,0.828163
257.746173,0.812537
258.511833,0.765660
259.246242,0.734409
273.668777,0.687531
274.371934,0.703157
275.043840,0.671906
275.746997,0.703157
276.434529,0.687531
277.090809,0.656280
277.793966,0.703157
278.481497,0.687531
279.184654,0.703157
279.887812,0.703157
280.606595,0.718783
281.341003,0.734409
285.013046,0.609403
285.638075,0.625029
286.341232,0.703157
287.060015,0.718783
287.778798,0.718783
288.513206,0.734409
289.185112,0.671906
289.810141,0.625029
290.466421,0.656280
291.107075,0.640654
291.794607,0.687531
292.544641,0.750034
293.357178,0.812537
294.216593,0.859414
295.060381,0.843789
295.919796,0.859414
296.638578,0.718783
304.763950,0.828163
305.592113,0.828163
306.435902,0.843789
307.248439,0.812537
307.982848,0.734409
308.717256,0.734409
309.467291,0.750034
310.248576,0.781286
311.014236,0.765660
311.826774,0.812537
312.748691,0.921917
313.654982,0.906291
314.483145,0.828163
315.264431,0.781286
316.045717,0.781286
316.842628,0.796911
317.561411,0.718783
318.342697,0.781286
319.139608,0.796911
319.936520,0.796911
320.717806,0.781286
321.577220,0.859414
322.389757,0.812537
323.202294,0.812537
323.999206,0.796911
324.780492,0.781286
325.530526,0.750034
326.311812,0.781286
327.108723,0.796911
327.843132,0.734409
328.624418,0.781286
329.421329,0.796911
330.249492,0.828163
331.015152,0.765660
331.749561,0.734409
332.421466,0.671906
333.124624,0.703157
333.812155,0.687531
334.546564,0.734409
335.280972,0.734409
335.999755,0.718783
336.687287,0.687531
337.374818,0.687531
338.093601,0.718783
338.890512,0.796911
339.703050,0.812537
340.546838,0.843789
341.312498,0.765660
342.015656,0.703157
342.718813,0.703157
343.421970,0.703157
344.093876,0.671906
344.765781,0.671906
345.437687,0.671906
346.125219,0.687531
346.859627,0.734409
347.625287,0.765660
348.422199,0.796911
349.250362,0.828163
350.094150,0.843789
350.906687,0.812537
351.672348,0.765660
352.422382,0.750034
353.141165,0.718783
353.859948,0.718783
354.531853,0.671906
355.266262,0.734409
356.047548,0.781286
356.969465,0.921917
357.844505,0.875040
358.672668,0.828163
359.438328,0.765660
360.235240,0.796911
360.922771,0.687531
361.625928,0.703157
362.313460,0.687531
363.016617,0.703157
363.704148,0.687531
364.422931,0.718783
365.172966,0.750034
365.891748,0.718783
366.626157,0.734409
367.469946,0.843789
368.298109,0.828163
369.095020,0.796911
369.845054,0.750034
370.657592,0.812537
374.907786,0.671906
375.657820,0.750034
376.376603,0.718783
377.142263,0.765660
377.892298,0.750034
378.689209,0.796911
379.407992,0.718783
380.142401,0.734409
380.829932,0.687531
381.548715,0.718783
382.204995,0.656280
382.892527,0.687531
383.580058,0.687531
384.251964,0.671906
384.970747,0.718783
385.705155,0.734409
386.470815,0.765660
387.220850,0.750034
387.955258,0.734409
388.689667,0.734409
389.377198,0.687531
390.049104,0.671906
390.705384,0.656280
394.783696,0.718783
395.518105,0.734409
396.190010,0.671906
396.846290,0.656280
397.471319,0.625029
398.174476,0.703157
398.862008,0.687531
399.502662,0.640654
400.127691,0.625029
400.768345,0.640654
401.408999,0.640654
402.034028,0.625029
402.705934,0.671906
403.393465,0.687531
404.096622,0.703157
404.784154,0.687531
405.534188,0.750034
411.300077,0.703157
411.925106,0.625029
412.690766,0.765660
413.425174,0.734409
414.206460,0.781286
415.065874,0.859414
415.862786,0.796911
416.628446,0.765660
433.113575,0.671906
433.832358,0.718783
434.410510,0.578151
435.051164,0.640654
435.738696,0.687531
436.473104,0.734409
437.270016,0.796911
438.020050,0.750034
438.785710,0.765660
439.441990,0.656280
440.113896,0.671906
440.770176,0.656280
441.426456,0.656280
442.129613,0.703157
442.864022,0.734409
443.660933,0.796911
444.504722,0.843789
445.254756,0.750034
446.020416,0.765660
446.770451,0.750034
447.504859,0.734409
448.083011,0.578151
448.770542,0.687531
449.395571,0.625029
450.020599,0.625029
450.739382,0.718783
451.520668,0.781286
452.348831,0.828163
453.145742,0.796911
454.020782,0.875040
454.848945,0.828163
459.192894,0.859414
460.067934,0.875040
460.942974,0.875040
461.802389,0.859414
462.583674,0.781286
463.380586,0.796911
464.177497,0.796911
465.036912,0.859414
465.880700,0.843789
466.740115,0.859414
467.599529,0.859414
468.427692,0.828163
469.208978,0.781286
469.974638,0.765660
470.771549,0.796911
471.630964,0.859414
472.427875,0.796911
473.177909,0.750034
473.943569,0.765660
474.756107,0.812537
475.599895,0.843789
476.381181,0.781286
477.178092,0.796911
477.959378,0.781286
478.709413,0.750034
479.428195,0.718783
480.162604,0.734409
480.928264,0.765660
481.662673,0.734409
482.397081,0.734409
483.115864,0.718783
483.850273,0.734409
484.600307,0.750034
485.334716,0.734409
486.069124,0.734409
486.819159,0.750034
487.537942,0.718783
488.225473,0.687531
488.913005,0.687531
489.600536,0.687531
490.303693,0.703157
490.944348,0.640654
491.600628,0.656280
492.256908,0.656280
492.913188,0.656280
493.585093,0.671906
494.225748,0.640654
494.897654,0.671906
495.553934,0.656280
496.194588,0.640654
496.835242,0.640654
497.444645,0.609403
498.054048,0.609403
498.679077,0.625029
499.319731,0.640654
499.991637,0.671906
500.694794,0.703157
501.413577,0.718783
502.132360,0.718783
502.819891,0.687531
503.444920,0.625029
504.101200,0.656280
504.741854,0.640654
505.398134,0.656280
506.101291,0.703157
506.788823,0.687531
507.507606,0.718783
508.273266,0.765660
509.007674,0.734409
514.242289,0.656280
514.898569,0.656280
515.617352,0.718783
516.383012,0.765660
517.164298,0.781286
517.961209,0.796911
518.773746,0.812537
519.586284,0.812537
529.071093,0.890666
529.899256,0.828163
530.664916,0.765660
531.414950,0.750034
532.149359,0.734409
532.836890,0.687531
533.555673,0.718783
534.290082,0.734409
534.993239,0.703157
575.854484,0.671906
576.651396,0.796911
577.417056,0.765660
578.182716,0.765660
578.948376,0.765660
579.714036,0.765660
580.464070,0.750034
581.229730,0.765660
581.901636,0.671906
582.573542,0.671906
583.276699,0.703157
584.104862,0.828163
585.042405,0.937543
599.777454,0.656280
600.449360,0.671906
601.011886,0.562526
601.621289,0.609403
602.293194,0.671906
606.965283,0.937543
607.918452,0.953169
608.824743,0.906291
609.746660,0.921917
610.637326,0.890666
611.481115,0.843789
612.262401,0.781286
612.981184,0.718783
613.668715,0.687531
614.434375,0.765660
615.215661,0.781286
616.059449,0.843789
616.965741,0.906291
617.887658,0.921917
618.887704,1.000046
619.840873,0.953169
620.762790,0.921917
621.622204,0.859414
622.497244,0.875040
623.387910,0.890666
624.247324,0.859414
625.137990,0.890666
626.028656,0.890666
626.888070,0.859414
627.747484,0.859414
628.638150,0.890666
629.528816,0.890666
630.294476,0.765660
631.138265,0.843789
631.966428,0.828163
632.778965,0.812537
633.544625,0.765660
634.357162,0.812537
635.200951,0.843789
636.013488,0.812537
636.810399,0.796911
637.669814,0.859414
638.529228,0.859414
639.326139,0.796911
640.154302,0.828163
640.998091,0.843789
641.888757,0.890666
642.763797,0.875040
643.607585,0.843789
654.764346,0.671906
655.420626,0.656280
656.061280,0.640654
656.686309,0.625029
657.295712,0.609403
657.905115,0.609403
658.530143,0.625029
659.186424,0.656280
659.873955,0.687531
670.827581,0.890666
671.671370,0.843789
672.499533,0.828163
673.312070,0.812537
674.124607,0.812537
674.937145,0.812537
675.749682,0.812537
676.577845,0.828163
677.452885,0.875040
678.421679,0.968794
679.343596,0.921917
680.265513,0.921917
681.218682,0.953169
682.140599,0.921917
688.547143,0.796911
689.390931,0.843789
690.297223,0.906291
691.156637,0.859414
691.969174,0.812537
692.766086,0.796911
693.516120,0.750034
694.203651,0.687531
694.984937,0.781286
695.734972,0.750034
696.578760,0.843789
697.344420,0.765660
698.063203,0.718783
698.844489,0.781286
699.641400,0.796911
700.391435,0.750034
701.063340,0.671906
701.797749,0.734409
702.641538,0.843789
731.424105,0.578151
732.002257,0.578151
732.596034,0.593777
733.174185,0.578151
733.736711,0.562526
734.314862,0.578151
734.877388,0.562526
735.455540,0.578151
741.471440,0.750034
742.205849,0.734409
742.940257,0.734409
743.674666,0.734409
744.362197,0.687531
745.018477,0.656280
745.659132,0.640654
746.299786,0.640654
746.971692,0.671906
758.769107,0.515649
759.284755,0.515649
759.816030,0.531274
760.331678,0.515649
760.862953,0.531274
761.378601,0.515649
761.909876,0.531274
762.456776,0.546900
763.003676,0.546900
763.534950,0.531274
764.066224,0.531274
764.628750,0.562526
765.191276,0.562526
765.753802,0.562526
766.331953,0.578151
766.910105,0.578151
767.503882,0.593777
768.144536,0.640654
768.785190,0.640654
769.457096,0.671906
770.175879,0.718783
770.941539,0.765660
771.691573,0.750034
772.425982,0.734409
773.160391,0.734409
773.894799,0.734409
774.613582,0.718783
775.285488,0.671906
775.973019,0.687531
776.691802,0.718783
777.332457,0.640654
777.973111,0.640654
778.613765,0.640654
779.270045,0.656280
779.941951,0.671906
780.613857,0.671906
781.317014,0.703157
782.082674,0.765660
782.848334,0.765660
783.629620,0.781286
784.395280,0.765660
785.160940,0.765660
785.895349,0.734409
786.598506,0.703157
787.286037,0.687531
787.973569,0.687531
788.661100,0.687531
789.348632,0.687531
790.036163,0.687531
790.739320,0.703157
791.504980,0.765660
792.317518,0.812537
793.114429,0.796911
793.911340,0.796911
794.708252,0.796911
795.473912,0.765660
796.208321,0.734409
796.927104,0.718783
797.630261,0.703157
798.317792,0.687531
798.958447,0.640654
799.599101,0.640654
800.192878,0.593777
800.802281,0.609403
801.411684,0.609403
802.083590,0.671906
802.817998,0.734409
803.505530,0.687531
804.224313,0.718783
804.943095,0.718783
805.661878,0.718783
806.365036,0.703157
807.068193,0.703157
807.771350,0.703157
808.458881,0.687531
809.130787,0.671906
809.787067,0.656280
810.458973,0.671906
811.130879,0.671906
811.802784,0.671906
812.490316,0.687531
813.193473,0.703157
813.896630,0.703157
814.631039,0.734409
815.349822,0.718783
816.099856,0.750034
816.849890,0.750034
817.584299,0.734409
818.271831,0.687531
818.974988,0.703157
819.678145,0.703157
820.365676,0.687531
821.053208,0.687531
821.740739,0.687531
822.443897,0.703157
823.193931,0.750034
823.912714,0.718783
824.600245,0.687531
825.287777,0.687531
825.959682,0.671906
826.615963,0.656280
827.209740,0.593777
827.834768,0.625029
828.475423,0.640654
829.147328,0.671906
829.819234,0.671906
830.553643,0.734409
831.319303,0.765660
832.084963,0.765660
832.803746,0.718783
833.538154,0.734409
834.256937,0.718783
834.944469,0.687531
835.600749,0.656280
836.241403,0.640654
836.882057,0.640654
837.522712,0.640654
838.163366,0.640654
838.835272,0.671906
839.507178,0.671906
840.210335,0.703157
840.913492,0.703157
841.601023,0.687531
842.288555,0.687531
842.976086,0.687531
843.663618,0.687531
844.319898,0.656280
845.007429,0.687531
845.679335,0.671906
846.351241,0.671906
847.023147,0.671906
847.710678,0.687531
848.429461,0.718783
849.163870,0.734409
849.945155,0.781286
850.679564,0.734409
851.382721,0.703157
852.085878,0.703157
852.773410,0.687531
853.445316,0.671906
854.101596,0.656280
854.757876,0.656280
855.429781,0.671906
856.117313,0.687531
856.820470,0.703157
857.523627,0.703157
858.226784,0.703157
858.945567,0.718783
859.664350,0.718783
860.351882,0.687531
861.055039,0.703157
861.758196,0.703157
862.445728,0.687531
871.243005,0.625029
871.868034,0.625029
872.508688,0.640654
873.133717,0.625029
873.774371,0.640654
874.399400,0.625029
875.024428,0.625029
875.649457,0.625029
876.305737,0.656280
876.962017,0.656280
877.633923,0.671906
878.305829,0.671906
879.008986,0.703157
887.212486,0.609403
887.821889,0.609403
888.415666,0.593777
889.025069,0.609403
889.681349,0.656280
890.384506,0.703157
891.134541,0.750034
891.884575,0.750034
892.634609,0.750034
893.384644,0.750034
894.134678,0.750034
894.869087,0.734409
895.540992,0.671906
896.197273,0.656280
896.822301,0.625029
897.416078,0.593777
898.072358,0.656280
898.791141,0.718783
899.619304,0.828163
900.494344,0.875040
901.369384,0.875040
902.228799,0.859414
903.056962,0.828163
903.869499,0.812537
904.666410,0.796911
905.416445,0.750034
906.103976,0.687531
906.775882,0.671906
907.494665,0.718783
908.213448,0.718783
908.947856,0.734409
909.697891,0.750034
910.479176,0.781286
911.291713,0.812537
912.104251,0.812537
912.885536,0.781286
913.651196,0.765660
914.416857,0.765660
915.151265,0.734409
915.854422,0.703157
916.573205,0.718783
928.980023,0.578151
929.542549,0.562526
930.120700,0.578151
930.714478,0.593777
931.277003,0.562526
931.870780,0.593777
932.433306,0.562526
932.995832,0.562526
933.558358,0.562526
934.105258,0.546900
934.652158,0.546900
935.183432,0.531274
935.777209,0.593777
936.449115,0.671906
937.214775,0.765660
937.996061,0.781286
938.746095,0.750034
939.558632,0.812537
940.386795,0.828163
959.215782,1.078174
963.481602,0.828163
964.372268,0.890666
970.138157,1.000046
971.185080,1.046923
972.263254,1.078174
973.091417,0.828163
974.013335,0.921917
974.841497,0.828163
975.732163,0.890666
976.622829,0.890666
977.419740,0.796911
988.951518,0.734409
989.701553,0.750034
990.451587,0.750034
991.264124,0.812537
998.780093,0.750034
999.655133,0.875040
1000.405168,0.750034
1001.186453,0.781286
1001.998991,0.812537
1002.795902,0.796911
1003.530311,0.734409
1004.405351,0.875040
1008.124271,0.718783
1008.968060,0.843789
1009.811848,0.843789
1015.343351,0.828163
1016.202766,0.859414
1029.437747,0.765660
1030.172155,0.734409
1030.859687,0.687531
1043.297756,0.781286
1044.032165,0.734409
1044.735322,0.703157
1045.485356,0.750034
1046.188513,0.703157
1046.954173,0.765660
1047.610453,0.656280
1048.360488,0.750034
1049.173025,0.812537
1050.110568,0.937543
1051.016859,0.906291
1051.954402,0.937543
1052.860694,0.906291
1053.751359,0.890666
1054.595148,0.843789
1055.407685,0.812537
1056.204597,0.796911
1056.985883,0.781286
1057.704665,0.718783
1058.392197,0.687531
1059.064103,0.671906
1059.751634,0.687531
1060.376663,0.625029
1061.048568,0.671906
1061.767351,0.718783
1062.548637,0.781286
1063.361174,0.812537
1064.236214,0.875040
1065.095629,0.859414
1065.939417,0.843789
1066.720703,0.781286
1067.611369,0.890666
1068.564538,0.953169
1069.502080,0.937543
1070.345869,0.843789
1071.142781,0.796911
1071.924066,0.781286
1072.736603,0.812537
1073.642895,0.906291
1074.611689,0.968794
1075.564858,0.953169
1076.502401,0.937543
1077.377441,0.875040
1078.236855,0.859414
1078.971264,0.734409
1079.658795,0.687531
1080.315075,0.656280
1081.033858,0.718783
1081.846395,0.812537
1082.783938,0.937543
1083.705856,0.921917
1084.627773,0.921917
1085.502813,0.875040
1086.377853,0.875040
1087.237267,0.859414
1088.065430,0.828163
1088.815464,0.750034
1089.518622,0.703157
1090.206153,0.687531
1090.924936,0.718783
1091.737473,0.812537
1092.628139,0.890666
1093.518805,0.890666
1094.378219,0.859414
1095.222008,0.843789
1096.018919,0.796911
1096.800205,0.781286
1097.612742,0.812537
1098.534659,0.921917
1099.487828,0.953169
1100.472248,0.984420
1101.409791,0.937543
1102.269205,0.859414
1103.112994,0.843789
1103.831777,0.718783
1104.503683,0.671906
1105.175588,0.671906
1105.863120,0.687531
1106.628780,0.765660
1107.535071,0.906291
1108.488240,0.953169
1109.410157,0.921917
1110.316449,0.906291
1111.207114,0.890666
1112.004026,0.796911
1112.738435,0.734409
1113.425966,0.687531
1114.129123,0.703157
1114.894783,0.765660
1115.816700,0.921917
1116.754243,0.937543
1117.691786,0.937543
1118.629329,0.937543
1119.551246,0.921917
1120.426286,0.875040
1121.332578,0.906291
1124.942118,0.750034
1147.036880,0.609403
1147.740037,0.703157
1148.490071,0.750034
1149.318234,0.828163
1150.099520,0.781286
1150.833928,0.734409
1151.552711,0.718783
1152.271494,0.718783
1152.959026,0.687531
1153.568429,0.609403
1154.177831,0.609403
1154.818486,0.640654
1155.490391,0.671906
1156.193549,0.703157
1156.881080,0.687531
1157.646740,0.765660
1158.303020,0.656280
1158.990552,0.687531
1159.662457,0.671906
1160.381240,0.718783
1161.225029,0.843789
1162.084443,0.859414
1162.975109,0.890666
1163.850149,0.875040
1164.709563,0.859414
1165.553352,0.843789
1173.522467,0.921917
1174.506887,0.984420
1175.428804,0.921917
1176.397599,0.968794
1177.319516,0.921917
1178.241433,0.921917
1179.069596,0.828163
1179.960262,0.890666
1180.897804,0.937543
1181.804096,0.906291
1182.694762,0.890666
1183.569802,0.875040
1184.460468,0.890666
1185.319882,0.859414
1186.194922,0.875040
1187.101213,0.906291
1187.913751,0.812537
1188.741914,0.828163
1189.632579,0.890666
1190.476368,0.843789
1191.320157,0.843789
1192.242074,0.921917
1193.101488,0.859414
1193.882774,0.781286
1194.726562,0.843789
1221.524664,0.750034
1222.415330,0.890666
1223.399750,0.984420
1224.368544,0.968794
1225.306087,0.937543
1226.228004,0.921917
1227.165547,0.937543
1228.087465,0.921917
1228.978130,0.890666
1229.853170,0.875040
1230.712585,0.859414
1231.571999,0.859414
1232.384536,0.812537
1233.087693,0.703157
1241.619334,0.687531
1242.306865,0.687531
1243.103777,0.796911
1248.088380,0.921917
1248.932169,0.843789
1249.791583,0.859414
1250.666623,0.875040
1251.572915,0.906291
1252.432329,0.859414
1253.354246,0.921917
1254.307415,0.953169
1255.244958,0.937543
1266.964244,0.828163
1267.854910,0.890666
1268.776827,0.921917
1269.667493,0.890666
1270.526907,0.859414
1271.417573,0.890666
1272.276987,0.859414
1273.089525,0.812537
1273.855185,0.765660
1274.636470,0.781286
1275.464633,0.828163
1276.308422,0.843789
1277.214713,0.906291
1278.074128,0.859414
1278.839788,0.765660
1287.668317,0.859414
1288.543357,0.875040
1289.418397,0.875040
1290.293437,0.875040
1291.121600,0.828163
1291.840383,0.718783
1292.527914,0.687531
1293.246697,0.718783
1294.090486,0.843789
1298.840703,0.906291
1299.746995,0.906291
1300.512655,0.765660
1301.184561,0.671906
1301.872092,0.687531
1302.559623,0.687531
1303.356535,0.796911
1304.262826,0.906291
1305.184744,0.921917
1306.075409,0.890666
1306.950449,0.875040
1307.794238,0.843789
1308.622401,0.828163
1309.388061,0.765660
1310.059967,0.671906
1310.763124,0.703157
1318.466602,0.640654
1319.138507,0.671906
1319.763536,0.625029
1320.404190,0.640654
1321.044845,0.640654
1321.638622,0.593777
1322.232399,0.593777
1322.826176,0.593777
1323.466830,0.640654
1324.123111,0.656280
1324.810642,0.687531
1325.513799,0.703157
1326.216956,0.703157
1326.920114,0.703157
1327.670148,0.750034
1328.357679,0.687531
1329.045211,0.687531
1329.732742,0.687531
1330.357771,0.625029
1331.014051,0.656280
1331.717208,0.703157
1349.686781,0.546900
1350.249306,0.562526
1350.796206,0.546900
1351.311855,0.515649
1351.843129,0.531274
1352.374404,0.531274
1352.905678,0.531274
1353.452578,0.546900
1353.983852,0.531274
1354.530752,0.546900
1355.077652,0.546900
1355.624552,0.546900
1356.155827,0.531274
1356.702727,0.546900
1357.296504,0.593777
1357.968410,0.671906
1358.718444,0.750034
1359.484104,0.765660
1360.265390,0.781286
1361.031050,0.765660
1361.796710,0.765660
1362.593621,0.796911
1363.374907,0.781286
1364.124942,0.750034
1364.859350,0.734409
1365.562507,0.703157
1366.281290,0.718783
1366.984447,0.703157
1367.718856,0.734409
1375.953608,0.765660
1376.734894,0.781286
1377.516180,0.781286
1378.297465,0.781286
1379.047500,0.750034
1379.766283,0.718783
1380.500691,0.734409
1381.250726,0.750034
1382.032011,0.781286
1382.844548,0.812537
1383.641460,0.796911
1384.438371,0.796911
1385.188406,0.750034
1385.907189,0.718783
1386.625972,0.718783
1387.329129,0.703157
1388.047912,0.718783
1388.766695,0.718783
1389.485477,0.718783
1390.251137,0.765660
1391.016798,0.765660
1391.813709,0.796911
1392.563743,0.750034
1393.313778,0.750034
1394.079438,0.765660
1394.813846,0.734409
1395.532629,0.718783
1396.298289,0.765660
1397.079575,0.781286
1397.860861,0.781286
1398.595269,0.734409
1399.329678,0.734409
1400.064087,0.734409
1400.782870,0.718783
1401.470401,0.687531
1402.157933,0.687531
1402.876715,0.718783
1403.611124,0.734409
1404.361158,0.750034
1405.111193,0.750034
1405.876853,0.765660
1406.658139,0.781286
1407.408173,0.750034
1408.142581,0.734409
1408.892616,0.750034
1409.611399,0.718783
1410.314556,0.703157
1411.017713,0.703157
1411.720870,0.703157
1412.424027,0.703157
1413.127185,0.703157
1413.814716,0.687531
1414.502248,0.687531
1415.174153,0.671906
1415.846059,0.671906
1416.502339,0.656280
1417.127368,0.625029
1417.768022,0.640654
1418.377425,0.609403
1418.971202,0.593777
1419.564979,0.593777
1420.158756,0.593777
1420.783785,0.625029
1421.440065,0.656280
1422.096345,0.656280
1422.783877,0.687531
1423.549537,0.765660
1424.346448,0.796911
1425.080857,0.734409
1425.830891,0.750034
1426.580925,0.750034
1427.299708,0.718783
1428.002866,0.703157
1428.706023,0.703157
1429.393554,0.687531
1430.096711,0.703157
1430.784243,0.687531
1431.456149,0.671906
1432.128054,0.671906
1432.799960,0.671906
1433.456240,0.656280
1434.096895,0.640654
1434.721923,0.625029
1435.378203,0.656280
1436.050109,0.671906
1436.737640,0.687531
1437.440798,0.703157
1438.175206,0.734409
1438.940866,0.765660
1439.690901,0.750034
1440.425309,0.734409
1441.175344,0.750034
1441.909752,0.734409
1442.644161,0.734409
1443.362944,0.718783
1444.097352,0.734409
1444.816135,0.718783
1445.550544,0.734409
1446.284952,0.734409
1447.034987,0.750034
1447.785021,0.750034
1448.503804,0.718783
1449.206961,0.703157
1449.925744,0.718783
1450.691404,0.765660
1451.441438,0.750034
1458.097993,0.781286
1458.941782,0.843789
1459.785570,0.843789
1460.582482,0.796911
1461.348142,0.765660
1462.098176,0.750034
1462.879462,0.781286
1463.676373,0.796911
1464.442034,0.765660
1465.238945,0.796911
1466.035856,0.796911
1466.848394,0.812537
1467.629679,0.781286
1468.426591,0.796911
1469.223502,0.796911
1469.973537,0.750034
1470.676694,0.703157
1471.348600,0.671906
1472.036131,0.687531
1472.723663,0.687531
1473.426820,0.703157
1474.114351,0.687531
1474.833134,0.718783
1481.520940,0.734409
1482.239723,0.718783
1482.958506,0.718783
1483.646038,0.687531
1484.349195,0.703157
1485.052352,0.703157
1485.755509,0.703157
1486.443041,0.687531
1487.161824,0.718783
1487.880606,0.718783
1488.599389,0.718783
1489.286921,0.687531
1489.974452,0.687531
1490.677609,0.703157
1502.928170,0.578151
1503.490696,0.562526
1504.037596,0.546900
1504.615747,0.578151
1505.225150,0.609403
1505.928308,0.703157
1506.678342,0.750034
1507.428376,0.750034
1508.162785,0.734409
1508.881568,0.718783
1509.553473,0.671906
1510.194128,0.640654
1510.866034,0.671906
1511.553565,0.687531
1512.319225,0.765660
1513.100511,0.781286
1513.913048,0.812537
1514.772462,0.859414
1515.631877,0.859414
1516.460040,0.828163
1517.303828,0.843789
1592.822910,0.640654
1593.479190,0.656280
1594.182347,0.703157
1594.744873,0.562526
1595.369902,0.625029
1596.026182,0.656280
1596.807467,0.781286
1597.635630,0.828163
1598.479419,0.843789
1599.338833,0.859414
1608.089234,0.718783
1608.870520,0.781286
1609.526800,0.656280
1610.292460,0.765660
1614.886420,0.843789
1615.777086,0.890666
1616.495869,0.718783
1617.214652,0.718783
1617.980312,0.765660
1618.902229,0.921917
1619.730392,0.828163
1620.558555,0.828163
1621.371092,0.812537
1622.152378,0.781286
1622.980541,0.828163
1623.761826,0.781286
1624.605615,0.843789
1679.670636,1.078174
1680.592553,0.921917
1681.498844,0.906291
1682.342633,0.843789
1693.218131,0.812537
1711.031446,0.718783
1711.812732,0.781286
1712.672146,0.859414
1713.531561,0.859414
1714.390975,0.859414
1715.250389,0.859414
1716.062927,0.812537
1716.828587,0.765660
1717.594247,0.765660
1718.344281,0.750034
1719.063064,0.718783
1719.781847,0.718783
1720.453753,0.671906
1721.156910,0.703157
1721.953821,0.796911
1722.797610,0.843789
1723.735153,0.937543
1724.594567,0.859414
1725.375853,0.781286
1726.110261,0.734409
1726.844670,0.734409
1727.579079,0.734409
1728.329113,0.750034
1729.079147,0.750034
1729.797930,0.718783
1730.563590,0.765660
1731.469882,0.906291
1732.423050,0.953169
1733.344968,0.921917
1734.188756,0.843789
1734.938791,0.750034
1735.720076,0.781286
1736.470111,0.750034
1737.188894,0.718783
1737.907676,0.718783
1738.579582,0.671906
1745.564277,0.703157
1746.283060,0.718783
1746.939340,0.656280
1747.611246,0.671906
1748.205023,0.593777
1748.923806,0.718783
1749.580086,0.656280
1750.330120,0.750034
1750.970774,0.640654
1759.846181,0.718783
1760.533712,0.687531
1761.346249,0.812537
1762.049407,0.703157
1767.768418,0.718783
1768.518453,0.750034
1777.190725,0.859414
1778.050139,0.859414
1778.956430,0.906291
1779.831470,0.875040
1780.690885,0.859414
1781.487796,0.796911
1782.315959,0.828163
1783.190999,0.875040
1783.987911,0.796911
1784.722319,0.734409
1785.456728,0.734409
1786.191137,0.734409
1786.988048,0.796911
1787.863088,0.875040
1788.691251,0.828163
1789.597543,0.906291
1790.472583,0.875040
1815.458101,0.750034
1816.192510,0.734409
1817.083176,0.890666
1818.005093,0.921917
1818.927010,0.921917
1819.973933,1.046923
1850.178441,0.859414
1851.084732,0.906291
1851.975398,0.890666
1852.866064,0.890666
1853.756729,0.890666
1854.600518,0.843789
1855.428681,0.828163
1856.303721,0.875040
1857.210012,0.906291
1858.085052,0.875040
1858.975718,0.890666
1859.866384,0.890666
1860.710173,0.843789
1861.569587,0.859414
1862.429001,0.859414
1867.538610,0.906291
1868.460527,0.921917
1897.743118,0.687531
1902.462084,0.921917
1910.993725,0.984420
1911.962519,0.968794
1912.806308,0.843789
1913.665722,0.859414
1914.525136,0.859414
1915.306422,0.781286
1916.103333,0.796911
1916.962748,0.859414
1917.822162,0.859414
1918.712828,0.890666
1919.634745,0.921917
1920.509785,0.875040
1921.291071,0.781286
1922.134860,0.843789
1922.806765,0.671906
1927.619486,0.953169
1928.510151,0.890666
1939.135638,0.859414
1939.916924,0.781286
1940.713835,0.796911
1941.495121,0.781286
1942.276407,0.781286
1943.088944,0.812537
1943.901481,0.812537
1944.714018,0.812537
1945.479678,0.765660
1946.276590,0.796911
1947.073501,0.796911
1947.839161,0.765660
1948.636073,0.796911
1949.495487,0.859414
1950.370527,0.875040
1951.183064,0.812537
1951.995601,0.812537
1952.839390,0.843789
1953.620676,0.781286
1954.417587,0.796911
1955.323879,0.906291
1956.198919,0.875040
1957.011456,0.812537
1957.808367,0.796911
1958.620905,0.812537
1959.386565,0.765660
1960.199102,0.812537
1961.042891,0.843789
1961.839802,0.796911
1962.652339,0.812537
1963.480502,0.828163
1964.246162,0.765660
1964.996197,0.750034
1965.746231,0.750034
1966.480639,0.734409
1974.309123,0.781286
1975.074783,0.765660
1975.840443,0.765660
1976.652980,0.812537
1977.403014,0.750034
1978.153049,0.750034
1978.934335,0.781286
1979.762497,0.828163
1980.543783,0.781286
1981.340695,0.796911
1992.934975,0.812537
1993.591255,0.656280
1994.372541,0.781286
1995.216330,0.843789
2016.561057,0.828163
2017.357968,0.796911
2018.154880,0.796911
2018.904914,0.750034
2019.670574,0.765660
2020.451860,0.781286
2021.217520,0.765660
2021.951929,0.734409
2022.701963,0.750034
2023.483249,0.781286
2024.342663,0.859414
2025.170826,0.828163
2026.014615,0.843789
2043.452913,0.843789
2044.296701,0.843789
2050.718870,0.640654
2051.422028,0.703157
2052.140810,0.718783
2052.968973,0.828163
2053.875265,0.906291
2054.703428,0.828163
2055.515965,0.812537
2056.328502,0.812537
2057.125414,0.796911
2057.859822,0.734409
2058.641108,0.781286
2059.484897,0.843789
2060.313060,0.828163
2061.125597,0.812537
2061.938134,0.812537
2062.766297,0.828163
2063.563208,0.796911
2064.375746,0.812537
2065.235160,0.859414
2066.094574,0.859414
2066.938363,0.843789
2067.829029,0.890666
2075.751266,0.859414
2076.657558,0.906291
2077.595101,0.937543
2078.423264,0.828163
2079.267052,0.843789
2080.142092,0.875040
2080.970255,0.828163
2081.735915,0.765660
2082.548452,0.812537
2091.001964,0.812537
2091.861379,0.859414
2092.798922,0.937543
2093.642710,0.843789
2094.502125,0.859414
2095.361539,0.859414
2096.142825,0.781286
2096.908485,0.765660
2097.689770,0.781286
2098.502308,0.812537
2099.283593,0.781286
2100.096131,0.812537
2100.939919,0.843789
2101.814959,0.875040
2102.658748,0.843789
2103.549414,0.890666
2104.455705,0.906291
2105.299494,0.843789
2106.158908,0.859414
2107.033948,0.875040
2107.846485,0.812537
2108.659023,0.812537
2109.518437,0.859414
2110.362226,0.843789
2111.206014,0.843789
2112.065428,0.859414
2112.940469,0.875040
2113.737380,0.796911
2134.066436,0.859414
2134.941476,0.875040
2135.800890,0.859414
2136.597801,0.796911
2137.441590,0.843789
2138.301004,0.859414
2139.129167,0.828163
2139.894827,0.765660
2140.707365,0.812537
2141.613656,0.906291
2142.535573,0.921917
2143.473116,0.937543
2144.426285,0.953169
2145.332576,0.906291
2146.223242,0.890666
2147.098282,0.875040
2148.160831,1.062549
2151.895377,0.796911
2152.754791,0.859414
2153.582954,0.828163
2154.395491,0.812537
2155.223654,0.828163
2156.051817,0.828163
2156.848728,0.796911
2157.614388,0.765660
2158.380049,0.765660
2159.176960,0.796911
2159.942620,0.765660
2160.739532,0.796911
2161.583320,0.843789
2162.364606,0.781286
2163.177143,0.812537
2164.020932,0.843789
2164.833469,0.812537
2165.583503,0.750034
2166.349163,0.765660
2167.130449,0.781286
2167.880483,0.750034
2168.677395,0.796911
2169.552435,0.875040
2170.443101,0.890666
2171.271264,0.828163
2172.115052,0.843789
2172.990092,0.875040
2173.802629,0.812537
2174.646418,0.843789
2175.537084,0.890666
2176.380872,0.843789
2177.224661,0.843789
2178.099701,0.875040
2178.943490,0.843789
2179.724776,0.781286
2180.521687,0.796911
2181.396727,0.875040
2182.193639,0.796911
2183.006176,0.812537
2183.803087,0.796911
2184.615624,0.812537
2185.381284,0.765660
2186.178196,0.796911
2186.990733,0.812537
2187.787645,0.796911
2188.553305,0.765660
2189.365842,0.812537
2190.209630,0.843789
2191.006542,0.796911
2191.865956,0.859414
2192.772248,0.906291
2193.600411,0.828163
2194.459825,0.859414
2195.475497,1.015671
2199.272545,0.843789
2200.131960,0.859414
2201.085128,0.953169
2202.022671,0.937543
2202.835208,0.812537
2203.663371,0.828163
2204.491534,0.828163
2205.288446,0.796911
2206.100983,0.812537
2206.960397,0.859414
2207.882314,0.921917
2208.726103,0.843789
2209.585517,0.859414
2210.507435,0.921917
2211.335598,0.828163
2212.163760,0.828163
2212.976298,0.812537
2213.788835,0.812537
2214.679501,0.890666
2215.663921,0.984420
2216.554586,0.890666
2217.382749,0.828163
2218.210912,0.828163
2219.070327,0.859414
2219.757858,0.687531
2220.507892,0.750034
2221.273552,0.765660
2222.023587,0.750034
2222.789247,0.765660
2223.570533,0.781286
2224.367444,0.796911
2258.369000,0.734409
2259.072158,0.703157
2259.759689,0.687531
2260.462846,0.703157
2261.166003,0.703157
2261.791032,0.625029
2262.478564,0.687531
2273.713453,0.734409
2274.479113,0.765660
2275.307276,0.828163
2276.135439,0.828163
2276.885473,0.750034
2277.619882,0.734409
2278.401167,0.781286
2279.119950,0.718783
2279.901236,0.781286
2280.713773,0.812537
2281.479433,0.765660
2282.198216,0.718783
2282.916999,0.718783
2283.651408,0.734409
2284.385816,0.734409
2285.120225,0.734409
2285.870259,0.750034
2286.651545,0.781286
2287.307825,0.656280
2288.010982,0.703157
2288.761017,0.750034
2289.526677,0.765660
2290.292337,0.765660
2291.026745,0.734409
2291.808031,0.781286
2292.479937,0.671906
2293.245597,0.765660
2293.948754,0.703157
2294.620660,0.671906
2295.292566,0.671906
2295.964471,0.671906
2296.714506,0.750034
2311.387052,0.578151
2311.996455,0.609403
2312.605858,0.609403
2313.262138,0.656280
2313.934044,0.671906
2321.200001,0.828163
2322.043790,0.843789
2322.903204,0.859414
2354.951546,0.703157
2355.670329,0.718783
2356.357861,0.687531
2364.358227,0.812537
2365.061384,0.703157
2365.748916,0.687531
2366.452073,0.703157
2367.202107,0.750034
2367.952142,0.750034
2368.874059,0.921917
2369.686596,0.812537
2370.467882,0.781286
2371.249167,0.781286
2372.030453,0.781286
2372.874242,0.843789
2373.733656,0.859414
2374.561819,0.828163
2393.672069,0.781286
2394.468980,0.796911
2395.250266,0.781286
2396.000300,0.750034
2396.719083,0.718783
2397.453492,0.734409
2398.203526,0.750034
2398.922309,0.718783
2399.625466,0.703157
2400.359875,0.734409
2401.109909,0.750034
2401.875569,0.765660
2402.641229,0.765660
2403.438141,0.796911
2404.281929,0.843789
2405.125718,0.843789
2405.938255,0.812537
2406.703915,0.765660
2407.516453,0.812537
2408.360241,0.843789
2409.188404,0.828163
2410.032193,0.843789
2410.922858,0.890666
2411.797899,0.875040
2412.626061,0.828163
2413.454224,0.828163
2414.266762,0.812537
2415.063673,0.796911
2415.907462,0.843789
2416.798127,0.890666
2417.704419,0.906291
2418.579459,0.875040
2419.407622,0.828163
2420.251410,0.843789
2421.079573,0.828163
2421.892111,0.812537
2422.767151,0.875040
2423.564062,0.796911
2424.360974,0.796911
2425.189137,0.828163
2436.674037,0.765660
2437.470949,0.796911
2438.220983,0.750034
2439.002269,0.781286
2439.783555,0.781286
2440.596092,0.812537
2441.393003,0.796911
2442.189915,0.796911
2443.033703,0.843789
2443.861866,0.828163
2444.736906,0.875040
2445.424438,0.687531
2446.190098,0.765660
2446.846378,0.656280
2447.627664,0.781286
2448.393324,0.765660
2459.300073,0.703157
2460.081359,0.781286
2460.862644,0.781286
2461.643930,0.781286
2462.456467,0.812537
2468.675502,0.750034
2469.441162,0.765660
2470.269325,0.828163
2471.081862,0.812537
2471.863148,0.781286
2472.628808,0.765660
2480.144777,0.734409
2481.113571,0.968794
2497.629952,0.750034
2505.349056,0.765660
2506.130342,0.781286
2506.911627,0.781286
2507.677287,0.765660
2508.427322,0.750034
2509.192982,0.765660
2509.927390,0.734409
2510.630548,0.703157
2511.349330,0.718783
2512.021236,0.671906
2512.724393,0.703157
2513.427551,0.703157
2514.146333,0.718783
2514.896368,0.750034
2515.630776,0.734409
2516.349559,0.718783
2519.943474,0.734409
2520.693508,0.750034
2521.474794,0.781286
2522.224828,0.750034
2522.974863,0.750034
2531.381497,0.718783
2532.115906,0.734409
2532.897192,0.781286
2533.631600,0.734409
2534.397260,0.765660
2535.162920,0.765660
2535.881703,0.718783
2536.600486,0.718783
2537.303643,0.703157
2537.959924,0.656280
2538.694332,0.734409
2539.319361,0.625029
2539.991266,0.671906
2540.678798,0.687531
2541.303827,0.625029
2541.991358,0.687531
2542.678890,0.687531
2543.460175,0.781286
2544.178958,0.718783
2550.429244,0.671906
2551.163653,0.734409
2568.289437,0.640654
2568.914465,0.625029
2569.601997,0.687531
2570.305154,0.703157
2571.008311,0.703157
2571.695843,0.687531
2583.102615,0.750034
2583.962029,0.859414
2584.868321,0.906291
2585.727735,0.859414
2586.524647,0.796911
2587.337184,0.812537
2588.212224,0.875040
2589.087264,0.875040
2590.149812,1.062549
2603.369168,0.765660
2604.166079,0.796911
2605.025493,0.859414
2605.728651,0.703157
2606.603691,0.875040
2607.353725,0.750034
2608.150636,0.796911
2608.931922,0.781286
2609.713208,0.781286
2610.541371,0.828163
2611.369534,0.828163
2612.182071,0.812537
2612.963357,0.781286
2613.744642,0.781286
2614.557180,0.812537
2615.354091,0.796911
2616.151003,0.796911
2617.151048,1.000046
2628.948463,0.703157
2629.682872,0.734409
2630.464158,0.781286
2631.214192,0.750034
2631.979852,0.765660
2632.729887,0.750034
2633.511172,0.781286
2634.292458,0.781286
2635.104995,0.812537
2635.933158,0.828163
2636.730070,0.796911
2637.526981,0.796911
2638.323893,0.796911
2639.105178,0.781286
2639.886464,0.781286
2640.652124,0.765660
2641.433410,0.781286
2642.167819,0.734409
2642.949104,0.781286
2643.714764,0.765660
2644.511676,0.796911
2645.152330,0.640654
2646.027370,0.875040
2646.761779,0.734409
2647.511813,0.750034
2648.277473,0.765660
2649.043133,0.765660
2649.824419,0.781286
2650.590079,0.765660
2651.371365,0.781286
2652.152651,0.781286
2652.902685,0.750034
2653.621468,0.718783
2654.371502,0.750034
2655.137162,0.765660
2655.871571,0.734409
2675.981866,0.781286
2676.747526,0.765660
2677.497561,0.750034
2678.200718,0.703157
2678.966378,0.765660
2679.685161,0.718783
2680.341441,0.656280
2681.216481,0.875040
2682.013392,0.796911
2790.815248,0.750034
2791.627785,0.812537
2792.424696,0.796911
2793.268485,0.843789
2873.412779,0.656280
2874.115936,0.703157
2874.865970,0.750034
2875.678507,0.812537
2876.475419,0.796911
2877.287956,0.812537
2878.162996,0.875040
2879.069288,0.906291
2879.913076,0.843789
2880.709988,0.796911
2881.475648,0.765660
2882.241308,0.765660
2883.006968,0.765660
2883.788254,0.781286
2884.585165,0.796911
2885.366451,0.781286
2886.257117,0.890666
2887.163408,0.906291
2888.085325,0.921917
2888.960365,0.875040
2889.819780,0.859414
2890.679194,0.859414
2891.569860,0.890666
2892.429274,0.859414
2893.257437,0.828163
2894.069974,0.812537
2894.898137,0.828163
2895.757551,0.859414
2896.601340,0.843789
2897.398252,0.796911
2898.288917,0.890666
2899.242086,0.953169
2900.195255,0.953169
2901.101546,0.906291
2901.992212,0.890666
2902.851626,0.859414
2903.711040,0.859414
2904.523578,0.812537
2905.320489,0.796911
2906.148652,0.828163
2906.976815,0.828163
2907.804978,0.828163
2908.586264,0.781286
2909.430052,0.843789
2910.367595,0.937543
2911.273887,0.906291
2912.102050,0.828163
2912.867710,0.765660
2913.664621,0.796911
2914.508410,0.843789
2915.367824,0.859414
2949.744398,0.859414
2970.370342,0.765660
2971.214131,0.843789
2972.104796,0.890666
2973.089216,0.984420
2973.995508,0.906291
2974.917425,0.921917
2975.776839,0.859414
2976.542500,0.765660
2977.417540,0.875040
2978.105071,0.687531
2978.792603,0.687531
2979.558263,0.765660
2987.152360,0.968794
2988.105529,0.953169
2989.043072,0.937543
2990.011866,0.968794
2990.918158,0.906291
2991.933829,1.015671
2992.965126,1.031297
2993.933921,0.968794
2994.887089,0.953169
2995.715252,0.828163
2996.668421,0.953169
3005.200061,0.953169
3006.059476,0.859414
3007.106399,1.046923
3010.731565,0.687531
3030.826234,0.921917
3031.763777,0.937543
3032.638817,0.875040
3081.219166,0.625029
3081.859820,0.640654
3082.500475,0.640654
3083.156755,0.656280
3101.313836,0.875040
3102.251379,0.937543
3107.360988,0.750034
3108.079771,0.718783
3108.736051,0.656280
3109.439208,0.703157
3110.095488,0.656280
3110.892399,0.796911
3138.096770,0.953169
3139.003061,0.906291
3139.862475,0.859414
3140.706264,0.843789
3141.581304,0.875040
3142.409467,0.828163
3143.237630,0.828163
3152.472428,0.875040
3153.253713,0.781286
3181.911275,0.609403
3182.567555,0.656280
3183.192584,0.625029
3183.801987,0.609403
3184.427015,0.625029
3185.036418,0.609403
3185.645821,0.609403
3186.286475,0.640654
3186.911504,0.625029
3187.567784,0.656280
3188.145936,0.578151
3188.724087,0.578151
3189.317864,0.593777
3189.896016,0.578151
3190.505419,0.609403
3191.192950,0.687531
3191.896107,0.703157
3192.583639,0.687531
3193.364924,0.781286
3194.193087,0.828163
3195.099379,0.906291
3196.021296,0.921917
3196.880710,0.859414
3197.708873,0.828163
3198.427656,0.718783
3199.146439,0.718783
3199.833971,0.687531
3200.427748,0.593777
3201.130905,0.703157
3201.740308,0.609403
3214.194003,0.812537
3214.881534,0.687531
3215.615943,0.734409
3216.287849,0.671906
3217.116012,0.828163
3252.242620,0.812537
3253.180162,0.937543
3254.195834,1.015671
3255.211505,1.015671
3256.102171,0.890666
3256.992837,0.890666
3257.930380,0.937543
3258.696040,0.765660
3259.524203,0.828163
3276.259344,0.765660
3276.993752,0.734409
3277.728161,0.734409
3278.431318,0.703157
3289.572453,0.968794
3290.588125,1.015671
3313.198535,0.812537
3314.057949,0.859414
3314.964241,0.906291
3315.901783,0.937543
3316.776824,0.875040
3317.604986,0.828163
3318.417524,0.812537
3319.261312,0.843789
3337.590276,0.796911
3338.355936,0.765660
3339.121596,0.765660
3339.934134,0.812537
3340.809174,0.875040
3353.231617,0.687531
3358.169343,0.781286
3359.044383,0.875040
3359.981926,0.937543
3360.856966,0.875040
3361.747632,0.890666
3362.716426,0.968794
3369.060467,0.718783
3369.779250,0.718783
3370.638664,0.859414
3371.544955,0.906291
3372.404370,0.859414
3389.389522,0.703157
3392.967811,0.781286
3393.780348,0.812537
3394.577260,0.796911
3395.389797,0.812537
3396.217960,0.828163
3397.030497,0.812537
3397.811783,0.781286
3398.530566,0.718783
3399.202471,0.671906
3399.890003,0.687531
3400.608786,0.718783
3401.405697,0.796911
3402.186983,0.781286
3403.093275,0.906291
3404.015192,0.921917
3404.983986,0.968794
3405.827775,0.843789
3406.718441,0.890666
3407.655983,0.937543
3408.577901,0.921917
3409.468566,0.890666
3410.296729,0.828163
3411.093641,0.796911
3411.796798,0.703157
3412.484329,0.687531
3413.171861,0.687531
3413.875018,0.703157
3414.593801,0.718783
3415.390712,0.796911
3416.218875,0.828163
3416.890781,0.671906
3421.734753,0.843789
3422.547290,0.812537
3423.437956,0.890666
3424.297370,0.859414
3444.954566,0.703157
3445.767103,0.812537
3454.533129,0.656280
3468.330636,0.875040
3469.174424,0.843789
3469.971336,0.796911
3470.721370,0.750034
3471.440153,0.718783
3472.127685,0.687531
3472.799590,0.671906
3473.518373,0.718783
3474.362162,0.843789
3475.299705,0.937543
3476.252873,0.953169
3477.206042,0.953169
3478.143585,0.937543
3479.018625,0.875040
3479.893665,0.875040
3480.690577,0.796911
3481.487488,0.796911
3482.221897,0.734409
3482.956305,0.734409
3483.706340,0.750034
3484.534503,0.828163
3485.503297,0.968794
3486.409588,0.906291
3487.237751,0.828163
3488.128417,0.890666
3488.972206,0.843789
3489.706614,0.734409
3490.472274,0.765660
3491.237934,0.765660
3492.081723,0.843789
3493.003640,0.921917
3493.956809,0.953169
3494.878726,0.921917
3495.660012,0.781286
3496.425672,0.765660
3497.253835,0.828163
3498.160126,0.906291
3499.066418,0.906291
3499.894581,0.828163
3500.660241,0.765660
3501.441526,0.781286
3502.300941,0.859414
3503.222858,0.921917
3504.144775,0.921917
3505.066692,0.921917
3506.019861,0.953169
3506.941778,0.921917
3507.848070,0.906291
3508.738735,0.890666
3509.598150,0.859414
3510.410687,0.812537
3511.176347,0.765660
3511.973258,0.796911
3512.848299,0.875040
3513.707713,0.859414
3514.473373,0.765660
3515.270284,0.796911
3516.160950,0.890666
3517.098493,0.937543
3518.067287,0.968794
3518.989205,0.921917
3519.817368,0.828163
3520.551776,0.734409
3521.270559,0.718783
3522.020593,0.750034
3522.755002,0.734409
3523.458159,0.703157
3524.223819,0.765660
3525.083234,0.859414
3525.895771,0.812537
3526.723934,0.828163
3527.520845,0.796911
3528.302131,0.781286
3529.036540,0.734409
3529.802200,0.765660
3530.520983,0.718783
3531.192888,0.671906
3531.849168,0.656280
3532.567951,0.718783
3533.349237,0.781286
3534.177400,0.828163
3535.068066,0.890666
3535.911854,0.843789
3536.693140,0.781286
3537.380672,0.687531
3538.068203,0.687531
3538.740109,0.671906
3539.412014,0.671906
3540.083920,0.671906
3540.771452,0.687531
3541.490235,0.718783
3542.224643,0.734409
3542.990303,0.765660
3543.709086,0.718783
3544.459121,0.750034
3566.303870,0.937543
3567.257039,0.953169
3573.788588,0.734409
3574.648002,0.859414
3579.898243,1.000046
3580.788908,0.890666
3581.710826,0.921917
3582.648369,0.937543
3583.539034,0.890666
3584.398449,0.859414
3585.398494,1.000046
3586.336037,0.937543
3587.257955,0.921917
3588.179872,0.921917
3589.101789,0.921917
3589.992455,0.890666
3590.804992,0.812537
3591.648781,0.843789
3592.539446,0.890666
3593.351984,0.812537
3594.242649,0.890666
3595.180192,0.937543
3596.117735,0.937543
3597.055278,0.937543
3598.024072,0.968794
3598.805358,0.781286
3599.571018,0.765660
3600.383555,0.812537
3601.242970,0.859414
3602.039881,0.796911
3602.805541,0.765660
3603.602453,0.796911
3604.477493,0.875040
3605.290030,0.812537
3606.149444,0.859414
3607.086987,0.937543
3607.946402,0.859414
3608.758939,0.812537
3609.602727,0.843789
3610.446516,0.843789
3614.587331,0.890666
3615.462371,0.875040
3616.337411,0.875040
3617.196825,0.859414
3617.993737,0.796911
3618.837525,0.843789
3619.681314,0.843789
3620.462600,0.781286
3621.243885,0.781286
3621.993920,0.750034
3622.743954,0.750034
3623.556491,0.812537
3624.400280,0.843789
3625.228443,0.828163
3626.103483,0.875040
3626.994148,0.890666
3627.853563,0.859414
3628.681726,0.828163
3629.525514,0.843789
3630.353677,0.828163
3631.103712,0.750034
3631.806869,0.703157
3639.322838,0.796911
3640.151001,0.828163
3641.026041,0.875040
3641.854204,0.828163
3642.619864,0.765660
3643.385524,0.765660
3644.135558,0.750034
3644.901218,0.765660
3645.635627,0.734409
3646.416913,0.781286
3647.245075,0.828163
3648.041987,0.796911
3648.823273,0.781286
3649.635810,0.812537
3650.463973,0.828163
3651.292136,0.828163
3652.089047,0.796911
3652.917210,0.828163
3653.792250,0.875040
3654.604787,0.812537
3655.432950,0.828163
3667.308494,0.843789
3720.951574,0.890666
3721.873492,0.921917
3722.936040,1.062549
3739.483673,0.796911
3740.343087,0.859414
3741.171250,0.828163
3741.921284,0.750034
3742.702570,0.781286
3743.483856,0.781286
3744.499527,1.015671
3772.422680,0.640654
3773.063335,0.640654
3773.750866,0.687531
3774.391521,0.640654
3775.047801,0.656280
3775.735332,0.687531
3776.422863,0.687531
3777.079144,0.656280
3777.766675,0.687531
3778.454206,0.687531
3779.141738,0.687531
3779.813644,0.671906
3803.830368,0.515649
3804.377268,0.546900
3805.017922,0.640654
3805.486694,0.468771
3806.111722,0.625029
3806.674248,0.562526
3807.236774,0.562526
3807.783674,0.546900
3808.361825,0.578151
3808.939977,0.578151
3809.596257,0.656280
3810.111906,0.515649
3810.736934,0.625029
3811.408840,0.671906
3811.955740,0.546900
3812.565143,0.609403
3813.221423,0.656280
3813.877703,0.656280
3817.752880,0.843789
3818.518540,0.765660
3819.268575,0.750034
3820.002983,0.734409
3820.753018,0.750034
3821.503052,0.750034
3822.221835,0.718783
3822.956244,0.734409
3823.721904,0.765660
3824.487564,0.765660
3825.237598,0.750034
3825.956381,0.718783
3826.659538,0.703157
3827.284567,0.625029
3827.940847,0.656280
3828.565875,0.625029
3829.222155,0.656280
3829.972190,0.750034
3830.831604,0.859414
3831.675393,0.843789
3832.566058,0.890666
3833.472350,0.906291
3834.331764,0.859414
3835.144301,0.812537
3835.956839,0.812537
3836.769376,0.812537
3837.519410,0.750034
3838.285070,0.765660
3839.003853,0.718783
3839.738262,0.734409
3840.503922,0.765660
3841.300833,0.796911
3842.082119,0.781286
3842.941533,0.859414
3843.816573,0.875040
3844.691613,0.875040
3849.066814,0.750034
3849.816848,0.750034
3850.566882,0.750034
3851.316917,0.750034
3852.098202,0.781286
3852.863863,0.765660
3853.629523,0.765660
3854.395183,0.765660
3855.192094,0.796911
3855.910877,0.718783
3859.286031,0.703157
3860.020440,0.734409
3860.754849,0.734409
3861.426754,0.671906
3862.145537,0.718783
3862.879946,0.734409
3863.598729,0.718783
3864.255009,0.656280
3864.942540,0.687531
3865.598820,0.656280
3866.286352,0.687531
3867.036386,0.750034
3867.786421,0.750034
3868.536455,0.750034
3869.302115,0.765660
3870.114652,0.812537
3870.927189,0.812537
3871.724101,0.796911
3872.489761,0.765660
3873.286672,0.796911
3873.974204,0.687531
3874.755490,0.781286
3875.443021,0.687531
3876.130553,0.687531
3876.802458,0.671906
3877.552493,0.750034
3878.427533,0.875040
3879.302573,0.875040
3880.177613,0.875040
3881.005776,0.828163
3901.241077,0.765660
3902.037988,0.796911
3902.850526,0.812537
3903.663063,0.812537
3904.459974,0.796911
3905.210009,0.750034
3905.944417,0.734409
3906.663200,0.718783
3907.366357,0.703157
3908.053889,0.687531
3908.741420,0.687531
3909.538332,0.796911
3910.428998,0.890666
3911.413418,0.984420
3912.319709,0.906291
3913.257252,0.937543
3914.085415,0.828163
3914.804198,0.718783
3915.491729,0.687531
3916.148009,0.656280
3916.804289,0.656280
3917.507447,0.703157
3922.273290,0.890666
3923.117078,0.843789
3923.945241,0.828163
3924.757778,0.812537
3925.523438,0.765660
3926.242221,0.718783
3927.007881,0.765660
3927.945424,0.937543
3928.976722,1.031297
3929.976767,1.000046
3930.898685,0.921917
3931.726847,0.828163
3932.445630,0.718783
3933.117536,0.671906
3933.805068,0.687531
3934.586353,0.781286
3935.508271,0.921917
3936.430188,0.921917
3937.383356,0.953169
3938.274022,0.890666
3939.102185,0.828163
3939.836594,0.734409
3940.571002,0.734409
3941.274159,0.703157
3941.992942,0.718783
3942.742977,0.750034
3943.633642,0.890666
3944.555560,0.921917
3945.430600,0.875040
3946.305640,0.875040
3947.149428,0.843789
3947.961966,0.812537
3948.743251,0.781286
3949.493286,0.750034
3950.196443,0.703157
3950.883974,0.687531
3951.571506,0.687531
3952.290289,0.718783
3953.024697,0.734409
3953.790357,0.765660
3954.524766,0.734409
3955.290426,0.765660
3956.102963,0.812537
3956.946752,0.843789
3957.790540,0.843789
3958.618703,0.828163
3959.415615,0.796911
3960.165649,0.750034
3994.401591,0.765660
3995.229754,0.828163
3996.104794,0.875040
3997.042337,0.937543
3997.948629,0.906291
3998.917423,0.968794
3999.776837,0.859414
4000.605000,0.828163
4001.433163,0.828163
4002.261326,0.828163
4003.089489,0.828163
4003.948903,0.859414
4004.777066,0.828163
4017.277638,0.640654
4026.824950,0.515649
4029.981345,0.625029
4030.528245,0.546900
4040.309943,0.656280
4040.981848,0.671906
4041.669380,0.687531
4042.341286,0.671906
4043.044443,0.703157
4043.763226,0.718783
4044.357003,0.593777
4045.028909,0.671906
4045.747692,0.718783
4046.528977,0.781286
4047.372766,0.843789
4048.263432,0.890666
4049.154098,0.890666
4050.029138,0.875040
4050.904178,0.875040
4051.763592,0.859414
4052.576129,0.812537
4053.341789,0.765660
4054.091824,0.750034
4054.794981,0.703157
4055.420009,0.625029
4056.091915,0.671906
4056.826324,0.734409
4057.685738,0.859414
4058.592030,0.906291
4059.435818,0.843789
4060.263981,0.828163
4061.045267,0.781286
4061.810927,0.765660
4062.451581,0.640654
4063.092236,0.640654
4073.030190,0.890666
4073.858353,0.828163
4074.702142,0.843789
4075.577182,0.875040
4076.436596,0.859414
4077.327262,0.890666
4078.264805,0.937543
4079.217974,0.953169
4080.186768,0.968794
4081.155562,0.968794
4082.077480,0.921917
4083.030648,0.953169
4083.968191,0.937543
4084.796354,0.828163
4085.593266,0.796911
4086.483931,0.890666
4087.483977,1.000046
4088.515274,1.031297
4089.562197,1.046923
4090.624746,1.062549
4091.656043,1.031297
4092.656089,1.000046
4093.609257,0.953169
4094.515549,0.906291
4095.328086,0.812537
4096.156249,0.828163
4097.062541,0.906291
4098.078212,1.015671
4099.125135,1.046923
4100.156432,1.031297
4101.156478,1.000046
4102.140898,0.984420
4103.109692,0.968794
4104.062861,0.953169
4105.016030,0.953169
4105.937947,0.921917
4106.828613,0.890666
4107.609898,0.781286
4108.453687,0.843789
4109.297476,0.843789
4110.172516,0.875040
4110.938176,0.765660
4111.703836,0.765660
4112.563250,0.859414
4113.453916,0.890666
4114.250827,0.796911
4115.172745,0.921917
4116.110287,0.937543
4116.985327,0.875040
4117.844742,0.859414
4118.719782,0.875040
4119.626073,0.906291
4120.454236,0.828163
4121.298025,0.843789
4122.188691,0.890666
4123.063731,0.875040
4123.907519,0.843789
4124.798185,0.890666
4125.735728,0.937543
4126.610768,0.875040
4127.485808,0.875040
4128.407725,0.921917
4129.329643,0.921917
4130.220308,0.890666
4131.126600,0.906291
4132.032891,0.906291
4132.939183,0.906291
4133.814223,0.875040
4134.689263,0.875040
4135.579929,0.890666
4136.439343,0.859414
4137.361260,0.921917
4138.267552,0.906291
4139.142592,0.875040
4140.017632,0.875040
4141.033303,1.015671
4141.783338,0.750034
4142.486495,0.703157
4143.205278,0.718783
4143.970938,0.765660
4144.752223,0.781286
4145.580386,0.828163
4146.361672,0.781286
4147.127332,0.765660
4147.939869,0.812537
4148.752407,0.812537
4149.549318,0.796911
4150.377481,0.828163
4151.205644,0.828163
4152.080684,0.875040
4152.924473,0.843789
4153.799513,0.875040
4154.658927,0.859414
4155.455838,0.796911
4156.190247,0.734409
4157.002784,0.812537
4157.721567,0.718783
4158.471601,0.750034
4159.221636,0.750034
4159.924793,0.703157
4160.627950,0.703157
4161.377985,0.750034
4162.206147,0.828163
4163.096813,0.890666
4163.909350,0.812537
4178.034997,0.671906
4178.738154,0.703157
4179.503814,0.765660
4180.316351,0.812537
4181.128889,0.812537
4254.429119,0.546900
4254.991645,0.562526
4255.554171,0.562526
4256.101071,0.546900
4256.663596,0.562526
4257.241748,0.578151
4257.851151,0.609403
4258.507431,0.656280
4259.210588,0.703157
4259.944997,0.734409
4268.539140,0.968794
4269.507934,0.968794
4270.429852,0.921917
4271.336143,0.906291
4272.148680,0.812537
4272.898715,0.750034
4273.711252,0.812537
4274.586292,0.875040
4275.461332,0.875040
4276.414500,0.953169
4277.398921,0.984420
4278.367715,0.968794
4279.289632,0.921917
4280.149046,0.859414
4281.008461,0.859414
4281.883501,0.875040
4282.742915,0.859414
4283.633581,0.890666
4284.539872,0.906291
4285.446164,0.906291
4286.368081,0.921917
4287.258747,0.890666
4288.086910,0.828163
4288.899447,0.812537
4289.758861,0.859414
4290.618276,0.859414
4291.477690,0.859414
4292.290227,0.812537
4293.118390,0.828163
4293.962179,0.843789
4294.790342,0.828163
4295.587253,0.796911
4296.368539,0.781286
4297.118573,0.750034
4297.884233,0.765660
4298.681145,0.796911
4299.462430,0.781286
4300.243716,0.781286
4300.946873,0.703157
4301.618779,0.671906
4302.306311,0.687531
4303.025094,0.718783
4303.790754,0.765660
4304.540788,0.750034
4305.243945,0.703157
4305.900225,0.656280
4306.525254,0.625029
4307.134657,0.609403
4307.728434,0.593777
4308.353462,0.625029
4308.962865,0.609403
4309.572268,0.609403
4310.197297,0.625029
4310.900454,0.703157
4311.572360,0.671906
4312.291143,0.718783
4313.103680,0.812537
4313.884966,0.781286
4314.572497,0.687531
4315.338157,0.765660
4316.041314,0.703157
4316.697594,0.656280
4317.400752,0.703157
4318.057032,0.656280
4318.807066,0.750034
4319.369592,0.562526
4320.057123,0.687531
4320.682152,0.625029
4321.338432,0.656280
4321.963460,0.625029
4322.588489,0.625029
4323.213518,0.625029
4323.822921,0.609403
4324.447949,0.625029
4325.166732,0.718783
4325.979269,0.812537
4326.838684,0.859414
4327.682472,0.843789
4334.760921,0.828163
4335.557833,0.796911
4336.339118,0.781286
4337.104779,0.765660
4337.870439,0.765660
4338.620473,0.750034
4339.386133,0.765660
4340.214296,0.828163
4341.073710,0.859414
4341.917499,0.843789
4342.745662,0.828163
4343.558199,0.812537
4344.323859,0.765660
4345.042642,0.718783
4345.792676,0.750034
4346.573962,0.781286
4347.417751,0.843789
4348.277165,0.859414
4349.074076,0.796911
4349.855362,0.781286
4350.636648,0.781286
4351.371057,0.734409
4352.074214,0.703157
4352.792997,0.718783
4353.558657,0.765660
4354.433697,0.875040
4355.261860,0.828163
4356.105648,0.843789
4356.949437,0.843789
4357.793226,0.843789
4358.605763,0.812537
4359.418300,0.812537
4360.246463,0.828163
4361.027749,0.781286
4361.746531,0.718783
4362.434063,0.687531
4363.105969,0.671906
4363.762249,0.656280
4364.449780,0.687531
4365.168563,0.718783
4365.965475,0.796911
4366.699883,0.734409
4376.122190,0.812537
4394.373025,0.890666
4395.263691,0.890666
4422.280552,0.765660
4423.124341,0.843789
4423.874375,0.750034
4424.624410,0.750034
4425.421321,0.796911
4426.124478,0.703157
4430.780941,0.812537
4431.609104,0.828163
4432.421642,0.812537
4433.218553,0.796911
4434.015465,0.796911
4434.812376,0.796911
4435.593662,0.781286
4436.374948,0.781286
4437.171859,0.796911
4437.984396,0.812537
4438.781308,0.796911
4439.578219,0.796911
4440.343879,0.765660
4441.156416,0.812537
4442.031456,0.875040
4442.937748,0.906291
4443.828414,0.890666
4444.719079,0.890666
4445.578494,0.859414
4446.375405,0.796911
4447.125440,0.750034
4447.844223,0.718783
4448.594257,0.750034
4449.344291,0.750034
4450.094326,0.750034
4450.828734,0.734409
4451.594394,0.765660
4452.375680,0.781286
4453.141340,0.765660
4453.860123,0.718783
4454.578906,0.718783
4455.282063,0.703157
4456.000846,0.718783
4456.704003,0.703157
4457.407160,0.703157
4458.094692,0.687531
4458.782223,0.687531
4459.422878,0.640654
4460.063532,0.640654
4460.672935,0.609403
4461.313589,0.640654
4462.001121,0.687531
4462.719903,0.718783
4463.438686,0.718783
4464.173095,0.734409
4464.954381,0.781286
4465.845047,0.890666
4466.610707,0.765660
4481.611393,0.875040
4482.502059,0.890666
4483.439602,0.937543
4484.345893,0.906291
4485.220933,0.875040
4486.064722,0.843789
4486.908511,0.843789
4487.736674,0.828163
4488.533585,0.796911
4489.346122,0.812537
4490.174285,0.828163
4491.018074,0.843789
4491.830611,0.812537
4492.690025,0.859414
4493.549440,0.859414
4494.377603,0.828163
4495.190140,0.812537
4496.049554,0.859414
4496.877717,0.828163
4497.627751,0.750034
4498.377786,0.750034
4499.143446,0.765660
4499.924731,0.781286
4500.690392,0.765660
4501.440426,0.750034
4502.221712,0.781286
4503.065500,0.843789
4503.846786,0.781286
4504.596820,0.750034
4505.393732,0.796911
4506.284398,0.890666
4507.112561,0.828163
4507.925098,0.812537
4508.768886,0.843789
4509.565798,0.796911
4510.347084,0.781286
4511.175246,0.828163
4512.034661,0.859414
4512.878449,0.843789
4513.722238,0.843789
4514.597278,0.875040
4515.503570,0.906291
4516.394235,0.890666
4517.253650,0.859414
4518.113064,0.859414
4518.925601,0.812537
4519.738138,0.812537
4520.581927,0.843789
4521.472593,0.890666
4522.332007,0.859414
4523.191422,0.859414
4524.066462,0.875040
4524.910250,0.843789
4525.754039,0.843789
4526.629079,0.875040
4527.488493,0.859414
4528.347908,0.859414
4529.191696,0.843789
4530.035485,0.843789
4530.863648,0.828163
4531.707436,0.843789
4532.598102,0.890666
4533.488768,0.890666
4534.348182,0.859414
4535.207597,0.859414
4536.082637,0.875040
4546.958134,0.906291
4547.817549,0.859414
4548.630086,0.812537
4549.458249,0.828163
4550.317663,0.859414
4551.130200,0.812537
4551.927112,0.796911
4552.724023,0.796911
4553.552186,0.828163
4554.364723,0.812537
4555.177261,0.812537
4556.005424,0.828163
4556.833586,0.828163
4557.630498,0.796911
4558.427409,0.796911
4559.271198,0.843789
4560.083735,0.812537
4560.849395,0.765660
4561.599430,0.750034
4562.365090,0.765660
4563.099498,0.734409
4563.818281,0.718783
4564.568316,0.750034
4565.287098,0.718783
4566.005881,0.718783
4566.693413,0.687531
4567.380944,0.687531
4568.021599,0.640654
4568.677879,0.656280
4569.349784,0.671906
4570.068567,0.718783
4570.834227,0.765660
4571.631139,0.796911
4572.428050,0.796911
4573.224962,0.796911
4574.037499,0.812537
4574.834410,0.796911
4575.615696,0.781286
4576.412608,0.796911
4577.178268,0.765660
4577.897051,0.718783
4578.615834,0.718783
4579.334616,0.718783
4580.053399,0.718783
4580.740931,0.687531
4581.412837,0.671906
4582.084742,0.671906
4582.803525,0.718783
4590.991400,0.781286
4591.772686,0.781286
4592.585223,0.812537
4593.397760,0.812537
4594.210297,0.812537
4594.960332,0.750034
4595.741617,0.781286
4596.476026,0.734409
4597.304189,0.828163
4598.132352,0.828163
4598.976140,0.843789
4599.882432,0.906291
4600.757472,0.875040
4601.601261,0.843789
4602.413798,0.812537
4603.226335,0.812537
4603.960744,0.734409
4604.710778,0.750034
4605.538941,0.828163
4606.413981,0.875040
4607.320272,0.906291
4608.210938,0.890666
4609.117230,0.906291
4609.992270,0.875040
4610.867310,0.875040
4611.679847,0.812537
4612.492384,0.812537
4613.429927,0.937543
4614.383096,0.953169
4615.398767,1.015671
4616.226930,0.828163
4617.148847,0.921917
4617.867630,0.718783
4618.695793,0.828163
4619.492705,0.796911
4620.430248,0.937543
4621.289662,0.859414
4634.759028,0.968794
4680.745509,0.875040
4690.995978,0.734409
4691.761638,0.765660
4692.699181,0.937543
4693.605472,0.906291
4706.402933,0.781286
4707.027962,0.625029
4707.731119,0.703157
4708.449902,0.718783
4709.184310,0.734409
4709.981222,0.796911
4710.809385,0.828163
4711.496916,0.687531
4712.309453,0.812537
4713.106365,0.796911
4753.530090,0.921917
4754.467633,0.937543
4755.467679,1.000046
4756.405222,0.937543
4757.233385,0.828163
4758.092799,0.859414
4759.045968,0.953169
4759.952259,0.906291
4760.780422,0.828163
4761.827345,1.046923
4762.702385,0.875040
4763.593051,0.890666
4764.499342,0.906291
4765.436885,0.937543
4766.343177,0.906291
4767.233843,0.890666
4777.437435,1.015671
4778.406229,0.968794
4779.281269,0.875040
4780.203186,0.921917
4781.062601,0.859414
4781.890764,0.828163
4782.656424,0.765660
4783.437709,0.781286
4784.218995,0.781286
4785.047158,0.828163
4785.922198,0.875040
4786.703484,0.781286
4829.221055,0.875040
4830.158598,0.937543
4831.018012,0.859414
4831.861801,0.843789
4832.768092,0.906291
4833.596255,0.828163
4834.580675,0.984420
4835.518218,0.937543
4836.393258,0.875040
4837.283924,0.890666
4838.174590,0.890666
4839.127759,0.953169
4840.080927,0.953169
4840.955967,0.875040
4859.394311,0.921917
4860.269351,0.875040
4861.222520,0.953169
4862.206940,0.984420
4863.191360,0.984420
4864.097651,0.906291
4865.035194,0.937543
4866.019614,0.984420
4867.019660,1.000046
4867.988455,0.968794
4868.894746,0.906291
4869.832289,0.937543
4870.754206,0.921917
4882.739130,0.921917
4883.614170,0.875040
4902.130642,0.984420
4903.083811,0.953169
4922.631581,0.703157
4923.303487,0.671906
4924.006644,0.703157
4924.678550,0.671906
4925.366081,0.687531
4926.037987,0.671906
4926.756770,0.718783
4953.789257,0.828163
4954.664297,0.875040
4955.476834,0.812537
4956.304997,0.828163
4957.101909,0.796911
4957.914446,0.812537
4958.711357,0.796911
4959.508269,0.796911
4960.336432,0.828163
4961.102092,0.765660
4979.962330,0.671906
4980.634236,0.671906
4981.321767,0.687531
4981.993673,0.671906
4982.665579,0.671906
5026.105067,0.921917
5040.183836,0.984420
5041.011999,0.828163
5042.121425,1.109426
5061.778575,0.703157
5062.466106,0.687531
5063.169264,0.703157
5063.856795,0.687531
5064.575578,0.718783
5065.278735,0.703157
5066.013144,0.734409
5066.731927,0.718783
5067.435084,0.703157
5068.153867,0.718783
5068.872650,0.718783
5069.622684,0.750034
5070.341467,0.718783
5071.091501,0.750034
5071.779033,0.687531
5072.435313,0.656280
5083.607699,0.687531
5084.310856,0.703157
5085.014014,0.703157
5085.701545,0.687531
5086.420328,0.718783
5087.154737,0.734409
5087.904771,0.750034
5088.701682,0.796911
5089.498594,0.796911
5090.358008,0.859414
5091.186171,0.828163
5092.029960,0.843789
5092.811245,0.781286
5093.655034,0.843789
5094.530074,0.875040
5095.342611,0.812537
5096.155149,0.812537
5096.983311,0.828163
5097.827100,0.843789
5098.670889,0.843789
5099.514677,0.843789
5100.374092,0.859414
5101.280383,0.906291
5102.155423,0.875040
5102.967960,0.812537
5103.796123,0.828163
5104.624286,0.828163
5105.421198,0.796911
5106.202483,0.781286
5106.968143,0.765660
5107.749429,0.781286
5108.530715,0.781286
5109.327626,0.796911
5110.187041,0.859414
5111.077707,0.890666
5111.937121,0.859414
5112.749658,0.812537
5113.593447,0.843789
5114.421610,0.828163
5115.249773,0.828163
5116.062310,0.812537
5116.859221,0.796911
5117.703010,0.843789
5118.531173,0.828163
5119.328084,0.796911
5120.046867,0.718783
5120.734399,0.687531
5121.406304,0.671906
5122.140713,0.734409
5122.937624,0.796911
5123.718910,0.781286
5124.547073,0.828163
5125.390862,0.843789
5126.250276,0.859414
5127.047188,0.796911
5127.844099,0.796911
5128.672262,0.828163
5129.547302,0.875040
5130.359839,0.812537
5131.141125,0.781286
5131.906785,0.765660
5132.656819,0.750034
5133.391228,0.734409
5134.110011,0.718783
5134.891297,0.781286
5135.719460,0.828163
5136.531997,0.812537
5137.328908,0.796911
5138.172697,0.843789
5139.172743,1.000046
5152.313969,0.796911
5153.220261,0.906291
5154.189055,0.968794
5155.126598,0.937543
5156.032889,0.906291
5156.939181,0.906291
5157.751718,0.812537
5158.517378,0.765660
5159.283038,0.765660
5160.095575,0.812537
5160.923738,0.828163
5161.798778,0.875040
5162.689444,0.890666
5163.564484,0.875040
5164.439524,0.875040
5165.283313,0.843789
5166.095850,0.812537
5166.908387,0.812537
5167.627170,0.718783
5168.361579,0.734409
5169.095987,0.734409
5169.861647,0.765660
5170.658559,0.796911
5171.439845,0.781286
5172.252382,0.812537
5173.080545,0.828163
5173.877456,0.796911
5174.705619,0.828163
5175.549408,0.843789
5176.377571,0.828163
5177.158856,0.781286
5177.924516,0.765660
5178.690176,0.765660
5179.455837,0.765660
5180.190245,0.734409
5180.924654,0.734409
5181.659062,0.734409
5182.440348,0.781286
5183.206008,0.765660
5183.940417,0.734409
5184.659200,0.718783
5185.377983,0.718783
5186.065514,0.687531
5186.737420,0.671906
5187.409326,0.671906
5188.081231,0.671906
5188.768763,0.687531
5189.456294,0.687531
5190.096949,0.640654
5190.737603,0.640654
5191.409509,0.671906
5192.112666,0.703157
5192.862700,0.750034
5193.643986,0.781286
5194.440897,0.796911
5195.253435,0.812537
5196.034720,0.781286
5196.784755,0.750034
5197.519163,0.734409
5198.269198,0.750034
5199.019232,0.750034
5199.753641,0.734409
5200.519301,0.765660
5201.347464,0.828163
5202.206878,0.859414
5203.035041,0.828163
5203.910081,0.875040
5204.753870,0.843789
5205.613284,0.859414
5206.425821,0.812537
5207.253984,0.828163
5208.082147,0.828163
5208.925936,0.843789
5209.754098,0.828163
5210.582261,0.828163
5211.472927,0.890666
5212.332341,0.859414
5213.207381,0.875040
5214.051170,0.843789
5214.910584,0.859414
5215.754373,0.843789
5216.566910,0.812537
5217.395073,0.828163
5218.238862,0.843789
5219.067025,0.828163
5219.832685,0.765660
5220.582719,0.750034
5221.364005,0.781286
5222.192168,0.828163
5223.004705,0.812537
5223.785991,0.781286
5224.551651,0.765660
5225.348562,0.796911
5226.114222,0.765660
5226.864257,0.750034
5227.645542,0.781286
5228.395577,0.750034
5229.114360,0.718783
5229.864394,0.750034
5230.630054,0.765660
5231.380088,0.750034
5232.161374,0.781286
5232.958286,0.796911
5233.739571,0.781286
5234.505231,0.765660
5235.302143,0.796911
5236.083429,0.781286
5236.833463,0.750034
5237.583497,0.750034
5251.334127,0.609403
5251.974781,0.640654
5252.599810,0.625029
5253.240464,0.640654
5253.896744,0.656280
5254.584275,0.687531
5255.287433,0.703157
5256.021841,0.734409
5256.756250,0.734409
5257.490659,0.734409
5258.240693,0.750034
5259.006353,0.765660
5259.803264,0.796911
5260.615802,0.812537
5261.397087,0.781286
5262.147122,0.750034
5262.975285,0.828163
5263.928453,0.953169
5264.897248,0.968794
5265.756662,0.859414
5266.616076,0.859414
5267.491116,0.875040
5268.334905,0.843789
5269.163068,0.828163
5269.959979,0.796911
5270.725639,0.765660
5271.475674,0.750034
5272.288211,0.812537
5273.116374,0.828163
5273.975788,0.859414
5274.819577,0.843789
5275.600863,0.781286
5284.507520,0.750034
5285.257555,0.750034
5286.038840,0.781286
5306.477276,0.671906
5307.102304,0.625029
5307.852339,0.750034
5308.617999,0.765660
5309.493039,0.875040
5310.383705,0.890666
5311.211868,0.828163
5311.993153,0.781286
5337.463069,0.937543
5338.291232,0.828163
5339.260026,0.968794
5373.339711,0.828163
5374.324131,0.984420
5393.121867,0.906291
5394.059410,0.937543
5394.996953,0.937543
5395.825116,0.828163
5396.700156,0.875040
5397.481441,0.781286
5398.278353,0.796911
5399.028387,0.750034
5399.762796,0.734409
5400.559707,0.796911
5401.465999,0.906291
5402.356665,0.890666
5403.247330,0.890666
5404.169248,0.921917
5405.091165,0.921917
5405.981831,0.890666
5406.856871,0.875040
5407.763162,0.906291
5408.685079,0.921917
5425.685858,0.765660
5426.498395,0.812537
5427.357809,0.859414
5428.217223,0.859414
5429.061012,0.843789
5429.889175,0.828163
5430.686086,0.796911
5431.545501,0.859414
5432.279909,0.734409
5433.029944,0.750034
5433.779978,0.750034
5434.592515,0.812537
5435.514432,0.921917
5436.483227,0.968794
5437.389518,0.906291
5438.295810,0.906291
5439.202101,0.906291
5440.077141,0.875040
5440.983433,0.906291
5441.811596,0.828163
5442.624133,0.812537
5443.483547,0.859414
5444.327336,0.843789
5452.046439,0.828163
5452.858976,0.812537
5453.702765,0.843789
5454.484051,0.781286
5455.280962,0.796911
5456.062248,0.781286
5456.937288,0.875040
5457.671697,0.734409
5479.344564,1.078174
5480.188352,0.843789
5481.047767,0.859414
5486.235504,0.843789
5542.425576,0.843789
5543.253739,0.828163
5544.316288,1.062549
5548.160214,0.640654
5548.925874,0.765660
5549.769662,0.843789
5563.285906,0.656280
5563.942186,0.656280
5564.567215,0.625029
5583.818096,0.796911
5584.536879,0.718783
5585.333790,0.796911
5592.052848,0.812537
5592.896636,0.843789
5630.195219,0.781286
5630.992130,0.796911
5631.773416,0.781286
5632.539076,0.765660
5633.320362,0.781286
5634.086022,0.765660
5634.898559,0.812537
5635.711096,0.812537
5657.024572,0.875040
5657.915238,0.890666
5658.743401,0.828163
5659.587189,0.843789
5660.430978,0.843789
5661.227889,0.796911
5662.009175,0.781286
5662.806087,0.796911
5663.556121,0.750034
5664.290529,0.734409
5665.040564,0.750034
5665.821850,0.781286
5666.696890,0.875040
5667.634433,0.937543
5668.493847,0.859414
5669.243881,0.750034
5669.978290,0.734409
5670.697073,0.718783
5671.509610,0.812537
5672.353399,0.843789
5673.228439,0.875040
5674.056602,0.828163
5674.931642,0.875040
5675.712927,0.781286
5676.525465,0.812537
5677.338002,0.812537
5678.166165,0.828163
5678.994328,0.828163
5679.791239,0.796911
5680.588151,0.796911
5681.353811,0.765660
5682.103845,0.750034
5682.760125,0.656280
5683.463282,0.703157
5684.182065,0.718783
5684.994602,0.812537
5685.869642,0.875040
5686.729057,0.859414
5687.572845,0.843789
5688.385382,0.812537
5689.182294,0.796911
5689.979205,0.796911
5690.760491,0.781286
5691.541777,0.781286
5692.385566,0.843789
5693.182477,0.796911
5693.932511,0.750034
5694.635669,0.703157
5695.354451,0.718783
5696.229491,0.875040
5697.182660,0.953169
5698.135829,0.953169
5699.073372,0.937543
5699.995289,0.921917
5700.901580,0.906291
5701.792246,0.890666
5702.589158,0.796911
5703.417320,0.828163
5704.261109,0.843789
5705.104898,0.843789
5705.917435,0.812537
5706.714346,0.796911
5707.448755,0.734409
5708.167538,0.718783
5708.933198,0.765660
5709.761361,0.828163
5710.636401,0.875040
5711.448938,0.812537
5712.292727,0.843789
5713.136515,0.843789
5714.011555,0.875040
5714.761590,0.750034
5715.495998,0.734409
5716.199156,0.703157
5716.855436,0.656280
5717.558593,0.703157
5718.386756,0.828163
5719.121164,0.734409
5719.886824,0.765660
5720.574356,0.687531
5721.355642,0.781286
5722.136927,0.781286
5722.902587,0.765660
5723.668247,0.765660
5743.200392,0.812537
5743.981677,0.781286
5744.762963,0.781286
5745.653629,0.890666
5746.684926,1.031297
5747.684972,1.000046
5748.700643,1.015671
5749.653812,0.953169
5750.497601,0.843789
5751.419518,0.921917
5752.450815,1.031297
5753.450861,1.000046
5754.388404,0.937543
5755.200941,0.812537
5755.982227,0.781286
