1.5192e+09,1.5192e+09,1.5192e+09
32,32,32
-63,5,9
-63,6,8
-63,6,8
-64,6,7
-64,6,7
-64,6,7
-63,6,6
-63,7,5
-64,6,5
-63,7,5
-65,8,2
-66,8,2
-66,8,3
-66,8,1
-66,8,0
-68,8,0
-67,8,-1
-64,8,-2
-65,8,-2
-64,9,-3
-63,9,-3
-64,11,-5
-67,11,-7
-66,12,-7
-64,13,-7
-65,13,-8
-66,13,-9
-66,13,-9
-65,13,-9
-66,12,-10
-66,12,-10
-65,12,-10
-65,12,-10
-65,12,-10
-65,12,-10
-64,12,-10
-65,11,-10
-65,11,-10
-64,12,-10
-64,12,-10
-64,12,-10
-64,12,-10
-65,13,-10
-65,12,-9
-64,12,-9
-64,12,-9
-64,12,-8
-66,12,-9
-66,12,-8
-65,11,-8
-67,10,-7
-67,9,-7
-66,9,-6
-66,9,-6
-65,9,-4
-64,9,-4
-64,9,-4
-64,9,-3
-64,9,-2
-64,9,-1
-64,9,0
-65,9,0
-65,10,1
-65,10,1
-64,10,3
-64,10,4
-63,10,4
-64,11,4
-66,11,6
-65,12,8
-65,13,9
-66,14,10
-66,15,10
-65,14,10
-63,13,11
-62,12,11
-63,12,11
-63,11,11
-63,11,13
-63,10,12
-63,9,13
-64,9,14
-63,8,15
-63,8,16
-62,7,16
-63,5,18
-63,4,19
-65,3,17
-65,1,18
-64,-2,20
-63,-4,19
-63,-5,18
-61,-10,20
-60,-12,20
-60,-15,22
-60,-17,21
-58,-17,20
-55,-18,22
-53,-19,22
-55,-20,19
-55,-20,18
-60,-21,14
-61,-21,15
-62,-19,16
-64,-16,20
-64,-15,21
-63,-12,21
-62,-12,21
-63,-9,21
-63,-7,20
-64,-7,19
-65,-7,19
-65,-6,19
-65,-5,18
-66,-5,18
-65,-5,19
-65,-5,19
-64,-4,20
-65,-6,20
-64,-7,20
-63,-7,23
-64,-7,23
-61,-9,23
-60,-9,23
-58,-10,24
-56,-11,24
-56,-10,24
-56,-10,25
-57,-10,26
-59,-11,26
-60,-12,27
-60,-13,27
-59,-12,27
-59,-11,27
-58,-10,28
-58,-9,28
-59,-8,26
-59,-8,25
-59,-7,26
-60,-8,26
-59,-7,25
-60,-8,25
-59,-8,26
-59,-8,27
-60,-8,26
-60,-8,26
-59,-7,26
-59,-7,26
-62,-7,25
-62,-7,25
-60,-6,23
-60,-6,25
-61,-5,24
-63,-3,21
-63,-3,22
-63,-2,21
-64,-2,21
-64,-1,19
-64,1,17
-64,2,17
-64,3,16
-64,4,15
-64,5,13
-64,6,13
-64,6,13
-64,7,12
-63,8,13
-65,9,12
-64,10,12
-63,11,11
-64,11,11
-65,12,11
-65,12,12
-65,13,11
-66,13,11
-67,13,11
-67,12,12
-67,12,14
-65,12,14
-65,13,13
-64,13,14
-63,13,13
-62,13,12
-63,12,11
-64,12,11
-64,10,12
-65,10,13
-65,10,13
-64,10,13
-63,9,13
-64,10,13
-63,10,13
-64,9,14
-64,9,15
-64,9,15
-63,9,15
-64,9,15
-64,8,14
-63,8,15
-62,8,14
-63,8,13
-63,8,13
-62,8,13
-64,8,13
-68,7,13
-68,7,14
-67,6,16
-64,9,15
-62,10,16
-61,12,15
-61,13,15
-64,13,14
-64,13,14
-67,11,13
-65,11,13
-64,10,13
-63,12,13
-61,12,14
-60,12,14
-61,13,14
-61,13,14
-60,15,13
-60,15,13
-61,17,14
-63,18,13
-67,20,11
-64,20,12
-65,21,11
-65,21,13
-64,20,14
-63,18,12
-62,17,11
-62,16,12
-62,16,12
-61,16,12
-62,15,11
-62,15,12
-63,16,12
-64,16,13
-64,16,14
-64,16,14
-64,16,13
-62,17,11
-61,17,11
-62,18,11
-61,18,12
-60,19,11
-61,19,12
-62,20,12
-62,20,11
-62,19,12
-63,19,11
-63,19,11
-62,19,12
-62,19,12
-63,19,11
-62,20,12
-61,21,12
-62,19,12
-62,18,13
-62,19,12
-60,18,12
-58,18,13
-66,19,6
-68,19,3
-63,20,4
-62,19,4
-64,19,1
-61,19,0
-60,18,1
-61,18,-2
-66,18,-6
-64,19,-5
-62,20,-5
-65,19,-8
-67,19,-10
-67,19,-10
-69,20,-10
-65,20,-8
-56,19,3
-53,18,9
-56,19,10
-63,21,9
-64,21,9
-61,21,11
-61,20,10
-64,19,9
-64,19,10
-61,19,13
-58,19,14
-60,18,14
-63,19,14
-61,18,17
-60,17,17
-62,17,15
-63,17,16
-60,17,19
-62,18,17
-62,18,18
-60,17,19
-61,17,20
-63,17,18
-63,16,18
-61,16,19
-62,16,19
-61,17,18
-61,17,19
-60,17,18
-62,17,18
-61,17,18
-61,17,18
-62,18,18
-62,17,18
-61,17,18
-61,17,18
-62,17,18
-62,17,18
-61,17,18
-62,17,18
-61,18,18
-62,17,18
-62,17,18
-62,17,18
-61,17,19
-61,17,18
-61,17,18
-61,17,18
-61,17,18
-60,17,18
-62,18,18
-62,17,18
-61,17,18
-60,17,18
-62,17,17
-62,16,18
-61,16,17
-62,16,18
-62,16,18
-60,16,17
-61,16,17
-62,15,18
-62,15,18
-62,16,17
-63,15,18
-62,15,19
-62,14,18
-62,13,18
-61,13,18
-62,13,17
-62,13,18
-62,13,17
-62,13,17
-63,12,17
-63,13,17
-62,12,18
-63,12,17
-63,12,17
-62,11,17
-63,11,17
-63,11,17
-62,11,17
-62,11,18
-62,10,17
-63,10,17
-65,10,16
-66,10,16
-69,9,16
-69,8,16
-62,10,18
-66,12,16
-69,11,16
-63,10,16
-61,11,17
-62,13,14
-63,13,15
-63,12,13
-63,11,12
-64,9,11
-64,8,11
-62,8,11
-62,9,11
-62,9,11
-62,11,10
-62,11,11
-63,11,11
-63,12,10
-64,12,10
-65,11,9
-65,11,8
-66,10,8
-65,10,8
-65,10,8
-65,8,8
-66,8,8
-65,7,9
-65,6,8
-65,7,8
-66,4,8
-64,3,9
-63,2,10
-66,1,9
-66,0,10
-67,0,10
-67,0,10
-68,1,10
-68,2,11
-67,2,9
-66,2,9
-67,2,9
-66,2,9
-65,2,9
-67,3,10
-67,2,10
-67,2,10
-66,2,11
-65,1,12
-65,2,11
-65,3,11
-64,3,11
-64,3,11
-64,4,11
-65,4,12
-67,5,15
-68,5,17
-71,6,18
-73,4,22
-71,3,23
-67,3,23
-68,4,22
-64,4,21
-61,4,20
-59,4,17
-60,4,20
-60,4,20
-57,4,19
-56,5,20
-57,6,20
-57,6,20
-56,5,21
-56,5,23
-57,4,23
-58,4,25
-60,3,26
-61,2,26
-62,2,26
-62,2,27
-63,1,28
-63,0,29
-63,0,28
-63,0,28
-64,-2,28
-59,-1,26
-57,-1,25
-58,0,26
-59,0,26
-59,0,26
-59,0,26
-60,1,27
-62,0,27
-61,0,27
-62,-1,27
-61,0,27
-60,-1,27
-60,-1,27
-61,-2,27
-61,-2,26
-60,-2,26
-61,-2,27
-60,-2,27
-61,-1,26
-61,-1,27
-60,-1,27
-61,-1,26
-61,-1,26
-61,-1,27
-61,-2,27
-61,-1,27
-61,-1,27
-60,-1,26
-60,-1,27
-60,-1,26
-61,-1,26
-61,-1,26
-61,-1,26
-60,-1,26
-61,-1,26
-61,-1,27
-62,0,26
-62,-1,26
-60,0,26
-60,1,25
-59,0,24
-57,0,24
-59,0,24
-60,-1,25
-62,0,26
-62,0,27
-63,0,28
-61,0,27
-61,1,27
-62,3,26
-62,3,26
-62,3,25
-63,3,25
-63,4,25
-63,4,25
-62,4,23
-63,5,23
-62,5,22
-61,5,22
-61,6,22
-61,7,21
-61,8,22
-61,9,22
-61,9,22
-62,10,22
-62,10,23
-63,10,22
-63,10,22
-63,10,22
-63,11,22
-62,11,21
-61,11,21
-62,11,21
-62,11,20
-60,11,20
-59,11,19
-60,11,16
-62,10,21
-63,10,20
-65,10,17
-66,10,18
-64,11,20
-63,11,20
-61,11,20
-61,10,18
-63,9,18
-61,8,20
-62,8,18
-68,8,15
-61,9,20
-62,8,19
-67,8,17
-64,9,18
-62,9,19
-63,9,18
-64,9,17
-63,9,18
-63,9,17
-64,9,17
-63,9,17
-63,9,18
-63,9,18
-63,9,17
-63,9,17
-63,9,17
-63,9,17
-63,9,18
-60,11,16
-60,11,14
-60,9,15
-62,9,16
-62,8,17
-66,7,15
-68,7,14
-67,7,15
-65,7,17
-66,8,15
-64,8,15
-63,8,15
-64,8,14
-65,8,14
-65,8,14
-64,8,14
-64,8,14
-64,8,13
-63,8,14
-64,8,14
-64,8,14
-64,8,14
-65,8,13
-64,8,14
-63,8,14
-64,8,14
-64,8,14
-64,9,14
-64,8,14
-63,8,14
-61,9,14
-61,9,12
-62,9,12
-66,7,10
-67,7,9
-66,6,10
-67,6,10
-67,7,10
-64,8,10
-64,7,10
-67,5,9
-65,5,10
-66,5,10
-69,5,9
-68,6,9
-65,8,9
-65,9,8
-64,8,8
-64,8,9
-65,7,9
-64,8,8
-64,8,8
-64,7,10
-65,7,9
-65,7,9
-65,7,9
-65,7,10
-65,7,10
-65,7,10
-64,8,10
-65,8,10
-66,8,10
-65,8,11
-65,8,11
-65,8,10
-65,8,10
-65,8,10
-64,7,10
-64,7,10
-64,8,10
-64,7,10
-65,8,10
-65,8,10
-65,8,10
-65,9,10
-66,9,10
-65,9,10
-67,9,10
-66,9,10
-66,8,11
-66,8,10
-65,8,10
-65,8,10
-64,8,10
-63,8,10
-64,7,11
-64,7,11
-63,7,12
-64,7,11
-64,6,12
-65,6,12
-64,6,12
-65,6,12
-65,5,12
-64,6,13
-65,6,13
-66,7,12
-65,7,13
-64,7,14
-66,6,15
-66,6,15
-64,7,15
-65,7,14
-63,8,14
-64,8,14
-63,8,12
-62,8,13
-62,9,15
-62,10,14
-62,11,14
-62,12,15
-62,13,15
-62,12,15
-63,12,15
-63,13,15
-63,13,15
-63,13,15
-63,13,15
-63,12,15
-63,12,15
-64,11,15
-64,10,16
-64,10,15
-64,9,15
-63,9,15
-64,9,15
-63,9,15
-64,9,15
-63,9,15
-63,9,14
-64,9,15
-63,9,15
-63,10,15
-63,10,14
-62,10,15
-62,11,14
-63,11,14
-63,11,14
-64,12,14
-64,12,14
-64,12,13
-64,11,13
-64,11,13
-64,11,13
-64,11,12
-64,11,12
-63,11,12
-64,11,12
-65,9,11
-65,8,11
-64,8,12
-64,8,11
-65,8,10
-65,8,9
-65,8,10
-65,8,9
-64,8,9
-63,8,10
-62,8,9
-64,7,8
-67,6,8
-66,6,9
-67,6,9
-69,6,8
-67,6,8
-66,6,9
-64,6,8
-62,7,6
-59,7,7
-59,5,7
-61,4,6
-66,2,2
-65,1,1
-65,-2,4
-63,-1,4
-65,-2,4
-69,-4,4
-71,-5,5
-67,-7,8
-67,-8,9
-71,-9,8
-72,-10,10
-69,-9,11
-74,-7,8
-76,-7,9
-67,-4,14
-65,-3,13
-67,-3,14
-62,-2,19
-62,-2,19
-65,-3,23
-63,-1,21
-58,2,21
-51,3,20
-61,1,13
-64,2,9
-70,2,10
-63,3,17
-62,4,14
-66,3,14
-65,3,17
-69,3,18
-68,2,13
-71,2,15
-67,3,22
-63,5,18
-68,6,8
-60,7,15
-60,7,14
-57,8,10
-52,8,11
-55,8,8
-62,7,3
-65,7,1
-64,8,0
-68,6,-5
-71,5,-8
-70,6,-8
-69,5,-6
-70,5,-6
-69,4,-6
-64,4,-5
-63,3,-4
-65,3,-5
-65,3,-5
-64,4,-5
-63,5,-4
-65,5,-6
-65,5,-6
-64,5,-5
-64,5,-5
-66,4,-5
-67,5,-5
-64,4,-4
-65,4,-3
-66,4,-3
-66,3,-3
-65,3,-2
-65,3,-2
-66,4,-2
-66,4,-2
-65,4,-3
-65,4,-3
-66,4,-2
-65,5,-3
-64,4,-3
-66,4,-3
-65,4,-2
-66,4,-2
-67,4,-3
-67,4,-2
-65,4,0
-63,5,1
-62,4,0
-63,4,-1
-63,4,0
-62,3,1
-65,2,-1
-69,1,-4
-68,1,-2
-66,1,1
-66,0,0
-69,0,-3
-67,1,-2
-67,0,-3
-69,-1,-4
-67,0,-3
-66,0,-3
-67,1,-2
-67,1,-2
-64,3,-2
-64,3,-2
-64,2,-2
-63,2,-3
-62,2,-4
-64,-1,-1
-64,-2,0
-68,-4,-4
-69,-5,-4
-67,-6,1
-68,-6,1
-69,-5,0
-68,-4,0
-66,-4,0
-65,-4,-1
-65,-4,-2
-64,-4,-2
-63,-4,-3
-63,-5,-2
-64,-5,-3
-65,-5,-2
-65,-4,0
-65,-3,0
-68,-2,1
-68,-3,1
-68,-2,1
-68,-2,2
-68,-2,2
-67,-1,0
-66,0,0
-65,1,-1
-65,2,-1
-64,2,0
-65,3,-1
-64,3,0
-65,4,0
-65,5,-1
-65,5,0
-65,6,1
-65,6,1
-66,6,1
-66,7,2
-66,7,3
-67,7,3
-65,8,2
-65,9,2
-64,10,3
-66,10,3
-66,11,3
-65,11,4
-64,11,5
-64,12,5
-65,12,5
-65,12,5
-64,14,5
-64,14,6
-65,15,6
-64,16,6
-64,16,5
-64,17,5
-64,18,5
-62,18,5
-62,18,5
-63,18,5
-62,18,5
-63,19,6
-62,20,6
-62,20,7
-62,21,7
-63,22,7
-62,22,7
-62,22,7
-62,23,6
-61,25,5
-61,25,5
-60,25,5
-60,25,5
-59,26,4
-60,26,3
-57,27,4
-56,27,3
-57,27,4
-57,28,6
-58,28,7
-60,27,5
-60,26,7
-61,25,7
-60,25,8
-59,25,7
-56,25,9
-58,24,7
-61,25,2
-62,26,1
-62,26,-1
-62,26,-3
-62,26,-4
-63,26,-5
-62,25,-4
-61,24,-2
-62,24,-2
-63,23,-2
-62,23,-1
-62,23,0
-62,23,-1
-62,22,-1
-62,23,-1
-61,23,0
-62,23,-1
-63,23,-2
-63,23,-2
-64,23,0
-62,22,2
-60,22,6
-57,22,7
-58,22,5
-60,23,-1
-64,23,-5
-66,24,-6
-62,24,-5
-59,23,-4
-59,23,-3
-62,22,-6
-61,21,-5
-62,21,-6
-63,20,-10
-61,20,-9
-61,20,-8
-62,19,-8
-64,19,-15
-62,19,-13
-62,19,-12
-62,19,-12
-61,19,-11
-63,17,-13
-62,17,-12
-60,18,-12
-61,18,-13
-62,19,-14
-60,20,-14
-60,20,-14
-61,20,-12
-62,19,-12
-62,19,-12
-60,19,-11
-61,18,-12
-63,16,-12
-63,16,-11
-62,16,-11
-62,16,-9
-63,16,-10
-63,15,-10
-63,16,-10
-62,16,-10
-62,16,-10
-63,16,-10
-63,16,-10
-63,16,-9
-63,15,-9
-63,15,-9
-64,15,-8
-64,15,-8
-63,15,-8
-63,15,-8
-63,15,-8
-64,15,-9
-63,15,-8
-63,16,-8
-64,15,-9
-64,15,-9
-62,15,-8
-62,15,-7
-63,15,-8
-63,16,-8
-63,15,-8
-63,16,-8
-63,16,-7
-64,16,-8
-64,16,-7
-63,15,-6
-64,15,-6
-66,16,-5
-66,16,-5
-65,16,-5
-65,16,-6
-67,16,-7
-64,18,-6
-61,19,-5
-60,19,-6
-60,19,-6
-60,19,-5
-61,19,-4
-61,18,-4
-62,17,-3
-62,17,-2
-63,16,-1
-64,16,-1
-64,16,0
-65,17,0
-65,17,-1
-65,17,-2
-65,17,-1
-64,17,0
-64,17,0
-63,16,0
-63,15,0
-63,14,0
-63,14,0
-63,14,-1
-63,14,1
-64,14,1
-64,13,0
-65,13,1
-66,12,1
-65,12,2
-64,11,2
-65,11,2
-65,10,3
-64,10,3
-65,10,4
-67,10,4
-68,8,6
-69,8,7
-69,8,6
-68,9,6
-67,10,5
-67,12,6
-66,12,6
-64,13,5
-64,15,5
-64,15,5
-63,16,5
-62,16,5
-62,17,5
-62,16,5
-62,17,5
-61,17,5
-61,18,5
-61,19,5
-61,19,5
-60,21,6
-61,21,6
-61,22,6
-61,23,7
-61,23,7
-62,24,7
-61,24,7
-62,24,7
-62,24,7
-61,25,7
-62,26,7
-61,26,7
-61,27,7
-61,27,7
-60,26,7
-60,27,6
-59,27,6
-59,27,6
-58,27,6
-58,28,7
-58,28,6
-58,29,6
-58,29,6
-59,29,6
-58,29,6
-59,29,5
-58,29,7
-59,29,7
-58,29,7
-59,29,6
-60,29,7
-60,30,7
-59,29,7
-60,30,8
-60,30,8
-60,30,6
-58,30,7
-58,31,9
-59,31,8
-57,32,7
-55,33,7
-54,34,7
-55,34,4
-54,34,4
-54,34,5
-54,33,5
-56,33,5
-57,34,4
-57,34,5
-58,34,6
-58,34,6
-57,34,6
-57,34,6
-57,34,7
-57,34,7
-56,34,7
-56,34,6
-56,33,7
-56,33,7
-56,33,7
-56,33,6
-57,34,6
-58,34,7
-57,34,7
-57,34,7
-58,34,7
-58,34,8
-57,34,8
-58,34,8
-59,33,9
-59,32,10
-58,31,10
-58,31,10
-58,30,11
-58,30,12
-57,29,12
-56,29,12
-56,29,13
-56,29,13
-56,28,14
-56,28,15
-56,28,15
-56,28,16
-56,28,16
-57,28,16
-57,28,17
-58,28,18
-58,27,18
-58,26,18
-57,26,18
-57,25,18
-58,25,18
-58,25,18
-58,25,18
-58,26,18
-58,26,18
-58,26,18
-58,26,18
-58,26,18
-59,26,17
-58,26,17
-58,26,18
-59,26,17
-59,27,17
-58,27,17
-57,27,17
-58,27,17
-58,27,16
-57,27,18
-57,27,17
-58,27,16
-58,27,17
-58,27,18
-59,26,18
-59,26,17
-60,26,17
-59,25,17
-59,26,16
-60,26,16
-58,26,17
-58,26,18
-57,27,18
-58,27,16
-58,28,17
-58,27,18
-57,27,19
-57,27,19
-57,27,18
-58,27,19
-57,27,19
-57,27,19
-58,27,19
-58,27,18
-58,27,18
-57,27,18
-58,27,19
-58,27,19
-58,27,19
-57,27,19
-57,27,19
-57,27,18
-58,27,18
-57,27,19
-58,27,18
-57,27,18
-58,27,18
-57,27,19
-57,27,19
-57,27,19
-57,27,18
-57,28,19
-57,27,19
-56,27,19
-56,27,19
-57,27,18
-60,27,17
-59,27,17
-57,27,18
-59,28,17
-57,28,16
-56,28,16
-58,27,19
-57,26,19
-57,26,19
-58,26,19
-58,26,19
-58,26,19
-59,26,19
-60,26,19
-60,25,19
-59,26,18
-60,26,18
-59,26,18
-58,26,19
-57,25,19
-58,25,18
-58,25,19
-58,25,18
-58,25,19
-58,25,19
-58,25,19
-58,25,18
-58,25,18
-58,25,19
-58,25,19
-58,25,19
-58,24,19
-58,24,19
-59,24,19
-58,24,20
-58,24,19
-58,24,19
-58,24,20
-58,24,19
-58,24,19
-58,24,19
-58,24,19
-58,24,19
-58,24,19
-58,25,18
-58,25,18
-58,24,18
-58,24,19
-59,25,19
-60,25,19
-60,25,19
-59,25,19
-59,25,19
-59,25,18
-59,24,18
-59,24,18
-58,24,19
-58,24,19
-57,24,17
-58,24,17
-58,25,18
-59,25,18
-59,25,18
-58,25,19
-59,25,18
-59,25,18
-59,25,18
-58,25,17
-59,26,17
-59,26,18
-58,26,18
-57,26,17
-58,26,16
-59,26,16
-59,27,16
-58,27,15
-58,28,15
-59,28,15
-58,29,15
-58,28,15
-58,28,15
-59,28,15
-58,28,15
-58,28,14
-59,28,14
-59,29,14
-59,29,14
-58,29,14
-60,29,14
-58,29,14
-58,29,14
-57,28,14
-58,29,14
-57,29,14
-57,29,14
-58,29,14
-58,29,13
-58,30,13
-59,30,14
-59,30,14
-58,30,14
-58,29,14
-59,30,14
-58,30,14
-58,30,14
-57,30,14
-58,30,14
-58,30,14
-57,30,14
-57,30,14
-57,31,14
-57,31,14
-56,30,15
-57,30,15
-56,30,15
-56,30,14
-57,30,15
-56,30,15
-56,31,14
-57,31,15
-57,31,15
-57,31,15
-56,31,15
-56,30,16
-57,30,16
-56,30,16
-56,30,15
-56,30,15
-56,30,15
-56,30,16
-56,30,16
-56,31,15
-56,31,15
-57,31,16
-56,30,16
-57,30,16
-57,30,16
-57,30,16
-58,30,15
-57,30,15
-57,30,15
-58,30,15
-58,29,15
-58,29,15
-57,29,15
-57,30,15
-57,30,15
-56,29,15
-57,28,15
-57,29,15
-57,30,15
-57,30,15
-57,31,15
-57,31,15
-56,31,15
-56,31,15
-56,31,15
-56,32,15
-56,32,15
-56,32,14
-56,32,14
-56,32,14
-56,32,14
-56,32,15
-56,32,15
-56,32,14
-56,32,15
-56,32,14
-56,32,14
-56,32,15
-56,32,15
-56,31,14
-56,32,14
-56,31,15
-56,31,15
-57,30,14
-57,30,14
-56,30,15
-57,30,15
-57,30,15
-56,31,14
-56,31,14
-57,32,14
-57,32,15
-57,32,15
-56,31,14
-56,31,14
-56,31,14
-56,32,14
-55,32,14
-55,32,13
-55,32,14
-55,32,14
-55,31,14
-57,31,14
-56,31,15
-56,32,15
-57,32,14
-56,32,14
-54,31,13
-56,30,12
-57,29,14
-57,29,14
-57,29,14
-59,28,14
-58,28,14
-59,27,14
-60,26,14
-60,26,15
-60,25,15
-59,25,15
-62,24,14
-62,24,15
-61,24,14
-61,24,14
-61,23,14
-61,23,14
-61,23,14
-60,23,13
-61,23,13
-62,23,14
-62,22,14
-62,21,14
-61,21,13
-61,21,14
-61,21,15
-61,22,14
-60,22,14
-61,22,14
-61,22,14
-60,22,13
-59,21,12
-60,21,14
-61,21,14
-61,22,14
-60,22,14
-62,22,14
-61,21,15
-61,21,14
-62,21,14
-62,21,14
-62,21,14
-62,21,14
-62,21,14
-61,21,14
-61,21,14
-61,20,14
-62,20,13
-61,21,13
-61,21,13
-61,21,14
-61,21,14
-61,21,14
-62,21,14
-62,21,15
-61,20,14
-61,21,14
-61,21,15
-62,21,15
-61,21,14
-62,21,15
-61,21,15
-61,21,14
-61,21,14
-62,21,14
-61,21,14
-62,21,13
-61,22,15
-61,22,16
-61,21,15
-60,21,15
-62,21,15
-61,21,14
-61,22,15
-61,22,14
-61,22,15
-61,21,15
-60,21,15
-61,21,15
-61,21,15
-61,21,15
-61,21,15
-61,21,15
-61,21,15
-61,21,15
-61,21,16
-61,21,14
-60,21,15
-61,21,15
-60,21,15
-61,21,15
-61,21,15
-61,21,16
-61,21,15
-60,21,15
-61,21,15
-60,21,15
-61,21,16
-61,21,16
-62,21,16
-61,21,16
-61,21,16
-61,21,16
-60,21,16
-61,21,15
-60,21,16
-60,21,15
-60,21,16
-60,21,16
-60,21,15
-60,21,15
-61,22,16
-61,22,17
-61,22,16
-61,22,16
-61,21,17
-60,22,16
-61,22,16
-60,22,16
-60,21,16
-60,21,16
-60,22,16
-60,21,17
-60,21,16
-60,21,17
-61,22,16
-61,21,16
-61,22,17
-61,22,16
-60,21,16
-61,22,16
-60,22,16
-60,21,17
-60,21,16
-61,21,16
-60,21,17
-60,21,16
-60,21,16
-60,22,16
-60,22,16
-61,22,16
-61,22,16
-61,21,17
-60,21,16
-60,21,17
-60,21,16
-60,21,16
-60,22,16
-60,22,16
-60,22,16
-60,22,16
-60,21,16
-61,21,17
-62,21,17
-61,20,17
-60,20,16
-60,20,15
-59,20,16
-60,22,16
-61,22,15
-61,22,15
-63,19,17
-64,13,19
-62,14,21
-61,16,19
-59,20,15
-61,22,13
-60,24,13
-61,22,13
-62,20,14
-62,19,16
-62,18,16
-62,15,17
-63,15,17
-62,17,18
-60,20,16
-60,22,15
-60,23,14
-60,23,15
-61,23,16
-61,23,15
-61,23,15
-60,22,16
-60,21,16
-62,20,15
-61,20,15
-61,20,16
-60,20,16
-61,20,15
-60,21,15
-60,22,14
-59,23,13
-58,23,12
-61,24,12
-61,23,14
-62,21,16
-62,19,16
-62,19,17
-63,20,16
-62,20,15
-60,21,12
-60,21,11
-61,22,12
-62,20,14
-62,20,14
-63,19,15
-63,19,15
-63,18,15
-63,17,16
-62,17,15
-62,17,15
-62,17,14
-61,18,14
-61,17,14
-62,18,14
-62,18,15
-61,18,16
-62,18,15
-62,19,14
-62,19,15
-61,19,15
-61,20,15
-61,21,14
-60,21,14
-62,21,15
-61,21,15
-59,20,15
-60,20,15
-62,19,15
-62,20,16
-62,21,15
-62,22,15
-61,22,15
-61,22,15
-60,22,15
-61,22,14
-61,22,14
-61,21,15
-61,21,15
-61,21,15
-61,21,15
-61,21,15
-61,21,15
-61,21,15
-61,21,15
-61,21,15
-62,21,15
-61,21,15
-61,21,15
-60,20,15
-62,20,16
-62,20,17
-61,20,16
-60,20,17
-60,20,17
-61,20,16
-61,21,16
-60,21,18
-60,22,18
-60,22,18
-59,22,19
-58,21,20
-57,21,20
-59,21,20
-59,21,21
-58,21,22
-55,21,24
-55,21,26
-58,20,25
-58,21,25
-55,21,26
-56,19,24
-61,19,21
-64,18,18
-59,18,21
-57,18,21
-57,18,21
-61,18,18
-62,17,18
-62,17,17
-63,17,15
-63,17,15
-62,16,14
-64,17,13
-63,16,12
-64,15,9
-67,14,6
-68,14,6
-67,15,8
-66,17,9
-61,17,12
-60,16,13
-64,15,11
-63,15,12
-63,15,13
-65,16,13
-60,11,15
-60,17,14
-59,13,13
-65,10,11
-63,9,14
-67,8,13
-68,8,12
-68,9,12
-56,8,20
-61,11,18
-66,12,17
-66,10,16
-65,11,14
-67,10,12
-64,10,13
-62,11,13
-63,11,11
-63,11,10
-64,10,10
-63,10,9
-65,11,7
-66,11,8
-66,13,9
-63,13,11
-67,13,7
-66,12,8
-64,13,8
-62,12,10
-61,12,11
-63,12,10
-63,12,11
-64,12,12
-65,11,12
-67,12,10
-65,12,10
-64,12,11
-63,12,11
-63,11,11
-64,12,10
-64,11,10
-62,10,12
-63,11,10
-66,10,8
-63,11,12
-64,10,10
-66,11,9
-64,11,10
-64,10,11
-64,9,10
-66,9,10
-65,10,11
-65,9,11
-66,9,10
-66,9,10
-63,9,11
-63,10,11
-64,9,11
-63,10,12
-64,9,11
-67,10,9
-66,10,9
-65,10,10
-65,10,10
-64,10,10
-64,10,11
-64,10,11
-64,10,11
-64,9,12
-64,9,11
-65,9,11
-65,10,10
-65,10,10
-64,10,11
-64,10,10
-64,10,11
-64,11,11
-64,10,11
-63,10,11
-64,10,11
-64,11,12
-65,10,11
-65,10,12
-65,10,12
-64,10,11
-64,10,11
-63,10,13
-63,10,12
-64,10,12
-64,10,12
-64,10,13
-64,10,13
-65,10,13
-64,10,13
-64,10,13
-64,10,13
-64,10,12
-64,11,12
-64,10,12
-64,10,12
-64,10,12
-66,10,12
-64,10,13
-64,11,13
-64,10,13
-67,10,12
-68,10,12
-63,11,15
-60,12,16
-57,11,21
-58,11,24
-60,11,26
-63,11,23
-64,11,23
-64,10,23
-63,10,22
-60,10,22
-60,10,21
-62,10,21
-61,10,21
-61,10,21
-61,11,21
-62,11,21
-62,11,21
-63,10,21
-62,10,22
-62,10,22
-62,10,21
-62,10,22
-62,10,22
-62,10,21
-62,10,21
-62,10,21
-62,10,21
-62,10,21
-61,10,22
-62,10,21
-62,10,21
-62,10,21
-62,10,21
-62,11,21
-62,10,21
-61,10,21
-61,10,21
-62,10,21
-62,10,22
-62,10,21
-62,10,21
-62,10,21
-61,10,21
-61,10,22
-62,9,21
-62,10,21
-63,10,21
-63,10,21
-64,10,21
-63,10,21
-62,10,21
-62,10,23
-65,9,21
-64,10,23
-53,11,33
-54,12,33
-53,11,32
-56,11,31
-59,10,30
-59,10,30
-58,10,30
-58,10,30
-58,10,30
-58,10,31
