1.5192e+09,1.5192e+09,1.5192e+09
32,32,32
-63,-16,-8
-63,-16,-7
-63,-16,-7
-63,-16,-7
-63,-16,-6
-64,-16,-6
-64,-16,-6
-62,-16,-5
-64,-16,-6
-65,-17,-3
-63,-17,4
-60,-16,0
-62,-16,-2
-68,-17,1
-67,-16,3
-60,-14,9
-57,-14,11
-62,-17,6
-67,-19,4
-66,-19,6
-61,-17,12
-61,-16,12
-63,-16,10
-63,-17,8
-62,-17,8
-63,-17,10
-63,-17,10
-62,-17,10
-62,-17,9
-63,-17,8
-63,-17,8
-63,-17,9
-63,-17,9
-63,-17,9
-63,-17,9
-63,-17,9
-63,-17,10
-62,-17,10
-63,-17,9
-63,-17,10
-63,-17,10
-62,-17,10
-63,-17,10
-63,-18,10
-63,-17,10
-62,-17,9
-63,-18,10
-62,-17,10
-62,-17,9
-63,-17,9
-63,-17,10
-62,-17,9
-63,-17,9
-63,-18,9
-63,-17,9
-62,-17,10
-62,-17,9
-63,-17,9
-63,-17,10
-63,-18,10
-63,-17,10
-62,-17,10
-63,-17,10
-63,-17,9
-63,-17,10
-63,-18,9
-63,-17,9
-63,-17,10
-62,-17,11
-62,-17,10
-63,-17,9
-63,-17,9
-62,-17,9
-63,-17,10
-63,-17,11
-62,-16,11
-62,-17,10
-62,-17,9
-63,-17,9
-63,-17,10
-63,-17,9
-63,-17,9
-63,-17,9
-63,-17,10
-63,-17,9
-63,-17,9
-63,-17,10
-63,-17,10
-63,-17,10
-63,-17,10
-63,-17,10
-63,-17,10
-62,-17,10
-63,-17,10
-63,-17,10
-63,-17,10
-63,-17,10
-63,-17,10
-63,-17,10
-63,-17,10
-63,-17,10
-63,-17,10
-63,-17,10
-63,-16,10
-63,-17,10
-63,-17,10
-63,-17,9
-63,-17,10
-63,-17,10
-63,-17,10
-63,-17,10
-63,-17,10
-63,-16,9
-63,-17,10
-63,-17,9
-63,-17,9
-63,-17,10
-63,-17,10
-63,-17,10
-63,-17,9
-63,-17,10
-63,-17,11
-62,-16,11
-63,-17,8
-63,-17,8
-63,-16,9
-63,-16,10
-63,-16,11
-63,-17,11
-63,-16,10
-62,-16,10
-63,-16,10
-63,-16,10
-63,-17,10
-63,-17,10
-63,-16,9
-63,-16,9
-63,-17,9
-63,-17,10
-62,-17,10
-63,-17,9
-64,-17,9
-63,-16,12
-61,-15,12
-62,-15,10
-63,-16,9
-63,-17,8
-63,-18,7
-64,-18,6
-63,-17,5
-63,-17,5
-63,-16,7
-63,-16,7
-63,-16,6
-63,-18,4
-63,-18,4
-63,-19,3
-62,-19,4
-63,-19,4
-63,-19,5
-63,-18,7
-63,-17,6
-63,-17,6
-63,-17,5
-63,-18,6
-63,-18,6
-63,-18,6
-63,-18,6
-63,-18,6
-62,-18,7
-63,-18,6
-63,-18,6
-63,-18,6
-63,-18,6
-63,-17,6
-63,-18,7
-63,-18,7
-63,-18,7
-63,-17,7
-63,-17,7
-63,-17,7
-63,-17,7
-63,-17,7
-63,-18,7
-63,-18,7
-63,-18,7
-63,-18,7
-63,-18,8
-62,-18,8
-63,-18,7
-63,-18,7
-62,-18,8
-63,-18,7
-63,-18,7
-63,-18,7
-63,-17,8
-63,-18,8
-63,-18,8
-63,-18,7
-63,-18,8
-63,-18,8
-63,-18,7
-63,-17,8
-63,-18,8
-63,-18,8
-63,-17,8
-63,-17,7
-63,-17,7
-63,-18,8
-63,-17,8
-63,-17,7
-63,-18,7
-63,-18,8
-63,-18,8
-63,-18,7
-63,-17,7
-62,-17,8
-63,-17,8
-63,-17,8
-63,-17,8
-63,-17,7
-63,-17,8
-62,-18,8
-63,-18,7
-63,-17,7
-63,-17,7
-62,-17,9
-63,-16,9
-63,-16,9
-63,-16,8
-63,-16,7
-63,-16,3
-65,-14,4
-63,-15,5
-63,-17,6
-61,-19,7
-61,-21,9
-62,-21,9
-62,-20,9
-62,-20,9
-63,-19,10
-62,-18,8
-62,-18,9
-62,-19,9
-62,-21,8
-63,-23,8
-63,-24,9
-63,-26,11
-62,-22,8
-62,-19,8
-63,-14,3
-64,-13,3
-63,-11,6
-62,-10,9
-63,-8,10
-65,-8,7
-66,-9,5
-64,-12,8
-64,-13,7
-65,-13,4
-65,-13,4
-65,-13,7
-64,-12,6
-64,-11,6
-64,-10,6
-64,-9,5
-65,-9,2
-66,-9,0
-66,-9,-2
-65,-8,-1
-65,-6,-1
-65,-5,-3
-65,-3,-4
-63,-2,-3
-66,-1,-10
-63,-1,-11
-65,-2,-13
-66,-4,-12
-64,-5,-11
-64,-6,-11
-65,-7,-4
-65,-6,-5
-65,-6,-6
-64,-7,-6
-64,-7,-6
-65,-7,-6
-65,-7,-6
-65,-8,-6
-64,-9,-5
-64,-9,-5
-65,-9,-5
-65,-9,-5
-64,-9,-4
-64,-10,-3
-65,-10,-4
-65,-10,-5
-65,-10,-5
-64,-10,-3
-64,-10,-3
-65,-10,-4
-64,-10,-4
-65,-10,-3
-64,-10,-1
-66,-9,-6
-64,-10,-6
-64,-10,-4
-65,-11,-2
-65,-11,-3
-65,-11,-2
-65,-10,-2
-65,-10,-3
-64,-9,-2
-64,-9,-1
-64,-8,-4
-65,-8,-4
-64,-8,-3
-64,-8,-7
-65,-9,-9
-65,-10,-5
-66,-9,-4
-64,-9,0
-65,-9,0
-64,-10,4
-65,-9,2
-65,-9,1
-64,-9,2
-66,-8,4
-66,-7,6
-62,-6,4
-65,-8,-2
-65,-8,1
-65,-9,4
-64,-10,5
-64,-10,5
-65,-10,6
-65,-10,7
-64,-11,5
-64,-10,4
-63,-11,4
-64,-12,5
-63,-13,8
-64,-15,7
-64,-14,11
-64,-14,12
-64,-15,11
-62,-15,10
-63,-16,8
-62,-16,8
-63,-16,8
-64,-15,9
-63,-15,11
-64,-15,11
-64,-16,11
-62,-16,11
-63,-16,12
-64,-16,12
-62,-16,12
-62,-16,11
-63,-16,11
-63,-16,12
-63,-16,11
-63,-16,13
-62,-14,13
-63,-15,13
-62,-15,15
-63,-15,14
-62,-15,14
-62,-14,14
-62,-15,15
-62,-15,16
-63,-15,16
-62,-15,16
-62,-15,16
-62,-15,16
-62,-15,17
-61,-15,17
-62,-14,16
-62,-14,17
-62,-15,17
-62,-14,14
-63,-14,14
-62,-14,15
-62,-14,15
-63,-15,15
-62,-14,16
-62,-14,16
-63,-15,15
-63,-14,15
-63,-13,14
-62,-13,14
-63,-13,14
-63,-13,14
-63,-13,14
-63,-13,16
-62,-13,16
-62,-13,15
-62,-13,15
-63,-13,15
-63,-14,15
-63,-13,15
-63,-13,15
-64,-14,15
-63,-13,14
-63,-14,12
-62,-13,13
-64,-13,14
-63,-13,14
-63,-13,14
-63,-13,14
-63,-13,14
-63,-13,14
-63,-13,14
-63,-13,13
-63,-13,13
-63,-13,14
-63,-13,14
-63,-13,13
-63,-14,14
-63,-13,14
-63,-13,14
-63,-13,14
-63,-13,14
-63,-13,14
-63,-13,14
-63,-13,15
-63,-13,14
-63,-13,14
-63,-13,15
-63,-13,14
-63,-13,14
-63,-13,14
-63,-13,14
-63,-13,14
-63,-13,14
-63,-13,14
-63,-13,14
-63,-13,14
-63,-13,15
-63,-13,15
-63,-13,15
-63,-13,15
-63,-13,15
-63,-13,14
-63,-13,15
-63,-13,14
-63,-13,14
-63,-13,14
-63,-13,14
-63,-13,15
-63,-13,15
-63,-13,16
-63,-13,15
-63,-14,14
-62,-13,15
-63,-13,13
-63,-13,13
-63,-13,12
-63,-13,12
-64,-13,11
-63,-13,13
-63,-13,13
-63,-13,14
-63,-13,14
-62,-13,15
-63,-14,14
-63,-13,14
-63,-14,14
-63,-14,15
-62,-13,16
-62,-13,15
-63,-13,14
-62,-13,15
-62,-13,16
-63,-14,15
-63,-14,15
-63,-14,15
-62,-14,16
-62,-14,16
-63,-14,15
-63,-14,14
-63,-13,13
-63,-13,14
-63,-13,15
-63,-13,15
-63,-14,15
-63,-13,15
-63,-14,15
-63,-14,15
-64,-14,13
-64,-13,10
-62,-13,12
-63,-13,13
-64,-13,12
-63,-14,14
-62,-13,14
-63,-14,13
-63,-13,13
-63,-14,13
-63,-14,13
-63,-14,14
-63,-14,13
-63,-13,13
-63,-13,12
-63,-14,13
-63,-14,12
-63,-13,12
-63,-14,13
-63,-14,12
-63,-14,13
-63,-13,13
-63,-13,12
-63,-13,11
-64,-13,12
-63,-13,12
-63,-14,12
-63,-14,12
-63,-13,13
-64,-13,11
-63,-14,11
-63,-13,11
-63,-14,11
-64,-13,11
-64,-13,11
-63,-13,11
-64,-13,11
-64,-13,11
-64,-13,11
-63,-13,11
-63,-13,11
-63,-14,12
-63,-14,12
-63,-13,12
-64,-14,11
-63,-13,12
-63,-13,12
-63,-13,12
-63,-13,12
-63,-14,12
-63,-14,12
-63,-14,12
-63,-13,12
-63,-13,11
-63,-14,12
-64,-14,10
-63,-14,12
-62,-14,14
-63,-14,11
-63,-14,11
-63,-14,11
-63,-14,11
-64,-14,10
-64,-14,11
-62,-14,12
-64,-14,11
-64,-14,11
-64,-14,10
-63,-14,11
-63,-14,10
-64,-14,10
-63,-14,11
-63,-14,11
-64,-14,11
-64,-14,11
-63,-14,12
-63,-14,8
-64,-14,8
-65,-15,9
-63,-14,7
-63,-14,8
-64,-14,9
-64,-14,10
-63,-14,11
-62,-14,12
-63,-14,12
-63,-15,11
-63,-14,12
-62,-15,14
-62,-15,15
-64,-14,12
-63,-15,12
-63,-14,14
-62,-14,13
-63,-14,12
-63,-14,13
-63,-14,13
-62,-14,16
-64,-14,13
-64,-14,13
-62,-14,15
-62,-14,14
-62,-13,15
-63,-13,15
-63,-13,14
-63,-14,14
-62,-13,15
-63,-13,14
-63,-14,14
-63,-14,14
-63,-14,13
-63,-14,15
-63,-13,14
-63,-14,14
-63,-14,13
-63,-14,13
-63,-14,13
-63,-13,14
-63,-14,14
-63,-14,13
-63,-14,13
-63,-13,14
-63,-13,14
-63,-14,13
-63,-14,13
-63,-13,14
-63,-13,14
-63,-13,15
-62,-13,13
-62,-13,12
-63,-14,12
-63,-14,14
-63,-13,14
-62,-13,15
-63,-13,14
-64,-13,13
-63,-13,14
-63,-14,13
-63,-13,13
-63,-13,14
-63,-13,14
-63,-14,14
-63,-14,15
-63,-14,15
-63,-13,12
-63,-13,11
-63,-13,11
-64,-13,13
-63,-13,13
-63,-13,13
-63,-14,12
-63,-14,14
-63,-13,14
-62,-13,14
-63,-13,13
-63,-14,13
-63,-13,13
-63,-13,12
-63,-14,13
-63,-13,13
-63,-13,14
-63,-13,13
-63,-14,14
-63,-14,15
-63,-14,14
-63,-14,13
-63,-13,11
-63,-14,14
-63,-13,15
-63,-13,13
-63,-13,12
-63,-14,12
-63,-13,12
-63,-14,13
-63,-14,13
-63,-13,12
-63,-13,12
-63,-13,12
-63,-13,12
-63,-14,13
-63,-14,12
-63,-13,12
-63,-13,13
-64,-13,13
-63,-13,12
-63,-14,11
-63,-14,11
-63,-13,11
-63,-14,12
-63,-13,11
-62,-13,12
-63,-13,12
-64,-13,11
-63,-13,12
-63,-13,11
-63,-14,11
-64,-13,10
-64,-13,10
-64,-13,11
-63,-13,11
-63,-13,11
-64,-13,9
-64,-13,12
-64,-13,13
-64,-13,11
-61,-14,11
-63,-15,13
-65,-15,12
-61,-13,10
-62,-14,12
-64,-13,10
-63,-13,11
-63,-13,12
-63,-13,13
-63,-13,13
-63,-14,11
-64,-13,10
-63,-13,11
-64,-12,10
-64,-13,8
-65,-15,11
-65,-15,10
-64,-15,10
-63,-15,12
-61,-14,14
-62,-14,13
-63,-14,12
-63,-15,13
-62,-14,14
-64,-15,12
-64,-14,11
-62,-14,14
-63,-13,12
-64,-14,8
-63,-14,11
-63,-14,13
-63,-14,13
-63,-14,13
-63,-15,11
-63,-15,13
-62,-13,11
-63,-14,10
-64,-14,11
-64,-14,12
-63,-14,11
-63,-14,11
-63,-14,12
-63,-13,11
-63,-14,12
-63,-14,11
-63,-14,12
-63,-14,10
-64,-14,8
-64,-14,10
-64,-14,11
-62,-14,13
-63,-13,12
-63,-14,11
-63,-14,10
-64,-14,10
-63,-14,10
-64,-14,10
-63,-14,10
-63,-14,9
-63,-13,10
-64,-14,10
-64,-14,10
-64,-13,10
-63,-13,11
-64,-14,11
-64,-14,11
-63,-14,10
-63,-13,11
-63,-13,12
-64,-13,11
-63,-13,12
-63,-13,11
-63,-13,11
-63,-13,11
-63,-13,12
-63,-14,11
-63,-13,11
-63,-13,12
-63,-13,11
-63,-13,10
-64,-13,11
-64,-13,12
-63,-13,11
-63,-13,11
-64,-13,11
-63,-13,11
-64,-13,11
-63,-13,11
-64,-13,11
-63,-13,11
-64,-13,11
-64,-13,11
-64,-13,11
-63,-13,10
-63,-13,11
-63,-13,10
-64,-13,11
-63,-13,11
-63,-13,11
-64,-13,11
-64,-13,11
-63,-13,11
-64,-13,11
-64,-13,10
-64,-13,10
-64,-13,11
-63,-13,11
-63,-13,9
-64,-13,11
-64,-13,10
-64,-13,10
-63,-13,11
-64,-13,11
-63,-13,11
-63,-13,11
-64,-13,10
-64,-13,11
-63,-13,11
-63,-13,11
-64,-13,11
-64,-13,10
-63,-13,11
-64,-13,11
-64,-13,11
-63,-13,11
-64,-13,10
-64,-13,10
-64,-13,11
-64,-13,10
-64,-13,9
-63,-14,11
-62,-13,10
-65,-13,8
-65,-13,9
-63,-13,9
-64,-13,9
-64,-13,10
-63,-13,11
-63,-13,11
-64,-13,11
-64,-13,10
-64,-13,10
-64,-13,10
-63,-13,10
-64,-13,10
-64,-13,10
-63,-13,10
-63,-13,10
-64,-13,9
-64,-13,9
-64,-12,10
-63,-12,10
-64,-13,9
-64,-13,10
-64,-13,10
-63,-13,10
-64,-13,10
-63,-13,11
-64,-12,10
-64,-13,9
-63,-13,10
-64,-13,10
-64,-13,11
-64,-13,10
-63,-13,10
-64,-13,10
-64,-13,10
-64,-13,10
-63,-13,10
-64,-13,10
-64,-13,10
-64,-13,10
-64,-13,10
-64,-13,10
-64,-13,11
-63,-13,10
-64,-13,9
-64,-13,10
-64,-13,10
-64,-12,9
-64,-13,9
-64,-13,10
-64,-13,10
-64,-13,10
-64,-13,10
-64,-13,10
-64,-13,10
-64,-13,10
-64,-13,10
-64,-13,10
-64,-12,10
-64,-13,11
-63,-12,10
-64,-13,9
-64,-13,10
-64,-12,10
-64,-12,10
-64,-12,9
-64,-12,10
-64,-12,10
-64,-13,9
-64,-13,10
-64,-13,10
-64,-13,10
-63,-13,10
-64,-12,10
-64,-13,10
-63,-13,12
-64,-13,10
-64,-13,10
-63,-13,10
-64,-13,10
-64,-13,10
-64,-13,9
-64,-13,10
-64,-13,10
-63,-13,10
-64,-13,10
-64,-13,10
-64,-13,10
-64,-13,10
-64,-12,10
-64,-13,10
-63,-13,10
-64,-13,10
-63,-13,10
-64,-13,10
-64,-13,10
-63,-13,10
-63,-13,10
-64,-13,10
-64,-13,10
-64,-13,10
-64,-13,10
-64,-13,10
-64,-13,10
-64,-13,10
-64,-13,10
-64,-13,10
-64,-13,10
-64,-13,10
-64,-13,10
-64,-13,10
-64,-13,10
-64,-13,10
-64,-13,10
-64,-13,10
-64,-13,10
-64,-13,10
-64,-13,10
-64,-13,10
-63,-13,10
-64,-13,10
-64,-13,10
-64,-13,10
-64,-13,10
-64,-13,10
-64,-13,10
-64,-13,10
-64,-13,10
-64,-13,10
-64,-13,10
-64,-13,10
-64,-13,10
-63,-13,10
-64,-13,10
-64,-13,10
-64,-13,10
-64,-13,10
-64,-13,10
-64,-13,10
-64,-13,10
-64,-13,10
-63,-13,11
-64,-13,10
-64,-13,10
-63,-13,11
-64,-13,10
-64,-13,10
-64,-13,10
-64,-13,10
-64,-13,10
-64,-13,10
-64,-13,10
-64,-13,11
-64,-13,10
-64,-13,11
-64,-13,10
-63,-13,10
-64,-13,10
-64,-13,10
-64,-13,10
-64,-13,10
-64,-13,10
-63,-13,10
-64,-13,10
-64,-13,10
-64,-13,10
-64,-13,10
-64,-13,10
-64,-13,10
-64,-13,10
-64,-13,10
-63,-13,10
-64,-12,11
-64,-13,10
-64,-13,10
-64,-13,10
-64,-13,10
-63,-13,11
-63,-13,10
-63,-13,10
-64,-13,10
-64,-13,10
-64,-13,10
-64,-13,10
-64,-13,10
-64,-13,10
-64,-13,10
-64,-13,10
-64,-13,10
-64,-13,10
-64,-13,10
-63,-13,11
-64,-13,10
-64,-13,10
-64,-13,10
-64,-12,10
-64,-12,10
-64,-13,10
-64,-13,9
-64,-13,10
-64,-13,10
-64,-13,10
-64,-13,10
-64,-13,10
-64,-13,10
-64,-13,10
-64,-12,10
-64,-12,9
-64,-13,9
-64,-13,10
-64,-13,10
-64,-13,10
-64,-13,10
-64,-12,10
-64,-12,10
-64,-12,10
-64,-13,10
-64,-13,10
-64,-12,9
-64,-12,9
-64,-13,9
-64,-13,9
-64,-13,10
-64,-13,10
-64,-13,10
-64,-13,10
-64,-12,10
-64,-13,10
-64,-12,10
-64,-12,9
-64,-12,9
-64,-13,9
-64,-12,10
-64,-13,10
-64,-13,9
-64,-13,9
-64,-13,10
-64,-13,10
-64,-13,10
-64,-13,9
-64,-13,10
-64,-12,11
-64,-13,10
-64,-13,9
-64,-13,8
-64,-13,9
-64,-13,9
-64,-13,10
-64,-12,9
-64,-13,10
-64,-13,10
-63,-13,10
-63,-13,10
-65,-13,9
-64,-13,10
-63,-13,8
-64,-13,9
-64,-13,10
-64,-13,10
-64,-13,10
-64,-13,10
-64,-13,9
-64,-13,9
