1.5193e+09,1.5193e+09
1491.1,0.76566
1491.8,0.73441
1492.6,0.76566
1493.3,0.78129
1494.2,0.89067
1495.1,0.87504
1498.8,0.76566
1499.6,0.81254
1500.4,0.81254
1501.3,0.84379
1502,0.75003
1502.8,0.73441
1503.5,0.70316
1504.2,0.76566
1505,0.71878
1505.7,0.76566
1506.5,0.75003
1507.2,0.76566
1508,0.76566
1508.9,0.87504
1509.8,0.95317
1515.6,0.71878
1516.3,0.78129
1517.1,0.78129
1517.9,0.73441
1518.6,0.76566
1519.4,0.79691
1533.8,0.75003
1534.5,0.75003
1535.2,0.70316
1557.8,0.81254
1558.6,0.81254
1559.4,0.79691
1560.1,0.70316
1560.9,0.78129
1561.5,0.67191
1562.3,0.78129
1563.1,0.78129
1563.8,0.71878
1564.5,0.71878
1565.4,0.84379
1566.2,0.82816
1567,0.82816
1568.1,1.0469
1571.7,0.76566
1572.4,0.73441
1573.2,0.79691
1574,0.79691
1574.8,0.84379
1575.6,0.75003
1576.3,0.70316
1577,0.70316
1577.7,0.70316
1578.4,0.68753
1579.1,0.67191
1579.8,0.75003
1580.6,0.76566
1581.4,0.78129
1582.2,0.79691
1582.9,0.75003
1583.7,0.75003
1584.4,0.71878
1598,0.70316
1598.7,0.70316
1599.4,0.70316
1600.1,0.71878
1600.9,0.79691
1601.6,0.68753
1612.3,0.79691
1613.1,0.75003
1613.8,0.71878
1614.5,0.68753
1638.5,0.70316
1639.2,0.70316
1649.6,0.84379
1650.4,0.76566
1651.1,0.73441
1651.9,0.76566
1652.7,0.81254
1653.5,0.78129
1654.2,0.70316
1654.9,0.70316
1655.6,0.73441
1664.9,0.68753
1712.7,0.75003
1719.2,0.70316
1724.1,0.67191
1729.1,0.67191
1729.8,0.73441
1730.5,0.71878
1731.2,0.68753
1732,0.75003
1732.8,0.79691
1733.6,0.82816
1734.3,0.68753
1735,0.71878
1735.7,0.71878
1736.5,0.71878
1737.3,0.79691
1737.9,0.68753
1738.6,0.64065
1739.3,0.73441
1740,0.68753
1740.8,0.78129
1741.5,0.73441
1742.2,0.71878
1743,0.78129
1743.8,0.82816
1744.6,0.76566
1745.3,0.71878
1746.1,0.75003
1746.8,0.67191
1747.5,0.70316
1748.2,0.70316
1748.8,0.65628
1749.5,0.67191
1750.3,0.76566
