1.5186e+09,1.5186e+09
411.61,0.59378
412.16,0.5469
412.63,0.46877
413.21,0.57815
413.74,0.53127
469.99,0.53127
470.47,0.4844
471.05,0.57815
471.65,0.59378
472.29,0.64065
491.8,0.46877
492.27,0.46877
492.74,0.46877
493.26,0.51565
496.74,0.53127
497.19,0.45315
497.69,0.50002
498.16,0.46877
498.59,0.42189
499.13,0.5469
499.71,0.57815
501.88,0.45315
502.35,0.46877
502.8,0.45315
503.26,0.45315
503.71,0.45315
504.16,0.45315
504.66,0.50002
508.07,0.51565
508.55,0.4844
509.04,0.4844
544.42,0.53127
549.74,0.4844
550.28,0.53127
553.28,0.50002
553.84,0.56253
569.18,0.56253
572.82,0.4844
577.92,0.5469
578.45,0.53127
579.01,0.56253
579.56,0.5469
580.14,0.57815
580.67,0.53127
581.23,0.56253
581.79,0.56253
582.35,0.56253
582.92,0.56253
583.5,0.57815
584.01,0.51565
584.6,0.59378
596.64,0.51565
600.37,0.62503
600.93,0.56253
601.39,0.45315
601.87,0.4844
602.39,0.51565
602.87,0.4844
603.43,0.56253
603.9,0.46877
604.42,0.51565
604.92,0.50002
605.37,0.45315
605.92,0.5469
606.39,0.46877
606.89,0.50002
607.4,0.51565
607.93,0.53127
608.48,0.5469
609.04,0.56253
609.62,0.57815
610.18,0.56253
610.68,0.50002
611.23,0.5469
611.79,0.56253
612.34,0.5469
612.87,0.53127
613.4,0.53127
621.22,0.59378
621.78,0.56253
622.34,0.56253
622.92,0.57815
623.54,0.62503
624.12,0.57815
624.72,0.59378
625.25,0.53127
625.78,0.53127
626.28,0.50002
626.86,0.57815
627.37,0.51565
639.86,0.59378
640.44,0.57815
640.95,0.51565
641.56,0.6094
642.09,0.53127
642.7,0.6094
643.2,0.50002
652.59,0.64065
653.15,0.56253
664.44,0.56253
665.09,0.65628
665.7,0.6094
666.23,0.53127
666.87,0.64065
667.39,0.51565
667.97,0.57815
684.22,0.5469
684.77,0.5469
695.02,0.64065
695.64,0.62503
696.3,0.65628
696.88,0.57815
709.69,0.59378
710.33,0.64065
710.97,0.64065
711.58,0.6094
712.13,0.5469
712.67,0.5469
713.27,0.59378
713.78,0.51565
717.06,0.50002
717.58,0.51565
718.06,0.4844
718.58,0.51565
721.17,0.5469
721.67,0.50002
722.22,0.5469
722.78,0.56253
723.35,0.56253
727.19,0.51565
727.71,0.51565
728.25,0.5469
728.85,0.59378
729.44,0.59378
730.02,0.57815
730.63,0.6094
731.25,0.62503
731.91,0.65628
732.55,0.64065
733.16,0.6094
733.72,0.56253
734.31,0.59378
734.91,0.59378
735.47,0.56253
736,0.53127
739.75,0.53127
740.3,0.5469
744.72,0.70316
745.39,0.67191
746.07,0.67191
746.75,0.68753
749.64,0.51565
755.94,0.73441
756.66,0.71878
757.41,0.75003
758.14,0.73441
758.93,0.78129
759.6,0.67191
760.3,0.70316
760.96,0.65628
761.55,0.59378
762.1,0.5469
769.3,0.57815
769.93,0.62503
770.55,0.62503
771.19,0.64065
771.79,0.59378
828.68,0.5469
829.26,0.57815
829.87,0.6094
1003.7,0.62503
1004.3,0.59378
1004.9,0.53127
1005.4,0.5469
1006,0.53127
1006.5,0.53127
1007,0.56253
1059.1,0.65628
1059.8,0.67191
1060.5,0.67191
1061.2,0.68753
1061.8,0.67191
1156.3,0.5469
1156.8,0.56253
1157.4,0.62503
1158.1,0.62503
1166,0.57815
1166.6,0.62503
1167.3,0.67191
1178.4,0.59378
1179,0.5469
1179.6,0.59378
1180.2,0.64065
1180.8,0.6094
1181.5,0.64065
1182.1,0.6094
1182.7,0.57815
1183.3,0.6094
1183.9,0.59378
1184.4,0.57815
1185,0.57815
1185.6,0.57815
1186.2,0.57815
1186.8,0.6094
1187.3,0.5469
1188,0.64065
1188.5,0.53127
1189.1,0.59378
1189.7,0.56253
1190.2,0.57815
1190.8,0.57815
1191.4,0.56253
1192,0.59378
1192.6,0.59378
1193.1,0.56253
1193.7,0.53127
1197.5,0.5469
1207.3,0.6094
1215,0.65628
1215.6,0.65628
1216.3,0.68753
1217,0.65628
1217.6,0.6094
1218.2,0.65628
1218.9,0.65628
1219.5,0.6094
1220.1,0.6094
1220.7,0.57815
1221.3,0.57815
1221.8,0.51565
1222.4,0.57815
1222.9,0.57815
1227.2,0.5469
1227.8,0.6094
1239.6,0.51565
1240.2,0.5469
1244.2,0.56253
1244.7,0.59378
1245.3,0.5469
1245.8,0.53127
1246.4,0.6094
1247,0.57815
1252.2,0.5469
1252.7,0.51565
1253.2,0.5469
