1530530901.000000, IBI
115.755299,0.515649
116.395953,0.640654
116.974104,0.578151
117.552256,0.578151
118.146033,0.593777
118.739810,0.593777
145.678543,1.171929
256.199227,0.546900
256.793005,0.593777
257.293027,0.500023
281.403506,0.593777
281.981658,0.578151
282.512932,0.531274
283.122335,0.609403
307.310942,0.500023
307.857842,0.546900
308.420368,0.562526
391.158530,0.531274
391.689804,0.531274
392.221079,0.531274
392.783604,0.562526
393.314879,0.531274
393.877404,0.562526
394.424304,0.546900
394.971205,0.546900
395.518105,0.546900
396.065005,0.546900
396.596279,0.531274
397.143179,0.546900
397.674453,0.531274
398.221353,0.546900
398.752628,0.531274
399.283902,0.531274
399.830802,0.546900
400.377702,0.546900
400.940228,0.562526
401.502753,0.562526
402.049654,0.546900
402.627805,0.578151
403.190331,0.562526
403.752856,0.562526
404.315382,0.562526
404.877908,0.562526
405.440434,0.562526
405.987334,0.546900
406.534234,0.546900
407.096760,0.562526
407.643660,0.546900
408.206185,0.562526
408.753085,0.546900
409.315611,0.562526
409.878137,0.562526
410.440663,0.562526
411.018814,0.578151
411.596966,0.578151
412.175117,0.578151
412.753268,0.578151
413.315794,0.562526
438.613827,0.640654
439.238856,0.625029
439.879510,0.640654
440.504539,0.625029
441.160819,0.656280
441.770222,0.609403
442.348373,0.578151
442.942150,0.593777
443.489050,0.546900
444.051576,0.562526
444.598476,0.546900
445.176628,0.578151
445.770405,0.593777
480.209481,0.546900
480.787633,0.578151
481.318907,0.531274
484.740939,0.593777
485.350342,0.609403
485.990996,0.640654
486.647276,0.656280
487.162925,0.515649
487.787953,0.625029
488.350479,0.562526
488.944256,0.593777
489.522408,0.578151
490.100559,0.578151
490.647459,0.546900
491.194359,0.546900
491.756885,0.562526
492.319411,0.562526
492.913188,0.593777
493.506965,0.593777
494.053865,0.546900
494.772648,0.718783
503.741808,0.593777
504.335585,0.593777
511.601543,0.593777
512.179694,0.578151
512.789097,0.609403
513.398500,0.609403
513.992277,0.593777
514.664183,0.671906
515.164206,0.500023
515.711106,0.546900
516.226755,0.515649
521.008224,0.593777
521.633252,0.625029
522.211404,0.578151
522.805181,0.593777
523.367707,0.562526
523.914607,0.546900
524.492758,0.578151
525.055284,0.562526
525.602184,0.546900
526.180335,0.578151
526.727235,0.546900
527.289761,0.562526
527.867913,0.578151
528.430438,0.562526
529.024215,0.593777
529.617993,0.593777
530.227396,0.609403
530.743044,0.515649
531.414950,0.671906
531.961850,0.546900
532.524376,0.562526
537.805867,0.656280
545.853111,0.578151
546.478140,0.625029
546.962537,0.484397
547.634443,0.671906
548.181343,0.546900
548.775120,0.593777
549.306394,0.531274
549.931423,0.625029
550.431446,0.500023
551.056474,0.625029
551.603374,0.546900
552.181526,0.578151
552.728426,0.546900
553.306577,0.578151
553.869103,0.562526
554.400377,0.531274
554.947277,0.546900
555.541054,0.593777
556.056703,0.515649
556.650480,0.593777
557.213006,0.562526
563.088275,0.578151
563.650801,0.562526
564.213326,0.562526
564.775852,0.562526
565.338378,0.562526
565.916529,0.578151
566.463429,0.546900
570.729250,0.656280
571.369904,0.640654
582.620419,0.593777
583.214196,0.593777
583.792348,0.578151
584.370499,0.578151
584.964276,0.593777
585.558053,0.593777
586.136205,0.578151
586.729982,0.593777
587.323759,0.593777
587.901911,0.578151
588.495688,0.593777
589.073839,0.578151
589.667617,0.593777
590.245768,0.578151
590.870797,0.625029
591.511451,0.640654
592.120854,0.609403
592.745883,0.625029
593.370911,0.625029
594.011565,0.640654
594.620968,0.609403
599.293057,0.593777
654.811224,0.578151
655.420626,0.609403
656.014404,0.593777
656.639432,0.625029
657.186332,0.546900
657.795735,0.609403
658.389512,0.593777
658.983289,0.593777
659.592692,0.609403
660.186470,0.593777
660.795872,0.609403
699.922663,0.609403
700.578943,0.656280
701.203972,0.625029
752.534447,0.578151
753.081347,0.546900
753.722001,0.640654
754.315778,0.593777
754.893930,0.578151
755.425204,0.531274
756.018981,0.593777
756.581507,0.562526
757.190910,0.609403
757.784687,0.593777
758.378464,0.593777
758.972241,0.593777
759.534767,0.562526
760.175421,0.640654
760.784824,0.609403
761.347350,0.562526
761.941127,0.593777
762.503653,0.562526
771.082171,0.687531
784.301526,0.625029
784.957806,0.656280
785.598460,0.640654
786.207863,0.609403
786.817266,0.609403
787.395417,0.578151
797.474004,0.593777
798.067781,0.593777
798.614681,0.546900
799.192832,0.578151
799.786610,0.593777
862.851996,0.562526
863.461399,0.609403
864.039551,0.578151
864.648954,0.609403
865.211479,0.562526
865.742754,0.531274
890.572015,0.578151
891.150167,0.578151
891.790821,0.640654
892.384598,0.593777
892.994001,0.609403
893.587778,0.593777
894.134678,0.546900
894.744081,0.609403
895.322233,0.578151
895.916010,0.593777
896.478536,0.562526
897.041061,0.562526
911.307339,0.625029
911.885491,0.578151
912.510520,0.625029
913.104297,0.593777
913.698074,0.593777
914.307477,0.609403
914.885628,0.578151
915.510657,0.625029
916.104434,0.593777
916.729463,0.625029
917.307614,0.578151
917.885766,0.578151
918.495168,0.609403
919.073320,0.578151
919.682723,0.609403
920.276500,0.593777
920.885903,0.609403
921.573434,0.687531
922.104709,0.531274
922.698486,0.593777
923.307889,0.609403
923.917292,0.609403
935.558450,0.625029
936.308484,0.750034
966.778629,0.609403
984.841955,0.593777
985.435733,0.593777
986.013884,0.578151
986.654538,0.640654
987.248316,0.593777
987.842093,0.593777
988.435870,0.593777
989.045273,0.609403
989.607799,0.562526
990.170324,0.562526
990.748476,0.578151
991.295376,0.546900
991.889153,0.593777
992.498556,0.609403
993.170462,0.671906
993.779865,0.609403
994.420519,0.640654
995.029922,0.609403
995.826833,0.796911
996.420610,0.593777
996.998762,0.578151
997.764422,0.765660
998.295696,0.531274
998.936351,0.640654
999.514502,0.578151
1000.155156,0.640654
1000.733308,0.578151
1001.327085,0.593777
1010.390000,0.609403
1011.015028,0.625029
1011.624431,0.609403
1012.218209,0.593777
1012.796360,0.578151
1013.405763,0.609403
1013.999540,0.593777
1014.593317,0.593777
1015.202720,0.609403
1015.812123,0.609403
1016.468403,0.656280
1017.124683,0.656280
1017.749712,0.625029
1018.374740,0.625029
1019.015395,0.640654
1019.656049,0.640654
1020.281078,0.625029
1020.890481,0.609403
1021.515509,0.625029
1074.658567,0.640654
1075.314847,0.656280
1089.878014,0.625029
1090.440539,0.562526
1123.395173,0.593777
1160.912515,0.640654
1161.521918,0.609403
1162.162572,0.640654
1162.803227,0.640654
1163.428255,0.625029
1163.990781,0.562526
1164.662687,0.671906
1165.225213,0.562526
1165.834615,0.609403
1166.428393,0.593777
1167.006544,0.578151
1173.756853,0.625029
1181.882225,0.671906
1182.554131,0.671906
1183.179159,0.625029
1183.866691,0.687531
1184.476094,0.609403
1185.085497,0.609403
1185.710525,0.625029
1186.319928,0.609403
1186.866828,0.546900
1187.398103,0.531274
1204.352004,0.640654
1205.039535,0.687531
1205.727067,0.687531
1206.367721,0.640654
1207.055252,0.687531
1214.977490,0.609403
1287.418306,0.593777
1287.996457,0.578151
1288.574609,0.578151
1289.152760,0.578151
1289.762163,0.609403
1290.371566,0.609403
1290.980969,0.609403
1291.621623,0.640654
1292.246652,0.625029
1307.372344,0.562526
1307.934870,0.562526
1308.591150,0.656280
1327.357634,0.609403
1327.842031,0.484397
1342.545829,0.609403
1343.092729,0.546900
1358.765322,0.531274
1359.421602,0.656280
1360.077882,0.656280
1364.734345,0.640654
1365.390625,0.656280
1365.968776,0.578151
1366.593805,0.625029
1369.937708,0.593777
1370.562737,0.625029
1371.172140,0.609403
1371.797168,0.625029
1372.390945,0.593777
1372.984723,0.593777
1373.594126,0.609403
1374.203528,0.609403
1374.766054,0.562526
1375.344206,0.578151
1375.937983,0.593777
1379.938166,0.609403
1380.422563,0.484397
1381.063217,0.640654
1381.719497,0.656280
1382.297649,0.578151
1382.907052,0.609403
1385.750932,0.593777
1386.329083,0.578151
1486.443041,0.593777
1487.036818,0.593777
1487.630595,0.593777
1488.193121,0.562526
1488.818149,0.625029
1489.365049,0.546900
1489.927575,0.562526
1490.521352,0.593777
1491.115129,0.593777
1496.912270,0.640654
1497.521673,0.609403
1498.131076,0.609403
1498.724853,0.593777
1499.349881,0.625029
1499.959284,0.609403
1500.506184,0.546900
1501.099962,0.593777
1501.693739,0.593777
1502.271890,0.578151
1502.818790,0.546900
1503.396942,0.578151
1503.959467,0.562526
1504.521993,0.562526
1505.084519,0.562526
1505.631419,0.546900
1518.288248,0.562526
1537.039107,0.531274
1537.664135,0.625029
1538.289164,0.625029
1538.929818,0.640654
1539.523595,0.593777
1540.148624,0.625029
1543.148761,0.515649
1543.914421,0.765660
1544.492573,0.578151
1545.226981,0.734409
1545.805133,0.578151
1559.821399,0.656280
1560.587059,0.765660
1561.212088,0.625029
1561.868368,0.656280
1562.477771,0.609403
1563.040297,0.562526
1563.634074,0.593777
1564.196600,0.562526
1564.790377,0.593777
1565.368528,0.578151
1565.915428,0.546900
1566.524831,0.609403
1567.196737,0.671906
1567.728011,0.531274
1568.399917,0.671906
1572.571983,0.578151
1573.212637,0.640654
1573.822040,0.609403
1574.447069,0.625029
1575.087723,0.640654
1598.682553,0.593777
1599.198202,0.515649
1599.823231,0.625029
1600.370131,0.546900
1600.917031,0.546900
1601.526433,0.609403
1602.245216,0.718783
1602.963999,0.718783
1634.152927,0.531274
1634.699827,0.546900
1635.168598,0.468771
1635.699873,0.531274
1636.231147,0.531274
1636.699919,0.468771
1637.246819,0.546900
1659.029066,0.515649
1659.513463,0.484397
1660.122866,0.609403
1660.654140,0.531274
1661.232291,0.578151
1661.826069,0.593777
1662.388594,0.562526
1662.919869,0.531274
1663.544897,0.625029
1664.154300,0.609403
1664.685575,0.531274
1665.248100,0.562526
1665.826252,0.578151
1666.388777,0.562526
1666.888800,0.500023
1670.498341,0.609403
1711.093949,0.578151
1711.687726,0.593777
1712.281503,0.593777
1712.906532,0.625029
1713.531560,0.625029
1714.109712,0.578151
1714.781618,0.671906
1715.312892,0.531274
1715.859792,0.546900
1716.484821,0.625029
1717.109849,0.625029
1717.703626,0.593777
1718.313029,0.609403
1718.938058,0.625029
1719.547461,0.609403
1720.188115,0.640654
1765.315181,0.578151
1765.940209,0.625029
1768.674710,0.578151
1780.878393,0.609403
1781.534673,0.656280
1782.159702,0.625029
1782.800356,0.640654
1783.378508,0.578151
1784.034788,0.656280
1784.597313,0.562526
1785.191091,0.593777
1785.784868,0.593777
1786.363019,0.578151
1786.972422,0.609403
1787.597451,0.625029
1788.191228,0.593777
1788.800631,0.609403
1789.425659,0.625029
1790.035062,0.609403
1790.644465,0.609403
1791.238242,0.593777
1791.863271,0.625029
1792.488300,0.625029
1793.097703,0.609403
1802.254372,0.656280
1802.848149,0.593777
1803.441926,0.593777
1804.051329,0.609403
1813.223624,0.625029
1813.864278,0.640654
1814.520558,0.656280
1815.176838,0.656280
1815.739364,0.562526
1816.411270,0.671906
1817.036298,0.625029
1820.864599,0.578151
1821.520879,0.656280
1822.145907,0.625029
1822.770936,0.625029
1823.364713,0.593777
1823.989742,0.625029
1824.646022,0.656280
1825.255424,0.609403
1825.911705,0.656280
1826.567985,0.656280
1827.224265,0.656280
1827.864919,0.640654
1828.443070,0.578151
1829.068099,0.625029
1829.677502,0.609403
1830.271279,0.593777
1830.911933,0.640654
1831.458833,0.546900
1837.349728,0.578151
1837.943505,0.593777
1838.521657,0.578151
1839.099808,0.578151
1839.724837,0.625029
1840.256111,0.531274
1840.834263,0.578151
1841.428040,0.593777
1842.006191,0.578151
1842.615594,0.609403
1843.193746,0.578151
1843.803149,0.609403
1844.412551,0.609403
1845.053206,0.640654
1845.725111,0.671906
1846.350140,0.625029
1846.959543,0.609403
1847.600197,0.640654
1848.178349,0.578151
1848.772126,0.593777
1849.350277,0.578151
1849.897177,0.546900
1850.459703,0.562526
1850.990978,0.531274
1851.537878,0.546900
1852.131655,0.593777
1852.725432,0.593777
1853.319209,0.593777
1853.912986,0.593777
1854.553641,0.640654
1855.194295,0.640654
1855.866201,0.671906
1856.522481,0.656280
1857.131884,0.609403
1857.788164,0.656280
1858.397567,0.609403
1859.022595,0.625029
1859.647624,0.625029
1860.225775,0.578151
1860.850804,0.625029
1861.460207,0.609403
1895.149249,0.671906
1913.431336,0.656280
1914.150119,0.718783
1914.837650,0.687531
1945.042158,0.625029
1954.808230,0.609403
1955.402007,0.593777
1956.027035,0.625029
1956.652064,0.625029
1964.761810,0.656280
1965.339962,0.578151
1965.964990,0.625029
1969.043256,0.625029
1969.668285,0.625029
1970.246436,0.578151
1970.840214,0.593777
1971.480868,0.640654
1975.121660,0.625029
1975.746688,0.625029
1981.246940,0.531274
1981.950097,0.703157
1982.543874,0.593777
1983.184529,0.640654
1983.825183,0.640654
1984.387709,0.562526
1985.059614,0.671906
1985.669017,0.609403
1986.262794,0.593777
1986.903449,0.640654
1995.591347,0.625029
1996.138247,0.546900
1996.778901,0.640654
1997.372678,0.593777
1997.982081,0.609403
1998.622735,0.640654
1999.216512,0.593777
1999.888418,0.671906
2000.544698,0.656280
2001.154101,0.609403
2001.841633,0.687531
2002.435410,0.593777
2003.060438,0.625029
2003.685467,0.625029
2004.279244,0.593777
2004.904273,0.625029
2005.498050,0.593777
2006.076201,0.578151
2006.701230,0.625029
2007.310633,0.609403
2007.966913,0.656280
2008.576316,0.609403
2009.216970,0.640654
2009.857625,0.640654
2010.498279,0.640654
2011.123307,0.625029
2011.717085,0.593777
2012.388990,0.671906
2041.155932,0.609403
2041.812212,0.656280
2042.452867,0.640654
2043.093521,0.640654
2043.702924,0.609403
2044.327952,0.625029
2044.937355,0.609403
2045.499881,0.562526
2046.171787,0.671906
2046.718687,0.546900
2047.406218,0.687531
2048.031247,0.625029
2048.687527,0.656280
2049.281304,0.593777
2049.921958,0.640654
2050.562613,0.640654
2051.172016,0.609403
2088.220587,0.640654
2123.940972,0.640654
2137.269707,0.671906
2137.894735,0.625029
2138.535390,0.640654
2139.207295,0.671906
2139.894827,0.687531
2140.566733,0.671906
2141.316767,0.750034
2141.957421,0.640654
2142.613701,0.656280
2143.254356,0.640654
2143.895010,0.640654
2144.520039,0.625029
2145.145067,0.625029
2145.707593,0.562526
2146.238867,0.531274
2156.754974,0.640654
2157.317499,0.562526
2157.817522,0.500023
2158.411299,0.593777
2160.583274,0.546900
2171.380643,0.640654
2172.052549,0.671906
2172.661952,0.609403
2173.365109,0.703157
2174.115143,0.750034
2194.412947,0.625029
2194.991099,0.578151
2195.663005,0.671906
2196.272408,0.609403
2196.850559,0.578151
2197.397459,0.546900
2198.022488,0.625029
2225.351864,0.500023
2226.023769,0.671906
2226.586295,0.562526
2241.649485,0.578151
2247.602882,0.546900
2248.134156,0.531274
2248.790437,0.656280
2249.384214,0.593777
2249.946739,0.562526
2250.415511,0.468771
2273.760329,0.796911
2280.760650,0.609403
2281.385679,0.625029
2282.088836,0.703157
2282.729490,0.640654
2283.338893,0.609403
2283.995173,0.656280
2284.651453,0.656280
2285.182727,0.531274
2285.885885,0.703157
2286.479662,0.593777
2287.073439,0.593777
2293.276848,0.484397
2329.872273,0.578151
2367.295861,0.546900
2367.983393,0.687531
2368.514667,0.531274
2369.233450,0.718783
2590.602958,0.671906
2591.227987,0.625029
2612.244574,0.656280
2646.699276,0.640654
2678.153841,0.578151
2678.794495,0.640654
2679.388272,0.593777
2685.076033,0.531274
2685.622933,0.546900
2686.154207,0.531274
2686.685481,0.531274
2687.248007,0.562526
2876.787933,0.578151
2877.381711,0.593777
2877.881733,0.500023
2878.522388,0.640654
2879.053662,0.531274
2879.569311,0.515649
2880.178714,0.609403
2880.725614,0.546900
2881.256888,0.531274
2881.756911,0.500023
2936.306283,0.671906
2936.900060,0.593777
2956.307198,0.734409
2956.963478,0.656280
2957.572881,0.609403
2958.197910,0.625029
3002.090544,0.671906
3002.746824,0.656280
3003.371852,0.625029
3007.559544,0.578151
3008.137696,0.578151
3008.684596,0.546900
3009.215870,0.531274
3009.809647,0.593777
3010.434676,0.625029
3011.028453,0.593777
3011.700359,0.671906
3015.513033,0.578151
3016.091185,0.578151
3016.669336,0.578151
3017.184985,0.515649
3021.528934,0.562526
3022.091459,0.562526
3022.653985,0.562526
3023.216511,0.562526
3023.810288,0.593777
3024.325937,0.515649
3024.904088,0.578151
3025.404111,0.500023
3025.997888,0.593777
3026.482285,0.484397
3027.044811,0.562526
3027.560460,0.515649
3028.107360,0.546900
3028.669885,0.562526
3029.294914,0.625029
3029.873065,0.578151
3030.498094,0.625029
3031.107497,0.609403
3031.748151,0.640654
3032.373180,0.625029
3033.013834,0.640654
3033.623237,0.609403
3034.310769,0.687531
3034.904546,0.593777
3035.498323,0.593777
3036.138977,0.640654
3036.732754,0.593777
3039.639138,0.578151
3040.201663,0.562526
3040.779815,0.578151
3041.342340,0.562526
3041.951743,0.609403
3042.514269,0.562526
3043.108046,0.593777
3043.717449,0.609403
3044.311226,0.593777
3044.920629,0.609403
3045.514406,0.593777
3046.155061,0.640654
3049.936484,0.640654
3050.530261,0.593777
3051.155290,0.625029
3051.717815,0.562526
3052.311593,0.593777
3052.920995,0.609403
3053.624153,0.703157
3057.671213,0.656280
3058.311867,0.640654
3058.921270,0.609403
3059.546299,0.625029
3060.124450,0.578151
3060.733853,0.609403
3061.499513,0.765660
3064.109008,0.562526
3064.640282,0.531274
3065.187182,0.546900
3065.749708,0.562526
3066.280982,0.531274
3066.812256,0.531274
3067.343531,0.531274
3067.890431,0.546900
3068.421705,0.531274
3068.952979,0.531274
3069.515505,0.562526
3070.078031,0.562526
3070.562428,0.484397
3071.156205,0.593777
3071.718731,0.562526
3072.265631,0.546900
3072.828157,0.562526
3073.406308,0.578151
3074.000085,0.593777
3074.593863,0.593777
3075.203265,0.609403
3075.812668,0.609403
3076.422071,0.609403
3077.000223,0.578151
3077.578374,0.578151
3078.140900,0.562526
3078.687800,0.546900
3079.250326,0.562526
3079.781600,0.531274
3080.375377,0.593777
3080.984780,0.609403
3088.360118,0.562526
3088.891392,0.531274
3089.422666,0.531274
3089.969566,0.546900
3090.532092,0.562526
3091.047741,0.515649
3112.939368,0.609403
3113.533145,0.593777
3114.111296,0.578151
3114.689448,0.578151
3115.314476,0.625029
3115.939505,0.625029
3122.471054,0.562526
3123.064831,0.593777
3123.642983,0.578151
3124.221134,0.578151
3148.019099,0.562526
3148.659753,0.640654
3149.300407,0.640654
3150.003564,0.703157
3150.691096,0.687531
3151.378627,0.687531
3152.081784,0.703157
3202.834108,0.546900
3207.365565,0.765660
3210.490708,0.671906
3211.115737,0.625029
3211.756391,0.640654
3212.381420,0.625029
3213.053325,0.671906
3213.678354,0.625029
3214.350260,0.671906
3215.053417,0.703157
3215.631568,0.578151
3216.225346,0.593777
3216.834749,0.609403
3228.116515,0.625029
3228.757169,0.640654
3229.382198,0.625029
3230.022852,0.640654
3230.663507,0.640654
3231.319787,0.656280
3231.960441,0.640654
3232.616721,0.656280
3233.257375,0.640654
3233.913655,0.656280
3234.569935,0.656280
3235.210590,0.640654
3235.851244,0.640654
3236.491898,0.640654
3237.132553,0.640654
3237.757581,0.625029
3238.366984,0.609403
3238.992013,0.625029
3239.617041,0.625029
3240.273321,0.656280
3240.929601,0.656280
3241.554630,0.625029
3242.179659,0.625029
3242.820313,0.640654
3243.460967,0.640654
3244.085996,0.625029
3244.773527,0.687531
3245.429807,0.656280
3246.117339,0.687531
3246.804870,0.687531
3247.492402,0.687531
3248.164308,0.671906
3248.820588,0.656280
3249.476868,0.656280
3250.101896,0.625029
3250.742551,0.640654
3251.351954,0.609403
3251.992608,0.640654
3252.664514,0.671906
3253.305168,0.640654
3254.039577,0.734409
3254.711482,0.671906
3255.414639,0.703157
3256.102171,0.687531
3256.774077,0.671906
3257.399105,0.625029
3258.024134,0.625029
3263.946280,0.656280
3264.602560,0.656280
3265.290092,0.687531
3266.008874,0.718783
3266.680780,0.671906
3267.368312,0.687531
3268.024592,0.656280
3268.680872,0.656280
3269.305900,0.625029
3269.930929,0.625029
3270.524706,0.593777
3271.134109,0.609403
3271.790389,0.656280
3272.493546,0.703157
3273.212329,0.718783
3273.931112,0.718783
3274.649895,0.718783
3275.415555,0.765660
3276.149964,0.734409
3276.868747,0.718783
3277.603155,0.734409
3278.306312,0.703157
3279.009470,0.703157
3279.650124,0.640654
3280.306404,0.656280
3280.915807,0.609403
3281.525210,0.609403
3282.134613,0.609403
3282.744015,0.609403
3283.337793,0.593777
3284.009698,0.671906
3284.697230,0.687531
3285.447264,0.750034
3286.181673,0.734409
3286.916081,0.734409
3287.681741,0.765660
3288.400524,0.718783
3289.088056,0.687531
3294.728939,0.656280
3295.369593,0.640654
3296.057125,0.687531
3296.760282,0.703157
3297.463439,0.703157
3298.135345,0.671906
3298.822876,0.687531
3299.494782,0.671906
3300.182314,0.687531
3300.869845,0.687531
3301.526125,0.656280
3302.198031,0.671906
3302.838685,0.640654
3303.510591,0.671906
3304.166871,0.656280
3304.807525,0.640654
3305.432554,0.625029
3306.057583,0.625029
3306.698237,0.640654
3307.354517,0.656280
3307.995171,0.640654
3308.667077,0.671906
3309.323357,0.656280
3309.995263,0.671906
3310.651543,0.656280
3311.307823,0.656280
3311.964103,0.656280
3312.620383,0.656280
3313.245412,0.625029
3313.870440,0.625029
3314.511095,0.640654
3315.136123,0.625029
3315.776778,0.640654
3316.386180,0.609403
3337.105879,0.609403
3337.715282,0.609403
3338.371562,0.656280
3339.121596,0.750034
3339.730999,0.609403
3343.481171,0.625029
3344.012445,0.531274
3344.559345,0.546900
3345.168748,0.609403
3345.762525,0.593777
3346.309425,0.546900
3346.918828,0.609403
3347.606359,0.687531
3350.356485,0.562526
3370.216769,0.609403
3370.810547,0.593777
3371.435575,0.625029
3372.044978,0.609403
3372.654381,0.609403
3373.248158,0.593777
3373.810684,0.562526
3374.388835,0.578151
3374.966987,0.578151
3375.513887,0.546900
3376.092038,0.578151
3376.638938,0.546900
3377.232716,0.593777
3377.795241,0.562526
3378.373393,0.578151
3378.951544,0.578151
3379.560947,0.609403
3380.185976,0.625029
3380.811004,0.625029
3381.436033,0.625029
3382.061062,0.625029
3382.686090,0.625029
3383.295493,0.609403
3383.904896,0.609403
3384.529925,0.625029
3385.139328,0.609403
3385.748730,0.609403
3386.358133,0.609403
3386.967536,0.609403
3387.545688,0.578151
3388.123839,0.578151
3388.733242,0.609403
3389.280142,0.546900
3389.858294,0.578151
3710.404216,0.625029
3711.044871,0.640654
3711.716776,0.671906
3749.921650,0.703157
3750.656059,0.734409
3751.374842,0.718783
3752.093625,0.718783
3752.671776,0.578151
3753.390559,0.718783
3753.999962,0.609403
3754.609365,0.609403
3755.203142,0.593777
3762.953497,0.671906
3825.190721,0.718783
3825.862626,0.671906
3826.518906,0.656280
3832.206667,0.656280
3832.878572,0.671906
3833.566104,0.687531
3834.238010,0.671906
3834.878664,0.640654
3835.519318,0.640654
3836.191224,0.671906
3836.800627,0.609403
3837.425656,0.625029
3848.660545,0.703157
3849.254322,0.593777
3849.926228,0.671906
3850.582508,0.656280
3851.191911,0.609403
3851.848191,0.656280
3852.473219,0.625029
3853.098248,0.625029
3853.676399,0.578151
3854.332680,0.656280
3854.910831,0.578151
3855.520234,0.609403
3856.145262,0.625029
3856.785917,0.640654
3857.426571,0.640654
3858.082851,0.656280
3858.739131,0.656280
3865.286306,0.640654
3865.880083,0.593777
3866.505112,0.625029
3867.130140,0.625029
3867.708292,0.578151
3868.302069,0.593777
3868.927098,0.625029
3869.520875,0.593777
3870.145903,0.625029
3870.770932,0.625029
3871.395961,0.625029
3872.036615,0.640654
3872.646018,0.609403
3873.271046,0.625029
3873.942952,0.671906
3878.333778,0.609403
3878.943181,0.609403
3883.396510,0.625029
3884.021538,0.625029
3884.693444,0.671906
3887.709207,0.625029
3888.318610,0.609403
3889.006142,0.687531
3889.678047,0.671906
3890.349953,0.671906
3891.037485,0.687531
3891.709390,0.671906
3892.350045,0.640654
3893.037576,0.687531
3893.678231,0.640654
3894.303259,0.625029
3894.943913,0.640654
3895.553316,0.609403
3896.162719,0.609403
3896.756496,0.593777
3897.459654,0.703157
3898.069057,0.609403
3898.756588,0.687531
3899.490997,0.734409
3900.037897,0.546900
3900.678551,0.640654
3901.319205,0.640654
3901.944234,0.625029
3902.584888,0.640654
3903.209917,0.625029
3903.803694,0.593777
3904.444348,0.640654
3905.069377,0.625029
3905.694406,0.625029
3906.319434,0.625029
3906.944463,0.625029
3907.569491,0.625029
3908.194520,0.625029
3908.835174,0.640654
3909.491454,0.656280
3910.147734,0.656280
3910.819640,0.671906
3911.475920,0.656280
3912.132200,0.656280
3912.757229,0.625029
3913.429135,0.671906
3914.054163,0.625029
3914.679192,0.625029
3915.351098,0.671906
3916.054255,0.703157
3916.741786,0.687531
3917.429318,0.687531
3918.148101,0.718783
3918.820006,0.671906
3919.476286,0.656280
3920.163818,0.687531
3920.820098,0.656280
3921.476378,0.656280
3922.132658,0.656280
3922.788938,0.656280
3923.476470,0.687531
3924.164001,0.687531
3924.851532,0.687531
3925.539064,0.687531
3926.210970,0.671906
3926.867250,0.656280
3965.681526,0.703157
3966.384684,0.703157
3966.994087,0.609403
3967.665992,0.671906
3968.306647,0.640654
3968.962927,0.656280
3969.587955,0.625029
3995.604771,0.578151
3996.229800,0.625029
3996.870454,0.640654
3997.495483,0.625029
3998.183014,0.687531
3998.854920,0.671906
3999.542451,0.687531
4000.183106,0.640654
4000.839386,0.656280
4001.495666,0.656280
4002.214449,0.718783
4002.855103,0.640654
4003.527009,0.671906
4004.198915,0.671906
4004.902072,0.703157
4005.620855,0.718783
4006.230258,0.609403
4006.980292,0.750034
4007.667823,0.687531
4015.090038,0.812537
4018.824584,0.625029
4019.480864,0.656280
4020.090267,0.609403
4020.840301,0.750034
4021.402827,0.562526
4031.340782,0.546900
4032.012688,0.671906
4032.575213,0.562526
4033.153365,0.578151
4033.762768,0.609403
4034.450299,0.687531
4034.981574,0.531274
4063.436001,0.593777
4064.014153,0.578151
4076.514725,0.687531
4077.155379,0.640654
4077.780408,0.625029
4078.499191,0.718783
4102.594043,0.687531
4103.265949,0.671906
4103.937855,0.671906
4104.547258,0.609403
4105.234789,0.687531
4109.266224,0.687531
4110.000633,0.734409
4110.688164,0.687531
4111.328818,0.640654
4115.235247,0.734409
4116.047784,0.812537
4116.672813,0.625029
4117.329093,0.656280
4118.157256,0.828163
4121.360528,0.625029
4121.985556,0.625029
4122.594959,0.609403
4123.235613,0.640654
4123.860642,0.625029
4124.501296,0.640654
4125.204453,0.703157
4128.313971,0.609403
4128.954625,0.640654
4129.548402,0.593777
4130.204682,0.656280
4130.751582,0.546900
4131.392237,0.640654
4131.939137,0.546900
4132.548540,0.609403
4133.204820,0.656280
4133.829848,0.625029
4134.439251,0.609403
4135.173660,0.734409
4135.798688,0.625029
4136.454968,0.656280
4137.158126,0.703157
4137.845657,0.687531
4138.580066,0.734409
4173.831679,0.578151
4174.425457,0.593777
4178.300634,0.750034
4181.347648,0.640654
4182.003928,0.656280
4249.382013,0.703157
4250.163298,0.781286
4250.819578,0.656280
4259.116833,0.625029
4259.898119,0.781286
4274.711297,0.578151
4283.961720,0.562526
4284.555498,0.593777
4285.149275,0.593777
4285.789929,0.640654
4286.414958,0.625029
4287.086864,0.671906
4287.696266,0.609403
4288.461926,0.765660
4295.556001,0.656280
4298.665519,0.687531
4299.243670,0.578151
4299.853073,0.609403
4305.415828,0.718783
4306.072108,0.656280
4306.587756,0.515649
4307.212785,0.625029
4307.822188,0.609403
4308.587848,0.765660
4309.197251,0.609403
4309.837905,0.640654
4310.525436,0.687531
4311.212968,0.687531
4318.182037,0.640654
4329.463803,0.609403
4330.104458,0.640654
4330.682609,0.578151
4331.292012,0.609403
4331.885789,0.593777
4332.542069,0.656280
4333.182724,0.640654
4333.854629,0.671906
4334.589038,0.734409
4335.370324,0.781286
4336.010978,0.640654
4336.729761,0.718783
4337.432918,0.703157
4338.136075,0.703157
4338.745478,0.609403
4339.370507,0.625029
4340.026787,0.656280
4340.604938,0.578151
4341.261218,0.656280
4341.917498,0.656280
4342.683158,0.765660
4343.355064,0.671906
4344.120724,0.765660
4344.792630,0.671906
4345.511413,0.718783
4346.214570,0.703157
4346.917727,0.703157
4347.605259,0.687531
4348.277164,0.671906
4348.949070,0.671906
4349.589725,0.640654
4350.230379,0.640654
4350.886659,0.656280
4351.527313,0.640654
4352.183593,0.656280
4352.855499,0.671906
4353.511779,0.656280
4354.168059,0.656280
4354.839965,0.671906
4355.480619,0.640654
4356.183776,0.703157
4356.855682,0.671906
4357.511962,0.656280
4358.152617,0.640654
4358.824522,0.671906
4359.449551,0.625029
4360.027702,0.578151
4360.605854,0.578151
4374.543992,0.687531
4375.215898,0.671906
4390.607227,0.703157
4391.326010,0.718783
4391.982290,0.656280
4392.669822,0.687531
4393.279224,0.609403
4393.998007,0.718783
4397.045022,0.625029
4397.670050,0.625029
4398.295079,0.625029
4398.951359,0.656280
4399.607639,0.656280
4411.326926,0.640654
4412.092586,0.765660
4412.748866,0.656280
4422.233675,0.609403
4422.827452,0.593777
4423.468106,0.640654
4424.124386,0.656280
4424.765041,0.640654
4425.468198,0.703157
4426.124478,0.656280
4426.827635,0.703157
4427.468289,0.640654
4428.108944,0.640654
4428.733972,0.625029
4429.343375,0.609403
4429.968404,0.625029
4430.562181,0.593777
4455.735208,0.609403
4456.407114,0.671906
4457.079020,0.671906
4457.719674,0.640654
4458.360328,0.640654
4459.016608,0.656280
4459.657263,0.640654
4460.251040,0.593777
4460.876069,0.625029
4461.501097,0.625029
4462.094874,0.593777
4462.657400,0.562526
4463.251177,0.593777
4463.844954,0.593777
4464.438732,0.593777
4465.016883,0.578151
4465.673163,0.656280
4466.282566,0.609403
4466.970098,0.687531
4467.642003,0.671906
4468.345160,0.703157
4468.954563,0.609403
4469.610843,0.656280
4470.251498,0.640654
4470.892152,0.640654
4471.532806,0.640654
4472.079706,0.546900
4472.751612,0.671906
4476.829924,0.562526
4477.392450,0.562526
4477.970601,0.578151
4478.580004,0.609403
4479.126904,0.546900
4479.767558,0.640654
4480.314458,0.546900
4480.939487,0.625029
4481.564516,0.625029
4482.158293,0.593777
4482.736444,0.578151
4483.361473,0.625029
4483.892747,0.531274
4503.784283,0.656280
4504.471814,0.687531
4505.143720,0.671906
4505.846877,0.703157
4506.581286,0.734409
4538.457745,0.593777
4539.067148,0.609403
4598.851134,0.515649
4599.366783,0.515649
4602.695060,0.671906
4617.601993,0.625029
4636.430979,0.640654
4637.181014,0.750034
4641.790600,0.656280
4642.415628,0.625029
4643.071908,0.656280
4643.696937,0.625029
4644.368843,0.671906
4644.962620,0.593777
4645.462643,0.500023
4681.714302,0.625029
4693.621097,0.609403
4711.543793,0.609403
4712.137570,0.593777
4712.762599,0.625029
4713.372001,0.609403
4713.981404,0.609403
4714.590807,0.609403
4715.247087,0.656280
4715.872116,0.625029
4716.528396,0.656280
4717.153425,0.625029
4722.044273,0.609403
4722.684928,0.640654
4746.170378,0.640654
4746.936038,0.765660
4747.529815,0.593777
4754.702018,0.671906
4755.373924,0.671906
4756.077081,0.703157
4756.764613,0.687531
4775.437342,0.531274
4776.140500,0.703157
4787.766032,0.703157
4794.031944,0.640654
4794.656972,0.625029
4795.328878,0.671906
4795.907029,0.578151
4796.516432,0.609403
4797.094584,0.578151
4801.782298,0.656280
4802.360450,0.578151
4814.611011,0.625029
4815.079782,0.468771
4831.674292,0.609403
4854.503462,0.671906
4855.222245,0.718783
4874.223114,0.531274
4874.926271,0.703157
4875.551300,0.625029
4876.176329,0.625029
4876.816983,0.640654
4877.457637,0.640654
4878.129543,0.671906
4878.801449,0.671906
4879.535857,0.734409
4880.223389,0.687531
4884.520461,0.687531
4885.207992,0.687531
4885.864272,0.656280
4886.504926,0.640654
4887.161206,0.656280
4893.270861,0.781286
4893.958393,0.687531
4894.599047,0.640654
4895.270953,0.671906
4895.927233,0.656280
4896.567887,0.640654
4897.239793,0.671906
4897.896073,0.656280
4898.536727,0.640654
4899.177382,0.640654
4899.786784,0.609403
4900.411813,0.625029
4901.021216,0.609403
4901.599367,0.578151
4902.240022,0.640654
4902.849425,0.609403
4903.474453,0.625029
4904.099482,0.625029
4910.584154,0.640654
4911.177931,0.593777
4911.771708,0.593777
4921.834669,0.656280
4922.537826,0.703157
4932.710166,0.671906
4933.413324,0.703157
4934.147732,0.734409
4949.929705,0.656280
4950.601610,0.671906
4951.257890,0.656280
4951.914171,0.656280
4952.570451,0.656280
4953.226731,0.656280
4953.867385,0.640654
4954.539291,0.671906
4955.211196,0.671906
4955.929979,0.718783
4956.648762,0.718783
4957.351919,0.703157
4958.086328,0.734409
4958.789485,0.703157
4959.492642,0.703157
4960.180174,0.687531
4960.867705,0.687531
4961.539611,0.671906
4962.164640,0.625029
4962.836545,0.671906
4963.508451,0.671906
4964.195983,0.687531
4964.899140,0.703157
4965.602297,0.703157
4966.321080,0.718783
4967.008611,0.687531
4967.743020,0.734409
4968.383674,0.640654
4969.071206,0.687531
4969.743112,0.671906
4970.508772,0.765660
4971.133800,0.625029
4975.852766,0.687531
4979.118541,0.640654
4979.774821,0.656280
4980.462352,0.687531
4981.165509,0.703157
4981.931170,0.765660
4982.696830,0.765660
4983.431238,0.734409
4984.134395,0.703157
4984.853178,0.718783
4985.556335,0.703157
4986.228241,0.671906
4986.915773,0.687531
4987.587678,0.671906
4988.275210,0.687531
4988.962741,0.687531
4989.650273,0.687531
4990.353430,0.703157
4991.087839,0.734409
4991.822247,0.734409
4992.525404,0.703157
4993.275439,0.750034
4994.009847,0.734409
4994.759882,0.750034
4995.353659,0.593777
4996.025565,0.671906
4996.603716,0.578151
4997.353750,0.750034
5009.416803,0.562526
5009.979328,0.562526
5010.635608,0.656280
5011.198134,0.562526
5024.089349,0.609403
5024.776881,0.687531
5037.449336,0.796911
5038.089990,0.640654
5038.840024,0.750034
5039.715065,0.875040
5053.981343,0.796911
5054.668874,0.687531
5055.372031,0.703157
5056.090814,0.718783
5056.809597,0.718783
5057.528380,0.718783
5058.215911,0.687531
5059.028449,0.812537
5059.778483,0.750034
5060.544143,0.765660
5061.231674,0.687531
5061.966083,0.734409
5062.622363,0.656280
5063.325520,0.703157
5064.059929,0.734409
5064.825589,0.765660
5065.606875,0.781286
5066.435038,0.828163
5067.247575,0.812537
5068.044486,0.796911
5068.810146,0.765660
5069.560181,0.750034
5070.294589,0.734409
5070.966495,0.671906
5071.732155,0.765660
5072.419687,0.687531
5073.122844,0.703157
5073.857252,0.734409
5074.576035,0.718783
5075.357321,0.781286
5076.138607,0.781286
5076.857390,0.718783
5077.654301,0.796911
5078.373084,0.718783
5079.154370,0.781286
5079.841901,0.687531
5080.545058,0.703157
5081.279467,0.734409
5081.904496,0.625029
5082.623279,0.718783
5083.326436,0.703157
5084.029593,0.703157
5084.732750,0.703157
5102.592943,0.781286
5103.389854,0.796911
5104.046134,0.656280
5104.749291,0.703157
5105.421197,0.671906
5106.139980,0.718783
5106.858763,0.718783
5107.515043,0.656280
5120.968784,0.703157
5121.640690,0.671906
5146.704337,0.687531
5147.391868,0.687531
5148.048148,0.656280
5148.720054,0.671906
5149.360708,0.640654
5149.985737,0.625029
5150.626391,0.640654
5151.267046,0.640654
5151.938951,0.671906
5152.595232,0.656280
5153.189009,0.593777
5153.876540,0.687531
5154.548446,0.671906
5155.235977,0.687531
5155.876632,0.640654
5156.548537,0.671906
5157.189192,0.640654
5157.829846,0.640654
5158.470500,0.640654
5159.095529,0.625029
5159.751809,0.656280
5160.408089,0.656280
5161.095621,0.687531
5161.751901,0.656280
5162.455058,0.703157
5163.126964,0.671906
5163.845747,0.718783
5164.564529,0.718783
5165.298938,0.734409
5166.002095,0.703157
5166.705252,0.703157
5167.392784,0.687531
5168.064690,0.671906
5168.720970,0.656280
5169.377250,0.656280
5170.033530,0.656280
5170.721061,0.687531
5171.377341,0.656280
5172.064873,0.687531
5172.768030,0.703157
5173.518064,0.750034
5177.737007,0.656280
5178.408913,0.671906
5179.096445,0.687531
5179.815228,0.718783
5180.518385,0.703157
5181.221542,0.703157
5181.955950,0.734409
5182.705985,0.750034
5183.456019,0.750034
5184.159176,0.703157
5184.893585,0.734409
5185.612368,0.718783
5186.331151,0.718783
5187.003057,0.671906
5187.643711,0.640654
5188.456248,0.812537
5189.112528,0.656280
5193.362723,0.703157
5194.034628,0.671906
5194.706534,0.671906
5195.378440,0.671906
5196.019094,0.640654
5196.675374,0.656280
5197.347280,0.671906
5198.034811,0.687531
5198.691092,0.656280
5199.394249,0.703157
5200.034903,0.640654
5200.706809,0.671906
5201.394340,0.687531
5202.050620,0.656280
5202.722526,0.671906
5203.363180,0.640654
5204.035086,0.671906
5204.675740,0.640654
5205.332021,0.656280
5205.972675,0.640654
5206.613329,0.640654
5207.238358,0.625029
5211.238541,0.734409
5211.926072,0.687531
5212.613604,0.687531
5218.848264,0.750034
5219.613924,0.765660
5220.379584,0.765660
5221.129619,0.750034
5221.848402,0.718783
5222.567184,0.718783
5223.285967,0.718783
5223.973499,0.687531
5224.692282,0.718783
5225.395439,0.703157
5226.051719,0.656280
5274.788325,0.546900
5275.350851,0.562526
5275.944628,0.593777
5276.632159,0.687531
5277.304065,0.671906
5283.273088,0.750034
5283.960620,0.687531
5284.679403,0.718783
5285.398185,0.718783
5286.179471,0.781286
5286.945131,0.765660
5287.804546,0.859414
5288.585831,0.781286
5289.335866,0.750034
5290.039023,0.703157
5296.195555,0.718783
5296.929963,0.734409
5297.742501,0.812537
5298.523786,0.781286
5299.242569,0.718783
5300.039481,0.796911
5300.789515,0.750034
5301.461421,0.671906
5302.195829,0.734409
5302.961489,0.765660
5303.695898,0.734409
5304.367804,0.671906
5308.899261,0.781286
5309.602418,0.703157
5310.336827,0.734409
5311.102487,0.765660
5311.899399,0.796911
5312.633807,0.734409
5313.415093,0.781286
5314.243256,0.828163
5314.977664,0.734409
5315.696447,0.718783
5316.430856,0.734409
5317.134013,0.703157
5325.056251,0.687531
5325.759408,0.703157
5326.462565,0.703157
5327.196974,0.734409
5354.526350,0.734409
5355.260758,0.734409
5355.917038,0.656280
5356.588944,0.671906
5357.182721,0.593777
5360.495373,0.718783
5378.433694,0.718783
5379.074348,0.640654
5379.589997,0.515649
5433.608095,0.671906
5434.280000,0.671906
5434.998783,0.718783
5435.670689,0.671906
5436.264466,0.593777
5436.967623,0.703157
5437.639529,0.671906
5438.327061,0.687531
5439.014592,0.687531
5439.686498,0.671906
5440.342778,0.656280
5440.983432,0.640654
5441.686589,0.703157
5442.342870,0.656280
5443.030401,0.687531
5443.717932,0.687531
5444.452341,0.734409
5445.171124,0.718783
5445.874281,0.703157
5446.561813,0.687531
5447.264970,0.703157
5447.921250,0.656280
5448.577530,0.656280
5449.218184,0.640654
5449.890090,0.671906
5450.468241,0.578151
5458.249848,0.968794
5459.234268,0.984420
5460.046805,0.812537
5483.985401,0.656280
5484.657306,0.671906
5485.344838,0.687531
5485.985492,0.640654
5486.704275,0.718783
5487.360555,0.656280
5488.016835,0.656280
5488.688741,0.671906
5489.345021,0.656280
5489.985675,0.640654
5490.626330,0.640654
5491.282610,0.656280
5491.923264,0.640654
5492.579544,0.656280
5493.251450,0.671906
5493.954607,0.703157
5494.673390,0.718783
5495.360921,0.687531
5496.032827,0.671906
5496.689107,0.656280
5497.376639,0.687531
5498.001667,0.625029
5498.626696,0.625029
5499.267350,0.640654
5499.892379,0.625029
5500.564285,0.671906
5501.189313,0.625029
5501.814342,0.625029
5502.454996,0.640654
5503.095650,0.640654
5503.673802,0.578151
5504.267579,0.593777
5504.845731,0.578151
5505.439508,0.593777
5506.017659,0.578151
5506.627062,0.609403
5507.236465,0.609403
5507.830242,0.593777
5508.533399,0.703157
5509.174054,0.640654
5509.783457,0.609403
5510.408485,0.625029
5511.064765,0.656280
5511.736671,0.671906
5512.392951,0.656280
5513.049231,0.656280
5513.721137,0.671906
5514.393043,0.671906
5515.080574,0.687531
5515.736854,0.656280
5516.440011,0.703157
5517.158794,0.718783
5517.861951,0.703157
5518.549483,0.687531
5519.205763,0.656280
5519.893294,0.687531
5520.565200,0.671906
5521.237106,0.671906
5521.893386,0.656280
5522.549666,0.656280
5523.221572,0.671906
5523.877852,0.656280
5524.549757,0.671906
5525.206038,0.656280
5525.877943,0.671906
5526.534223,0.656280
5527.190503,0.656280
5527.878035,0.687531
5528.549941,0.671906
5529.237472,0.687531
5529.940629,0.703157
5530.643786,0.703157
5531.346944,0.703157
5532.034475,0.687531
5532.722007,0.687531
5533.425164,0.703157
5534.081444,0.656280
5534.753350,0.671906
5535.456507,0.703157
5536.159664,0.703157
5536.847195,0.687531
5537.534727,0.687531
5538.237884,0.703157
5546.988285,0.718783
5547.707067,0.718783
5548.378973,0.671906
5549.004002,0.625029
5549.660282,0.656280
5550.425942,0.765660
5556.973116,0.656280
5557.598145,0.625029
5558.270051,0.671906
5558.957582,0.687531
5559.676365,0.718783
5560.395148,0.718783
5561.129557,0.734409
5561.832714,0.703157
5562.504620,0.671906
5563.145274,0.640654
5563.957811,0.812537
5570.379980,0.687531
5571.083137,0.703157
5571.770669,0.687531
5572.458200,0.687531
5573.130106,0.671906
5573.786386,0.656280
5574.411415,0.625029
5575.067695,0.656280
5575.723975,0.656280
5576.395880,0.671906
5577.099038,0.703157
5577.786569,0.687531
5578.474101,0.687531
5579.161632,0.687531
5579.802286,0.640654
5580.442941,0.640654
5581.083595,0.640654
5581.692998,0.609403
5582.349278,0.656280
5582.989932,0.640654
5583.630587,0.640654
5584.318118,0.687531
5585.036901,0.718783
5585.740058,0.703157
5586.427590,0.687531
5587.146373,0.718783
5587.849530,0.703157
5588.537061,0.687531
5589.193341,0.656280
5589.865247,0.671906
5590.521527,0.656280
5591.193433,0.671906
5591.849713,0.656280
5592.505993,0.656280
5593.146647,0.640654
5593.802927,0.656280
5594.490459,0.687531
5613.897597,0.671906
5624.960603,0.671906
5625.601258,0.640654
5626.304415,0.703157
5626.976321,0.671906
5627.695104,0.718783
5628.382635,0.687531
5629.038915,0.656280
5629.695195,0.656280
5630.382727,0.687531
5631.054632,0.671906
5689.541685,0.703157
5690.276093,0.734409
5691.041753,0.765660
5691.729285,0.687531
5692.338688,0.609403
5693.135599,0.796911
5716.449166,0.765660
5717.136698,0.687531
5740.450265,0.687531
5741.184674,0.734409
5741.919082,0.734409
5742.622239,0.703157
5743.325397,0.703157
5753.122720,0.687531
5753.810251,0.687531
5754.466532,0.656280
5755.185314,0.718783
5755.810343,0.625029
5756.513500,0.703157
5761.982501,0.656280
5762.654406,0.671906
5763.310686,0.656280
5763.998218,0.687531
5764.654498,0.656280
5765.342029,0.687531
5766.076438,0.734409
5766.779595,0.703157
5767.514004,0.734409
5768.232787,0.718783
5768.951570,0.718783
5769.654727,0.703157
5770.357884,0.703157
5771.045415,0.687531
5771.717321,0.671906
5772.357975,0.640654
5773.029881,0.671906
5773.717413,0.687531
5774.389318,0.671906
5775.092476,0.703157
5775.795633,0.703157
5776.514416,0.718783
5777.248824,0.734409
5777.951982,0.703157
5778.686390,0.734409
5779.405173,0.718783
5783.514736,0.718783
5784.217893,0.703157
5784.905425,0.687531
5785.608582,0.703157
5786.327365,0.718783
5787.030522,0.703157
5787.749305,0.718783
5788.468088,0.718783
5793.749580,0.687531
5794.437111,0.687531
5795.124643,0.687531
5795.827800,0.703157
5796.546583,0.718783
5797.234114,0.687531
5797.999774,0.765660
5798.702931,0.703157
5799.452966,0.750034
5800.203000,0.750034
5800.937409,0.734409
5801.671817,0.734409
5802.374974,0.703157
5803.078132,0.703157
5803.765663,0.687531
5804.468820,0.703157
5805.187603,0.718783
5805.859509,0.671906
5806.609543,0.750034
5807.281449,0.671906
5807.984606,0.703157
5808.765892,0.781286
5809.484675,0.718783
5810.187832,0.703157
5810.890989,0.703157
5811.594146,0.703157
5812.312929,0.718783
5813.016087,0.703157
5813.734869,0.718783
5814.422401,0.687531
5815.141184,0.718783
5815.859967,0.718783
5816.563124,0.703157
5817.219404,0.656280
5817.938187,0.718783
5818.656970,0.718783
5819.391378,0.734409
5820.141413,0.750034
5820.907073,0.765660
5821.610230,0.703157
5822.329013,0.718783
5823.000919,0.671906
5823.704076,0.703157
5834.985842,0.703157
5844.533154,0.671906
5845.220686,0.687531
5845.908217,0.687531
5846.580123,0.671906
5847.298906,0.718783
5848.017689,0.718783
5848.705220,0.687531
5849.392752,0.687531
5850.111535,0.718783
5900.660723,0.718783
5912.630021,0.640654
5913.286301,0.656280
5913.958207,0.671906
5914.598861,0.640654
5915.255141,0.656280
5915.895796,0.640654
5916.552076,0.656280
5917.255233,0.703157
5917.911513,0.656280
5918.614670,0.703157
5919.302202,0.687531
5920.052236,0.750034
5920.771019,0.718783
5921.505428,0.734409
5922.177333,0.671906
5922.896116,0.718783
5923.568022,0.671906
5924.239928,0.671906
5924.927459,0.687531
5925.599365,0.671906
5926.255645,0.656280
5926.896299,0.640654
5927.583831,0.687531
5928.318239,0.734409
5929.083899,0.765660
5929.787057,0.703157
5930.505840,0.718783
5931.224622,0.718783
5931.912154,0.687531
5932.568434,0.656280
5933.287217,0.718783
5933.990374,0.703157
5934.724783,0.734409
5935.427940,0.703157
5936.177974,0.750034
5936.928009,0.750034
5937.709294,0.781286
5938.396826,0.687531
5939.131234,0.734409
5939.850017,0.718783
5940.568800,0.718783
5941.225080,0.656280
5941.896986,0.671906
5942.568892,0.671906
5943.272049,0.703157
5943.943955,0.671906
5944.631486,0.687531
5945.334643,0.703157
5946.053426,0.718783
5946.725332,0.671906
5947.412863,0.687531
5948.116021,0.703157
5948.803552,0.687531
5949.475458,0.671906
5950.162989,0.687531
5950.834895,0.671906
5951.506801,0.671906
5952.163081,0.656280
5952.866238,0.703157
5953.506892,0.640654
5954.194424,0.687531
5954.928833,0.734409
5955.616364,0.687531
5956.335147,0.718783
5957.038304,0.703157
5957.725836,0.687531
5958.460244,0.734409
5959.210279,0.750034
5959.929061,0.718783
5960.647844,0.718783
5961.351002,0.703157
5962.022907,0.671906
5962.726064,0.703157
5963.476099,0.750034
5964.163630,0.687531
5964.913665,0.750034
5965.632447,0.718783
5966.351230,0.718783
5969.710759,0.609403
5970.492045,0.781286
5971.132699,0.640654
5971.867108,0.734409
5972.585891,0.718783
5973.242171,0.656280
5973.945328,0.703157
5974.820368,0.875040
5975.445397,0.625029
5976.070425,0.625029
5976.742331,0.671906
5977.414237,0.671906
5978.117394,0.703157
5978.789300,0.671906
5979.461205,0.671906
5980.133111,0.671906
5980.836268,0.703157
5981.539426,0.703157
5982.258209,0.718783
5982.945740,0.687531
5983.633271,0.687531
5984.336429,0.703157
5984.992709,0.656280
5985.664614,0.671906
5986.352146,0.687531
5987.024052,0.671906
5987.727209,0.703157
5988.383489,0.656280
5989.055395,0.671906
5989.727300,0.671906
5990.399206,0.671906
5991.071112,0.671906
5991.758643,0.687531
5992.414923,0.656280
5999.071478,0.656280
6018.197354,0.687531
6018.884885,0.687531
6019.541165,0.656280
6020.213071,0.671906
6020.853725,0.640654
6021.510005,0.656280
6022.197537,0.687531
6022.931945,0.734409
6023.619477,0.687531
6024.338260,0.718783
6025.103920,0.765660
6044.448555,0.687531
6045.198590,0.750034
6045.932998,0.734409
6046.651781,0.718783
6047.323687,0.671906
6048.026844,0.703157
6048.730001,0.703157
6049.433158,0.703157
6050.120690,0.687531
6050.823847,0.703157
6051.511379,0.687531
6052.214536,0.703157
6052.902067,0.687531
6053.573973,0.671906
6054.230253,0.656280
6054.917784,0.687531
6055.620942,0.703157
6056.308473,0.687531
6056.964753,0.656280
6057.683536,0.718783
6058.324190,0.640654
6059.058599,0.734409
6059.714879,0.656280
6060.418036,0.703157
6061.105568,0.687531
6061.824351,0.718783
6070.965394,1.250057
6077.090674,0.593777
6117.280014,0.750034
6117.967546,0.687531
6118.670703,0.703157
6119.405111,0.734409
6120.108268,0.703157
6120.889554,0.781286
6121.623963,0.734409
6122.420874,0.796911
6123.217786,0.796911
6124.014697,0.796911
6124.780357,0.765660
6125.546017,0.765660
6126.296052,0.750034
6127.046086,0.750034
6127.764869,0.718783
6128.499278,0.734409
6129.296189,0.796911
6130.061849,0.765660
6130.811883,0.750034
6131.546292,0.734409
6132.311952,0.765660
6133.046361,0.734409
6133.749518,0.703157
6134.468301,0.718783
6135.202709,0.734409
6135.952744,0.750034
6136.718404,0.765660
6137.484064,0.765660
6138.218472,0.734409
6138.952881,0.734409
6139.687290,0.734409
6140.406073,0.718783
6141.124856,0.718783
6141.828013,0.703157
6142.515544,0.687531
6148.187679,0.687531
6201.080725,0.703157
6367.041447,0.765660
6367.853984,0.812537
6446.654466,0.593777
6447.263869,0.609403
6447.810769,0.546900
6448.404546,0.593777
6449.013949,0.609403
6449.654603,0.640654
6450.310883,0.656280
6450.951538,0.640654
6451.623443,0.671906
6452.170343,0.546900
6458.405004,0.625029
6459.014407,0.609403
6459.608184,0.593777
6460.201961,0.593777
6460.795738,0.593777
6461.389515,0.593777
6461.967667,0.578151
6462.545818,0.578151
6463.123970,0.578151
6463.686496,0.562526
6464.264647,0.578151
6464.842798,0.578151
6465.436576,0.593777
6466.061604,0.625029
6466.780387,0.718783
6467.514796,0.734409
6468.264830,0.750034
6468.999239,0.734409
6469.733647,0.734409
6470.421179,0.687531
6471.108710,0.687531
6471.811867,0.703157
6472.468148,0.656280
6473.155679,0.687531
6473.796333,0.640654
6474.421362,0.625029
6475.062016,0.640654
6475.702671,0.640654
6476.343325,0.640654
6476.999605,0.656280
6477.655885,0.656280
6478.312165,0.656280
6478.984071,0.671906
6479.655977,0.671906
6480.312257,0.656280
6480.984162,0.671906
6481.640442,0.656280
6482.281097,0.640654
6482.906125,0.625029
6483.562405,0.656280
6484.187434,0.625029
6484.828088,0.640654
6485.453117,0.625029
6486.093771,0.640654
6486.750051,0.656280
6487.406331,0.656280
6488.046986,0.640654
6488.718891,0.671906
6489.406423,0.687531
6490.093954,0.687531
6490.797112,0.703157
6491.500269,0.703157
6492.219052,0.718783
6492.922209,0.703157
6493.609740,0.687531
6494.297272,0.687531
6494.969177,0.671906
6553.393727,0.671906
6554.065633,0.671906
6554.721913,0.656280
6555.346941,0.625029
6555.971970,0.625029
6556.596998,0.625029
6557.253278,0.656280
6557.925184,0.671906
6558.612716,0.687531
6559.347124,0.734409
6560.050282,0.703157
6560.753439,0.703157
6561.440970,0.687531
6562.112876,0.671906
6562.784782,0.671906
6563.456687,0.671906
6564.097342,0.640654
6564.737996,0.640654
6565.363025,0.625029
6566.003679,0.640654
6566.675585,0.671906
6567.331865,0.656280
6568.019396,0.687531
6568.800682,0.781286
6569.722599,0.921917
6570.582014,0.859414
6571.472679,0.890666
6572.285217,0.812537
6573.082128,0.796911
6573.785285,0.703157
6574.488442,0.703157
6582.801323,0.687531
6583.504480,0.703157
6584.223263,0.718783
6584.926420,0.703157
6585.613952,0.687531
6586.301483,0.687531
6594.770621,0.656280
6595.442527,0.671906
6596.130058,0.687531
6596.848841,0.718783
6597.614501,0.765660
6598.348910,0.734409
6599.083318,0.734409
6599.802101,0.718783
6600.489633,0.687531
6601.208416,0.718783
6601.927198,0.718783
6602.692858,0.765660
6603.442893,0.750034
6604.177301,0.734409
6604.974213,0.796911
6639.678926,0.734409
6640.428961,0.750034
6641.132118,0.703157
6641.804024,0.671906
6642.475929,0.671906
6643.100958,0.625029
6643.725987,0.625029
6644.351015,0.625029
6644.991670,0.640654
6645.647950,0.656280
6646.226101,0.578151
6646.851130,0.625029
6647.429281,0.578151
6648.085561,0.656280
6648.726216,0.640654
6653.492059,0.593777
6654.085836,0.593777
6710.072774,0.750034
6710.822808,0.750034
6711.510339,0.687531
6712.260374,0.750034
6712.963531,0.703157
6713.760442,0.796911
6714.510477,0.750034
6715.198008,0.687531
6715.916791,0.718783
6716.635574,0.718783
6717.369983,0.734409
6718.057514,0.687531
6718.791923,0.734409
6719.495080,0.703157
6720.276366,0.781286
6721.010774,0.734409
6721.729557,0.718783
6759.075017,0.703157
6765.434683,0.703157
6766.137840,0.703157
6766.919126,0.781286
6767.700412,0.781286
6768.497323,0.796911
6769.231732,0.734409
6769.997392,0.765660
6770.747426,0.750034
6771.481835,0.734409
6772.184992,0.703157
6772.935026,0.750034
6773.669435,0.734409
6837.359850,0.703157
6838.094259,0.734409
6838.891170,0.796911
6839.484947,0.593777
6840.250607,0.765660
6843.594511,0.687531
6844.188288,0.593777
6844.907071,0.718783
6929.660950,1.000046
6970.303436,0.750034
6971.069096,0.765660
6971.787879,0.718783
6972.475410,0.687531
6975.819313,0.687531
6976.506845,0.687531
6977.272505,0.765660
6978.069416,0.796911
6978.866328,0.796911
6979.631988,0.765660
6980.397648,0.765660
6981.163308,0.765660
6981.913342,0.750034
7001.179849,0.750034
7001.961135,0.781286
7002.679918,0.718783
7003.367449,0.687531
7004.086232,0.718783
7004.805015,0.718783
7005.523798,0.718783
7006.289458,0.765660
7007.101995,0.812537
7007.898906,0.796911
7008.680192,0.781286
7009.461478,0.781286
7010.227138,0.765660
7010.961547,0.734409
7011.680330,0.718783
7012.399112,0.718783
7013.133521,0.734409
7013.883555,0.750034
7014.742970,0.859414
7015.618010,0.875040
7016.477424,0.859414
7017.368090,0.890666
7018.211879,0.843789
7019.024416,0.812537
7019.805701,0.781286
7020.586987,0.781286
7021.368273,0.781286
7022.149559,0.781286
7022.962096,0.812537
7023.790259,0.828163
7024.587170,0.796911
7025.399708,0.812537
7026.212245,0.812537
7027.024782,0.812537
7027.821693,0.796911
7028.634231,0.812537
7029.431142,0.796911
7030.196802,0.765660
7030.962462,0.765660
7031.774999,0.812537
7032.587537,0.812537
7033.415699,0.828163
7034.243862,0.828163
7035.040774,0.796911
7035.837685,0.796911
7036.572094,0.734409
7037.306503,0.734409
7038.056537,0.750034
7038.806571,0.750034
7039.603483,0.796911
7040.416020,0.812537
7041.228557,0.812537
7041.994217,0.765660
7042.791129,0.796911
7043.541163,0.750034
7044.291197,0.750034
7045.056857,0.765660
7045.838143,0.781286
7046.650680,0.812537
7047.478843,0.828163
7048.291380,0.812537
7049.103918,0.812537
7049.916455,0.812537
7050.697741,0.781286
7051.479026,0.781286
7052.229061,0.750034
7052.963469,0.734409
7053.682252,0.718783
7054.416661,0.734409
7055.151069,0.734409
7055.885478,0.734409
7056.682389,0.796911
7057.526178,0.843789
7058.354341,0.828163
7059.229381,0.875040
7060.026293,0.796911
7060.791953,0.765660
7061.573238,0.781286
7062.323273,0.750034
7063.042056,0.718783
7063.776464,0.734409
7064.479621,0.703157
7065.198404,0.718783
7065.948439,0.750034
7066.714099,0.765660
7067.448507,0.734409
7100.918789,0.781286
7101.715701,0.796911
7102.481361,0.765660
7103.200144,0.718783
7104.043932,0.843789
7104.872095,0.828163
7105.622130,0.750034
7106.512795,0.890666
7107.340958,0.828163
7108.184747,0.843789
7121.075962,0.734409
7121.794745,0.718783
7122.529154,0.734409
7123.247936,0.718783
7131.451437,0.718783
7132.201471,0.750034
7132.920254,0.718783
7133.717166,0.796911
7134.498451,0.781286
7135.357866,0.859414
7136.061023,0.703157
7163.906048,0.921917
7164.702959,0.796911
7165.421742,0.718783
7166.171776,0.750034
7166.921811,0.750034
7167.640594,0.718783
7168.375002,0.734409
7169.187539,0.812537
7169.937574,0.750034
7170.750111,0.812537
7171.578274,0.828163
7172.343934,0.765660
7173.140845,0.796911
7173.906505,0.765660
7174.906551,1.000046
7178.437963,0.703157
7179.203623,0.765660
7179.969283,0.765660
7180.750569,0.781286
7181.516229,0.765660
7182.313140,0.796911
7183.110052,0.796911
7183.875712,0.765660
7184.610120,0.734409
7185.297652,0.687531
7186.188318,0.890666
7187.125860,0.937543
7188.172783,1.046923
7188.954069,0.781286
7189.672852,0.718783
7190.422886,0.750034
7191.188546,0.765660
7191.922955,0.734409
7192.672989,0.750034
7193.454275,0.781286
7194.204309,0.750034
7194.938718,0.734409
7195.673127,0.734409
7196.407535,0.734409
7197.110693,0.703157
7197.845101,0.734409
7198.626387,0.781286
7199.454550,0.828163
7200.235836,0.781286
7201.032747,0.796911
7205.657959,0.750034
7206.376742,0.718783
7207.111150,0.734409
7207.939313,0.828163
7208.595593,0.656280
7209.314376,0.718783
7209.892528,0.578151
7213.673951,0.734409
7214.470862,0.796911
7215.158394,0.687531
7215.908428,0.750034
7220.564891,0.765660
7221.314925,0.750034
7222.064960,0.750034
7222.783743,0.718783
7223.533777,0.750034
7224.299437,0.765660
7225.049471,0.750034
7225.799506,0.750034
7226.596417,0.796911
7227.393329,0.796911
7228.174614,0.781286
7228.940274,0.765660
7229.721560,0.781286
7230.487220,0.765660
7231.206003,0.718783
7231.987289,0.781286
7238.862604,0.703157
7239.518884,0.656280
7240.190789,0.671906
7240.862695,0.671906
7241.550227,0.687531
7242.237758,0.687531
7242.925290,0.687531
7243.612821,0.687531
7244.331604,0.718783
7245.066013,0.734409
7245.769170,0.703157
7246.519204,0.750034
7247.284864,0.765660
7248.050524,0.765660
7248.800559,0.750034
7249.519341,0.718783
7250.253750,0.734409
7251.003784,0.750034
7251.722567,0.718783
7252.472602,0.750034
7253.207010,0.734409
7253.972670,0.765660
7254.722705,0.750034
7255.488365,0.765660
7256.238399,0.750034
7257.004059,0.765660
7257.754093,0.750034
7258.504128,0.750034
7259.238536,0.734409
7259.988571,0.750034
7260.691728,0.703157
7261.394885,0.703157
7262.113668,0.718783
7262.816825,0.703157
7263.519982,0.703157
7264.223140,0.703157
7264.957548,0.734409
7265.676331,0.718783
7266.426365,0.750034
7267.129523,0.703157
7275.098637,0.609403
7275.708040,0.609403
7276.364320,0.656280
7277.020600,0.656280
7277.661255,0.640654
7278.333160,0.671906
7278.973815,0.640654
7279.614469,0.640654
7280.270749,0.656280
7280.927029,0.656280
7281.614561,0.687531
7282.302092,0.687531
7282.942746,0.640654
7283.599026,0.656280
7284.255306,0.656280
7284.895961,0.640654
7285.614744,0.718783
7286.317901,0.703157
7287.036684,0.718783
7287.692964,0.656280
7288.380495,0.687531
7289.068027,0.687531
7289.755558,0.687531
7290.458715,0.703157
7291.146247,0.687531
7291.849404,0.703157
7292.552561,0.703157
7293.255718,0.703157
7293.943250,0.687531
7294.630781,0.687531
7295.318313,0.687531
7296.037096,0.718783
7296.771504,0.734409
7297.443410,0.671906
7298.146567,0.703157
7298.865350,0.718783
7299.599759,0.734409
7300.287290,0.687531
7300.974822,0.687531
7301.662353,0.687531
7302.349885,0.687531
7303.037416,0.687531
7303.709322,0.671906
7304.412479,0.703157
7305.162513,0.750034
7305.912548,0.750034
7306.584454,0.671906
7307.271985,0.687531
7307.943891,0.671906
7308.631422,0.687531
7309.303328,0.671906
7309.959608,0.656280
7310.662765,0.703157
7311.381548,0.718783
7312.084705,0.703157
7312.850365,0.765660
7313.584774,0.734409
7314.366060,0.781286
7315.131720,0.765660
7315.866128,0.734409
7316.569286,0.703157
7317.288069,0.718783
7317.959974,0.671906
7318.663131,0.703157
7319.303786,0.640654
7320.006943,0.703157
7320.694474,0.687531
7321.382006,0.687531
7322.163292,0.781286
7322.960203,0.796911
7323.725863,0.765660
7324.460272,0.734409
7325.257183,0.796911
7330.773061,0.718783
7331.476218,0.703157
7332.210627,0.734409
7332.945035,0.734409
7333.663818,0.718783
7334.351350,0.687531
7335.070132,0.718783
7335.742038,0.671906
7336.460821,0.718783
7337.085850,0.625029
7337.757756,0.671906
7338.429661,0.671906
7339.117193,0.687531
7339.851601,0.734409
7340.695390,0.843789
7341.461050,0.765660
7342.304839,0.843789
7343.086124,0.781286
7343.914287,0.828163
7344.586193,0.671906
7345.242473,0.656280
7345.945630,0.703157
7346.617536,0.671906
7347.305068,0.687531
7348.023850,0.718783
7348.773885,0.750034
7349.523919,0.750034
7350.320831,0.796911
7351.180245,0.859414
7351.961531,0.781286
7352.742816,0.781286
7353.539728,0.796911
7354.305388,0.765660
7355.055422,0.750034
7355.789831,0.734409
7356.492988,0.703157
7357.196145,0.703157
7357.914928,0.718783
7358.664963,0.750034
7359.399371,0.734409
7360.227534,0.828163
7361.055697,0.828163
7361.915111,0.859414
7362.727648,0.812537
7363.508934,0.781286
7364.274594,0.765660
7365.087132,0.812537
7365.852792,0.765660
7366.571574,0.718783
7367.305983,0.734409
7368.056017,0.750034
7368.868555,0.812537
7369.681092,0.812537
7370.540506,0.859414
7371.384295,0.843789
7372.228083,0.843789
7373.009369,0.781286
7373.743778,0.734409
7374.462561,0.718783
7375.196969,0.734409
7375.947004,0.750034
7376.681412,0.734409
7377.400195,0.718783
7378.165855,0.765660
7379.119024,0.953169
7382.619184,0.703157
7383.369218,0.750034
7384.119253,0.750034
7384.838036,0.718783
7385.509941,0.671906
7386.197473,0.687531
7386.916256,0.718783
7387.603787,0.687531
7388.385073,0.781286
7389.181984,0.796911
7394.635359,0.687531
7395.322891,0.687531
7396.010422,0.687531
7396.729205,0.718783
7397.416736,0.687531
7398.135519,0.718783
7398.885554,0.750034
7399.635588,0.750034
7400.401248,0.765660
7401.166908,0.765660
7401.932568,0.765660
7402.666977,0.734409
7403.417011,0.750034
7404.182671,0.765660
7404.948331,0.765660
7405.682740,0.734409
7406.432774,0.750034
7407.182808,0.750034
7407.964094,0.781286
7412.526803,0.703157
7413.261212,0.734409
7413.995620,0.734409
7414.730029,0.734409
7415.448812,0.718783
7416.230098,0.781286
7417.089512,0.859414
7417.870798,0.781286
7418.730212,0.859414
7419.542749,0.812537
7420.308409,0.765660
7421.105321,0.796911
7433.262127,0.671906
7458.919552,0.703157
7459.591457,0.671906
7460.310240,0.718783
7461.044649,0.734409
7461.779058,0.734409
7462.482215,0.703157
7463.169746,0.687531
7463.872903,0.703157
7464.560435,0.687531
7465.247966,0.687531
7465.904246,0.656280
7466.591778,0.687531
7467.216806,0.625029
7467.919964,0.703157
7477.154761,0.625029
7477.764164,0.609403
7485.655150,0.656280
7486.327056,0.671906
7486.952085,0.625029
7487.608365,0.656280
7488.264645,0.656280
7488.920925,0.656280
7489.608456,0.687531
7490.280362,0.671906
7490.983519,0.703157
7491.686677,0.703157
7492.436711,0.750034
7493.139868,0.703157
7493.858651,0.718783
7494.546182,0.687531
7495.249340,0.703157
7495.936871,0.687531
7496.608777,0.671906
7497.280683,0.671906
7497.968214,0.687531
7498.655746,0.687531
7499.327651,0.671906
7500.015183,0.687531
7500.749591,0.734409
7501.499626,0.750034
7502.234034,0.734409
7502.937191,0.703157
7503.640349,0.703157
7504.327880,0.687531
7504.984160,0.656280
7505.624815,0.640654
7506.265469,0.640654
7506.906123,0.640654
7507.562403,0.656280
7508.218683,0.656280
7508.874963,0.656280
7509.562495,0.687531
7510.281278,0.718783
7511.000061,0.718783
7511.703218,0.703157
7512.422001,0.718783
7513.125158,0.703157
7513.828315,0.703157
7514.500221,0.671906
7515.156501,0.656280
7515.797155,0.640654
7516.453435,0.656280
7517.094090,0.640654
7517.750370,0.656280
7518.422275,0.671906
7519.094181,0.671906
7519.797338,0.703157
7520.516121,0.718783
7521.219278,0.703157
7521.906810,0.687531
7522.578716,0.671906
7523.281873,0.703157
7523.953779,0.671906
7524.656936,0.703157
7525.344467,0.687531
7526.078876,0.734409
7526.797659,0.718783
7527.500816,0.703157
7528.235224,0.734409
7528.985259,0.750034
