,EDA,rise_time,max_deriv,amp,decay_time,SCR_width,AUC
2018-02-15 13:06:42,10.113999999999999,0.5,1.4730825172896118,0.1233999999999984,,,
2018-02-15 13:06:43.125000,10.494,0.75,0.5974407334690497,0.1769999999999996,0.625,1.25,0.2212499999999995
2018-02-15 13:06:49.625000,9.985199999999999,1.5,0.01924484099708934,0.026949999999999363,0.25,1.625,0.043793749999998965
2018-02-15 13:06:53,10.575999999999999,4.0,0.32554674538300077,0.5843999999999987,0.875,2.25,1.314899999999997
2018-02-15 13:07:02.125000,9.98775,4.0,0.06517508126797367,0.09539999999999971,0.75,2.0,0.19079999999999941
2018-02-15 13:07:16.375000,10.253499999999999,1.75,0.26672246460410776,0.4386499999999991,1.0,2.375,1.0417937499999979
2018-02-15 13:07:19.750000,10.161,1.5,0.08519787454648053,0.10800000000000054,0.375,1.75,0.18900000000000095
2018-02-15 13:07:22.500000,10.255,1.25,0.1540840174710283,0.16000000000000014,0.625,1.625,0.26000000000000023
2018-02-15 13:07:28.625000,10.614,4.0,0.17130725864352314,0.36299999999999955,0.75,2.125,0.771374999999999
2018-02-15 13:07:34.625000,10.23,1.375,0.10153530017319667,0.1280000000000001,0.625,1.75,0.2240000000000002
2018-02-15 13:07:42.500000,10.193,1.75,0.1534121231654666,0.24499999999999922,1.0,2.25,0.5512499999999982
2018-02-15 13:07:48.625000,10.575,4.0,0.21560828919650277,0.5553500000000007,,,
2018-02-15 13:07:50.500000,11.005,1.25,0.32260939615012774,0.3020000000000014,0.75,1.875,0.5662500000000026
2018-02-15 13:07:57.375000,10.9915,1.875,0.28010781985567235,0.32150000000000034,,,
2018-02-15 13:07:59.875000,11.3035,1.5,0.17892147235276212,0.27949999999999875,0.5,1.625,0.45418749999999797
2018-02-15 13:08:03.750000,11.135,4.0,0.04912313020109593,0.1120000000000001,0.375,1.875,0.2100000000000002
2018-02-15 13:08:06.500000,11.092,1.5,0.047829216214502424,0.057000000000000384,0.875,2.0,0.11400000000000077
2018-02-15 13:08:12.500000,11.142000000000001,1.25,0.04825577549854643,0.03700000000000081,,,
2018-02-15 13:08:20.750000,10.782,1.375,0.145244570822463,0.1255000000000006,0.125,1.375,0.17256250000000084
2018-02-15 13:08:27.750000,10.595999999999998,0.875,0.28122100804426253,0.09649999999999714,,,
2018-02-15 13:08:30.250000,10.74,4.0,0.1278822516835234,0.1479999999999997,,,
2018-02-15 13:08:32.125000,11.105,1.375,0.17900771532532644,0.20500000000000007,0.625,1.75,0.3587500000000001
