1.5192e+09,1.5192e+09,1.5192e+09
32,32,32
-64,13,-6
-63,13,-3
-63,13,-3
-63,13,-6
-62,12,-7
-64,12,-6
-63,11,-4
-64,11,-4
-66,9,-4
-66,9,-4
-66,9,-3
-65,9,-1
-65,9,-1
-65,9,-3
-63,9,-4
-62,9,-3
-62,9,-3
-64,7,-3
-65,5,-2
-66,4,-2
-67,3,-1
-66,3,-2
-68,2,-3
-68,2,-4
-69,1,-3
-70,2,-2
-69,2,-5
-64,1,-4
-64,1,-4
-65,1,-4
-66,1,-3
-67,0,-3
-69,1,-2
-68,2,-2
-69,2,-2
-68,2,-2
-69,4,-3
-68,5,-3
-66,7,-2
-65,8,-2
-64,8,-3
-65,8,-3
-65,9,-2
-64,9,-1
-64,10,-2
-66,11,-3
-65,12,-1
-64,13,-1
-64,14,-2
-63,15,-2
-62,16,-2
-62,16,-2
-62,17,-2
-61,18,-4
-62,18,-5
-60,18,-5
-60,19,-6
-58,19,-7
-59,20,-8
-61,21,-11
-62,22,-13
-61,22,-13
-59,21,-12
-60,21,-11
-61,21,-14
-62,21,-13
-61,21,-13
-61,21,-11
-61,21,-10
-61,21,-9
-61,21,-9
-62,20,-9
-61,20,-8
-61,20,-8
-63,20,-10
-63,20,-10
-62,20,-9
-63,20,-8
-63,20,-9
-62,20,-9
-62,20,-8
-62,20,-9
-61,20,-9
-61,20,-8
-61,21,-8
-61,21,-9
-61,21,-10
-61,21,-10
-61,21,-11
-61,21,-11
-61,21,-10
-61,20,-10
-62,21,-12
-62,21,-13
-62,21,-14
-62,22,-13
-62,22,-13
-62,22,-12
-62,21,-11
-61,21,-11
-61,20,-12
-60,20,-12
-59,21,-11
-59,21,-12
-59,22,-13
-59,22,-12
-60,21,-11
-61,21,-11
-61,21,-11
-61,21,-12
-61,21,-12
-61,21,-13
-61,21,-13
-61,21,-14
-60,20,-13
-62,20,-14
-62,20,-14
-61,20,-11
-60,19,-7
-62,19,-7
-62,19,-6
-62,19,-5
-63,19,-6
-63,19,-7
-62,19,-7
-62,19,-9
-62,19,-9
-61,18,-9
-61,17,-9
-61,16,-8
-62,16,-7
-62,17,-8
-61,15,-9
-62,13,-10
-61,11,-9
-61,12,-4
-61,14,-3
-65,17,-8
-67,16,-8
-66,16,-7
-68,14,-7
-69,13,-9
-65,12,-9
-64,12,-8
-63,13,-7
-63,15,-9
-65,15,-8
-65,15,-6
-65,15,-7
-65,16,-8
-65,14,-8
-61,13,-6
-60,13,-6
-63,13,-7
-64,13,-8
-64,13,-9
-64,13,-8
-64,13,-8
-64,13,-9
-64,13,-9
-64,14,-8
-64,14,-8
-64,14,-9
-64,13,-8
-64,13,-8
-63,13,-8
-63,13,-8
-63,13,-8
-63,13,-9
-64,13,-8
-63,13,-9
-64,13,-9
-64,13,-9
-64,13,-9
-63,13,-9
-63,13,-10
-63,13,-9
-64,13,-9
-63,13,-9
-64,13,-10
-63,13,-9
-63,13,-9
-63,13,-9
-63,13,-9
-63,13,-10
-64,13,-10
-63,13,-10
-63,13,-10
-63,13,-10
-62,13,-11
-62,13,-11
-63,12,-13
-64,12,-14
-64,12,-14
-64,12,-13
-63,12,-13
-62,12,-12
-62,12,-12
-64,12,-13
-63,12,-13
-63,12,-12
-63,12,-12
-63,12,-12
-63,12,-12
-63,12,-12
-63,12,-13
-63,12,-12
-63,12,-12
-63,12,-11
-63,12,-11
-63,12,-11
-62,12,-11
-63,12,-11
-63,12,-10
-63,12,-12
-63,12,-14
-63,12,-14
-63,12,-13
-63,12,-13
-63,12,-14
-63,12,-14
-63,11,-13
-63,11,-14
-62,12,-14
-62,12,-14
-62,12,-14
-63,12,-15
-62,12,-15
-63,11,-16
-63,11,-16
-63,11,-17
-63,11,-17
-63,11,-16
-62,11,-16
-62,11,-16
-62,11,-15
-63,11,-15
-63,11,-15
-62,11,-16
-62,11,-15
-62,11,-15
-62,11,-15
-63,11,-15
-62,11,-15
-62,11,-15
-62,11,-15
-62,11,-16
-63,11,-15
-62,11,-15
-62,11,-15
-63,11,-16
-62,11,-15
-62,11,-15
-62,11,-15
-62,11,-15
-62,11,-16
-62,11,-15
-62,11,-16
-62,11,-16
-62,11,-17
-62,11,-16
-62,11,-17
-62,11,-17
-62,11,-18
-62,11,-17
-62,11,-18
-62,11,-17
-62,11,-17
-62,11,-17
-62,11,-17
-62,11,-17
-62,11,-17
-62,11,-18
-62,11,-18
-62,11,-18
-62,11,-18
-62,11,-18
-62,11,-19
-62,11,-18
-62,11,-18
-61,11,-18
-61,11,-17
-62,11,-18
-62,11,-18
-62,11,-18
-62,11,-18
-62,11,-18
-62,11,-17
-62,11,-18
-61,11,-16
-62,11,-17
-62,11,-17
-62,10,-16
-63,10,-16
-66,11,-19
-64,11,-18
-63,12,-16
-68,10,-16
-58,12,-11
-64,13,-12
-63,12,-11
-61,12,-9
-63,12,-9
-64,15,-10
-58,14,-9
-60,13,-9
-62,13,-11
-64,13,-11
-62,15,-12
-63,13,-14
-63,14,-13
-62,14,-13
-62,15,-15
-62,15,-15
-62,15,-13
-62,16,-15
-63,16,-16
-62,16,-16
-62,15,-14
-62,14,-14
-63,14,-13
-64,14,-12
-63,13,-11
-65,13,-10
-65,13,-9
-65,13,-9
-65,13,-8
-64,13,-8
-64,13,-9
-63,13,-9
-62,13,-9
-62,13,-8
-62,13,-8
-62,13,-8
-62,14,-9
-62,14,-8
-62,14,-9
-63,15,-9
-63,15,-9
-63,15,-9
-63,15,-9
-63,15,-9
-63,15,-9
-63,15,-9
-63,15,-9
-63,15,-9
-63,15,-10
-63,15,-10
-63,14,-9
-63,14,-10
-63,14,-10
-64,14,-10
-64,15,-10
-64,15,-10
-64,14,-10
-64,14,-10
-64,14,-9
-63,14,-10
-63,14,-10
-63,14,-10
-62,14,-10
-62,14,-10
-63,14,-11
-62,15,-11
-63,14,-11
-63,14,-11
-63,14,-10
-64,14,-10
-63,14,-10
-63,14,-10
-63,14,-10
-63,14,-10
-63,14,-10
-63,13,-10
-63,14,-11
-63,14,-10
-63,14,-10
-63,14,-10
-63,14,-11
-63,14,-11
-63,14,-11
-63,14,-10
-63,14,-10
-63,14,-11
-63,14,-10
-63,14,-11
-63,14,-11
-63,14,-11
-63,14,-11
-63,14,-10
-63,14,-10
-62,14,-10
-62,13,-10
-62,13,-11
-63,13,-12
-63,14,-14
-63,14,-15
-62,14,-14
-63,14,-14
-63,14,-14
-63,13,-14
-63,13,-14
-63,13,-13
-63,13,-13
-63,13,-14
-63,13,-14
-63,13,-14
-62,13,-14
-62,13,-14
-62,13,-14
-62,13,-14
-62,13,-14
-62,13,-14
-62,13,-15
-62,13,-14
-62,13,-14
-62,13,-15
-62,13,-14
-62,13,-14
-62,13,-15
-63,13,-14
-62,13,-13
-62,13,-13
-63,13,-14
-63,13,-14
-63,13,-13
-62,13,-14
-63,13,-14
-62,13,-14
-62,13,-14
-63,13,-14
-62,13,-14
-63,13,-14
-62,13,-14
-62,13,-14
-62,13,-14
-63,12,-14
-63,12,-13
-62,12,-14
-62,13,-14
-63,13,-14
-63,13,-14
-63,13,-14
-63,13,-14
-63,13,-14
-63,13,-14
-63,12,-15
-62,12,-14
-63,13,-14
-62,13,-14
-62,13,-14
-62,13,-14
-62,13,-14
-62,13,-14
-62,13,-14
-62,13,-14
-61,13,-13
-61,12,-13
-62,13,-14
-66,13,-20
-65,13,-20
-63,13,-17
-63,13,-16
-60,13,-14
-63,13,-16
-62,13,-15
-62,13,-14
-62,13,-14
-63,13,-13
-63,13,-13
-62,13,-13
-62,13,-12
-62,13,-13
-62,13,-13
-62,13,-13
-64,13,-14
-64,13,-12
-59,14,-11
-65,13,-17
-61,13,-14
-60,13,-10
-61,13,-12
-66,13,-16
-65,13,-15
-60,12,-10
-63,13,-17
-65,13,-19
-60,12,-16
-59,12,-15
-61,14,-18
-60,13,-20
-58,13,-18
-60,11,-16
-63,11,-16
-65,10,-14
-66,9,-12
-64,7,-5
-66,8,-5
-67,7,-5
-66,7,-7
-64,7,-8
-64,7,-9
-63,7,-8
-65,6,-7
-68,4,-6
-67,5,-7
-66,5,-7
-67,5,-7
-64,6,-6
-64,6,-7
-65,6,-5
-64,5,-5
-65,5,-5
-66,6,-7
-65,6,-6
-64,6,-5
-65,6,-5
-66,6,-7
-65,6,-6
-65,6,-6
-65,6,-6
-65,6,-7
-65,6,-7
-65,6,-6
-65,6,-6
-65,6,-7
-65,5,-6
-65,5,-6
-65,6,-7
-65,6,-6
-65,6,-6
-65,6,-7
-65,6,-6
-65,6,-6
-65,6,-6
-64,6,-6
-65,6,-7
-65,6,-7
-65,6,-6
-65,6,-6
-65,6,-7
-65,6,-6
-65,6,-6
-65,6,-6
-65,6,-6
-65,6,-7
-65,6,-7
-65,6,-6
-65,6,-6
-65,6,-6
-64,6,-6
-64,6,-6
-64,6,-6
-65,4,-5
-65,4,-6
-66,5,-8
-69,5,-10
-70,3,-7
-66,4,-3
-65,4,-3
-67,6,-6
-69,4,-6
-66,7,-8
-66,6,-8
-68,7,-11
-66,9,-11
-65,9,-12
-64,9,-13
-63,9,-13
-61,10,-14
-60,10,-14
-60,11,-15
-60,13,-16
-59,13,-15
-58,14,-16
-58,15,-18
