1.5187e+09,1.5187e+09,1.5187e+09
32,32,32
-60,-10,27
-60,-10,27
-59,-10,27
-59,-10,27
-58,-10,27
-58,-9,27
-59,-10,26
-57,-10,27
-56,-9,27
-59,-10,26
-59,-9,27
-60,-10,27
-62,-10,26
-63,-10,26
-62,-11,26
-62,-11,26
-63,-10,26
-61,-10,26
-60,-10,27
-60,-9,26
-60,-9,27
-59,-9,27
-59,-9,27
-58,-9,28
-59,-8,28
-59,-9,29
-59,-9,29
-59,-9,29
-60,-10,29
-60,-9,28
-59,-9,29
-60,-10,28
-59,-10,28
-59,-9,28
-59,-10,28
-59,-10,28
-58,-10,28
-58,-9,29
-59,-9,28
-60,-9,28
-58,-10,29
-59,-10,29
-60,-10,29
-59,-10,29
-59,-10,29
-59,-10,29
-58,-10,29
-59,-9,28
-58,-10,28
-59,-10,27
-59,-10,27
-59,-10,28
-60,-10,28
-59,-10,28
-59,-9,29
-59,-9,29
-59,-9,29
-59,-10,29
-57,-10,29
-61,-10,28
-60,-10,28
-60,-9,28
-60,-10,27
-61,-10,27
-59,-10,28
-59,-9,27
-59,-10,27
-58,-10,28
-59,-10,27
-59,-10,28
-58,-10,28
-60,-9,27
-62,-9,26
-60,-10,28
-58,-10,29
-61,-9,27
-61,-9,27
-57,-9,30
-61,-10,26
-61,-10,27
-59,-10,29
-59,-10,28
-61,-10,26
-60,-10,27
-59,-10,27
-61,-9,26
-59,-9,27
-59,-9,27
-60,-9,28
-59,-9,28
-59,-9,28
-59,-9,27
-59,-9,29
-59,-9,28
-60,-9,28
-60,-9,29
-59,-9,29
-60,-10,28
-59,-10,28
-60,-10,28
-58,-10,29
-60,-10,28
-60,-10,27
-59,-10,28
-59,-10,28
-60,-10,27
-60,-10,28
-60,-10,28
-59,-10,27
-59,-10,27
-59,-10,27
-59,-10,28
-60,-10,28
-60,-10,27
-60,-10,28
-58,-10,28
-59,-10,28
-59,-10,28
-59,-11,28
-59,-11,28
-59,-10,27
-59,-11,28
-60,-11,28
-60,-10,27
-59,-11,27
-59,-10,27
-60,-10,27
-58,-10,28
-60,-10,27
-58,-11,28
-58,-11,28
-59,-10,27
-60,-10,27
-60,-10,27
-59,-10,28
-59,-10,27
-59,-10,28
-58,-10,28
-60,-10,27
-59,-10,28
-59,-10,28
-61,-10,27
-60,-10,28
-58,-10,27
-59,-10,27
-60,-10,27
-59,-10,27
-59,-10,27
-59,-10,28
-59,-10,28
-60,-10,27
-59,-10,28
-59,-10,27
-60,-10,27
-60,-10,28
-59,-10,28
-60,-10,27
-60,-10,27
-60,-10,28
-59,-11,27
-60,-11,27
-60,-10,28
-61,-10,27
-60,-10,28
-60,-10,27
-59,-9,27
-59,-9,27
-58,-10,27
-58,-10,28
-58,-10,27
-59,-10,28
-59,-10,27
-59,-10,28
-60,-11,28
-60,-11,27
-59,-11,28
-60,-11,27
-60,-12,27
-60,-11,27
-59,-11,27
-59,-11,27
-60,-10,26
-59,-11,26
-59,-11,26
-58,-10,27
-59,-10,27
-59,-11,25
-59,-10,26
-59,-11,26
-60,-11,26
-60,-11,27
-61,-11,26
-61,-11,27
-61,-10,27
-61,-10,26
-60,-10,27
-60,-10,27
-60,-10,27
-59,-10,28
-58,-10,27
-59,-10,27
-59,-10,27
-60,-10,27
-60,-10,27
-60,-10,27
-60,-10,26
-60,-11,26
-59,-10,27
-60,-10,27
-59,-10,27
-59,-10,27
-59,-10,27
-58,-10,26
-60,-10,26
-60,-9,26
-61,-9,26
-60,-10,26
-59,-10,26
-60,-10,26
-59,-10,27
-58,-11,27
-61,-10,27
-61,-10,27
-60,-11,27
-60,-10,27
-60,-11,27
-60,-11,26
-58,-11,27
-60,-10,26
-60,-10,27
-59,-10,27
-58,-11,27
-59,-10,27
-61,-11,27
-60,-11,27
-60,-10,27
-61,-10,26
-60,-10,27
-60,-10,27
-60,-10,27
-60,-9,27
-59,-9,27
-59,-10,27
-59,-10,27
-59,-10,27
-59,-10,27
-59,-10,27
-60,-11,27
-60,-10,27
-60,-10,27
-60,-10,27
-59,-10,28
-60,-10,27
-59,-10,27
-59,-10,26
-60,-11,26
-60,-10,27
-61,-11,26
-58,-10,27
-61,-10,27
-60,-10,28
-61,-10,27
-61,-11,27
-60,-11,26
-60,-11,27
-62,-10,26
-60,-11,26
-58,-11,26
-59,-11,26
-59,-11,25
-59,-11,25
-59,-11,26
-57,-11,27
-58,-10,27
-58,-11,27
-59,-10,26
-59,-10,27
-61,-10,26
-61,-10,26
-62,-10,26
-62,-9,26
-61,-9,26
-60,-9,25
-61,-9,25
-60,-9,25
-59,-10,26
-60,-8,25
-60,-8,26
-61,-8,26
-61,-8,26
-62,-8,26
-62,-8,26
-63,-8,26
-62,-8,27
-62,-8,27
-61,-9,26
-60,-9,26
-60,-9,26
-60,-9,26
-60,-9,25
-60,-9,25
-59,-9,25
-60,-8,25
-59,-9,26
-59,-9,26
-60,-9,26
-60,-9,26
-61,-9,26
-60,-9,26
-61,-9,26
-61,-9,25
-60,-9,27
-62,-9,25
-59,-9,26
-60,-9,26
-61,-9,26
-59,-9,26
-60,-9,26
-61,-9,26
-60,-9,26
-59,-9,26
-60,-9,25
-58,-9,27
-57,-9,27
-62,-8,26
-62,-8,26
-60,-8,26
-62,-8,26
-62,-8,26
-61,-9,26
-59,-9,26
-62,-8,26
-60,-8,26
-60,-8,26
-61,-7,26
-61,-7,26
-60,-8,25
-60,-8,25
-61,-8,26
-61,-8,26
-60,-8,26
-61,-8,27
-60,-8,26
-60,-8,26
-61,-8,26
-61,-8,27
-61,-8,26
-60,-9,26
-60,-9,26
-60,-9,26
-60,-9,26
-60,-9,26
-60,-9,26
-60,-9,26
-60,-9,26
-59,-10,26
-59,-9,26
-60,-9,26
-60,-9,26
-60,-9,26
-60,-9,27
-60,-10,26
-60,-10,26
-60,-10,26
-60,-10,26
-61,-10,26
-60,-10,26
-60,-10,26
-60,-9,26
-60,-9,25
-60,-9,26
-60,-10,26
-60,-10,26
-60,-9,26
-60,-9,26
-60,-10,26
-61,-10,26
-60,-9,26
-60,-10,26
-60,-9,26
-60,-9,26
-60,-9,26
-61,-9,26
-59,-10,26
-60,-9,26
-60,-9,26
-60,-10,26
-60,-9,25
-61,-9,26
-60,-9,26
-60,-9,26
-61,-10,26
-60,-10,26
-60,-9,26
-61,-9,26
-60,-9,26
-61,-9,26
-60,-9,25
-60,-9,26
-60,-9,26
-60,-9,26
-60,-9,26
-60,-9,26
-60,-9,26
-60,-9,26
-59,-9,26
-61,-9,25
-61,-9,25
-60,-9,26
-61,-9,26
-61,-9,26
-60,-9,26
-60,-9,26
-60,-9,26
-60,-9,26
-60,-9,26
-61,-9,26
-60,-9,26
-60,-9,26
-61,-9,26
-60,-9,26
-61,-8,26
-61,-8,26
-59,-9,26
-60,-9,26
-60,-9,27
-60,-9,26
-60,-9,26
-61,-8,26
-60,-9,26
-61,-9,25
-60,-9,26
-60,-9,26
-61,-9,26
-59,-9,26
-60,-9,26
-60,-8,26
-60,-9,26
-60,-8,26
-61,-9,25
-59,-9,26
-60,-8,26
-61,-9,26
-61,-9,26
-60,-9,26
-61,-8,26
-60,-9,26
-61,-9,25
-61,-9,26
-61,-8,26
-61,-9,25
-60,-8,25
-61,-8,25
-60,-8,25
-60,-9,25
-61,-8,25
-61,-9,26
-61,-9,26
-60,-9,26
-60,-9,26
-61,-9,25
-60,-10,26
-61,-9,25
-60,-9,26
-61,-9,25
-60,-9,26
-60,-9,26
-61,-9,26
-60,-9,25
-60,-9,25
-60,-9,26
-60,-9,25
-61,-9,25
-60,-9,26
-60,-9,26
-60,-8,26
-60,-9,26
-60,-9,26
-60,-9,26
-60,-9,26
-61,-9,26
-61,-9,26
-61,-9,26
-60,-9,26
-61,-9,26
-60,-9,25
-60,-8,26
-60,-8,26
-60,-9,26
-59,-9,25
-61,-8,25
-60,-9,25
-61,-9,25
-60,-9,25
-61,-9,25
-60,-9,26
-60,-9,26
-60,-9,25
-61,-9,26
-61,-9,26
-60,-9,26
-60,-9,26
-60,-9,25
-60,-9,25
-60,-9,26
-60,-9,26
-60,-8,26
-60,-8,26
-60,-9,26
-60,-9,26
-60,-9,26
-60,-9,26
-60,-9,26
-61,-9,25
-60,-9,26
-60,-9,26
-60,-9,25
-60,-9,26
-60,-9,26
-61,-9,26
-60,-9,26
-60,-9,26
-61,-9,25
-60,-9,26
-60,-9,25
-61,-9,25
-60,-9,26
-61,-8,25
-60,-9,26
-61,-9,25
-61,-9,26
-60,-9,25
-60,-9,25
-61,-9,25
-60,-9,25
-60,-9,25
-60,-9,26
-60,-9,26
-60,-9,26
-61,-9,26
-60,-9,26
-60,-9,26
-61,-9,25
-60,-9,26
-60,-9,26
-60,-9,25
-61,-9,25
-60,-9,26
-60,-9,26
-61,-9,26
-61,-9,26
-60,-9,25
-61,-9,25
-60,-9,25
-60,-10,25
-61,-9,25
-61,-9,25
-60,-9,26
-60,-9,26
-61,-9,25
-60,-9,26
-60,-9,25
-60,-9,26
-61,-9,25
-60,-9,25
-60,-9,25
-60,-9,25
-60,-9,25
-61,-9,25
-61,-9,25
-61,-10,25
-60,-10,25
-60,-10,26
-61,-9,25
-61,-9,25
-61,-9,25
-60,-9,25
-61,-9,26
-60,-9,25
-60,-9,25
-61,-9,25
-60,-9,25
-60,-9,25
-61,-9,25
-61,-9,25
-60,-9,25
-61,-9,25
-60,-10,26
-61,-9,25
-61,-9,25
-60,-9,26
-60,-10,25
-60,-10,26
-61,-10,25
-61,-9,25
-60,-9,25
-60,-9,25
-60,-9,25
-60,-9,26
-60,-9,26
-60,-9,26
-60,-9,26
-60,-9,26
-61,-9,26
-61,-9,26
-60,-10,26
-60,-10,25
-61,-9,25
-61,-9,26
-60,-9,26
-60,-9,26
-60,-9,26
-60,-10,26
-60,-9,26
-60,-9,26
-60,-9,25
-60,-10,26
-60,-10,26
-60,-9,26
-60,-9,26
-60,-9,26
-60,-9,26
-60,-10,26
-61,-9,26
-60,-9,26
-60,-9,26
-60,-9,25
-60,-9,26
-61,-9,25
-60,-9,26
-60,-9,26
-60,-9,26
-61,-9,26
-60,-10,26
-60,-9,26
-60,-9,25
-61,-9,25
-60,-10,26
-60,-9,25
-60,-9,25
-60,-9,26
-60,-9,26
-61,-9,26
-60,-9,26
-61,-9,26
-61,-9,26
-61,-9,25
-60,-9,26
-60,-9,25
-60,-9,25
-60,-9,25
-61,-9,25
-61,-9,25
-60,-9,26
-60,-9,25
-60,-10,25
-60,-11,25
-61,-10,25
-62,-9,25
-61,-9,26
-61,-9,25
-61,-9,26
-60,-9,25
-60,-9,25
-60,-9,25
-60,-9,25
-60,-9,25
-60,-9,25
-60,-9,25
-60,-9,25
-61,-9,26
-61,-9,26
-61,-9,26
-61,-9,26
-60,-10,26
-61,-9,25
-61,-9,26
-60,-10,26
-61,-9,25
-60,-9,26
-60,-9,26
-60,-10,26
-60,-10,26
-60,-9,25
-60,-10,25
-60,-9,26
-60,-9,25
-60,-9,25
-61,-10,25
-61,-9,25
-60,-9,26
-61,-9,26
-61,-9,26
-60,-9,26
-60,-9,26
-61,-9,26
-60,-9,26
-61,-9,25
-60,-9,25
-60,-9,25
-61,-10,26
-61,-9,26
-61,-9,26
-60,-9,26
-60,-9,26
-61,-9,26
-61,-9,26
-60,-8,26
-60,-9,26
-59,-10,25
-59,-10,26
-60,-9,26
-60,-9,26
-60,-9,26
-60,-9,26
-60,-10,27
-60,-10,27
-61,-10,26
-60,-9,26
-61,-9,26
-61,-9,26
-60,-10,26
-59,-9,25
-60,-9,26
-60,-9,26
-60,-10,26
-60,-9,27
-60,-9,26
-60,-9,26
-60,-10,26
-60,-10,26
-60,-10,26
-60,-10,26
-61,-10,25
-60,-10,26
-61,-10,26
-60,-11,25
-60,-11,25
-61,-10,25
-60,-11,25
-60,-11,24
-60,-11,25
-60,-11,24
-60,-11,25
-60,-11,25
-61,-11,25
-60,-11,25
-61,-11,26
-60,-11,26
-61,-10,26
-60,-10,26
-60,-10,26
-61,-10,26
-60,-10,26
-59,-10,26
-60,-10,26
-60,-10,25
-59,-10,25
-59,-10,25
-61,-10,25
-60,-10,25
-60,-10,26
-60,-11,25
-60,-10,26
-61,-10,26
-60,-10,26
-61,-10,26
-61,-10,26
-60,-10,26
-59,-10,26
-61,-10,25
-60,-11,25
-59,-10,25
-61,-10,25
-61,-10,25
-60,-10,26
-60,-10,25
-61,-10,25
-60,-11,25
-60,-10,25
-61,-10,25
-61,-10,25
-60,-10,25
-61,-10,26
-61,-10,26
-60,-11,26
-59,-11,26
-61,-10,25
-61,-10,25
-60,-10,25
-60,-10,25
-60,-10,25
-60,-10,25
-60,-10,25
-60,-10,26
-61,-10,26
-60,-9,26
-60,-10,26
-60,-10,26
-60,-10,25
-60,-10,25
-60,-10,25
-60,-10,25
-60,-10,26
-60,-10,26
-60,-10,26
-60,-10,26
-60,-10,26
-60,-10,26
-60,-10,26
-60,-10,26
-61,-10,26
-61,-10,26
-61,-9,26
-60,-10,26
-60,-10,26
-61,-10,26
-59,-9,26
-60,-10,26
-59,-10,26
-60,-10,25
-60,-10,26
-60,-10,26
-60,-10,25
-60,-10,26
-60,-10,26
-61,-10,26
-60,-10,26
-60,-10,26
-60,-10,26
-60,-10,26
-60,-10,26
-60,-10,26
-60,-10,26
-60,-10,25
-60,-10,25
-60,-10,25
-60,-10,26
-60,-10,26
-60,-10,26
-60,-10,26
-60,-10,25
-61,-10,25
-60,-11,25
-61,-10,26
-61,-10,26
-60,-10,25
-60,-10,26
-61,-10,26
-60,-10,26
-60,-10,26
-61,-10,26
-61,-10,25
-60,-10,25
-60,-10,25
-61,-10,26
-61,-10,25
-60,-10,26
-61,-10,26
-60,-10,26
-60,-10,25
-61,-10,25
-61,-10,25
-61,-10,24
-61,-10,25
-60,-10,26
-60,-10,25
-60,-10,25
-60,-10,26
-61,-10,25
-61,-10,25
-61,-10,26
-60,-10,25
-60,-10,25
-61,-10,25
-60,-10,24
-61,-10,24
-61,-10,24
-59,-10,25
-61,-10,25
-61,-10,25
-60,-10,25
-60,-10,26
-61,-10,26
-60,-10,26
-60,-10,26
-60,-10,25
-60,-10,24
-61,-10,25
-61,-10,26
-60,-10,25
-60,-10,26
-60,-10,25
-60,-10,25
-59,-10,25
-61,-10,25
-60,-10,25
-60,-10,25
-60,-9,26
-61,-9,26
-60,-10,25
-59,-10,25
-61,-10,26
-61,-10,26
-60,-10,25
-61,-10,26
-61,-10,25
-61,-10,25
-60,-10,26
-60,-10,25
-60,-9,25
-60,-10,25
-60,-10,26
-60,-10,26
-60,-10,25
-60,-10,25
-61,-10,25
-60,-9,26
-60,-10,26
-60,-10,25
-60,-9,26
-60,-10,26
-61,-10,25
-60,-10,25
-60,-10,25
-61,-9,24
-60,-10,24
-60,-10,25
-62,-9,26
-61,-10,26
-60,-9,26
-60,-10,27
-60,-10,26
-60,-10,26
-61,-10,26
-61,-10,25
-61,-10,25
-61,-10,25
-60,-10,24
-60,-11,25
-60,-10,25
-60,-10,24
-59,-11,25
-60,-10,25
-60,-11,24
-60,-11,25
-61,-11,25
-60,-11,25
-60,-11,25
-61,-11,25
-59,-12,25
-62,-11,25
-60,-11,24
-60,-11,24
-60,-11,25
-61,-11,25
-61,-11,25
-60,-11,25
-60,-11,25
-59,-11,25
-60,-11,25
-60,-11,25
-59,-12,25
-60,-11,25
-61,-11,25
-60,-12,25
-61,-11,25
-61,-11,25
-61,-11,24
-60,-12,25
-60,-12,25
-61,-11,25
-59,-11,26
-60,-11,25
-61,-11,25
-61,-12,26
-60,-12,26
-60,-12,25
-60,-11,25
-60,-12,24
-60,-12,24
-60,-11,24
-60,-11,25
-61,-11,24
-60,-11,24
-60,-11,25
-60,-11,25
-61,-11,26
-61,-11,26
-60,-11,25
-60,-11,26
-60,-11,26
-60,-11,25
-61,-11,25
-60,-11,25
-61,-11,25
-60,-11,25
-60,-12,25
-60,-11,25
-60,-11,25
-60,-11,24
-59,-11,26
-60,-11,25
-61,-11,24
-61,-11,25
-61,-11,26
-60,-12,25
-60,-11,26
-59,-11,26
-60,-11,25
-59,-11,25
-59,-11,26
-60,-11,25
-60,-11,25
-60,-11,26
-60,-11,26
-60,-11,26
-61,-11,26
-60,-11,26
-61,-11,26
-59,-11,26
-59,-11,26
-60,-10,26
-60,-10,26
-60,-11,26
-59,-11,27
-59,-10,26
-60,-10,26
-59,-11,27
-60,-11,26
-59,-11,26
-60,-11,26
-59,-11,27
-60,-11,27
-61,-11,26
-59,-11,27
-60,-10,27
-60,-11,27
-60,-11,27
-60,-10,27
-60,-11,26
-59,-10,27
-59,-10,26
-60,-10,26
-60,-10,26
-59,-10,26
-59,-10,26
-60,-9,27
-60,-10,27
-61,-11,27
-59,-11,26
-61,-10,26
-60,-10,27
-60,-11,26
-60,-11,26
-59,-10,27
-60,-10,27
-59,-10,27
-60,-10,27
-59,-10,27
-59,-11,27
-60,-10,27
-59,-11,27
-59,-11,26
-60,-10,26
-60,-11,26
-59,-11,27
-60,-11,27
-60,-11,27
-60,-10,27
-60,-10,26
-60,-11,26
-59,-11,26
-60,-11,26
-61,-11,26
-60,-11,26
-60,-11,26
-61,-10,26
-60,-11,26
-60,-10,27
-60,-11,26
-59,-11,27
-60,-11,27
-61,-10,26
-60,-10,26
-59,-11,26
-60,-11,26
-60,-11,26
-60,-11,26
-60,-10,26
-60,-10,26
-59,-11,26
-60,-11,26
-60,-11,26
-60,-11,26
-59,-11,26
-61,-11,26
-60,-11,26
-61,-11,26
-59,-11,26
-60,-10,26
-60,-10,26
-59,-11,26
-59,-10,26
-60,-10,26
-60,-11,26
-60,-11,26
-59,-11,27
-60,-11,26
-60,-11,26
-59,-10,27
-60,-10,27
-61,-10,27
-59,-11,27
-59,-11,27
-60,-11,26
-60,-11,26
-59,-11,26
-59,-11,26
-60,-11,26
-59,-11,26
-60,-11,26
-60,-11,26
-60,-10,27
-60,-11,27
-60,-11,27
-60,-11,27
-60,-10,27
-59,-11,27
-59,-11,26
-60,-11,26
-60,-11,27
-60,-10,26
-59,-11,26
-59,-11,26
-60,-11,25
-60,-11,26
-61,-10,26
-61,-10,26
-60,-11,26
-60,-10,26
-59,-11,26
-59,-11,26
-60,-11,26
-60,-11,26
-60,-11,26
-60,-11,26
-60,-11,26
-60,-11,26
-59,-11,26
-60,-11,26
-60,-11,26
-59,-11,26
-60,-11,26
-60,-11,26
-60,-11,26
-60,-11,26
-60,-11,26
-60,-11,26
-60,-11,25
-60,-11,26
-60,-11,26
-60,-10,26
-60,-11,26
-60,-11,26
-60,-11,26
-60,-11,26
-60,-11,26
-61,-11,26
-60,-11,26
-60,-11,26
-60,-11,26
-60,-10,26
-59,-10,27
-60,-10,27
-60,-11,26
-59,-11,26
-60,-11,26
-60,-11,26
-61,-11,25
-60,-11,26
-60,-11,26
-60,-10,26
-60,-11,26
-60,-11,26
-60,-11,26
-60,-11,26
-60,-11,26
-60,-11,26
-59,-11,26
-60,-11,26
-61,-11,26
-60,-11,26
-59,-11,25
-60,-11,26
-59,-11,26
-60,-11,26
-60,-11,26
-60,-11,26
-60,-11,26
-60,-11,26
-60,-11,26
-60,-11,26
-60,-11,26
-60,-11,26
-60,-11,26
-59,-11,26
-60,-11,26
-60,-11,26
-60,-11,26
-59,-11,26
-60,-11,26
-60,-11,26
-60,-10,26
-59,-11,26
-59,-11,27
-60,-11,27
-59,-11,26
-59,-11,26
-61,-10,26
-60,-11,26
-60,-11,26
-59,-11,26
-59,-10,27
-59,-10,27
-59,-11,26
-60,-11,26
-60,-11,26
-60,-11,26
-60,-11,26
-60,-11,26
-60,-11,26
-61,-11,26
-60,-11,26
-60,-11,26
-60,-11,26
-60,-11,26
-59,-11,26
-61,-11,26
-61,-11,26
-59,-11,26
-59,-11,26
-59,-11,26
-59,-11,26
-60,-11,26
-60,-11,26
-59,-11,26
-60,-11,26
-61,-11,26
-61,-11,26
-60,-11,26
-59,-11,26
-60,-12,25
-60,-12,26
-61,-11,25
-60,-11,25
-60,-11,25
-60,-12,25
-59,-12,25
-60,-12,26
-59,-12,26
-61,-12,24
-60,-12,26
-59,-12,26
-61,-11,25
-61,-11,26
-59,-12,26
-61,-11,26
-61,-11,26
-60,-12,26
-59,-12,26
-60,-11,26
-60,-11,26
-60,-11,25
-59,-11,26
-60,-11,26
-60,-11,26
-59,-11,26
-60,-11,25
-60,-11,26
-60,-11,26
-60,-11,26
-60,-11,26
-60,-11,26
-60,-11,24
-60,-11,26
-60,-11,27
-60,-11,27
-60,-11,26
-60,-11,26
-60,-11,26
-59,-11,26
-60,-11,26
-60,-11,26
-59,-11,26
-60,-11,26
-60,-11,26
-59,-11,27
-60,-11,27
-60,-11,26
-60,-11,26
-60,-11,26
-60,-11,26
-60,-12,26
-60,-11,26
-60,-11,26
-60,-10,27
-60,-11,27
-59,-11,27
-59,-11,26
-59,-12,26
-60,-11,27
-61,-11,27
-60,-11,27
-60,-11,26
-60,-11,27
-59,-11,27
-60,-11,27
-60,-11,26
-59,-11,26
-58,-12,26
-59,-11,26
-59,-11,26
-60,-11,26
-61,-11,27
-60,-11,27
-59,-11,26
-59,-11,26
-59,-11,26
-59,-11,26
-60,-11,26
-60,-11,26
-60,-12,26
-60,-12,25
-60,-11,26
-60,-11,25
-60,-11,25
-60,-11,25
-59,-11,25
-60,-11,24
-60,-11,24
-60,-12,23
-60,-11,24
-61,-11,24
-61,-11,22
-61,-11,22
-61,-11,22
-62,-11,23
-62,-11,23
-61,-11,23
-62,-11,22
-60,-11,23
-61,-11,23
-61,-10,22
-61,-11,22
-61,-11,22
-61,-10,22
-61,-11,21
-61,-11,22
-61,-11,22
-63,-10,22
-62,-10,21
-63,-10,22
-62,-10,22
-63,-11,21
-62,-10,22
-63,-10,22
-62,-10,22
-62,-10,22
-62,-10,22
-61,-10,22
-62,-10,22
-62,-10,23
-62,-10,23
-61,-10,22
-60,-10,22
-61,-10,22
-60,-11,23
-61,-11,23
-60,-11,23
-61,-11,22
-61,-10,23
-61,-11,24
-61,-10,24
-61,-10,24
-61,-10,24
-62,-10,24
-61,-10,24
-61,-10,25
-61,-10,24
-61,-10,24
-61,-11,24
-60,-11,23
-60,-11,23
-61,-11,23
-61,-10,23
-61,-10,23
-60,-10,24
-61,-11,24
-61,-11,24
-61,-10,25
-61,-11,24
-61,-10,25
-60,-10,25
-60,-10,24
-60,-11,24
-60,-11,24
-60,-10,24
-61,-10,24
-61,-11,25
-61,-11,24
-60,-11,25
-61,-10,25
-61,-11,24
-60,-11,25
-61,-10,24
-61,-10,25
-61,-10,24
-61,-10,24
-59,-11,25
-61,-10,25
-60,-11,24
-60,-11,25
-60,-10,25
-61,-11,25
-61,-10,25
-59,-11,25
-60,-11,25
-61,-11,25
-60,-11,25
-60,-11,25
-61,-11,25
-60,-11,25
-60,-11,25
-60,-11,25
-61,-10,24
-60,-10,25
-60,-10,25
-59,-11,25
-59,-11,25
-61,-11,25
-60,-11,24
-60,-11,25
-62,-10,24
-62,-10,24
-60,-11,25
-59,-10,26
-62,-10,24
-60,-11,25
-60,-10,25
-61,-10,25
-61,-10,25
-60,-10,26
-60,-10,25
-61,-10,25
-60,-10,26
-60,-10,25
-60,-10,25
-60,-10,26
-61,-10,25
-60,-11,25
-60,-10,26
-61,-11,24
-60,-11,24
-59,-11,25
-60,-10,25
-60,-11,25
-60,-11,24
-60,-11,24
-60,-11,23
-60,-11,23
-60,-11,23
-60,-10,24
-61,-10,23
-61,-10,24
-62,-9,25
-62,-10,24
-62,-9,24
-61,-10,24
-61,-9,24
-61,-10,23
-61,-10,22
-60,-10,22
-60,-10,22
-61,-10,20
-61,-10,21
-61,-10,21
-63,-10,20
-63,-11,20
-63,-10,20
-63,-10,21
-63,-10,21
-64,-10,20
-63,-10,20
-62,-10,20
-62,-10,19
-63,-10,19
-62,-10,20
-62,-10,20
-62,-10,20
-62,-10,20
-62,-10,21
-62,-11,20
-62,-11,20
-61,-10,21
-62,-10,21
-61,-11,20
-60,-11,21
-62,-10,21
-61,-10,21
-62,-10,21
-62,-10,21
-61,-10,22
-63,-10,21
-62,-10,21
-62,-10,21
-62,-10,22
-62,-10,22
-62,-10,22
-62,-9,22
-61,-10,22
-60,-10,21
-62,-10,21
-62,-11,20
-62,-11,20
-62,-11,19
-62,-11,19
-62,-12,19
-62,-11,18
-61,-11,19
-62,-11,19
-62,-10,20
-64,-9,22
-62,-9,23
-61,-9,23
-62,-9,23
-60,-10,22
-63,-11,21
-63,-11,20
-62,-10,20
-64,-10,20
-63,-10,19
-61,-10,20
-63,-10,19
-61,-10,20
-60,-11,21
-62,-10,20
-62,-10,20
-62,-10,21
-62,-10,21
-62,-11,21
-62,-11,21
-61,-11,21
-61,-11,21
-63,-10,21
-62,-11,20
-61,-11,20
-62,-11,21
-62,-10,20
-62,-10,20
-61,-10,21
-62,-11,20
-63,-10,21
-61,-11,21
-61,-11,20
-62,-10,21
-62,-10,21
-62,-11,20
-61,-11,21
-62,-11,20
-62,-10,20
-62,-11,20
-62,-11,21
-62,-11,21
-62,-11,21
-61,-11,21
-62,-11,21
-62,-11,20
-62,-11,21
-62,-11,20
-62,-10,20
-62,-10,20
-62,-10,20
-62,-11,20
-62,-11,21
-62,-11,21
-61,-11,20
-62,-11,21
-63,-11,20
-62,-11,20
-62,-11,20
-62,-11,20
-61,-11,21
-62,-10,20
-62,-11,20
-62,-10,20
-62,-10,21
-63,-11,21
-62,-11,21
-61,-11,21
-63,-11,20
-62,-11,20
-62,-11,20
-63,-10,21
-62,-10,20
-61,-10,20
-62,-10,20
-62,-11,20
-61,-11,20
-62,-10,20
-62,-11,20
-62,-11,20
-62,-10,20
-63,-10,21
-62,-11,21
-61,-11,20
-61,-11,20
-62,-10,20
-62,-10,20
-63,-10,20
-64,-10,20
-63,-11,20
-62,-11,20
-63,-10,20
-62,-10,20
-62,-10,20
-61,-10,21
-62,-10,20
-61,-10,20
-62,-10,20
-62,-10,20
-63,-10,20
-63,-11,20
-62,-11,20
-63,-11,20
-62,-11,20
-63,-10,20
-62,-11,20
-62,-11,20
-63,-11,20
-62,-11,20
-62,-11,20
-62,-11,20
-62,-11,20
-62,-10,20
-62,-10,20
-62,-10,20
-62,-10,21
-62,-10,20
-61,-11,20
-62,-10,21
-63,-11,20
-62,-11,21
-62,-11,20
-62,-11,21
-62,-11,21
-62,-11,21
-62,-11,21
-62,-11,21
-61,-11,21
-61,-11,21
-62,-11,21
-61,-11,21
-61,-11,21
-61,-11,20
-62,-11,21
-61,-11,21
-61,-11,21
-62,-11,21
-62,-10,21
-61,-11,21
-62,-11,20
-62,-11,21
-62,-11,20
-62,-11,20
-61,-11,21
-62,-11,20
-62,-11,20
-62,-10,21
-62,-10,21
-63,-11,21
-63,-10,22
-61,-10,22
-63,-10,21
-61,-10,22
-61,-10,21
-62,-10,20
-62,-10,21
-62,-10,20
-62,-10,21
-62,-11,20
-62,-11,20
-61,-10,21
-61,-11,21
-62,-10,21
-62,-11,21
-62,-11,21
-62,-10,21
-62,-10,21
-62,-10,21
-61,-10,21
-62,-10,21
-62,-11,21
-61,-10,21
-62,-10,20
-62,-10,20
-62,-10,21
-62,-10,20
-62,-10,21
-62,-10,21
-62,-10,21
-61,-10,22
-61,-10,21
-61,-11,21
-61,-10,21
-62,-11,20
-62,-11,21
-61,-11,21
-63,-10,20
-62,-11,20
-62,-11,21
-62,-11,20
-62,-11,20
-62,-11,21
-61,-10,21
-62,-10,20
-63,-11,20
-61,-11,21
-62,-10,20
-62,-10,21
-61,-10,21
-62,-10,21
-62,-10,20
-61,-10,20
-61,-10,20
-62,-10,20
-62,-10,20
-62,-10,20
-62,-10,20
-63,-10,21
-62,-10,21
-62,-9,20
-62,-9,20
-62,-9,20
-63,-9,20
-61,-9,20
-63,-9,20
-63,-9,20
-62,-9,20
-62,-9,19
-63,-9,20
-63,-9,20
-62,-9,20
-62,-9,20
-63,-9,19
-63,-9,19
-62,-9,19
-63,-9,19
-64,-8,19
-62,-8,19
-62,-8,18
-63,-8,19
-63,-8,19
-62,-8,19
-64,-7,18
-63,-7,18
-63,-7,18
-63,-7,18
-64,-7,18
-62,-7,18
-63,-7,17
-64,-7,17
-64,-7,18
-64,-6,18
-64,-7,18
-64,-7,18
-64,-7,17
-63,-7,18
-62,-7,18
-62,-6,18
-62,-6,17
-62,-6,18
-63,-7,18
-63,-7,17
-64,-7,17
-64,-7,18
-64,-7,18
-65,-6,18
-63,-7,18
-63,-7,18
-64,-6,17
-64,-6,17
-63,-6,17
-64,-6,17
-63,-5,18
-63,-6,17
-62,-6,18
-65,-6,17
-63,-6,17
-63,-6,17
-63,-6,17
-64,-6,17
-64,-6,17
-63,-6,17
-63,-6,17
-64,-5,17
-63,-6,17
-64,-5,17
-64,-5,17
-64,-5,16
-64,-5,16
-64,-5,16
-63,-5,17
-64,-5,16
-63,-5,17
-64,-5,17
-64,-5,17
-64,-5,17
-64,-5,16
-64,-5,16
-64,-5,16
-64,-5,16
-64,-5,16
-64,-5,16
-63,-5,17
-63,-5,17
-63,-5,17
-64,-5,17
-64,-5,17
-64,-5,17
-64,-5,17
-64,-5,17
-64,-5,16
-64,-5,17
-63,-5,17
-64,-4,17
-64,-5,16
-63,-5,17
-63,-5,17
-63,-5,17
-63,-5,17
-63,-4,17
-63,-4,17
-63,-4,16
-64,-4,16
-64,-4,17
-64,-4,17
-64,-4,17
-64,-4,18
-64,-4,18
-63,-4,18
-64,-4,18
-64,-4,18
-63,-4,18
-64,-4,17
-64,-4,17
-64,-4,17
-63,-4,18
-64,-4,17
-62,-4,17
-63,-4,17
-64,-5,16
-63,-5,17
-65,-5,17
-65,-4,18
-65,-4,17
-63,-4,18
-63,-4,18
-64,-4,18
-64,-4,17
-64,-5,17
-63,-4,17
-63,-5,16
-64,-5,16
-63,-5,16
-61,-6,17
-64,-5,16
-63,-5,18
-63,-5,17
-64,-5,17
-64,-4,18
-66,-5,18
-62,-6,18
-63,-6,18
-65,-5,18
-61,-5,18
-66,-5,16
-63,-5,18
-62,-6,18
-63,-5,18
-60,-6,19
-64,-5,18
-64,-5,18
-64,-5,18
-64,-6,18
-63,-6,19
-64,-6,18
-64,-6,18
-63,-6,18
-64,-5,18
-64,-5,18
-62,-6,18
-62,-5,18
-65,-5,17
-64,-6,17
-62,-6,17
-65,-5,18
-64,-6,18
-62,-6,17
-62,-5,17
-64,-5,18
-64,-5,17
-63,-6,17
-64,-5,17
-64,-5,17
-63,-6,17
-64,-5,17
-64,-5,17
-63,-6,17
-63,-6,17
-64,-5,17
-64,-6,17
-64,-5,18
-64,-5,17
-64,-5,18
-64,-6,17
-63,-6,17
-64,-5,17
-63,-6,17
-64,-6,16
-64,-6,16
-63,-6,16
-63,-6,15
-63,-6,15
-64,-6,14
-63,-7,15
-64,-6,15
-64,-7,13
-65,-6,16
-66,-5,17
-66,-5,16
-65,-3,18
-65,-4,18
-64,-4,15
-64,-5,14
-63,-5,14
-63,-5,14
-64,-6,13
-64,-5,14
-64,-5,13
-64,-5,14
-64,-5,14
-66,-5,14
-65,-5,15
-66,-5,15
-66,-4,16
-65,-4,16
-64,-4,16
-65,-4,15
-64,-5,15
-64,-5,15
-63,-5,14
-63,-5,13
-64,-4,14
-64,-5,13
-62,-4,14
-65,-4,15
-65,-5,14
-65,-5,15
-63,-5,16
-66,-5,15
-65,-5,15
-64,-4,15
-64,-4,16
-66,-4,15
-65,-5,16
-64,-5,15
-64,-4,15
-63,-5,15
-63,-5,17
-64,-5,15
-64,-5,16
-63,-4,18
-64,-5,16
-64,-5,16
-66,-4,15
-63,-5,17
-63,-5,18
-65,-4,17
-64,-5,16
-63,-5,17
-64,-5,17
-64,-6,15
-63,-5,16
-63,-5,16
-63,-5,15
-63,-5,15
-64,-5,16
-63,-5,17
-67,-5,15
-63,-6,17
-64,-6,16
-64,-6,16
-63,-5,17
-62,-6,17
-64,-5,16
-64,-5,16
-62,-6,16
-63,-6,16
-64,-6,16
-65,-6,17
-62,-7,16
-63,-7,15
-63,-6,17
-63,-7,16
-64,-6,16
-64,-6,17
-65,-6,16
-64,-6,17
-63,-6,17
-64,-6,17
-64,-6,16
-63,-7,16
-63,-6,16
-63,-7,16
-63,-7,16
-63,-7,16
-62,-6,15
-63,-6,15
-64,-5,15
-66,-4,15
-67,-5,15
-65,-6,16
-64,-6,15
-64,-6,15
-64,-6,15
-64,-6,15
-64,-5,15
-64,-5,15
-64,-6,16
-64,-6,15
-64,-5,15
-64,-5,16
-64,-5,16
-64,-6,16
-64,-6,16
-64,-6,17
-63,-6,16
-64,-6,16
-63,-6,16
-63,-6,16
-64,-5,16
-63,-5,16
-64,-6,16
-64,-5,16
-64,-6,16
-64,-6,16
-64,-5,16
-63,-6,15
-63,-5,16
-65,-5,15
-64,-5,15
-64,-5,15
-65,-5,16
-64,-6,16
-64,-6,16
-65,-6,16
-63,-6,16
-65,-5,16
-64,-5,16
-64,-6,16
-64,-6,16
-61,-6,16
-65,-6,16
-64,-6,16
-63,-6,16
-64,-6,16
-64,-6,16
-64,-7,16
-64,-6,15
-65,-6,16
-64,-6,16
-64,-6,15
-63,-6,16
-64,-6,15
-64,-6,16
-64,-6,16
-64,-6,16
-64,-6,16
-64,-6,16
-64,-6,16
-63,-6,16
-64,-6,15
-64,-7,16
-64,-7,15
-64,-6,15
-64,-6,16
-64,-6,16
-64,-7,15
-64,-7,15
-64,-7,15
-64,-7,15
-64,-7,15
-64,-7,15
-63,-6,15
-62,-7,16
-63,-7,15
-63,-7,16
-64,-7,15
-64,-7,15
-64,-7,16
-64,-8,16
-64,-7,16
-64,-7,16
-64,-7,16
-64,-7,16
-63,-7,16
-64,-7,16
-63,-7,16
-63,-7,15
-63,-7,16
-63,-7,16
-63,-7,15
-64,-7,15
-63,-7,16
-64,-7,16
-64,-7,16
-64,-7,16
-64,-7,16
-64,-7,16
-65,-7,17
-64,-7,16
-64,-7,16
-64,-7,16
-63,-7,15
-63,-7,16
-63,-7,16
-64,-7,16
-64,-7,16
-63,-7,16
-64,-7,16
-64,-7,16
-64,-7,16
-63,-7,16
-64,-7,16
-64,-7,16
-64,-7,16
-63,-7,16
-64,-7,16
-64,-7,16
-63,-7,16
-64,-7,16
-63,-7,16
-64,-7,16
-64,-7,16
-64,-7,16
-64,-7,15
-63,-7,15
-64,-7,16
-64,-7,16
-64,-7,16
-63,-7,16
-64,-7,16
-64,-8,16
-63,-7,16
-64,-7,16
-64,-7,16
-64,-7,16
-63,-7,15
-64,-7,16
-64,-7,16
-63,-7,16
-64,-7,16
-64,-7,16
-64,-7,16
-64,-7,16
-64,-7,16
-64,-7,16
-63,-7,16
-63,-7,16
-64,-7,16
-64,-7,16
-63,-7,15
-63,-7,15
-63,-7,16
-64,-8,15
-63,-8,15
-64,-7,15
-64,-7,16
-64,-7,15
-64,-7,15
-64,-7,16
-64,-7,15
-64,-7,16
-63,-8,15
-64,-7,16
-64,-7,15
-64,-7,15
-64,-7,15
-64,-8,15
-64,-7,15
-63,-7,15
-64,-7,15
-63,-8,14
-63,-7,14
-63,-7,14
-64,-7,14
-64,-7,15
-64,-7,15
-64,-7,17
-65,-7,17
-65,-6,17
-64,-6,17
-65,-6,16
-63,-7,15
-64,-7,15
-63,-7,15
-63,-7,15
-63,-7,14
-64,-7,13
-64,-7,14
-63,-7,14
-64,-7,14
-64,-6,15
-63,-7,15
-65,-7,14
-64,-8,15
-65,-7,15
-64,-7,15
-64,-7,15
-65,-6,14
-63,-6,14
-63,-7,13
-64,-6,13
-63,-7,13
-64,-7,13
-65,-6,13
-65,-7,12
-65,-7,13
-65,-7,13
-65,-7,13
-65,-7,13
-65,-7,13
-64,-7,12
-64,-7,13
-64,-7,13
-64,-6,14
-64,-6,14
-63,-6,14
-64,-7,13
-65,-8,11
-64,-7,14
-64,-7,14
-63,-8,13
-64,-7,14
-64,-7,14
-65,-7,15
-65,-7,15
-65,-6,16
-64,-7,16
-64,-7,16
-64,-7,16
-63,-7,16
-63,-7,17
-64,-7,16
-63,-7,16
-62,-7,17
-65,-7,16
-64,-7,16
-64,-7,16
-63,-7,16
-64,-7,16
-64,-7,15
-64,-7,15
-64,-7,16
-64,-7,16
-63,-7,15
-63,-7,16
-63,-8,15
-64,-7,15
-64,-8,15
-64,-8,14
-64,-8,14
-64,-7,14
-64,-7,14
-64,-7,15
-64,-7,16
-64,-7,16
-64,-7,17
-64,-6,17
-65,-6,17
-64,-6,16
-64,-6,16
-64,-6,15
-64,-7,15
-64,-7,15
-64,-7,15
-63,-7,15
-64,-7,15
-64,-7,15
-63,-7,14
-63,-7,15
-64,-7,15
-65,-7,15
-64,-7,15
-64,-7,15
-64,-7,15
-64,-7,15
-64,-7,15
-64,-7,15
-63,-7,15
-64,-6,15
-63,-7,15
-63,-7,15
-63,-7,15
-64,-7,15
-63,-7,15
-64,-7,15
-64,-7,15
-64,-7,15
-65,-7,15
-64,-7,16
-64,-7,15
-64,-7,15
-64,-7,16
-64,-7,14
-64,-7,15
-64,-6,15
-62,-7,15
-64,-7,15
-64,-6,15
-63,-6,15
-64,-6,15
-64,-6,15
-64,-7,15
-63,-7,16
-65,-7,15
-65,-6,16
-64,-7,15
-64,-7,15
-64,-6,15
-64,-7,15
-63,-7,15
-64,-7,15
-64,-7,15
-63,-7,15
-64,-7,15
-64,-7,15
-65,-7,15
-64,-7,15
-63,-7,15
-64,-6,15
-64,-7,15
-64,-7,16
-64,-7,15
-63,-7,16
-63,-7,15
-64,-7,15
-64,-7,15
-64,-7,14
-64,-7,15
-64,-7,15
-63,-7,15
-63,-7,15
-64,-7,15
-64,-7,15
-63,-7,15
-63,-7,16
-65,-7,15
-64,-7,15
-64,-7,14
-64,-7,15
-64,-7,14
-64,-7,15
-64,-7,15
-64,-7,15
-64,-8,15
-64,-7,14
-64,-7,14
-64,-7,14
-64,-7,14
-64,-7,14
-64,-7,14
-63,-8,14
-64,-7,14
-64,-7,14
-64,-7,14
-65,-7,15
-64,-7,15
-64,-8,14
-64,-7,14
-64,-7,14
-64,-7,14
-64,-7,14
-64,-7,14
-64,-6,15
-64,-6,15
-64,-6,15
-64,-6,15
-64,-7,14
-64,-7,14
-65,-7,14
-64,-7,15
-63,-7,15
-65,-7,15
-64,-7,16
-64,-7,16
-65,-6,15
-63,-6,16
-64,-7,14
-64,-7,14
-63,-7,15
-63,-8,15
-65,-7,15
-64,-7,15
-64,-7,15
-64,-6,15
-63,-7,16
-64,-7,15
-64,-7,15
-64,-7,15
-63,-7,15
-65,-7,14
-64,-7,14
-65,-7,15
-63,-7,15
-63,-7,15
-63,-7,15
-64,-7,15
-64,-7,15
-64,-7,15
-63,-8,15
-65,-7,15
-64,-8,15
-65,-8,15
-64,-8,15
-64,-7,14
-63,-7,16
-63,-8,15
-63,-8,15
-64,-7,15
-63,-8,15
-64,-7,15
-64,-7,15
-64,-8,15
-64,-8,15
-64,-8,15
-64,-8,15
-63,-7,16
-64,-8,15
-64,-8,15
-64,-8,15
-64,-8,14
-64,-7,15
-64,-7,14
-64,-8,15
-64,-8,15
-63,-7,15
-63,-7,16
-64,-7,15
-64,-8,15
-63,-8,15
-64,-7,15
-64,-8,15
-64,-8,15
-64,-7,15
-64,-7,15
-64,-8,15
-64,-8,15
-63,-7,15
-64,-7,15
-64,-7,15
-64,-8,15
-64,-8,15
-64,-8,15
-64,-8,15
-63,-7,15
-63,-7,15
-63,-7,15
-64,-8,15
-63,-8,15
-64,-8,15
-65,-7,15
-64,-7,16
-64,-7,16
-64,-7,15
-63,-7,15
-63,-8,15
-64,-7,15
-64,-7,15
-64,-8,15
-63,-7,15
-64,-7,15
-64,-8,15
-63,-8,16
-65,-7,16
-64,-7,15
-64,-7,15
-63,-7,15
-64,-7,15
-63,-7,15
-63,-8,15
-64,-7,15
-64,-7,15
-64,-7,16
-64,-8,16
-62,-8,15
-64,-7,16
-64,-7,16
-64,-7,16
-63,-7,16
-63,-8,16
-63,-7,16
-63,-7,16
-64,-8,15
-63,-7,15
-63,-7,15
-63,-7,15
-64,-6,15
-63,-7,16
-64,-6,15
-64,-6,15
-65,-6,15
-65,-7,14
-65,-7,15
-66,-7,15
-64,-7,15
-64,-7,15
-65,-7,15
-64,-7,15
-64,-6,15
-64,-6,15
-64,-7,15
-63,-6,14
-64,-6,14
-64,-6,15
-64,-6,15
-63,-7,15
-65,-6,15
-64,-6,15
-65,-6,15
-65,-6,15
-64,-7,15
-64,-7,15
-64,-7,14
-64,-7,14
-64,-6,14
-64,-7,14
-64,-7,14
-64,-6,14
-64,-7,14
-64,-7,15
-64,-6,15
-64,-7,15
-65,-6,15
-65,-6,15
-64,-7,14
-64,-7,13
-64,-7,13
-63,-7,13
-64,-7,13
-64,-7,13
-65,-7,13
-65,-6,14
-64,-6,13
-64,-6,13
-64,-6,15
-65,-6,15
-65,-6,15
-65,-6,15
-65,-6,14
-65,-6,13
-65,-6,13
-64,-6,12
-64,-5,12
-64,-6,13
-64,-6,13
-64,-6,12
-65,-6,13
-65,-6,13
-64,-6,15
-66,-6,15
-64,-6,13
-65,-5,12
-64,-5,13
-64,-5,13
-64,-5,14
-64,-7,13
-64,-6,13
-65,-6,12
-64,-6,14
-65,-6,12
-64,-5,13
-65,-5,13
-65,-6,14
-65,-6,13
-64,-6,14
-65,-6,15
-65,-6,15
-63,-6,15
-63,-6,15
-64,-6,15
-63,-6,15
-63,-6,15
-64,-6,14
-64,-6,15
-64,-6,15
-64,-6,14
-64,-7,14
-63,-7,14
-64,-6,14
-64,-7,14
-64,-7,14
-64,-7,14
-64,-7,15
-64,-7,14
-64,-7,14
-64,-7,15
-64,-7,15
-64,-7,14
-64,-7,15
-65,-7,15
-64,-6,15
-64,-7,14
-64,-7,14
-63,-7,15
-65,-7,14
-63,-7,14
-64,-6,14
-64,-7,14
-64,-7,14
-64,-7,15
-63,-7,15
-64,-7,15
-64,-7,15
-64,-7,15
-64,-7,15
-63,-7,15
-63,-7,15
-64,-7,15
-63,-7,15
-65,-7,15
-64,-7,15
-64,-7,15
-64,-7,15
-64,-7,15
-64,-7,15
-64,-7,15
-65,-7,15
-65,-7,15
-64,-7,15
-64,-8,15
-63,-8,15
-64,-7,14
-64,-7,15
-63,-7,15
-64,-7,15
-63,-7,15
-64,-7,15
-63,-7,15
-64,-7,15
-64,-7,15
-63,-7,15
-64,-7,15
-64,-8,15
-65,-7,15
-64,-8,15
-64,-7,15
-65,-7,15
-63,-7,15
-64,-7,15
-64,-7,15
-64,-8,14
-63,-8,14
-64,-7,15
-65,-7,14
-63,-7,14
-64,-7,14
-64,-7,15
-63,-7,15
-64,-7,15
-64,-7,15
-64,-7,15
-64,-7,15
-64,-7,15
-64,-7,15
-63,-7,15
-63,-7,14
-64,-7,15
-64,-7,14
-64,-7,14
-65,-7,14
-64,-7,14
-64,-7,14
-64,-8,14
-64,-7,14
-64,-7,14
-64,-7,14
-64,-7,14
-65,-7,14
-64,-8,14
-63,-8,14
-65,-7,14
-65,-7,14
-64,-8,14
-64,-8,13
-64,-7,13
-63,-8,14
-64,-7,14
-64,-7,14
-64,-7,14
-65,-7,13
-64,-7,14
-64,-7,14
-65,-7,14
-65,-7,14
-64,-8,13
-64,-8,13
-64,-8,13
-64,-8,13
-64,-7,12
-63,-8,13
-64,-8,13
-64,-8,13
-64,-8,13
-64,-8,14
-64,-7,14
-64,-8,13
-63,-8,13
-64,-8,13
-64,-8,13
-64,-8,13
-64,-7,14
-65,-7,14
-64,-8,14
-65,-8,13
-65,-8,13
-64,-8,13
-65,-7,14
-65,-7,14
-64,-7,14
-64,-8,14
-64,-8,14
-64,-8,14
-64,-8,13
-64,-8,14
-64,-8,14
-64,-8,13
-64,-8,14
-64,-7,14
-65,-8,13
-64,-7,14
-64,-7,13
-65,-8,11
-63,-7,14
-65,-8,14
-64,-9,13
-64,-8,14
-64,-8,14
-64,-8,13
-65,-7,13
-66,-8,13
-64,-8,13
-64,-8,13
-65,-7,14
-64,-8,13
-63,-8,14
-63,-8,14
-64,-8,14
-63,-8,14
-63,-8,14
-65,-8,14
-64,-7,15
-63,-8,14
-65,-8,13
-64,-7,14
-65,-7,14
-63,-8,14
-64,-8,14
-65,-8,14
-64,-8,13
-63,-8,13
-64,-7,14
-65,-7,14
-63,-8,14
-64,-8,13
-64,-8,14
-64,-9,14
-63,-9,14
-64,-8,13
-65,-8,14
-65,-8,14
-64,-8,13
-65,-8,13
-65,-8,13
-65,-8,14
-62,-9,14
-64,-8,13
-64,-8,14
-62,-9,15
-62,-8,14
-65,-8,14
-65,-8,14
-62,-9,15
-63,-8,13
-65,-8,15
-64,-8,15
-64,-9,14
-65,-7,15
-66,-7,15
-63,-8,15
-62,-8,15
-63,-7,15
-64,-7,15
-64,-7,15
-64,-7,14
-65,-8,15
-65,-8,15
-63,-8,15
-65,-8,14
-65,-8,16
-65,-8,16
-64,-8,16
-64,-8,16
-63,-7,16
-63,-8,15
-63,-8,16
-65,-8,15
-64,-8,16
-64,-8,15
-64,-8,15
-64,-8,15
-63,-8,15
-64,-8,15
-64,-8,14
-63,-8,14
-64,-7,15
-64,-7,15
-63,-8,15
-64,-8,15
-64,-8,15
-64,-8,15
-64,-8,15
-64,-8,15
-64,-8,15
-64,-8,15
-63,-8,15
-64,-8,15
-63,-8,15
-64,-7,15
-64,-8,15
-64,-8,15
-64,-8,15
-64,-8,15
-64,-7,15
-64,-8,15
-64,-7,14
-64,-8,15
-64,-8,15
-64,-8,14
-64,-8,15
-64,-8,14
-64,-8,14
-64,-8,14
-64,-8,14
-64,-8,13
-64,-8,14
-63,-8,14
-64,-7,13
-64,-7,14
-64,-8,13
-64,-8,13
-64,-8,12
-64,-9,11
-65,-8,12
-65,-7,12
-65,-7,11
-65,-7,11
-64,-7,13
-65,-7,11
-64,-7,11
-65,-7,11
-65,-7,12
-64,-7,12
-65,-7,11
-64,-7,11
-64,-7,11
-65,-7,11
-64,-7,10
-64,-6,11
-65,-6,10
-65,-6,9
-64,-6,9
-65,-6,9
-66,-7,10
-66,-6,10
-66,-6,10
-66,-6,11
-66,-6,11
-66,-6,10
-66,-6,10
-66,-7,10
-65,-6,10
-64,-6,10
-66,-5,10
-65,-6,10
-65,-6,10
-64,-7,11
-63,-7,11
-64,-7,11
-63,-7,11
-65,-7,11
-65,-6,10
-65,-6,11
-65,-7,11
-65,-6,11
-64,-7,11
-64,-7,11
-65,-7,11
-64,-7,11
-64,-7,12
-64,-7,11
-65,-7,11
-64,-7,11
-65,-7,11
-65,-7,11
-65,-7,11
-65,-7,11
-65,-7,11
-65,-8,10
-64,-8,11
-63,-8,12
-64,-7,12
-63,-6,11
-64,-5,9
-64,-6,9
-65,-6,9
-65,-6,8
-65,-7,8
-65,-7,7
-65,-8,8
-67,-7,5
-66,-8,6
-65,-7,8
-63,-6,7
-64,-6,7
-67,-6,5
-65,-6,5
-66,-6,4
-66,-6,5
-66,-6,6
-66,-5,6
-66,-6,6
-65,-5,6
-67,-5,6
-67,-5,7
-67,-5,8
-66,-5,9
-68,-5,9
-66,-6,6
-63,-7,9
-66,-6,13
-63,-7,13
-64,-5,14
-65,-4,16
-66,-5,17
-65,-6,19
-61,-6,20
-62,-7,19
-64,-7,19
-62,-8,21
-61,-8,22
-61,-8,23
-61,-8,22
-59,-8,22
-60,-8,22
-60,-8,22
-60,-8,23
-61,-9,22
-62,-8,22
-64,-8,20
-63,-9,19
-62,-8,20
-64,-8,19
-62,-7,22
-60,-6,23
-63,-6,21
-63,-6,20
-64,-6,15
-62,-8,16
-63,-7,16
-64,-7,16
-64,-7,16
-64,-6,14
-64,-7,15
-65,-7,12
-64,-7,11
-64,-8,12
-64,-7,10
-65,-6,11
-66,-6,9
-66,-6,9
-67,-6,8
-65,-6,10
-65,-6,9
-64,-6,10
-64,-6,10
-64,-6,10
-65,-6,9
-66,-6,9
-65,-5,9
-65,-6,7
-65,-6,6
-68,-5,7
-66,-5,6
-66,-6,7
-67,-6,7
-66,-5,7
-66,-6,7
-64,-6,6
-67,-4,5
-65,-1,5
-64,-5,6
-63,-4,6
-65,-7,4
-64,-7,4
-64,-8,2
-61,-11,2
-63,-11,2
-65,-12,0
-66,-12,0
-63,-14,-3
-65,-14,-3
-67,-10,-2
-66,-9,0
-66,-9,-1
-65,-7,0
-64,-6,1
-64,-5,3
-64,-6,3
-67,-5,3
-65,-7,3
-65,-7,1
-64,-6,-1
-64,-8,-3
-62,-8,-4
-63,-8,-3
-63,-9,-3
-63,-9,-3
-63,-8,-3
-63,-7,-1
-64,-6,0
-62,-6,-3
-62,-5,-1
-62,-3,0
-63,-5,-2
-60,-4,1
-58,-1,-1
-62,1,-1
-67,6,1
-53,9,4
-52,10,3
-89,14,-16
-91,9,-22
-79,7,-19
-64,6,-13
-60,8,-18
-67,10,-20
-69,11,-18
-64,13,-12
-62,15,-8
-61,15,-6
-64,14,-8
-65,14,-9
-63,13,-8
-63,13,-8
-65,12,-9
-65,12,-9
-63,11,-8
-64,11,-9
-65,11,-11
-64,11,-9
-64,11,-9
-65,11,-9
-64,11,-7
-65,11,-6
-64,10,-4
-64,10,-5
-64,11,-5
-65,11,-6
-65,11,-5
-64,11,-3
-64,11,-3
-64,11,-3
-65,11,-3
-65,10,-3
-65,10,-3
-65,9,-5
-65,10,-4
-65,10,-3
-65,10,-2
-64,11,-1
-65,11,-2
-65,12,-1
-64,10,0
-64,10,0
-63,10,0
-63,12,0
-63,12,0
-65,12,-2
-66,12,-2
-65,12,-3
-65,12,-2
-65,12,-2
-64,13,-1
-64,13,0
-64,13,1
-64,13,0
-64,14,1
-63,13,0
-64,13,-1
-65,13,-2
-64,13,-2
-65,13,-3
-65,13,-3
-65,14,-3
-64,14,-2
-64,15,-1
-64,15,-2
-64,15,-1
-64,16,0
-64,16,0
-65,15,-2
-64,15,-1
-64,14,-1
-64,13,-1
-64,13,-1
-64,13,-1
-63,14,0
-64,13,1
-65,14,-1
-66,13,-3
-65,11,-3
-64,12,-2
-64,14,-4
-64,14,-4
-64,13,-3
-64,14,-2
-64,14,-3
-64,14,-2
-64,14,-2
-64,14,-3
-64,14,-3
-64,14,-3
-64,14,-3
-64,14,-3
-64,14,-3
-64,14,-3
-65,13,-3
-64,13,-3
-64,13,-3
-64,13,-3
-64,13,-3
-65,13,-3
-65,13,-3
-64,13,-3
-64,13,-3
-64,13,-3
-64,13,-3
-64,13,-3
-64,13,-3
-64,13,-3
-64,13,-3
-64,13,-3
-64,13,-2
-64,14,-3
-64,13,-2
-64,14,-2
-64,13,-2
-64,13,-2
-64,14,-2
-64,14,-3
-64,13,-2
-64,13,-2
-65,13,-3
-64,13,-2
-64,13,-2
-64,13,-2
-64,13,-3
-64,14,-2
-64,14,-3
-64,13,-3
-64,13,-2
-64,13,-2
-64,13,-2
-64,13,-2
-64,13,-3
-64,13,-3
-64,13,-2
-64,13,-2
-64,13,-2
-64,13,-3
-64,13,-2
-65,13,-2
-65,14,-3
-64,14,-2
-64,13,-2
-64,13,-3
-64,14,-3
-64,13,-2
-64,13,-3
-64,13,-3
-64,13,-3
-64,13,-2
-64,13,-3
-64,13,-3
-64,13,-3
-64,13,-3
-64,13,-3
-64,13,-3
-64,13,-2
-64,13,-2
-64,13,-3
-64,14,-2
-64,14,-3
-64,14,-3
-64,13,-3
-64,13,-3
-64,13,-3
-64,14,-3
-64,14,-3
-64,14,-3
-64,14,-2
-64,13,-3
-64,13,-3
-64,14,-3
-64,13,-3
-64,14,-2
-64,13,-2
-64,14,-2
-63,13,-2
-63,13,-3
-65,14,-4
-62,13,-2
-63,13,-4
-65,12,-8
-64,12,-9
-64,12,-11
-64,11,-10
-64,11,-10
-63,10,-11
-64,11,-12
-63,12,-12
-63,12,-12
-62,12,-13
-64,12,-14
-65,12,-17
-62,12,-14
-62,12,-13
-63,12,-16
-62,12,-16
-61,12,-16
-61,13,-15
-62,13,-16
-62,12,-17
-62,12,-19
-62,13,-19
-61,13,-17
-62,14,-18
-62,16,-19
-62,16,-16
-60,16,-12
-62,16,-13
-63,16,-17
-63,16,-17
-61,15,-16
-60,14,-15
-61,14,-16
-61,13,-17
-61,12,-17
-63,12,-18
-63,13,-18
-61,13,-14
-63,14,-15
-63,13,-15
-62,12,-15
-63,12,-15
-62,12,-14
-62,13,-12
-63,13,-14
-63,13,-14
-63,13,-13
-62,15,-12
-63,15,-12
-63,13,-10
-63,13,-10
-63,13,-11
-63,14,-11
-63,15,-11
-64,15,-9
-64,15,-9
-64,15,-8
-63,15,-8
-63,15,-8
-63,14,-8
-63,13,-7
-64,13,-8
-64,13,-9
-64,13,-9
-63,13,-9
-64,13,-9
-65,12,-10
-64,12,-10
-63,11,-9
-62,11,-9
-63,11,-10
-63,11,-8
-63,12,-6
-64,14,-7
-63,16,-8
-65,13,-10
-65,12,-9
-62,13,-9
-64,14,-12
-64,13,-10
-64,14,-8
-63,14,-9
-63,13,-10
-64,13,-10
-64,13,-10
-63,13,-9
-64,13,-10
-64,12,-11
-64,12,-11
-64,12,-10
-64,12,-10
-64,12,-10
-63,13,-10
-64,13,-9
-64,13,-9
-64,13,-8
-63,13,-8
-63,13,-9
-64,13,-8
-64,13,-9
-63,13,-8
-64,13,-9
-64,13,-9
-63,13,-9
-64,13,-9
-64,13,-8
-64,13,-9
-63,13,-9
-64,13,-9
-64,13,-9
-63,13,-9
-64,13,-9
-64,13,-9
-64,13,-8
-64,13,-8
-64,13,-8
-64,13,-8
-64,13,-8
-64,13,-7
-64,13,-7
-64,13,-7
-64,13,-7
-64,13,-8
-64,13,-8
-64,13,-8
-63,12,-7
-64,13,-8
-64,13,-8
-63,13,-7
-64,13,-8
-64,13,-8
-64,13,-8
-64,13,-8
-64,13,-8
-64,13,-8
-64,13,-8
-64,13,-8
-64,13,-8
-64,13,-8
-64,13,-8
-64,13,-8
-64,13,-8
-64,12,-8
-64,13,-8
-64,13,-8
-64,13,-8
-64,13,-8
-64,13,-8
-63,13,-8
-64,13,-8
-64,13,-8
-64,13,-9
-63,13,-8
-64,13,-8
-64,13,-8
-64,13,-8
-64,13,-8
-63,13,-7
-64,14,-8
-64,14,-8
-63,14,-7
-64,14,-8
-64,14,-7
-64,14,-8
-64,14,-8
-64,13,-7
-63,13,-7
-64,13,-8
-64,13,-8
-64,13,-8
-64,13,-8
-64,13,-8
-64,13,-8
-64,13,-8
-64,13,-8
-64,13,-8
-63,13,-8
-64,13,-8
-64,13,-8
-64,13,-7
-64,13,-8
-64,13,-8
-64,13,-8
-64,13,-7
-65,13,-10
-64,13,-6
-64,12,-4
-66,12,-5
-64,12,0
-63,12,0
-65,12,0
-64,11,1
-64,12,2
-65,12,2
-65,12,1
-63,12,5
-63,12,3
-64,12,3
-64,11,5
-67,12,3
-62,13,6
-63,13,7
-64,13,5
-62,13,8
-69,12,1
-63,11,4
-61,11,5
-65,11,1
-68,12,-2
-67,12,-1
-64,12,1
-64,11,0
-64,12,1
-65,12,2
-63,12,3
-63,12,3
-66,12,-1
-66,11,-2
-65,11,-1
-66,11,-3
-64,11,-2
-64,11,-2
-65,12,-1
-65,11,-2
-64,11,-1
-65,11,-2
-64,11,0
-65,11,0
-65,12,-2
-65,12,-2
-63,12,0
-65,12,-1
-65,12,-3
-64,12,-1
-65,12,-2
-65,12,-1
-65,12,-2
-64,12,-1
-65,12,-2
-65,12,-2
-65,12,-2
-64,12,-2
-65,12,-2
-64,12,-2
-64,12,-2
-65,12,-2
-65,12,-2
-65,12,-2
-65,12,-2
-65,12,-3
-65,12,-2
-64,12,-2
-64,12,-1
-64,12,-1
-64,12,-2
-65,12,-2
-64,12,-2
-65,12,-2
-64,12,-2
-65,12,-1
-65,12,-2
-64,12,-2
-64,12,-2
-64,12,-1
-65,12,-1
-65,12,-2
-65,12,-2
-64,13,-1
-64,12,-1
-64,12,-1
-64,12,-1
-65,12,-1
-64,12,-1
-65,13,-1
-64,13,-1
-64,13,0
-65,13,-1
-65,12,-1
-64,12,-1
-64,13,-1
-64,12,0
-64,13,0
-65,12,-1
-65,12,-1
-65,12,-1
-64,12,0
-64,12,0
-64,12,0
-64,12,-1
-64,12,-1
-64,11,0
-65,12,-1
-65,12,-1
-65,12,-1
-64,12,-1
-64,12,-1
-65,12,-1
-65,12,-1
-65,12,-1
-65,12,-1
-65,12,-1
-65,12,-1
-65,11,-1
-65,12,-2
-64,12,-1
-64,12,-1
-65,12,-2
-65,12,-2
-65,12,-1
-65,12,-1
-64,12,-1
-64,12,0
-66,12,-1
-64,12,-1
-64,12,-2
-64,12,-1
-65,12,-1
-64,12,-1
-64,12,-1
-65,13,-2
-65,12,-2
-65,12,-1
-64,12,-2
-64,12,-1
-65,12,-1
-65,12,-2
-64,12,-2
-65,12,-1
-65,12,-1
-64,12,-2
-64,12,-2
-65,12,-2
-65,12,-2
-64,12,-2
-64,12,-1
-64,12,-1
-65,12,-1
-64,12,-1
-64,12,-1
-64,12,-1
-65,12,-2
-65,12,-1
-65,12,-1
-64,12,-2
-65,12,-3
-64,12,-2
-65,12,-3
-65,12,-2
-64,12,-1
-65,12,-2
-64,12,-1
-64,12,-2
-65,12,-3
-64,11,-3
-64,11,-3
-65,11,-3
-65,12,-3
-65,12,-3
-65,11,-3
-64,11,-3
-65,12,-3
-64,12,-3
-64,12,-3
-64,12,-3
-65,12,-3
-65,12,-4
-64,12,-3
-65,12,-3
-65,12,-3
-64,12,-3
-65,12,-3
-64,12,-3
-64,12,-3
-64,12,-2
-65,12,-3
-64,12,-3
-64,12,-3
-64,12,-3
-65,12,-3
-64,12,-3
-64,12,-3
-64,12,-3
-64,12,-3
-65,12,-3
-64,12,-3
-65,12,-3
-64,12,-3
-64,12,-3
-65,12,-3
-65,12,-2
-65,12,-3
-64,12,-2
-64,12,-2
-64,12,-2
-65,12,-2
-64,12,-2
-64,12,-2
-65,12,-3
-65,12,-3
-64,12,-3
-65,12,-2
-65,12,-3
-64,12,-2
-64,12,-2
-65,12,-2
-65,12,-2
-64,12,-2
-65,13,-3
-65,12,-3
-65,12,-1
-64,12,-2
-64,12,-2
-65,12,-2
-64,12,-1
-64,12,-1
-64,12,-1
-65,12,-2
-64,12,-2
-64,12,-1
-64,12,-2
-65,12,-2
-65,12,-2
-64,12,-1
-65,12,-2
-64,12,-2
-65,12,-2
-65,11,-2
-64,11,-2
-65,12,-2
-65,12,-2
-65,12,-2
-64,12,-2
-64,12,-1
-65,12,-3
-65,12,-2
-65,12,-2
-65,12,-2
-64,11,-3
-64,11,-2
-65,12,-2
-65,11,-3
-64,11,-3
-65,12,-2
-65,12,-2
-65,12,-2
-65,12,-2
-64,12,-2
-65,12,-2
-65,12,-2
-64,12,-2
-64,12,-2
-65,12,-2
-65,12,-3
-64,12,-2
-65,12,-3
-65,12,-2
-65,12,-2
-64,12,-2
-64,12,-2
-64,12,-2
-65,12,-2
-64,12,-2
-65,12,-3
-64,12,-2
-65,12,-2
-64,12,-2
-65,12,-2
-65,12,-3
-64,12,-2
-64,12,-2
-64,12,-2
-64,12,-2
-65,12,-2
-65,12,-2
-64,12,-2
-65,12,-2
-65,12,-2
-65,12,-2
-65,12,-2
-64,12,-2
-65,12,-2
-65,12,-3
-64,12,-2
-64,12,-2
-64,12,-2
-64,12,-3
-65,12,-2
-65,12,-3
-65,12,-3
-64,12,-2
-65,12,-2
-65,12,-3
-65,12,-3
-65,12,-2
-65,12,-3
-65,12,-3
-64,12,-2
-64,12,-3
-65,12,-3
-65,12,-3
-64,12,-3
-65,12,-3
-64,12,-4
-65,12,-3
-64,12,-2
-64,12,-2
-65,12,-3
-64,12,-3
-64,12,-4
-64,12,-4
-64,12,-2
-65,12,-3
-64,12,-3
-64,12,-2
-64,12,-3
-65,12,-3
-64,12,-3
-64,12,-3
-65,12,-3
-65,12,-3
-64,12,-3
-65,12,-3
-65,12,-3
-64,12,-2
-64,12,-3
-65,12,-3
-65,12,-3
-64,12,-3
-64,12,-3
-64,12,-3
-65,12,-2
-64,12,-2
-64,11,-3
-65,12,-3
-65,12,-3
-64,12,-3
-64,12,-2
-65,12,-2
-65,12,-3
-64,12,-2
-64,12,-3
-64,12,-2
-64,12,-2
-64,12,-2
-65,12,-2
-65,12,-2
-65,12,-2
-64,12,-2
-65,12,-2
-64,12,-2
-64,12,-2
-64,12,-2
-65,12,-2
-65,12,-2
-65,12,-2
-64,12,-2
-64,12,-2
-64,12,-2
-64,12,-2
-64,12,-2
-64,12,-2
-64,12,-2
-64,12,-2
-64,12,-2
-65,12,-1
-65,12,-2
-64,12,-2
-65,12,-3
-64,12,-2
-64,12,-2
-64,12,-2
-65,12,-2
-65,12,-2
-64,12,-2
-64,12,-2
-65,12,-2
-65,12,-2
-65,12,-2
-64,12,-2
-65,12,-1
-65,12,-2
-64,12,-1
-65,12,-1
-65,12,-3
-65,13,-2
-64,13,-1
-64,12,-2
-65,13,-2
-64,12,-2
-64,12,-1
-65,12,-2
-65,12,-2
-65,12,-2
-64,12,-1
-65,11,-2
-65,12,-2
-64,12,-1
-64,12,-1
-65,12,-2
-64,12,-1
-64,12,-1
-64,12,-1
-65,12,-1
-65,12,-2
-65,12,-2
-64,12,-1
-65,12,-1
-65,12,-2
-64,12,-1
-64,12,-1
-64,12,-1
-65,12,-1
-65,12,-1
-64,12,-2
-65,12,-2
-65,12,-1
-64,12,-1
-64,12,-2
-65,12,-1
-65,12,-1
-64,12,-1
-65,12,-2
-65,12,-2
-65,12,-1
-65,12,-1
-65,12,-2
-64,12,-2
-64,12,-1
-65,12,-1
-65,12,-1
-65,12,-1
-64,12,-1
-64,12,-1
-65,12,-1
-64,12,-1
-65,12,-1
-65,12,-1
-64,12,0
-65,12,-1
-64,12,-1
-64,12,-1
-64,12,-1
-65,12,-2
-64,12,-2
-65,12,-1
-65,12,-1
-65,12,-1
-64,12,-1
-65,12,-2
-64,12,-1
-65,12,-1
-65,12,-1
-65,12,-2
-65,12,-1
-64,12,-1
-64,12,-1
-65,12,-1
-65,12,-1
-65,12,-1
-64,12,-1
-64,12,-1
-65,12,-1
-65,12,-1
-64,12,-1
-64,12,0
-65,12,-1
-65,12,-2
-64,12,-1
-65,12,-1
-65,12,-1
-64,12,-1
-64,12,-1
-65,12,-1
-65,12,-1
-64,12,-1
-65,12,-1
-64,12,-2
-65,12,-1
-65,12,-1
-65,12,-1
-65,12,-1
-65,12,-2
-64,12,0
-65,12,-1
-65,12,-2
-65,12,-1
-64,12,0
-64,12,-1
-65,12,-2
-64,12,-1
-64,12,-1
-65,12,-1
-65,12,-1
-64,12,-1
-64,12,-1
-65,12,-1
-64,12,0
-64,12,-1
-65,12,-1
-65,12,-1
-65,12,-1
-64,12,-1
-65,12,-1
-64,12,-1
-64,12,-1
-65,12,0
-65,12,0
-64,12,-1
-64,12,-1
-64,12,-1
-65,12,-1
-65,12,-1
-65,12,-1
-65,12,-1
-64,12,-1
-64,12,-1
-65,12,-1
-65,12,-1
-64,12,-1
-65,12,-1
-65,12,-1
-64,12,-1
-65,12,-1
-64,12,-1
-65,12,-1
-65,12,-1
-65,12,-1
-65,12,-1
-65,12,-1
-64,12,-1
-65,12,-1
-64,12,-1
-65,12,-1
-64,12,-1
-64,12,-1
-64,12,-1
-65,12,-1
-65,12,0
-64,12,-1
-64,12,-1
-64,12,-1
-65,12,-1
-64,12,-1
-65,12,0
-65,12,-1
-65,12,-1
-65,12,-1
-65,12,-1
-64,12,-1
-65,12,-1
-65,12,-2
-64,12,-1
-64,12,-1
-64,12,-1
-65,12,-1
-64,12,-1
-64,12,-1
-65,12,-2
-65,12,-2
-65,12,-2
-65,11,-2
-65,12,-2
-64,12,-1
-65,12,-2
-65,12,-2
-65,12,-2
-64,12,-2
-64,12,-2
-64,12,-2
-64,12,-2
-64,13,-1
-64,13,-1
-65,13,-1
-64,13,-2
-64,13,-1
-65,13,-1
-65,13,-1
-64,13,-1
-64,13,-1
-64,13,-1
-65,13,-2
-65,13,-1
-64,13,-1
-65,12,-2
-65,12,-1
-64,12,-1
-64,12,-2
-64,12,-1
-65,12,-2
-65,12,-2
-64,12,-2
-64,12,-2
-64,12,-1
-64,12,-1
-65,12,-2
-64,12,-2
-64,12,-2
-64,12,-1
-65,12,-2
-65,12,-1
-65,12,-2
-64,12,-1
-64,12,-1
-65,12,-2
-65,12,-1
-65,12,-1
-65,12,-1
-64,12,-1
-64,12,-1
-65,12,-2
-65,12,-1
-65,12,-1
-65,12,-1
-65,12,-2
-65,12,-2
-65,12,-1
-65,12,-2
-64,12,-1
-64,12,-1
-65,12,-1
-65,12,-2
-65,12,-2
-64,12,-1
-65,12,-1
-65,12,-2
-65,12,-1
-64,12,-1
-64,12,-1
-65,12,-2
-65,12,-2
-64,12,-1
-64,12,-1
-65,12,-1
-65,12,-1
-64,12,-1
-64,12,-1
-65,12,-2
-65,12,-1
-64,12,-1
-64,12,-1
-65,12,-1
-65,12,-1
-64,12,-1
-65,12,-1
-64,12,-1
-64,12,-1
-64,12,-1
-65,12,-1
-65,12,-1
-64,12,-1
-64,12,-1
-65,12,-2
-65,12,-2
-65,12,-2
-65,12,-1
-64,12,-1
-65,12,-1
-64,12,-2
-64,12,-1
-65,12,-1
-64,12,-1
-64,12,-2
-64,12,-1
-64,12,-1
-65,12,-2
-65,12,-1
-64,12,-2
-65,12,-2
-65,12,-2
-65,12,-1
-64,12,-1
-65,12,-2
-65,12,-1
-64,12,-1
-64,12,-2
-65,12,-2
-65,12,-1
-64,12,-1
-65,12,-1
-65,12,-1
-64,12,-1
-65,12,-1
-65,12,-1
-64,12,-1
-65,12,-1
-65,12,-1
-64,12,-1
-64,12,-1
-64,12,-1
-64,12,-1
-65,12,-2
-65,12,-1
-64,12,-1
-65,12,-1
-65,12,-2
-64,12,-1
-64,12,-1
-65,12,-1
-65,12,-1
-65,12,-1
-64,12,-1
-65,12,-1
-65,12,-1
-65,12,-1
-64,12,-1
-65,12,-1
-65,12,-1
-64,12,-1
-64,12,-1
-65,12,-1
-65,12,-1
-64,12,0
-65,12,-1
-65,12,-2
-65,12,-1
-64,12,-1
-65,12,-1
-65,12,-1
-64,12,0
-64,12,-1
-65,12,-1
-65,12,-1
-65,12,-1
-65,12,-1
-65,12,-1
-64,12,0
-64,12,-1
-64,12,-1
-65,12,-1
-65,12,-1
-65,12,-1
-65,12,-1
-64,12,-1
-65,12,-1
-65,12,-1
-65,12,-1
-65,12,-1
-65,12,-1
-65,12,-1
-65,12,-1
-64,12,-1
-64,12,-1
-65,12,-1
-65,12,-2
-65,13,-1
-65,12,-1
-64,12,-1
-64,12,-1
-64,12,-1
-65,12,-1
-65,12,-1
-64,12,-1
-64,12,-1
-64,12,-1
-64,12,-1
-64,12,-1
-65,12,-1
-64,12,-1
-64,12,-1
-65,13,-2
-65,12,-1
-65,12,-1
-65,12,-1
-64,12,-2
-64,12,-1
-65,12,-1
-65,12,-2
-65,12,-2
-65,12,-1
-65,12,-1
-65,12,-1
-64,12,-1
-64,12,-1
-65,12,-1
-65,12,-1
-64,12,-1
-64,12,-2
-64,12,-1
-65,12,-1
-65,12,-1
-64,12,-1
-65,12,-1
-65,12,-2
-65,12,-1
-65,12,-1
-64,12,-1
-64,12,-2
-64,12,-1
-64,12,-1
-65,12,-2
-65,12,-2
-64,12,-1
-64,12,-1
-65,12,-1
-64,12,-1
-64,12,-1
-64,12,-1
-65,12,-1
-64,12,-1
-65,12,-1
-65,12,-1
-65,12,-1
-65,12,-1
-64,12,-1
-65,12,-1
-65,12,-2
-64,12,-1
-64,12,-1
-65,12,-2
-64,12,-1
-65,12,-1
-64,12,-1
-65,12,-1
-65,12,-2
-65,12,-1
-65,12,-1
-65,12,-1
-65,12,-1
-65,12,-2
-64,12,-1
-64,12,-1
-64,12,-1
-64,12,-1
-65,12,-2
-64,12,-1
-64,12,-1
-64,12,-1
-65,12,-1
-64,12,-1
-65,12,-1
-64,12,-1
-65,12,-1
-65,12,-1
-65,12,-1
-64,12,-1
-64,12,-1
-65,12,-1
-64,12,-1
-64,12,-1
-65,12,-1
-65,12,-1
-65,12,-2
-65,12,-2
-65,12,-1
-65,12,-1
-65,12,-1
-65,12,-1
-65,12,-2
-65,12,-1
-65,12,-1
-65,12,-1
-64,12,-1
-65,12,-1
-65,12,-2
-64,12,-1
-65,12,-2
-65,12,-2
-64,12,-1
-65,13,-2
-64,12,-1
-65,12,-1
-65,12,-1
-64,12,-1
-65,12,-1
-65,12,-1
-64,12,-1
-64,12,-1
-64,12,-1
-64,12,-1
-65,12,-1
-64,12,-1
-65,12,-2
-65,12,-1
-64,12,-1
-65,12,-1
