1.5197e+09,1.5197e+09
1470.3,0.70316
1471,0.67191
1471.7,0.67191
1472.3,0.65628
1473,0.65628
1473.6,0.64065
1474.3,0.70316
1475,0.65628
1482.9,0.62503
1483.6,0.70316
1495.2,0.67191
1495.8,0.57815
1508.6,0.78129
1511.8,0.65628
1512.5,0.67191
1513.2,0.68753
1513.9,0.68753
1514.5,0.64065
1515.2,0.70316
1515.9,0.62503
1516.5,0.62503
1517.1,0.67191
1517.8,0.65628
1518.4,0.64065
1519.1,0.62503
1519.7,0.65628
1520.4,0.70316
1521,0.6094
1521.7,0.62503
1528.1,0.59378
1528.7,0.64065
1529.4,0.62503
1530,0.62503
1530.7,0.68753
1531.3,0.59378
1531.9,0.64065
1532.6,0.67191
1533.3,0.67191
1533.9,0.6094
1534.6,0.73441
1535.2,0.6094
1535.9,0.68753
1536.5,0.64065
1537.2,0.65628
1537.9,0.65628
1538.5,0.62503
1539.1,0.62503
1539.8,0.67191
1591.1,0.65628
1612.7,0.62503
1613.5,0.75003
1614.2,0.70316
1614.8,0.59378
1615.4,0.64065
1616.1,0.70316
1616.9,0.73441
1617.5,0.64065
1626.6,0.65628
1644.9,0.70316
1704.4,1.0313
1705.6,1.1563
1722.7,0.67191
1723.2,0.56253
1769.2,0.67191
1781.7,0.75003
1853.4,0.65628
1864.1,0.6094
1864.8,0.78129
1869.9,0.6094
1878.4,0.68753
1879,0.5469
1879.7,0.71878
1880.4,0.67191
1881.1,0.67191
1881.7,0.62503
1905.8,0.57815
1906.3,0.56253
1907,0.64065
1907.5,0.50002
1910.8,0.62503
1911.4,0.64065
