,EDA,rise_time,max_deriv,amp,decay_time,SCR_width,AUC
2018-02-14 09:20:06.250000,1.7932,1.5,0.024978920642730884,0.03709999999999991,,,
2018-02-14 09:20:09.750000,2.1364,4.0,0.12518242046977512,0.3278000000000001,,,
2018-02-14 09:20:16.625000,2.1197,1.625,0.10957247283890403,0.2036,,,
2018-02-14 09:20:18.375000,2.2823,1.25,0.13790978558037104,0.09730000000000061,0.375,1.5,0.1459500000000009
2018-02-14 09:20:21,2.2273,1.0,0.1265546722251436,0.050000000000000266,0.375,1.25,0.06250000000000033
2018-02-14 09:20:24,2.4098,1.375,0.1982561916906782,0.1998000000000002,,,
2018-02-14 09:20:34.375000,2.22595,1.75,0.31128646937218996,0.4276500000000003,,,
2018-02-14 09:20:40.375000,2.3367,4.0,0.2370934522770174,0.47819999999999996,1.0,2.375,1.1357249999999999
2018-02-14 09:20:44.375000,1.8668,1.5,0.0183278486218299,0.04930000000000012,,,
2018-02-14 09:20:47.750000,2.0224,1.5,0.11548885455588298,0.1332000000000002,,,
2018-02-14 09:20:49.750000,2.3476,1.625,0.13783550530176747,0.22534999999999972,0.875,2.25,0.5070374999999994
