1.5198e+09,1.5198e+09
1842.8,0.95317
1843.9,1.0938
1844.8,0.84379
1845.7,0.93754
1846.8,1.0625
1847.9,1.0625
1848.7,0.89067
1849.7,1
1850.7,0.98442
1851.6,0.85941
1852.5,0.95317
1853.6,1.1094
1854.6,0.96879
1855.4,0.81254
1856.6,1.1251
1857.7,1.1251
1858.7,1.0625
1859.6,0.84379
1860.6,1.0469
1866.9,1.1251
1867.9,1.0157
1869,1.1407
1869.9,0.92192
1871,1.0313
1872,1.0625
1873,0.93754
1874.2,1.2188
1875.5,1.2969
1884.5,1.0938
1885.3,0.79691
1886.2,0.92192
1887,0.78129
1887.8,0.84379
1888.7,0.90629
1889.6,0.90629
1890.7,1.0625
1891.6,0.90629
1892.4,0.79691
1893.5,1.1094
1894.5,0.95317
1895.4,0.95317
1923.3,0.92192
1924.4,1.0782
1925.3,0.92192
1926.2,0.92192
1927.3,1.0157
1928.2,0.98442
1929.1,0.85941
