1.5204e+09,1.5204e+09
1021.1,0.51565
1021.7,0.56253
1022.3,0.62503
1022.9,0.62503
1023.6,0.68753
1024.2,0.59378
1024.8,0.57815
1025.4,0.59378
1026,0.57815
1026.5,0.53127
1032.7,0.50002
1033.3,0.5469
1033.8,0.56253
1034.4,0.5469
1034.9,0.57815
1035.5,0.53127
1036,0.56253
1036.6,0.56253
1037.1,0.5469
1037.7,0.59378
1038.3,0.51565
1038.9,0.6094
1039.4,0.51565
1040,0.59378
1040.5,0.56253
1041.1,0.56253
1041.6,0.5469
1042.2,0.57815
1042.8,0.5469
1043.3,0.56253
1043.9,0.5469
1044.5,0.57815
1045,0.57815
1045.6,0.56253
1046.2,0.59378
1046.7,0.5469
1047.3,0.56253
1047.9,0.59378
