,Binary,Multiclass
2018-03-07 05:20:00,1.0,1.0
2018-03-07 05:20:05,1.0,1.0
2018-03-07 05:20:10,1.0,1.0
2018-03-07 05:20:15,1.0,1.0
2018-03-07 05:20:20,1.0,1.0
2018-03-07 05:20:25,1.0,1.0
2018-03-07 05:20:30,1.0,1.0
2018-03-07 05:20:35,1.0,1.0
2018-03-07 05:20:40,1.0,1.0
2018-03-07 05:20:45,1.0,1.0
2018-03-07 05:20:50,1.0,1.0
2018-03-07 05:20:55,1.0,1.0
2018-03-07 05:21:00,1.0,1.0
2018-03-07 05:21:05,1.0,1.0
2018-03-07 05:21:10,1.0,1.0
2018-03-07 05:21:15,1.0,1.0
2018-03-07 05:21:20,1.0,1.0
2018-03-07 05:21:25,1.0,1.0
2018-03-07 05:21:30,1.0,1.0
2018-03-07 05:21:35,1.0,1.0
2018-03-07 05:21:40,-1.0,1.0
