1.5209e+09,1.5209e+09,1.5209e+09
32,32,32
43,33,-31
41,33,-33
42,33,-33
43,33,-33
43,33,-34
43,34,-35
42,34,-35
41,34,-36
41,34,-37
40,35,-38
38,35,-37
39,34,-38
37,34,-37
36,34,-33
35,35,-31
34,33,-24
34,32,-18
33,29,-15
23,28,-27
28,27,-35
30,23,-35
36,21,-32
44,10,-12
44,4,-4
33,-7,-30
120,5,-90
123,13,-56
71,-19,5
72,-12,-8
63,-7,-24
56,-2,-31
50,-2,-23
55,-1,-18
56,0,-17
61,3,-19
63,2,-18
61,-1,-14
62,-3,-14
62,-3,-17
61,-2,-17
60,-2,-16
61,-1,-19
60,-2,-18
60,-2,-18
60,-2,-18
60,-2,-18
62,-2,-18
62,-2,-17
61,-1,-17
61,-1,-17
60,-1,-17
60,-1,-17
60,-2,-18
61,-2,-17
61,-2,-17
61,-2,-17
61,-2,-17
60,-2,-17
60,-2,-17
61,-2,-18
61,-2,-17
61,-1,-17
61,-1,-17
61,-1,-17
61,-2,-17
61,-2,-17
60,-2,-17
61,-2,-17
61,-1,-17
61,-1,-17
61,-1,-18
60,-2,-17
61,-2,-17
60,-2,-18
61,-2,-18
61,-2,-18
60,-2,-18
60,-2,-19
59,-2,-19
58,-2,-19
59,-1,-23
59,-1,-25
59,-1,-26
56,-1,-27
57,-1,-27
57,-1,-29
56,-1,-29
56,-1,-29
56,-1,-28
56,-1,-28
56,-1,-27
57,-1,-27
58,-1,-26
59,-1,-26
57,-1,-25
57,-1,-22
59,-1,-23
58,-1,-24
59,-1,-24
61,-1,-22
59,-1,-21
58,-1,-21
60,0,-21
59,0,-21
59,0,-21
59,1,-21
59,-1,-20
60,-1,-21
60,-1,-20
60,-1,-21
62,-1,-21
59,-1,-22
58,-1,-21
59,-1,-22
59,-1,-21
59,-1,-21
60,-1,-21
60,-1,-21
59,0,-21
59,0,-22
59,0,-22
59,-1,-22
59,-1,-22
60,-1,-22
59,-1,-21
59,0,-22
59,0,-22
59,0,-22
59,0,-22
59,0,-22
59,0,-22
59,0,-22
59,0,-22
59,-1,-22
59,-1,-22
59,-1,-22
59,-1,-22
59,0,-22
59,0,-22
59,0,-22
60,-1,-22
61,-1,-23
63,0,-24
64,1,-24
58,3,-32
53,4,-32
71,4,-30
70,9,-38
67,11,-38
69,15,-33
68,15,-31
66,20,-29
64,22,-27
64,25,-23
62,29,-20
61,31,-19
59,33,-14
54,34,-8
46,36,-4
42,37,-3
35,39,-1
30,39,3
29,40,5
24,42,10
22,45,11
21,49,13
24,52,15
30,54,18
30,55,16
32,54,16
34,54,17
31,55,16
26,53,15
25,54,19
21,54,21
20,56,23
17,56,23
14,56,21
12,56,21
10,55,23
9,54,23
8,53,24
6,55,23
7,56,24
9,57,26
11,58,27
10,58,29
8,59,27
8,59,25
8,58,25
8,57,26
9,55,27
9,53,28
2,53,27
1,56,28
4,57,29
4,58,28
3,58,29
5,58,30
5,58,29
4,57,26
10,57,27
8,57,28
7,57,30
7,57,28
10,57,28
12,58,29
8,57,31
8,57,31
9,57,31
9,56,29
9,56,30
9,55,32
11,55,34
1,54,29
7,55,31
6,55,30
5,56,30
2,56,31
4,56,31
8,59,30
14,60,26
6,58,26
6,57,28
15,56,28
17,56,26
17,57,26
17,55,27
17,57,25
16,58,22
14,58,22
15,57,22
19,58,23
19,58,22
18,58,21
18,58,21
17,58,22
16,57,22
18,57,22
17,57,21
17,55,21
17,54,22
17,55,21
20,60,22
18,61,23
19,64,21
21,64,21
23,63,22
21,61,24
21,61,23
20,59,22
19,59,22
15,57,21
14,55,22
15,55,21
13,54,21
15,53,21
17,54,24
16,54,24
17,54,24
18,55,24
18,57,23
18,58,23
17,59,23
16,59,24
16,59,23
16,59,22
16,59,22
16,58,23
17,58,22
16,59,21
18,58,22
19,59,22
19,59,22
18,58,23
17,57,25
17,56,26
13,56,24
13,56,24
16,57,25
14,57,25
14,57,25
14,57,25
13,57,24
14,57,25
13,57,24
14,57,23
15,58,25
16,57,26
16,57,26
16,58,25
16,57,25
16,57,25
15,57,25
15,57,25
15,58,25
16,58,26
16,58,26
16,59,27
15,58,27
15,58,27
15,58,26
14,58,27
14,59,26
14,59,26
14,57,26
14,57,27
13,56,27
13,55,26
13,55,26
13,55,26
13,55,27
13,55,27
12,55,26
14,56,26
17,56,29
7,57,24
6,58,22
16,59,26
13,58,28
10,58,29
8,59,28
5,59,24
10,59,26
9,58,27
5,57,29
8,57,30
5,57,28
9,58,29
11,58,30
5,57,29
7,57,29
10,57,28
8,56,28
9,55,30
11,54,29
13,55,27
15,55,27
15,56,28
12,56,25
15,57,25
17,57,28
15,57,26
16,57,26
20,58,31
20,57,32
8,58,26
9,58,25
11,58,26
6,55,28
4,54,29
6,53,29
8,54,29
7,54,30
8,55,30
10,56,30
11,54,30
11,55,30
11,53,29
12,52,28
13,55,26
12,53,25
12,49,21
14,51,25
19,49,29
18,50,28
12,51,22
18,60,24
18,58,25
20,55,28
11,61,28
15,60,29
26,63,32
21,63,31
20,58,30
23,57,30
21,53,30
21,52,29
22,54,30
21,57,31
21,57,30
21,60,27
22,59,28
22,57,26
20,55,23
23,55,22
29,54,24
28,54,26
24,53,25
26,55,21
27,56,19
26,56,19
26,55,21
27,55,20
27,56,21
27,56,21
25,55,22
26,55,22
24,56,22
24,57,22
24,56,22
23,55,23
20,55,22
21,54,22
20,53,22
19,54,22
19,54,21
21,55,21
21,55,21
22,55,24
23,55,26
22,55,25
23,55,24
23,56,24
22,55,24
22,55,25
22,55,25
22,55,22
22,55,22
19,55,24
20,55,25
23,57,23
24,57,22
23,58,21
22,58,24
25,59,25
24,61,21
22,62,21
21,61,23
22,61,24
21,59,23
18,58,18
17,58,17
15,56,20
14,55,21
11,57,19
8,57,20
8,57,20
6,58,24
6,58,25
8,60,26
7,60,26
4,60,27
5,60,27
5,61,27
5,57,26
3,56,26
4,55,24
13,55,30
13,55,33
-3,55,30
-6,56,27
0,57,26
2,58,28
0,55,29
-3,55,28
2,54,24
0,52,23
1,48,23
5,42,20
5,47,20
8,55,20
15,58,23
16,65,20
17,69,11
23,70,10
23,70,16
22,70,17
23,69,14
23,67,15
21,64,12
17,60,11
19,59,11
16,57,14
19,56,13
20,59,10
21,59,11
22,60,11
24,61,8
22,61,10
23,60,12
23,61,12
23,62,9
22,62,10
22,62,13
23,61,13
21,61,12
22,60,11
23,60,13
28,61,14
26,61,16
17,60,15
14,59,16
15,59,16
11,59,19
14,60,20
12,60,20
11,60,21
12,60,21
12,62,21
13,61,23
15,60,29
13,57,31
7,57,29
4,58,22
5,59,22
3,57,26
-1,57,28
3,58,30
5,59,29
3,59,29
5,57,29
8,56,29
7,56,32
5,56,32
6,56,30
7,57,29
6,56,29
5,54,29
6,54,29
6,54,29
6,54,28
10,54,29
8,54,29
6,53,30
7,55,28
9,56,29
15,58,35
2,58,30
6,61,28
10,60,28
5,58,30
5,57,31
7,57,30
5,56,28
5,55,29
8,54,32
6,54,32
3,55,28
7,57,29
6,56,30
4,56,31
4,57,32
5,57,30
5,57,31
5,57,31
5,57,30
5,56,31
5,56,29
6,57,29
6,56,30
7,57,31
6,57,31
7,57,31
6,57,31
6,57,31
6,57,32
4,56,30
4,56,30
4,56,29
4,55,29
5,56,30
4,56,31
4,56,30
8,57,30
9,57,34
6,56,32
8,57,30
9,57,31
5,56,31
6,56,30
8,56,32
-2,55,29
0,56,28
6,56,30
4,56,31
6,56,32
6,56,32
5,57,30
5,57,31
6,56,32
5,56,32
4,56,30
6,56,30
4,56,31
5,56,31
6,57,30
6,57,31
5,57,31
5,57,30
5,56,32
5,56,31
4,57,29
5,56,31
5,56,32
5,56,31
5,56,30
5,56,31
4,56,31
6,56,31
6,56,31
6,56,31
5,57,30
5,56,30
7,56,30
5,55,30
5,55,30
6,55,29
7,56,29
6,55,30
6,56,29
8,57,28
8,58,29
8,57,29
9,58,29
10,59,30
9,59,28
10,59,27
9,58,29
9,58,27
8,58,26
9,58,28
9,58,28
10,58,27
10,58,28
9,58,28
10,58,28
10,58,29
9,59,28
10,59,28
9,57,28
8,57,27
8,56,28
8,56,27
8,56,28
9,57,30
9,58,30
6,58,29
9,59,29
9,59,30
7,59,30
8,59,29
1,57,28
3,57,30
3,56,31
1,55,32
3,55,32
4,54,33
2,54,33
5,53,34
8,54,33
8,54,30
9,53,32
8,52,34
12,55,32
14,57,29
14,56,29
13,56,31
11,56,29
15,59,24
14,57,29
11,58,29
13,58,29
10,56,30
10,56,30
12,56,28
14,56,30
15,55,31
16,56,31
15,57,30
14,56,29
15,56,28
14,56,28
12,56,29
12,56,30
11,55,30
10,55,29
14,56,29
12,55,31
11,55,30
13,54,30
13,55,30
13,55,30
14,55,29
13,54,31
14,54,31
15,55,29
15,56,28
14,55,31
7,54,33
8,54,33
4,54,30
9,55,32
10,56,32
7,56,31
13,57,28
7,57,25
9,57,26
9,55,31
7,55,33
9,55,33
9,54,33
8,52,35
10,52,37
9,53,33
13,54,31
15,53,32
17,53,32
18,55,25
19,55,22
21,53,28
22,55,26
25,59,19
24,60,20
22,58,22
21,57,25
20,56,24
19,55,25
22,54,25
16,53,28
15,53,31
15,54,31
14,55,30
15,55,31
14,54,33
14,54,32
14,54,32
13,54,30
14,54,31
14,54,32
14,54,31
15,54,30
15,54,30
16,55,30
15,56,29
16,56,30
16,56,29
16,56,30
15,55,30
15,55,29
15,55,29
15,53,30
15,54,30
16,55,30
16,55,31
17,55,33
17,57,32
17,60,33
17,60,33
14,60,33
13,59,35
12,58,35
10,56,33
11,54,33
8,53,33
4,51,35
3,51,34
1,51,33
1,50,34
-1,50,34
-2,50,33
-1,50,33
-1,50,36
-1,50,36
-1,51,37
-1,50,38
0,52,38
-1,53,39
-1,52,39
1,54,36
0,54,36
2,53,37
-1,52,38
1,49,41
7,51,38
8,51,38
8,51,38
8,52,37
7,53,37
6,53,37
5,53,38
4,53,37
4,52,37
5,53,38
4,52,38
4,51,38
3,51,38
3,51,39
3,50,38
3,51,39
4,51,39
4,51,38
4,51,39
4,51,39
3,52,38
4,52,38
3,52,38
4,51,39
4,51,39
4,51,39
5,52,40
5,52,40
6,53,40
5,53,41
4,53,41
5,53,39
4,52,39
4,51,39
4,51,38
3,51,38
2,51,38
1,50,39
1,50,39
1,50,40
1,49,41
2,48,40
1,48,41
2,48,41
3,49,42
2,49,41
3,50,42
3,50,41
3,51,41
2,50,40
2,50,40
2,50,40
3,50,40
3,50,41
4,50,41
4,50,41
3,50,41
3,50,41
2,49,41
2,50,42
2,50,41
2,50,41
2,51,40
2,50,41
3,50,41
2,50,41
2,50,41
2,50,42
2,50,41
2,49,41
2,49,42
1,49,41
1,49,41
0,49,43
0,48,42
0,49,42
0,49,42
0,49,42
0,49,42
1,49,41
1,49,42
0,49,42
0,49,41
1,49,41
1,49,42
1,49,42
2,49,42
2,49,42
2,49,42
2,49,42
1,50,42
0,50,41
0,49,41
0,49,41
0,49,41
0,49,41
1,49,42
0,49,42
0,49,42
1,49,42
1,49,43
1,49,42
1,49,43
1,49,42
1,49,43
0,49,42
-6,47,43
-1,48,42
0,49,40
4,51,39
-2,49,40
1,50,41
8,51,41
8,52,40
9,50,42
5,51,40
1,51,39
-6,50,40
-1,48,44
-2,48,45
-6,49,38
-3,49,40
-1,47,45
1,48,43
1,50,37
0,50,39
3,49,42
1,50,40
0,50,41
-1,50,43
-2,50,43
-1,50,41
0,49,42
-2,50,41
-2,50,39
-4,50,37
-1,50,39
1,50,40
1,50,41
1,50,41
1,50,42
2,50,43
3,50,42
3,50,41
3,50,41
2,49,41
2,49,42
-1,49,42
8,55,35
-1,54,34
-1,52,42
-1,51,42
-1,52,37
-3,52,37
-1,50,42
-2,48,44
-4,51,37
-1,51,37
0,49,42
0,47,46
-1,50,38
6,53,30
5,49,42
6,49,44
6,51,38
10,52,37
7,51,43
7,50,46
6,52,35
10,51,33
10,51,34
12,49,36
13,50,35
16,52,33
15,52,34
13,52,36
14,52,34
16,53,33
13,54,32
13,53,34
14,52,33
17,54,32
17,54,32
17,54,34
16,53,32
17,52,32
13,51,34
12,51,33
10,51,32
12,49,32
9,46,34
10,45,31
-1,38,23
1,34,21
11,35,28
-4,30,19
-2,30,13
12,37,8
23,37,14
15,36,-2
19,37,-7
37,38,-4
35,39,-12
45,36,-14
55,28,-16
61,24,-19
69,16,-36
94,12,-24
70,3,-26
79,7,-34
127,46,-62
116,22,-22
65,5,-11
56,0,-26
54,2,-32
50,-5,-31
32,-6,-28
45,-4,-18
55,1,-24
64,3,-26
63,0,-25
62,-1,-19
65,-7,-13
63,-5,-22
62,-5,-21
61,-4,-21
59,-2,-23
56,0,-23
57,0,-23
58,0,-24
58,-1,-21
61,-1,-23
61,-2,-22
60,-3,-23
61,-5,-17
58,-3,-21
58,-3,-23
61,-2,-26
58,-2,-27
54,0,-33
52,0,-34
54,-1,-30
53,0,-33
54,0,-35
52,0,-36
50,0,-36
52,0,-39
52,0,-39
49,0,-40
48,-1,-39
49,-2,-39
50,-2,-39
50,-3,-39
49,-3,-39
49,-3,-39
50,-2,-40
51,-2,-41
51,-2,-40
51,-4,-39
51,-4,-40
51,-4,-41
50,-4,-41
52,-4,-38
54,-4,-35
53,-3,-37
51,-2,-36
51,-2,-33
50,0,-30
48,1,-34
50,0,-28
55,0,-27
57,0,-29
62,1,-25
59,1,-24
56,-4,-22
60,-3,-21
60,-3,-23
58,-4,-25
57,-3,-26
60,-4,-24
61,-4,-25
60,-4,-26
65,-4,-25
65,-4,-23
63,-3,-23
63,-3,-22
62,-3,-21
62,-3,-20
64,-2,-16
62,-2,-17
63,-2,-17
63,0,-14
62,1,-14
64,7,-13
66,8,-12
65,11,-10
62,12,-9
62,13,-8
60,14,-9
59,15,-8
54,15,-6
54,15,-4
54,16,-1
53,18,-4
53,20,-7
56,23,-11
59,23,-9
61,23,-6
58,23,-8
52,25,-13
51,25,-14
52,25,-13
54,27,-10
56,28,-10
56,30,-9
55,31,-8
53,31,-8
53,31,-10
54,30,-12
53,29,-14
57,29,-13
60,29,-12
57,29,-13
52,30,-16
54,30,-14
55,29,-13
59,29,-12
59,30,-13
53,30,-11
52,31,-10
55,30,-8
55,30,-8
54,31,-9
53,31,-9
51,32,-10
56,32,-10
61,32,-10
58,32,-10
54,32,-12
54,33,-13
55,33,-12
55,34,-11
54,34,-11
52,35,-11
52,35,-11
50,36,-10
50,36,-10
48,36,-9
47,35,-8
46,35,-8
46,34,-11
48,34,-11
51,35,-10
49,36,-11
51,37,-12
52,38,-13
56,39,-14
54,38,-14
52,38,-16
48,38,-17
49,37,-15
52,38,-15
51,38,-15
50,38,-13
50,39,-14
51,40,-13
52,42,-12
52,42,-12
49,41,-13
47,40,-13
45,37,-13
43,36,-14
42,36,-14
46,38,-11
50,41,-10
59,45,-10
53,45,-8
50,44,-8
48,42,-9
46,41,-10
42,39,-10
41,39,-8
42,39,-7
43,41,-9
44,42,-9
45,43,-7
45,43,-7
46,43,-9
43,43,-8
41,41,-10
43,39,-10
48,39,-11
54,41,-12
55,42,-13
54,43,-11
55,45,-9
56,50,-8
61,54,-5
58,55,-4
55,54,-3
53,54,-3
51,52,-3
49,51,-1
43,49,2
38,47,1
35,48,1
33,48,4
30,47,6
32,48,7
31,49,6
29,49,8
28,52,10
27,53,11
24,54,12
22,54,13
23,54,15
22,56,15
23,58,18
22,61,21
20,61,21
21,60,21
20,61,21
18,60,21
18,60,23
18,59,24
15,59,23
13,59,23
13,57,24
13,57,24
13,55,24
13,55,26
9,55,25
8,56,24
8,56,25
9,56,28
8,56,29
6,58,28
6,58,26
6,58,26
6,58,26
5,58,26
4,57,28
4,57,27
3,57,28
1,57,28
2,57,28
2,56,29
1,57,29
1,56,30
1,56,29
2,56,30
2,56,29
3,56,31
1,55,30
1,56,29
0,57,30
0,57,30
-2,57,31
-1,56,30
-1,56,31
-2,56,32
-2,55,31
-2,56,32
-2,56,32
-3,56,32
-2,56,33
-4,56,34
-4,55,32
-3,55,30
-4,57,32
-3,55,33
-1,56,33
-1,57,31
-1,57,30
-4,57,32
-5,56,33
-5,57,33
-6,57,33
-9,55,33
-10,55,33
-9,53,33
-10,53,33
-10,52,33
-11,52,32
-11,52,33
-10,53,33
-10,54,33
-9,55,34
-10,54,33
-9,55,33
-8,55,34
-10,54,37
-11,54,37
-10,54,37
-9,54,35
-8,54,33
-7,54,33
-7,53,36
-10,54,35
-9,54,34
-7,54,34
-7,54,35
-9,54,37
-9,54,37
-10,53,35
-7,54,35
-7,54,35
-8,54,35
-8,54,35
-9,54,35
-9,54,35
-8,55,34
-7,54,36
-8,54,36
-8,53,36
-7,53,36
-7,53,35
-10,53,34
-11,53,36
-8,52,37
-8,53,36
-9,54,35
-8,54,37
-6,54,38
-7,54,37
-8,53,37
-8,53,37
-8,53,37
-10,52,35
-12,52,34
-8,53,37
-9,53,36
-8,53,36
-9,53,36
-9,53,36
-10,54,37
-10,53,36
-8,54,36
-10,52,37
-9,52,38
-8,53,36
-4,53,36
-5,54,36
-7,53,36
-4,53,35
-2,54,35
-3,53,36
-3,53,35
-3,54,35
-4,53,36
-3,54,35
-3,54,37
-2,55,37
-2,56,36
-3,55,35
-5,55,36
-4,54,36
-4,54,36
-4,54,36
-2,53,36
-5,53,35
-5,53,35
-5,53,35
-4,53,37
-4,53,37
-4,55,36
-5,54,35
-5,54,36
-4,54,35
-4,54,36
-4,54,36
-5,53,36
-5,54,35
-5,53,36
-5,53,36
-4,54,36
-4,54,36
-4,55,38
-5,53,35
-5,52,36
-6,53,36
-5,53,35
-6,52,36
-6,52,36
-6,53,36
-7,53,37
-6,53,37
-7,53,37
-7,53,36
-7,53,36
-7,53,36
-6,53,37
-5,53,37
-5,53,37
-6,53,38
-6,53,38
-5,54,36
-5,53,37
-7,53,37
-5,52,37
-7,52,36
-7,53,36
-7,53,36
-6,54,37
-6,54,36
-6,53,37
-6,53,36
-6,53,36
-6,53,36
-6,53,37
-6,53,37
-7,53,36
-7,53,36
-7,53,35
-6,53,36
-5,53,37
-5,54,37
-6,54,37
-5,54,37
-7,53,35
-7,52,35
-6,52,35
-6,52,35
-6,55,37
-7,54,36
-6,55,36
-6,55,36
-7,55,35
-7,56,36
-6,57,36
-7,56,35
-6,56,36
-6,55,36
-6,54,36
-7,54,36
-7,54,36
-8,54,36
-8,53,36
-9,52,37
-10,53,36
-11,54,36
-12,52,36
-12,52,36
-13,52,37
-13,52,37
-14,50,36
-14,50,37
-14,50,37
-14,49,36
-14,50,38
-13,51,37
-13,51,37
-14,52,37
-14,52,38
-14,53,37
-14,53,37
-14,53,37
-14,52,36
-14,52,37
-14,52,37
-15,52,37
-15,51,37
-14,51,37
-14,51,37
-14,51,37
-14,51,37
-13,52,37
-13,52,37
-14,52,36
-12,53,37
-13,52,37
-12,53,37
-12,52,37
-11,51,37
-11,50,37
-14,50,37
-14,51,38
-14,52,39
-14,53,37
-15,52,37
-15,52,36
-10,52,38
-11,51,38
-11,52,37
-10,52,38
-12,52,38
-11,52,38
-11,52,38
-11,52,37
-13,52,36
-10,52,39
-9,52,40
-18,51,34
-17,51,35
-13,51,37
-17,51,37
-19,50,37
-17,50,38
-18,51,36
-15,51,38
-17,50,37
-21,50,35
-25,49,36
-23,50,37
-32,49,34
-22,49,37
-15,49,40
-17,50,38
-15,50,38
-9,50,39
-8,52,39
-12,52,39
-10,52,38
-8,51,39
-14,51,37
-14,51,37
-13,50,37
-12,51,38
-14,50,38
-13,51,39
-9,51,40
-5,52,39
0,53,41
-6,51,39
-11,52,33
-12,51,37
-5,51,42
-5,50,42
-24,51,31
-28,51,29
-20,49,39
-24,48,43
-22,49,39
-14,49,38
-10,48,40
-20,50,36
-30,50,30
-22,52,33
-27,50,36
-25,48,39
-25,49,36
-21,49,36
-13,50,38
-18,50,37
-18,52,34
-17,52,33
-18,53,33
-17,54,33
-20,54,36
-21,55,34
-17,57,35
-15,58,36
-15,58,37
-9,58,33
-9,58,34
-9,57,35
-6,55,35
-6,53,34
-5,52,39
-8,50,34
-5,51,32
-3,46,38
-2,47,39
-2,49,36
-1,46,39
3,44,45
4,45,47
3,44,48
-1,46,43
0,48,43
-5,50,39
-7,51,35
-5,55,32
-6,57,31
-10,59,26
-6,63,22
-8,65,21
-9,65,21
-9,64,20
-11,64,17
-9,64,19
-8,63,21
-10,65,19
-9,64,23
-12,66,22
-14,66,20
-10,62,22
-2,58,27
-1,56,28
3,53,27
6,51,28
12,50,37
12,48,39
13,50,33
17,47,40
17,47,42
14,46,39
13,44,37
15,43,43
15,42,42
17,35,39
20,41,43
19,42,39
15,46,35
13,48,34
6,50,18
4,61,18
2,66,19
-5,78,-2
-4,77,-4
17,69,5
20,66,6
33,60,10
39,58,18
32,61,16
16,63,10
8,62,21
13,62,37
5,64,29
-11,65,30
0,63,38
2,59,39
-5,58,32
0,59,33
10,57,38
1,55,38
-2,52,37
-1,52,36
-18,50,31
-12,49,33
-11,47,37
-10,50,31
-16,50,29
1,57,27
18,59,31
14,57,31
32,67,27
42,71,31
27,68,32
24,70,33
25,69,32
27,68,31
21,66,33
14,62,26
14,60,26
13,57,30
13,56,32
-1,53,26
1,52,28
1,49,33
-4,47,34
-5,47,30
-3,46,33
-4,45,35
-7,45,34
-7,46,32
-7,46,33
-11,45,35
-13,49,35
-13,47,36
-15,48,36
-19,48,36
-21,47,36
-18,49,37
-9,50,41
-12,48,40
-12,47,39
-8,46,41
-11,48,41
-9,48,43
-9,49,42
-15,50,39
-12,50,40
-9,50,43
-8,51,41
-6,50,41
-5,50,42
-5,50,43
-7,49,39
-8,49,38
-3,49,43
-6,50,43
0,50,45
-11,52,39
-6,51,43
-18,51,35
-24,51,31
-5,50,43
-9,50,43
-11,49,39
-8,47,41
-10,48,40
-8,48,40
-8,48,40
-5,48,41
-6,49,42
-7,49,41
-7,51,40
-7,51,39
-8,51,40
-8,51,41
-7,50,39
-9,50,40
-8,50,39
-8,49,38
-9,49,39
-9,50,39
-9,50,38
-11,51,36
-9,51,39
-9,53,38
-6,54,38
-3,53,39
-1,53,41
0,52,40
-2,48,38
-5,44,36
-7,41,34
-7,36,27
-2,40,29
1,42,31
-5,40,23
0,34,16
-3,23,7
-3,21,6
7,17,10
13,14,7
26,20,-4
42,24,-5
73,18,4
75,12,-6
90,14,-4
122,17,-13
118,17,-10
110,20,-3
112,18,-3
110,18,-1
101,17,-1
93,16,-3
75,9,-6
71,6,-7
67,-1,-9
61,-4,-9
59,-5,-10
59,-5,-9
59,-5,-8
59,-5,-10
60,-5,-11
62,-6,-8
62,-5,-10
63,-5,-11
62,-5,-10
63,-5,-11
64,-4,-10
62,-3,-12
62,-4,-12
63,-4,-12
63,-3,-12
63,-4,-12
64,-5,-12
64,-5,-12
63,-5,-12
63,-5,-11
63,-6,-10
63,-6,-10
63,-5,-11
63,-5,-11
62,-3,-10
62,-3,-11
60,-2,-11
61,0,-11
60,0,-11
59,0,-11
59,1,-11
60,2,-12
61,2,-12
63,2,-11
63,3,-12
64,4,-12
64,4,-12
64,5,-12
64,5,-13
61,5,-13
60,4,-13
59,3,-15
60,2,-15
61,1,-15
61,1,-15
62,2,-14
63,3,-12
62,4,-10
62,5,-9
62,5,-10
61,5,-11
61,5,-11
61,5,-11
62,5,-11
62,6,-11
62,6,-11
63,6,-11
63,6,-11
63,6,-11
63,6,-11
61,7,-11
61,7,-12
62,7,-12
62,7,-12
62,7,-12
62,7,-12
62,7,-11
61,7,-11
61,7,-11
61,8,-11
61,8,-11
61,8,-11
61,8,-11
61,8,-11
62,8,-11
62,8,-11
63,8,-10
62,8,-11
63,8,-11
63,8,-12
64,9,-11
64,10,-11
65,11,-12
66,12,-12
66,14,-12
67,15,-12
68,15,-12
65,16,-14
66,18,-12
68,20,-11
74,30,-7
78,34,-3
79,42,1
79,45,-2
76,45,-1
70,43,0
63,43,-1
51,44,-2
48,44,1
42,44,14
31,44,13
27,45,8
25,44,9
23,44,11
15,44,16
14,45,18
10,49,21
8,52,24
9,52,27
5,50,28
3,47,28
2,48,28
1,48,27
-1,49,30
-5,47,32
-6,46,31
-11,47,30
-10,48,33
-11,46,35
-11,50,33
-11,51,33
-10,52,36
-11,52,34
-10,49,29
-9,51,31
-12,50,36
-13,46,32
-10,54,34
-9,51,35
-6,53,36
-8,52,40
-8,52,42
-8,51,42
-3,52,39
-2,52,40
0,53,38
-1,51,38
1,52,36
1,53,37
0,53,37
1,53,36
1,52,38
-1,52,36
-3,53,35
-1,52,38
1,52,38
-5,53,38
-6,52,38
-3,54,38
-4,53,37
-5,52,37
-3,53,38
-3,53,39
-4,51,38
-4,51,38
-3,52,38
-5,51,37
-3,52,38
-4,53,39
-3,54,39
-4,53,41
-4,53,39
-3,52,38
-4,52,38
-3,52,38
-4,53,37
-3,53,37
-3,54,37
-2,54,38
-1,54,38
-2,54,38
-5,53,39
-5,51,39
-7,50,38
-7,50,38
-7,49,39
-3,52,38
-4,52,38
-6,51,38
-4,52,40
-2,52,40
-5,51,41
-3,51,38
-2,50,38
-1,50,40
0,50,40
-4,52,35
-5,52,36
6,53,41
-11,52,40
-4,53,42
-22,53,35
-20,52,35
-11,52,40
-26,51,32
-17,51,33
-16,50,34
-24,49,32
-15,53,33
-25,52,30
-33,52,35
-22,51,33
-4,56,32
-5,53,30
17,54,36
17,52,42
9,52,38
11,53,38
22,53,42
27,52,43
26,48,28
20,53,8
-61,58,-22
-79,54,-4
-26,47,34
-25,44,24
-31,40,16
-31,31,8
-38,37,4
-21,29,6
-2,24,6
-8,23,12
0,37,13
9,35,17
15,28,4
23,37,-10
41,41,-6
45,37,3
55,57,-23
100,63,-11
107,54,-4
99,42,-19
101,42,-19
89,40,-12
91,41,-9
88,45,-23
71,38,-30
76,34,-29
60,27,-29
59,25,-26
44,19,-18
39,13,-9
46,11,-7
43,11,-16
41,9,-16
48,5,-18
55,6,-21
65,6,-25
62,5,-25
62,4,-21
64,4,-18
66,5,-19
65,4,-24
63,2,-25
65,-3,-22
55,-5,-29
59,-6,-29
65,-5,-30
69,-4,-33
60,-4,-34
57,-4,-32
66,-5,-31
67,-7,-25
60,-7,-20
55,-7,-14
54,-8,-9
58,-10,1
66,-8,5
61,-9,5
62,-10,13
66,-11,18
63,-11,23
58,-10,23
59,-6,35
47,-8,39
45,-7,46
27,-7,53
33,-5,56
24,-4,56
15,-5,57
13,-4,60
11,-3,61
3,-2,58
-11,-1,58
-18,1,52
15,2,36
29,3,26
51,4,9
57,7,-9
71,7,-36
84,5,-25
80,8,-32
61,12,-39
59,13,-33
57,12,-28
49,12,-29
49,12,-29
55,13,-29
59,13,-29
54,12,-30
50,11,-31
53,12,-29
54,13,-30
54,13,-30
53,13,-28
54,12,-28
56,13,-30
55,13,-30
54,13,-27
55,13,-27
56,14,-28
56,13,-27
56,13,-27
54,13,-27
53,13,-28
53,14,-28
54,14,-31
54,14,-33
53,13,-33
54,13,-31
52,13,-32
53,13,-33
54,13,-31
54,14,-31
54,14,-32
54,14,-31
54,14,-31
53,14,-32
53,14,-32
52,14,-32
51,14,-33
52,14,-33
53,15,-33
54,14,-33
55,15,-32
55,15,-32
55,16,-31
54,16,-31
53,17,-31
52,16,-30
49,16,-28
48,16,-28
45,16,-30
43,14,-32
45,9,-24
49,7,-23
50,8,-35
52,8,-37
58,9,-34
62,11,-34
62,14,-36
72,18,-39
74,16,-38
76,15,-36
72,16,-38
70,16,-18
74,23,-18
73,23,-17
64,18,-11
51,15,-4
41,18,0
41,20,0
42,26,2
41,30,4
41,31,4
41,34,7
43,36,8
44,38,10
43,37,11
38,37,10
38,35,5
40,33,3
39,28,4
38,25,4
48,23,6
52,23,3
60,23,-4
59,20,-7
56,16,-5
59,12,-17
68,12,-18
80,12,-21
75,12,-22
80,13,-19
86,16,-18
83,17,-19
78,15,-17
78,16,-13
72,16,-12
65,17,-12
61,16,-9
59,17,-8
56,17,-6
50,19,-2
51,20,0
51,23,0
53,24,0
53,28,2
54,31,3
54,33,3
52,36,6
53,37,6
51,38,8
47,39,9
47,40,9
48,41,11
47,41,12
45,42,14
45,41,13
41,43,11
40,43,12
41,44,14
41,45,15
40,47,15
37,49,16
39,49,17
40,47,19
33,46,16
33,46,14
35,45,14
37,46,17
37,50,20
39,52,22
41,57,28
40,56,29
40,55,28
36,52,22
32,50,20
26,45,19
24,43,18
27,43,17
27,45,22
29,47,26
28,52,27
30,53,27
29,55,28
28,54,30
26,56,29
22,55,29
21,54,28
18,51,26
18,49,25
18,47,24
18,48,25
19,51,26
22,53,30
21,54,30
22,54,30
22,54,29
22,54,29
21,54,28
20,55,27
19,55,28
19,55,28
19,54,28
20,53,28
20,53,28
20,53,29
20,53,29
20,53,29
20,53,29
19,53,29
20,53,28
20,54,29
19,54,29
19,54,29
19,54,30
19,54,29
19,54,29
19,54,29
19,53,27
19,54,29
19,54,29
19,54,28
19,54,29
19,54,29
19,54,30
19,54,29
18,55,29
18,54,29
19,54,28
19,55,28
18,54,28
18,54,28
18,54,28
19,54,28
19,54,28
18,54,28
18,54,28
19,54,29
19,54,30
18,54,28
19,55,28
19,55,28
19,55,28
19,55,27
19,54,28
19,54,28
18,55,28
18,55,28
18,55,28
19,55,28
19,55,29
18,55,27
18,55,27
19,55,27
18,55,27
18,55,27
18,55,28
18,55,28
18,54,28
18,54,28
19,55,28
18,55,28
18,55,28
18,55,27
18,55,27
19,55,28
18,55,27
18,55,27
18,56,27
18,55,28
18,55,27
19,55,28
18,55,27
18,55,28
18,55,28
17,55,27
17,55,27
18,55,28
18,55,28
18,55,28
19,55,28
19,55,28
19,55,28
18,55,28
18,55,28
18,55,28
17,55,27
17,55,27
18,55,28
18,55,28
18,55,28
18,55,28
19,55,28
18,55,28
18,55,28
18,55,27
18,55,28
17,55,28
17,55,27
17,55,28
17,55,27
17,55,27
18,55,27
17,55,27
17,55,28
17,55,28
18,55,28
17,55,28
17,55,27
17,55,27
18,55,28
18,55,28
18,55,27
18,55,28
18,55,27
17,55,28
18,55,28
18,55,28
18,55,28
18,55,28
18,55,27
18,55,27
18,55,28
18,55,28
18,55,28
18,55,28
18,55,28
18,55,28
18,55,28
18,55,27
18,55,27
18,55,27
18,55,27
18,55,28
17,55,28
17,55,28
18,55,28
18,55,28
18,55,28
18,55,27
18,55,27
18,56,27
17,55,27
18,55,28
18,55,28
17,55,28
17,55,27
18,55,28
17,55,27
17,55,28
18,55,28
18,55,28
18,55,28
18,55,28
16,55,27
15,55,27
16,55,28
17,55,28
15,56,27
16,56,28
18,55,29
16,56,29
16,55,29
15,55,28
16,55,29
16,55,29
14,56,28
15,56,28
16,56,29
15,55,29
15,55,29
15,55,29
14,55,29
13,55,29
14,56,29
14,55,29
12,56,29
13,56,29
17,55,31
16,55,31
15,56,29
15,55,30
15,55,29
14,55,30
14,55,30
13,55,29
13,55,29
12,55,29
14,55,30
13,55,31
13,55,31
13,55,30
12,55,30
12,55,30
15,55,31
13,55,30
14,55,30
15,55,30
15,55,30
14,55,29
14,55,29
14,56,30
14,55,30
14,56,29
14,55,29
14,55,30
14,55,30
15,55,30
15,55,30
15,55,30
15,55,30
14,55,30
14,55,30
14,55,29
14,55,30
14,55,29
14,55,29
14,55,29
14,55,30
14,55,30
14,55,30
13,55,30
13,55,30
14,55,30
14,55,30
14,55,30
14,55,30
14,55,30
14,55,29
14,55,29
14,55,29
14,56,29
14,56,30
14,56,30
13,56,30
13,56,30
13,55,29
14,55,30
14,55,29
14,55,29
14,56,29
14,55,29
13,55,30
14,55,30
13,55,30
14,55,30
14,55,30
14,55,30
14,55,30
13,55,30
13,55,29
14,55,30
14,56,30
14,56,30
14,55,30
13,55,30
14,55,30
14,56,30
13,55,30
13,55,30
13,55,30
14,55,30
13,55,30
13,55,29
13,55,29
13,55,29
13,55,29
13,55,29
13,56,30
13,56,30
13,56,30
13,55,30
13,55,30
13,55,29
14,55,29
14,55,29
14,55,29
14,55,29
14,55,29
14,55,29
13,56,29
14,57,29
14,56,29
14,56,28
14,55,28
13,55,28
13,56,27
13,57,28
14,57,28
13,58,28
13,58,27
13,58,27
13,58,26
12,59,26
12,59,25
12,59,26
12,59,26
12,59,26
11,59,26
11,58,26
11,57,26
10,57,26
8,55,25
11,55,26
13,54,27
15,54,26
16,54,27
18,55,28
17,56,28
17,56,28
16,56,27
17,57,27
17,55,26
18,55,26
18,57,28
18,57,28
18,56,28
18,56,28
18,55,28
19,55,28
19,54,27
19,55,27
18,55,27
19,55,27
19,55,28
19,55,28
19,55,28
19,55,28
19,55,28
19,55,27
19,55,27
19,54,28
19,54,28
19,54,28
19,54,28
18,54,28
18,55,28
18,55,29
18,55,28
18,56,28
18,55,28
18,56,27
17,55,27
17,55,27
16,55,27
16,55,26
16,55,27
16,55,26
16,55,26
16,56,27
17,56,28
17,56,28
18,56,28
17,55,26
17,55,29
17,54,28
16,54,28
16,55,27
15,55,27
15,55,27
15,55,27
15,56,26
15,56,28
15,56,28
15,55,27
15,55,27
15,55,27
15,55,27
17,55,27
19,55,27
20,55,27
21,55,26
21,55,27
22,55,26
23,55,25
25,55,26
25,55,25
26,54,25
25,55,25
25,55,25
25,54,26
25,55,26
23,56,26
21,57,26
19,57,26
20,56,24
19,55,22
20,55,22
20,54,23
20,54,23
21,54,24
21,54,24
20,55,24
22,54,25
23,55,27
22,55,26
23,55,26
23,54,26
22,54,26
22,55,26
21,55,26
21,54,26
21,52,25
21,52,25
23,52,27
22,52,27
21,52,26
22,53,26
22,53,25
22,53,24
20,53,22
21,52,24
22,53,24
24,54,24
24,54,24
25,55,24
26,57,24
26,57,25
26,57,24
27,57,24
27,56,25
27,55,23
27,52,22
27,52,22
27,53,22
26,53,23
27,53,23
26,52,22
27,52,22
27,53,22
29,55,23
28,55,23
27,54,22
28,54,22
28,53,22
28,52,22
29,52,21
30,52,22
30,51,23
31,51,23
31,51,23
32,51,22
32,51,23
31,51,22
32,50,23
32,50,23
32,50,22
32,49,23
32,50,23
33,50,24
34,50,24
34,50,23
35,50,24
34,49,23
34,49,23
34,49,23
34,49,23
34,49,23
34,48,22
34,48,23
34,49,22
34,49,22
34,49,23
34,49,23
34,49,23
34,49,23
34,49,23
34,49,23
34,49,24
34,49,24
34,49,24
34,49,24
33,49,23
33,49,23
33,50,23
32,50,23
32,51,22
32,50,22
32,50,22
31,50,22
32,50,22
32,50,23
32,50,23
32,50,23
32,50,24
31,50,23
30,51,22
30,52,22
31,52,22
31,52,22
34,52,23
34,51,22
34,50,23
33,49,23
31,49,23
29,50,22
29,50,23
29,51,23
30,51,22
31,52,22
33,52,23
34,52,23
33,51,22
33,51,23
31,50,22
30,49,22
29,50,22
30,51,23
30,51,23
31,52,23
32,52,23
33,51,23
33,51,22
33,51,22
32,50,24
32,50,23
31,49,24
30,49,24
30,50,24
30,51,23
30,51,23
31,52,23
32,52,23
32,51,23
31,51,23
31,51,24
30,50,23
30,50,23
29,50,24
30,50,23
30,51,23
31,51,23
31,51,23
31,52,23
30,52,23
31,52,22
30,52,22
30,51,22
30,51,23
30,51,23
29,51,23
30,51,23
30,52,23
29,52,23
29,52,23
29,52,23
29,52,22
30,52,23
29,53,22
29,53,22
29,52,22
28,52,22
29,52,23
29,52,23
29,52,22
29,52,23
29,52,22
29,52,23
30,52,22
30,52,23
30,52,23
30,52,22
30,52,22
30,52,23
30,52,23
30,52,23
30,52,23
31,52,23
31,52,23
31,52,23
31,52,22
30,51,22
30,51,22
29,52,21
30,53,20
31,53,20
32,53,21
32,53,21
32,53,21
30,53,21
31,52,22
31,51,22
32,49,22
33,48,24
32,49,24
32,49,27
32,49,28
32,48,29
32,47,28
32,47,29
31,47,28
30,47,30
30,47,30
31,47,31
31,46,31
32,45,32
31,44,33
31,44,32
30,45,32
30,45,32
30,46,32
30,47,32
30,47,31
29,48,31
28,48,31
28,48,31
28,46,29
29,46,28
31,45,26
33,44,26
35,43,25
38,43,26
39,44,25
42,44,23
42,45,23
44,47,23
43,48,22
41,50,23
35,52,20
37,52,20
41,49,22
40,47,20
36,46,16
37,45,16
37,44,18
34,46,17
33,46,18
35,46,19
37,46,19
37,46,19
37,47,18
39,47,18
40,47,17
40,48,18
41,47,17
41,46,17
42,45,17
42,45,17
41,44,15
41,42,15
41,42,15
41,41,13
43,40,14
45,40,14
45,40,13
47,39,14
48,38,12
48,38,12
49,37,11
49,37,11
50,37,10
50,35,10
51,35,10
53,33,9
54,32,9
55,30,10
56,29,10
56,27,9
58,27,11
60,27,12
61,27,11
60,27,11
60,25,10
59,25,9
59,23,10
57,23,9
55,22,8
57,21,10
61,21,11
64,21,10
62,22,10
60,23,5
61,25,-4
62,26,-9
50,23,-15
43,21,-14
34,17,-12
31,14,-11
29,10,-10
25,7,-26
26,4,-32
39,-6,-23
51,-13,-17
63,-21,-27
59,-28,-30
99,-12,-49
127,7,-48
119,-10,-11
43,-36,-2
60,-32,5
41,-30,-6
35,-28,-11
53,-26,-13
60,-24,-13
60,-22,-15
63,-25,-14
56,-27,-11
53,-25,-22
51,-24,-29
47,-23,-31
48,-25,-37
48,-24,-36
44,-23,-40
45,-22,-44
44,-19,-44
40,-17,-42
42,-14,-44
40,-11,-50
39,-11,-47
46,-9,-46
49,-9,-46
41,-8,-47
44,-10,-43
55,-12,-31
55,-11,-33
43,-8,-35
57,-9,-35
56,-8,-35
54,-11,-26
52,-10,-32
45,-9,-37
53,-9,-40
54,-13,-30
58,-13,-27
55,-13,-28
55,-14,-37
51,-13,-31
51,-14,-28
54,-13,-28
54,-13,-28
54,-13,-32
54,-13,-31
53,-13,-30
54,-13,-30
54,-12,-31
53,-13,-29
53,-13,-29
54,-12,-30
55,-12,-33
55,-13,-30
51,-13,-28
53,-14,-29
55,-13,-29
55,-14,-29
54,-14,-27
55,-13,-29
53,-13,-30
54,-13,-28
54,-12,-29
55,-12,-29
54,-13,-28
53,-13,-29
54,-13,-28
54,-12,-33
54,-13,-28
54,-13,-27
54,-13,-28
54,-13,-29
55,-13,-29
55,-13,-29
53,-13,-30
54,-13,-30
54,-13,-29
54,-13,-29
54,-13,-29
54,-13,-30
54,-12,-30
54,-12,-30
54,-13,-30
54,-13,-30
54,-13,-30
54,-13,-30
54,-13,-30
54,-13,-29
56,-13,-30
57,-15,-27
59,-14,-26
66,-11,-26
66,-12,-27
67,-12,-25
74,-7,-21
69,-7,-22
71,-1,-17
73,0,-16
70,2,-13
68,3,-11
66,6,-10
67,8,-9
65,10,-8
60,11,-8
58,10,-7
55,11,-3
54,13,-3
55,15,-3
52,20,-1
53,22,2
53,28,1
54,30,0
52,34,-1
50,35,-1
45,38,-3
46,40,-5
45,41,-4
44,42,-1
44,42,-2
41,43,-3
39,43,-3
38,44,-1
39,44,-2
39,43,-1
40,43,0
41,44,0
42,45,1
42,46,1
42,47,-1
45,47,0
47,48,0
45,47,-3
43,47,-3
47,46,-6
49,47,-7
43,45,-9
42,46,-14
44,47,-15
45,48,-12
42,47,-11
38,48,-14
40,50,-15
43,52,-15
43,53,-14
41,54,-14
43,55,-14
44,55,-15
41,54,-12
36,52,-10
32,51,-11
34,52,-11
33,51,-9
31,50,-5
32,50,-5
35,50,-5
34,50,-2
21,50,0
26,51,4
35,53,5
40,53,8
35,53,8
32,54,9
29,54,9
22,56,7
25,55,11
31,56,13
30,54,16
27,56,14
30,55,14
29,57,9
24,57,6
34,59,1
42,58,3
37,57,7
33,57,4
28,56,0
29,56,2
27,56,3
27,54,7
27,54,7
32,57,-5
32,59,-12
32,61,-9
31,59,1
29,58,2
27,59,0
27,60,-1
33,60,3
34,58,3
28,57,2
22,52,0
16,49,1
13,51,3
15,52,6
21,54,7
28,57,7
28,57,8
33,61,5
34,62,2
33,59,6
33,58,6
32,61,-8
33,58,-7
26,54,-4
29,55,-2
26,57,-3
32,59,-7
32,59,-6
32,57,-6
30,57,-5
31,56,-4
32,55,-2
29,54,-2
29,54,-4
29,53,-4
30,52,-2
29,54,-2
29,55,-1
29,58,-3
30,59,-3
29,60,-2
29,59,-2
30,59,-2
28,58,-3
29,58,-3
31,57,-4
32,58,-4
28,58,-4
30,61,-3
29,63,-2
30,66,1
31,68,1
30,66,0
28,64,-3
26,63,-6
26,62,-5
24,60,0
24,62,2
22,62,3
21,61,6
19,60,9
17,58,13
17,58,12
15,57,13
14,54,14
16,54,15
18,55,14
24,55,17
19,53,21
11,53,23
12,53,22
10,57,15
-1,59,12
6,58,21
5,59,22
7,61,26
10,62,28
10,62,27
7,62,24
7,60,24
6,56,26
5,54,27
2,50,25
1,50,22
4,53,22
7,61,25
8,64,27
15,69,31
15,70,31
17,67,28
18,62,27
16,60,27
8,57,25
8,55,24
6,54,23
6,54,23
5,54,22
3,55,20
2,55,21
8,57,21
13,58,21
17,60,19
13,60,17
23,61,20
26,60,19
25,59,19
18,58,19
19,58,18
20,56,14
19,55,13
20,55,14
18,51,15
12,48,12
4,45,3
7,46,3
19,43,12
15,38,7
10,41,-2
17,46,-2
20,43,1
25,34,-5
26,41,-10
27,35,-14
33,21,-6
37,15,-17
42,2,-28
40,-5,-23
67,-20,-35
81,-27,-27
127,1,-112
97,13,-1
24,-12,4
55,-27,-2
60,-15,-13
37,-26,-30
32,-23,-36
60,-10,-35
64,-6,-29
52,-7,-20
58,-17,-20
64,-20,-24
55,-22,-20
53,-22,-19
56,-19,-20
59,-15,-21
58,-14,-20
56,-16,-19
57,-17,-21
56,-19,-22
56,-19,-21
57,-18,-20
57,-18,-20
57,-17,-21
56,-16,-21
56,-16,-21
56,-15,-21
57,-16,-19
56,-17,-19
57,-19,-20
57,-19,-20
57,-18,-21
57,-17,-21
56,-17,-20
56,-17,-20
56,-18,-20
57,-17,-20
57,-17,-20
56,-17,-20
56,-17,-20
57,-18,-19
57,-18,-20
57,-18,-20
57,-18,-20
57,-18,-20
57,-17,-20
57,-17,-21
56,-17,-20
56,-17,-20
57,-17,-20
57,-16,-21
57,-16,-20
57,-16,-20
57,-16,-20
57,-16,-21
59,-17,-21
60,-18,-19
60,-17,-18
61,-15,-22
61,-15,-20
64,-14,-16
64,-17,-18
62,-12,-23
63,-11,-21
65,-10,-20
64,-9,-20
65,-6,-21
61,-5,-22
56,-2,-24
61,2,-26
62,4,-28
52,6,-29
46,7,-30
45,9,-34
46,10,-35
50,13,-33
45,14,-32
45,15,-35
61,18,-37
61,19,-33
59,18,-29
57,19,-27
51,20,-23
55,21,-17
60,22,-17
51,23,-16
49,23,-13
48,23,-11
45,24,-13
46,23,-8
53,21,-6
56,21,-12
54,23,-20
58,22,-18
55,19,-19
56,19,-26
55,18,-29
61,17,-28
62,16,-28
61,20,-35
81,27,-28
80,31,-24
80,34,-18
80,34,-14
76,35,-13
69,35,-13
66,33,-8
63,35,-6
56,37,-2
51,36,-1
45,36,1
39,38,6
37,40,7
34,40,10
31,40,10
28,41,13
16,42,15
16,44,16
15,46,16
17,47,16
15,48,18
17,48,18
20,51,19
18,52,24
17,53,26
20,56,26
20,57,23
21,58,25
21,59,24
22,59,24
24,60,22
25,60,22
23,59,21
19,57,21
19,57,22
16,56,21
15,55,23
16,53,22
16,54,21
15,55,21
15,55,21
18,57,24
17,58,23
18,58,23
19,58,23
18,58,24
18,58,25
18,58,24
17,58,23
17,57,24
17,57,23
17,58,23
18,58,24
17,58,23
17,57,22
19,57,22
18,56,25
17,55,25
17,55,24
16,54,24
17,55,25
17,55,25
17,57,24
18,58,22
16,57,22
16,57,24
17,57,26
16,57,26
15,57,26
15,57,25
16,57,26
15,57,26
17,57,25
17,57,24
17,57,23
18,57,24
17,58,24
18,57,24
18,57,23
17,57,22
19,57,22
19,56,23
18,56,22
19,57,22
22,58,21
22,58,20
18,57,21
18,57,20
19,57,20
19,56,20
19,55,21
20,56,20
23,58,18
22,60,17
20,59,18
20,59,21
21,59,20
21,59,20
21,58,20
20,57,20
19,57,19
19,57,19
19,56,18
19,55,19
21,56,19
24,58,19
22,58,20
17,57,20
21,58,21
20,57,20
22,57,21
22,57,21
21,57,21
23,57,19
25,57,19
25,57,18
23,57,17
25,57,17
24,56,18
23,54,20
22,54,21
23,56,20
26,56,19
20,56,20
24,57,20
26,57,20
25,57,19
25,56,19
26,55,19
26,56,19
27,56,18
27,55,18
28,55,19
26,54,18
27,55,18
27,55,18
28,55,18
28,54,19
28,55,20
28,55,20
28,55,19
28,55,20
28,57,20
27,56,20
27,55,21
26,54,22
26,53,23
23,52,24
22,52,24
19,52,24
22,53,26
21,53,26
26,54,27
26,54,27
23,55,27
23,55,26
25,55,26
22,55,26
22,54,26
22,55,26
21,54,26
22,54,24
22,53,25
22,53,25
22,54,25
22,54,24
23,54,25
23,54,25
23,54,25
23,55,25
23,54,26
23,55,25
23,54,24
23,54,25
23,54,25
23,54,25
24,55,25
23,55,25
23,54,26
23,55,26
22,54,26
23,54,25
22,54,27
23,54,27
20,53,27
19,53,26
20,53,26
16,53,24
17,53,24
26,57,21
29,57,20
26,56,20
28,56,20
29,56,18
27,55,19
28,56,19
35,57,18
28,55,17
24,54,18
21,54,22
21,54,23
18,55,24
21,55,27
18,54,28
21,55,28
19,54,28
19,54,29
18,54,28
18,54,28
16,54,29
17,54,28
18,55,26
22,55,27
17,54,28
19,55,28
19,54,28
19,54,29
19,54,30
19,54,30
18,54,30
18,54,30
18,54,30
17,54,30
17,54,29
18,54,29
18,54,29
18,54,29
19,54,29
19,54,29
19,54,30
18,54,29
19,54,29
19,54,29
18,54,29
18,54,30
18,54,30
18,54,29
18,54,29
18,54,29
18,54,29
18,54,29
18,54,29
18,54,29
19,54,30
19,54,30
18,54,29
19,54,30
18,54,30
18,54,28
19,54,30
18,54,29
18,54,29
18,54,29
18,54,29
18,53,29
18,53,30
18,53,30
18,53,30
19,54,30
19,54,30
19,54,29
19,54,29
19,54,29
19,54,30
18,54,29
19,54,29
18,54,29
19,54,30
19,54,30
19,54,30
18,54,29
19,54,30
18,54,30
18,54,30
18,54,29
19,54,30
18,54,30
19,54,30
19,54,29
18,54,29
19,54,30
18,54,30
19,54,30
19,54,30
19,54,29
18,54,29
18,54,30
18,54,30
18,54,29
18,54,29
18,54,29
19,54,30
19,54,30
19,54,30
19,54,30
19,54,30
19,54,30
18,54,29
18,54,29
16,54,28
16,53,30
17,54,29
25,56,27
27,56,26
20,55,25
22,55,26
22,55,27
20,54,26
20,55,26
19,55,26
20,54,26
20,55,26
20,54,26
21,55,26
24,55,25
23,55,25
22,55,26
22,55,25
23,55,25
23,54,27
20,55,27
21,55,26
20,54,26
18,54,27
18,54,28
15,54,26
21,55,25
24,56,24
23,56,23
24,55,23
26,56,21
25,56,21
26,55,22
24,55,22
25,55,21
21,53,22
23,53,23
23,53,27
14,54,24
13,56,22
22,57,26
20,56,28
19,55,30
21,56,30
21,55,28
21,55,29
21,54,29
19,54,28
20,54,27
20,54,27
19,53,27
18,53,28
20,53,28
20,53,28
20,54,28
20,54,29
20,54,28
20,55,28
20,55,29
19,55,28
19,54,27
19,54,27
20,54,28
19,54,27
21,54,27
21,54,27
21,54,29
22,54,29
22,53,30
20,54,29
19,55,28
19,55,28
19,54,27
12,54,26
14,53,26
33,57,27
25,57,26
16,55,21
23,54,18
31,51,22
26,51,27
24,53,24
25,57,21
24,57,22
22,55,25
21,55,24
21,55,22
21,55,23
21,54,23
21,54,23
23,54,24
25,56,26
25,55,26
25,55,26
25,56,26
24,56,26
23,55,26
23,55,25
23,55,23
23,54,24
23,54,24
23,54,24
23,54,24
23,54,25
23,54,25
23,54,24
23,54,25
23,54,25
23,55,24
23,55,24
23,55,25
22,55,25
23,55,25
26,56,24
26,55,24
24,55,25
25,55,25
25,55,25
20,55,25
18,55,25
18,55,22
21,55,22
23,54,26
22,53,26
23,53,26
22,53,23
24,54,21
27,55,21
26,55,21
25,55,22
25,55,21
24,55,21
24,55,22
25,54,23
26,54,25
25,54,25
20,54,23
23,55,22
25,56,23
24,54,28
23,55,27
22,55,26
22,55,26
21,54,26
19,54,26
17,53,28
20,52,31
19,52,30
20,53,27
21,53,27
22,53,28
23,54,28
22,53,28
23,54,28
23,54,28
23,54,28
21,53,28
21,53,28
22,54,27
21,53,29
20,54,28
20,54,28
21,53,29
21,54,28
20,53,29
21,53,30
20,53,29
21,53,30
21,52,30
21,53,29
20,53,29
19,53,30
19,53,30
21,54,30
18,53,30
18,53,30
18,53,30
18,53,31
18,52,31
19,53,31
18,53,30
19,53,30
19,53,31
19,53,31
18,53,31
21,54,31
16,54,31
19,54,32
17,53,33
17,54,34
14,53,33
15,53,33
15,53,33
13,52,33
15,51,33
14,52,34
15,52,34
14,51,34
14,52,34
15,53,34
14,53,33
15,54,33
13,53,33
16,54,32
14,55,30
13,54,30
16,55,30
14,55,29
12,55,28
18,56,27
20,57,27
16,57,27
18,56,26
22,57,24
21,57,22
21,57,22
24,57,20
25,56,20
20,55,19
22,57,20
23,56,19
21,55,19
21,56,19
21,56,18
22,57,18
19,58,20
18,58,20
20,59,20
23,58,19
23,58,19
21,58,19
22,58,18
22,57,16
21,57,16
21,57,16
23,57,16
22,57,16
26,58,17
25,57,16
24,57,15
24,57,14
24,57,15
23,57,14
23,58,15
26,59,15
26,59,14
25,57,13
25,57,13
26,56,13
24,57,12
26,58,11
25,59,11
25,59,10
25,58,10
26,58,9
25,58,8
23,58,8
23,59,8
24,58,8
23,59,7
25,59,6
27,59,7
28,60,8
28,60,7
28,60,6
28,59,6
27,59,6
27,59,6
27,59,5
26,59,6
25,58,7
25,58,6
25,58,5
25,57,6
25,57,6
24,57,5
25,57,6
24,58,7
23,58,6
24,59,5
24,59,6
24,59,6
24,59,5
24,59,5
24,59,6
22,59,5
26,61,5
23,61,6
20,62,7
22,64,8
22,64,8
21,62,9
20,61,9
21,60,10
19,59,10
19,60,10
19,59,11
18,58,12
17,58,12
16,58,11
17,58,11
17,59,12
16,59,12
18,60,12
18,61,12
17,61,12
17,62,12
17,62,12
17,63,11
17,62,10
17,61,11
17,60,12
17,60,12
17,60,13
17,61,13
16,61,12
19,62,14
18,62,14
14,62,13
15,62,12
22,62,13
11,60,15
12,59,18
17,60,17
16,60,16
13,59,17
13,60,19
15,60,18
14,60,17
13,59,18
14,59,17
15,60,16
13,60,16
16,61,16
18,61,16
14,62,16
15,61,17
16,60,17
14,60,16
15,60,16
15,61,16
15,60,16
15,60,16
16,60,16
16,60,15
15,61,15
15,61,16
15,61,15
15,62,16
16,62,16
16,60,16
15,60,15
15,60,15
15,60,16
15,59,15
15,59,15
14,59,15
15,61,15
16,61,16
16,62,15
16,62,15
16,62,15
16,61,15
16,61,15
16,61,15
16,60,15
16,60,15
16,60,15
16,61,15
16,61,15
15,60,15
16,61,14
17,61,15
17,61,15
17,61,15
17,61,15
16,61,15
16,61,15
16,61,16
16,61,15
17,61,16
17,61,15
17,60,15
16,60,16
16,59,15
16,60,15
16,59,15
16,60,15
16,60,15
16,60,15
16,61,15
16,61,15
16,61,15
16,61,15
16,61,15
16,61,15
16,61,15
16,60,16
16,60,15
16,60,15
16,60,15
16,60,15
16,61,15
16,61,15
