1.5209e+09,1.5209e+09
2259.2,0.71878
2266.8,0.73441
2267.6,0.73441
2268.4,0.78129
2269,0.65628
2269.8,0.79691
2292.3,0.79691
2293,0.76566
2293.8,0.75003
2294.5,0.71878
2295.2,0.70316
2295.9,0.71878
2296.6,0.71878
2297.3,0.68753
2298,0.70316
2298.7,0.70316
2299.5,0.75003
2300.2,0.67191
2300.8,0.64065
2301.4,0.6094
2302.1,0.67191
2302.8,0.68753
2303.5,0.71878
2304.2,0.68753
2304.9,0.68753
2305.5,0.64065
2306.1,0.59378
2306.7,0.6094
2307.3,0.6094
2307.9,0.62503
2308.6,0.62503
2309.2,0.67191
2309.8,0.57815
2330.2,0.78129
2335.7,0.84379
2336.4,0.71878
2337.1,0.70316
2337.8,0.70316
2338.6,0.79691
2339.4,0.81254
2340.2,0.75003
2340.9,0.70316
2341.7,0.79691
2342.4,0.70316
2343,0.65628
2343.7,0.68753
2344.4,0.68753
