,Binary,Multiclass
2018-03-14 04:00:00,-1.0,1.0
2018-03-14 04:00:05,1.0,1.0
2018-03-14 04:00:10,1.0,0.0
2018-03-14 04:00:15,1.0,1.0
2018-03-14 04:00:20,1.0,1.0
2018-03-14 04:00:25,1.0,1.0
2018-03-14 04:00:30,1.0,1.0
2018-03-14 04:00:35,1.0,1.0
2018-03-14 04:00:40,1.0,1.0
2018-03-14 04:00:45,1.0,1.0
2018-03-14 04:00:50,1.0,0.0
2018-03-14 04:00:55,1.0,0.0
2018-03-14 04:01:00,1.0,1.0
2018-03-14 04:01:05,1.0,1.0
2018-03-14 04:01:10,1.0,0.0
2018-03-14 04:01:15,1.0,1.0
2018-03-14 04:01:20,1.0,1.0
2018-03-14 04:01:25,1.0,1.0
2018-03-14 04:01:30,1.0,1.0
2018-03-14 04:01:35,1.0,1.0
2018-03-14 04:01:40,1.0,0.0
2018-03-14 04:01:45,1.0,1.0
2018-03-14 04:01:50,1.0,1.0
2018-03-14 04:01:55,1.0,1.0
2018-03-14 04:02:00,1.0,1.0
2018-03-14 04:02:05,1.0,1.0
2018-03-14 04:02:10,-1.0,1.0
