,EDA,rise_time,max_deriv,amp,decay_time,SCR_width,AUC
2018-03-09 12:53:27.750000,1.3704,4.0,0.0377471939501568,0.17670000000000008,1.625,3.25,0.5742750000000003
2018-03-09 12:53:48.375000,1.1713,4.0,0.0374730321863499,0.0844999999999998,1.375,2.875,0.24293749999999942
2018-03-09 12:54:10.750000,1.2039,4.0,0.02114249743620711,0.08450000000000002,,,
2018-03-09 12:54:14.875000,1.4901,4.0,0.10600108796876206,0.2772000000000001,1.25,2.75,0.7623000000000003
2018-03-09 12:54:24.375000,1.35245,4.0,0.029820208185256547,0.0826,0.875,2.5,0.20650000000000002
2018-03-09 12:54:27.250000,1.4216,1.375,0.0969093081793142,0.08129999999999993,0.875,2.125,0.17276249999999985
