1.5192e+09,1.5192e+09
2825.3,0.70316
2825.9,0.62503
2826.6,0.67191
2827.3,0.65628
2827.9,0.68753
2828.6,0.62503
2829.3,0.68753
2829.9,0.67191
2830.6,0.67191
2831.3,0.75003
2832,0.64065
2832.7,0.67191
2844.9,0.70316
2845.6,0.70316
2846.3,0.68753
2847,0.65628
2855.4,0.65628
2856.2,0.71878
2856.9,0.73441
2857.6,0.73441
2858.4,0.73441
2859.1,0.71878
2859.8,0.76566
2860.6,0.75003
2861.2,0.62503
2862,0.76566
2875.5,0.71878
2876.2,0.70316
2876.9,0.68753
2877.6,0.73441
2878.4,0.70316
2879.2,0.81254
2879.8,0.62503
2880.5,0.75003
2883.9,0.68753
2884.6,0.70316
2885.3,0.64065
2886,0.71878
2886.6,0.65628
2887.3,0.67191
2888,0.64065
2888.6,0.62503
2889.3,0.67191
2889.9,0.64065
2890.6,0.68753
2891.3,0.68753
2892,0.70316
2892.6,0.67191
2893.3,0.67191
2894,0.67191
2894.6,0.6094
2895.3,0.70316
2895.9,0.59378
2896.5,0.64065
2897.2,0.65628
2897.8,0.64065
2898.5,0.62503
2899.1,0.64065
2899.7,0.64065
2900.4,0.6094
2901,0.62503
2901.6,0.6094
2902.2,0.59378
2902.8,0.57815
2903.3,0.56253
2903.9,0.59378
2904.5,0.62503
2905.2,0.65628
2905.9,0.65628
2906.5,0.64065
2907.1,0.65628
2907.8,0.64065
2908.4,0.6094
2909,0.62503
2909.6,0.6094
2910.2,0.6094
2910.9,0.6094
2911.5,0.64065
2912.1,0.56253
2912.7,0.6094
2913.3,0.59378
2913.9,0.64065
2914.5,0.59378
2915.1,0.59378
2915.7,0.62503
2916.3,0.6094
2916.9,0.59378
2917.5,0.62503
2918.1,0.56253
2918.7,0.64065
2919.3,0.56253
2919.9,0.5469
2920.4,0.57815
2921,0.57815
2921.6,0.6094
2922.2,0.62503
2922.9,0.62503
2923.5,0.67191
2924.2,0.65628
2924.9,0.67191
2925.5,0.62503
2926.1,0.62503
2926.7,0.59378
2927.3,0.6094
2927.9,0.6094
2928.5,0.6094
2929.1,0.59378
2929.7,0.57815
2930.3,0.62503
2930.9,0.5469
2931.5,0.64065
2932.1,0.56253
2932.7,0.59378
2933.3,0.59378
2933.9,0.6094
2948.1,0.57815
2948.7,0.56253
2949.3,0.6094
2949.9,0.59378
2950.4,0.57815
2960,0.65628
2960.7,0.65628
2961.4,0.67191
2962.1,0.68753
2962.8,0.73441
2963.5,0.70316
2971.2,0.68753
2971.9,0.67191
2972.6,0.70316
2973.3,0.71878
2974,0.67191
2974.7,0.70316
2975.4,0.68753
2976.1,0.70316
2976.7,0.62503
2977.4,0.71878
2999,0.64065
2999.7,0.64065
3000.3,0.65628
3001,0.68753
