1530944768.000000, IBI
11.828666,0.734409
12.406818,0.578151
12.984969,0.578151
13.625624,0.640654
14.266278,0.640654
248.980148,0.468771
249.433294,0.453146
259.152488,0.484397
259.683763,0.531274
270.309249,0.515649
270.949903,0.640654
273.465644,0.546900
273.981292,0.515649
274.481315,0.500023
275.043841,0.562526
275.621992,0.578151
276.231395,0.609403
276.684541,0.453146
279.606550,0.500023
280.215953,0.609403
280.794104,0.578151
281.434758,0.640654
281.903530,0.468771
282.497307,0.593777
283.075459,0.578151
283.622359,0.546900
284.216136,0.593777
284.700533,0.484397
285.278684,0.578151
285.872462,0.593777
286.419362,0.546900
287.044390,0.625029
287.544413,0.500023
294.279096,0.640654
294.810371,0.531274
295.404148,0.593777
295.951048,0.546900
296.451071,0.500023
297.044848,0.593777
297.544871,0.500023
298.107397,0.562526
298.669922,0.562526
299.201197,0.531274
299.794974,0.593777
300.388751,0.593777
300.982528,0.593777
301.513803,0.531274
302.138831,0.625029
302.763860,0.625029
303.373263,0.609403
303.998291,0.625029
304.529566,0.531274
305.170220,0.640654
305.717120,0.546900
306.342149,0.625029
306.889049,0.546900
307.451574,0.562526
308.014100,0.562526
308.607877,0.593777
309.170403,0.562526
309.779806,0.609403
310.342332,0.562526
310.936109,0.593777
311.467383,0.531274
317.936429,0.625029
318.420826,0.484397
319.123984,0.703157
319.702135,0.578151
320.311538,0.609403
320.920941,0.609403
321.514718,0.593777
322.124121,0.609403
322.733524,0.609403
323.389804,0.656280
335.171593,0.640654
338.124853,0.609403
352.422383,0.640654
352.953657,0.531274
353.609937,0.656280
354.172463,0.562526
354.781866,0.609403
355.297514,0.515649
355.953794,0.656280
356.547572,0.593777
357.156975,0.609403
357.750752,0.593777
364.751072,0.593777
365.282346,0.531274
365.954252,0.671906
369.595044,0.515649
370.298201,0.703157
370.891978,0.593777
371.532633,0.640654
372.110784,0.578151
372.704561,0.593777
373.313964,0.609403
373.892116,0.578151
374.532770,0.640654
375.032793,0.500023
375.704699,0.671906
376.298476,0.593777
376.892253,0.593777
377.532907,0.640654
383.501930,0.640654
384.095708,0.593777
384.751988,0.656280
385.377016,0.625029
386.017671,0.640654
386.673951,0.656280
387.220851,0.546900
387.908382,0.687531
388.533411,0.625029
389.158439,0.625029
389.720965,0.562526
390.330368,0.609403
390.939771,0.609403
391.517922,0.578151
392.111700,0.593777
392.658600,0.546900
393.314880,0.656280
393.939908,0.625029
394.580563,0.640654
395.189965,0.609403
395.830620,0.640654
396.393146,0.562526
397.002548,0.609403
397.643203,0.640654
424.831947,0.625029
425.316344,0.484397
430.832222,0.640654
431.425999,0.593777
431.972899,0.546900
432.660431,0.687531
433.222956,0.562526
433.816734,0.593777
434.379259,0.562526
438.441945,0.656280
439.051348,0.609403
439.676377,0.625029
440.192025,0.515649
465.005661,0.578151
465.568187,0.562526
466.177590,0.609403
473.896693,0.625029
474.412342,0.515649
475.052996,0.640654
475.678025,0.625029
476.303053,0.625029
476.881205,0.578151
477.490608,0.609403
478.100011,0.609403
478.693788,0.593777
479.303191,0.609403
479.912594,0.609403
490.350571,0.640654
490.881846,0.531274
491.553751,0.671906
492.069400,0.515649
492.663177,0.593777
493.210077,0.546900
493.803854,0.593777
494.413257,0.609403
494.975783,0.562526
495.538309,0.562526
496.132086,0.593777
496.725863,0.593777
497.319640,0.593777
497.866540,0.546900
498.475943,0.609403
499.054095,0.578151
499.632246,0.578151
500.257275,0.625029
500.804175,0.546900
501.319824,0.515649
501.913601,0.593777
502.507378,0.593777
503.101155,0.593777
503.632429,0.531274
504.304335,0.671906
504.882487,0.578151
505.429387,0.546900
513.914150,0.578151
514.507927,0.593777
526.055331,0.578151
526.617857,0.562526
529.555491,0.656280
530.039888,0.484397
530.633665,0.593777
531.211817,0.578151
531.789968,0.578151
532.383745,0.593777
555.947324,0.578151
556.509850,0.562526
557.072376,0.562526
557.650527,0.578151
558.244304,0.593777
558.853707,0.609403
559.431859,0.578151
560.041261,0.609403
560.666290,0.625029
561.306944,0.640654
565.869653,0.578151
566.416553,0.546900
566.963453,0.546900
567.541605,0.578151
568.151008,0.609403
568.697908,0.546900
569.369813,0.671906
595.261624,0.546900
595.855401,0.593777
693.688004,0.500023
694.234904,0.546900
694.813056,0.578151
695.375581,0.562526
695.984984,0.609403
696.500633,0.515649
697.172539,0.671906
697.719439,0.546900
746.081027,0.468771
746.549799,0.468771
747.096699,0.546900
747.674850,0.578151
764.534997,0.515649
765.019394,0.484397
765.503791,0.484397
766.035066,0.531274
766.488211,0.453146
767.003860,0.515649
780.520104,0.531274
931.870782,0.734409
932.480185,0.609403
933.011459,0.531274
942.261883,0.609403
942.777531,0.515649
952.027955,0.562526
952.715486,0.687531
953.262386,0.546900
988.607754,0.515649
989.373414,0.765660
989.998443,0.625029
990.639097,0.640654
991.326629,0.687531
991.873529,0.546900
992.561060,0.687531
993.201715,0.640654
993.904872,0.703157
994.623655,0.718783
995.201806,0.578151
995.904963,0.703157
996.608120,0.703157
997.201898,0.593777
997.889429,0.687531
998.514458,0.625029
999.139486,0.625029
999.733263,0.593777
1000.436421,0.703157
1003.499061,0.687531
1004.077212,0.578151
1004.749118,0.671906
1005.327270,0.578151
1005.999175,0.671906
1006.639830,0.640654
1007.280484,0.640654
1007.889887,0.609403
1008.546167,0.656280
1009.155570,0.609403
1009.749347,0.593777
1010.436878,0.687531
1010.983778,0.546900
1011.640059,0.656280
1012.249461,0.609403
1012.796361,0.546900
1013.421390,0.625029
1031.125325,0.625029
1031.687851,0.562526
1052.813818,0.625029
1053.454473,0.640654
1054.079501,0.625029
1054.751407,0.671906
1055.407687,0.656280
1056.079593,0.671906
1056.688996,0.609403
1057.329650,0.640654
1058.001556,0.671906
1058.610959,0.609403
1059.251613,0.640654
1059.876642,0.625029
1060.470419,0.593777
1061.095447,0.625029
1061.704850,0.609403
1062.345505,0.640654
1062.986159,0.640654
1063.626813,0.640654
1076.689911,0.640654
1077.283688,0.593777
1077.908717,0.625029
1078.596248,0.687531
1079.174400,0.578151
1079.815054,0.640654
1080.393206,0.578151
1081.049486,0.656280
1081.690140,0.640654
1082.299543,0.609403
1082.940197,0.640654
1083.549600,0.609403
1084.190254,0.640654
1084.799657,0.609403
1085.424686,0.625029
1086.049715,0.625029
1086.659117,0.609403
1087.284146,0.625029
1087.909175,0.625029
1088.534203,0.625029
1089.206109,0.671906
1089.846763,0.640654
1090.518669,0.671906
1091.159323,0.640654
1091.799978,0.640654
1092.440632,0.640654
1093.065661,0.625029
1093.690689,0.625029
1094.315718,0.625029
1094.940747,0.625029
1095.565775,0.625029
1096.190804,0.625029
1096.815832,0.625029
1097.472112,0.656280
1098.097141,0.625029
1098.753421,0.656280
1099.378450,0.625029
1100.034730,0.656280
1100.675384,0.640654
1101.284787,0.609403
1101.909816,0.625029
1102.519218,0.609403
1103.144247,0.625029
1103.753650,0.609403
1104.378679,0.625029
1104.988081,0.609403
1105.597484,0.609403
1106.238139,0.640654
1106.863167,0.625029
1107.519447,0.656280
1108.144476,0.625029
1108.800756,0.656280
1109.441410,0.640654
1110.066439,0.625029
1110.691468,0.625029
1111.316496,0.625029
1111.957150,0.640654
1112.566553,0.609403
1113.191582,0.625029
1113.816611,0.625029
1114.441639,0.625029
1115.066668,0.625029
1115.691696,0.625029
1116.332351,0.640654
1116.973005,0.640654
1117.598034,0.625029
1118.238688,0.640654
1122.613888,0.656280
1123.270168,0.656280
1123.942074,0.671906
1124.567103,0.625029
1125.270260,0.703157
1125.879663,0.609403
1126.535943,0.656280
1127.176597,0.640654
1127.801626,0.625029
1128.426654,0.625029
1129.036057,0.609403
1129.645460,0.609403
1130.254863,0.609403
1130.895517,0.640654
1131.520546,0.625029
1132.129949,0.609403
1132.770603,0.640654
1133.395632,0.625029
1134.020660,0.625029
1134.630063,0.609403
1135.239466,0.609403
1135.880121,0.640654
1136.489523,0.609403
1137.114552,0.625029
1137.739581,0.625029
1138.364609,0.625029
1138.989638,0.625029
1139.599041,0.609403
1140.208444,0.609403
1140.833472,0.625029
1141.427249,0.593777
1142.036652,0.609403
1142.630430,0.593777
1143.208581,0.578151
1143.802358,0.593777
1144.396135,0.593777
1145.005538,0.609403
1145.614941,0.609403
1146.255595,0.640654
1146.849373,0.593777
1147.490027,0.640654
1148.115056,0.625029
1148.693207,0.578151
1149.333861,0.640654
1149.958890,0.625029
1150.537041,0.578151
1151.115193,0.578151
1151.724596,0.609403
1152.302747,0.578151
1152.880899,0.578151
1153.474676,0.593777
1154.037202,0.562526
1154.615353,0.578151
1155.193505,0.578151
1155.756030,0.562526
1156.318556,0.562526
1156.896708,0.578151
1157.474859,0.578151
1158.037385,0.562526
1158.631162,0.593777
1159.209313,0.578151
1159.771839,0.562526
1160.365616,0.593777
1160.943768,0.578151
1161.553171,0.609403
1162.178199,0.625029
1162.756351,0.578151
1167.084674,0.640654
1167.725328,0.640654
1168.350357,0.625029
1168.991011,0.640654
1169.631665,0.640654
1170.225443,0.593777
1170.866097,0.640654
1171.475500,0.609403
1172.084903,0.609403
1172.725557,0.640654
1173.256831,0.531274
1177.897669,0.640654
1178.538323,0.640654
1179.163352,0.625029
1179.804006,0.640654
1180.444660,0.640654
1181.100940,0.656280
1181.725969,0.625029
1182.366623,0.640654
1183.022903,0.656280
1183.679183,0.656280
1184.335464,0.656280
1184.944866,0.609403
1185.585521,0.640654
1186.210549,0.625029
1186.851204,0.640654
1187.476232,0.625029
1188.116887,0.640654
1188.773167,0.656280
1189.413821,0.640654
1190.085727,0.671906
1190.726381,0.640654
1191.367035,0.640654
1192.007690,0.640654
1197.664199,0.656280
1198.289227,0.625029
1198.929882,0.640654
1199.554910,0.625029
1200.179939,0.625029
1200.820593,0.640654
1201.429996,0.609403
1202.023773,0.593777
1202.648802,0.625029
1203.273830,0.625029
1203.867608,0.593777
1204.477010,0.609403
1205.117665,0.640654
1205.773945,0.656280
1206.414599,0.640654
1207.070879,0.656280
1207.727159,0.656280
1208.352188,0.625029
1208.977216,0.625029
1209.570994,0.593777
1210.211648,0.640654
1210.836677,0.625029
1211.446079,0.609403
1212.086734,0.640654
1212.680511,0.593777
1213.289914,0.609403
1213.930568,0.640654
1214.586848,0.656280
1215.211877,0.625029
1215.852531,0.640654
1216.493186,0.640654
1217.133840,0.640654
1217.774494,0.640654
1218.399523,0.625029
1219.055803,0.656280
1219.696457,0.640654
1220.337111,0.640654
1220.946514,0.609403
1221.571543,0.625029
1222.227823,0.656280
1222.852852,0.625029
1223.509132,0.656280
1224.118535,0.609403
1224.790440,0.671906
1225.399843,0.609403
1226.009246,0.609403
1226.634275,0.625029
1227.274929,0.640654
1227.899958,0.625029
1228.556238,0.656280
1229.181266,0.625029
1229.806295,0.625029
1230.446949,0.640654
1231.071978,0.625029
1231.728258,0.656280
1232.353287,0.625029
1233.009567,0.656280
1233.634595,0.625029
1234.259624,0.625029
1234.900278,0.640654
1235.540932,0.640654
1236.197212,0.656280
1236.869118,0.671906
1237.525398,0.656280
1238.197304,0.671906
1238.869210,0.671906
1239.509864,0.640654
1240.166144,0.656280
1240.822424,0.656280
1241.447453,0.625029
1242.103733,0.656280
1242.744387,0.640654
1243.385041,0.640654
1244.025696,0.640654
1244.650724,0.625029
1245.275753,0.625029
1245.885156,0.609403
1246.510185,0.625029
1294.668639,0.906291
1399.517188,0.437520
1434.893808,0.625029
1435.628216,0.734409
1436.487631,0.859414
1444.409868,0.625029
1445.097400,0.687531
1445.659925,0.562526
1446.347457,0.687531
1446.909983,0.562526
1447.613140,0.703157
1448.253794,0.640654
1448.894449,0.640654
1449.550729,0.656280
1450.269511,0.718783
1530.710694,0.718783
1728.235360,0.656280
1737.376404,0.609403
1738.017058,0.640654
1738.704589,0.687531
1739.407747,0.703157
1740.064027,0.656280
1740.751558,0.687531
1749.611339,0.640654
1750.173864,0.562526
1760.361831,0.656280
1761.080614,0.718783
1785.597361,0.468771
1786.175512,0.578151
1786.753664,0.578151
1799.613627,0.593777
1800.254282,0.640654
1800.863685,0.609403
1801.519965,0.656280
1802.191870,0.671906
1802.801273,0.609403
1803.426302,0.625029
1856.194342,0.640654
1856.678740,0.484397
1857.335020,0.656280
1872.148198,0.593777
1872.741975,0.593777
1873.367003,0.625029
1873.960781,0.593777
1874.538932,0.578151
1875.148335,0.609403
1886.273844,0.718783
1886.867621,0.593777
1887.570779,0.703157
1888.195807,0.625029
1888.867713,0.671906
1931.244653,0.562526
1931.791553,0.546900
1932.385330,0.593777
1933.010359,0.625029
1933.572884,0.562526
1934.119784,0.546900
1934.635433,0.515649
1935.229210,0.593777
1935.807362,0.578151
1942.120151,0.578151
1942.573296,0.453146
1949.792377,0.718783
1965.777483,0.593777
1966.386886,0.609403
1966.996289,0.609403
1976.449847,0.609403
1977.106127,0.656280
1983.278285,0.671906
1983.934565,0.656280
1984.575219,0.640654
1985.215873,0.640654
1985.872153,0.656280
1986.512808,0.640654
1987.169088,0.656280
1987.778491,0.609403
1998.935251,0.625029
1999.575906,0.640654
2000.200934,0.625029
2000.825963,0.625029
2001.450991,0.625029
2002.029143,0.578151
2002.638546,0.609403
2003.232323,0.593777
2003.826100,0.593777
2004.451129,0.625029
2005.091783,0.640654
2005.701186,0.609403
2006.357466,0.656280
2016.014158,0.640654
2016.623561,0.609403
2017.248590,0.625029
2017.873618,0.625029
2023.420747,0.625029
2024.077027,0.656280
2024.748933,0.671906
2028.608485,0.640654
2029.249139,0.640654
2036.046325,0.593777
2036.655728,0.609403
2037.280756,0.625029
2043.343534,0.687531
2044.140445,0.796911
2044.952983,0.812537
2045.562386,0.609403
2049.171926,0.609403
2049.765703,0.593777
2050.390732,0.625029
2051.015760,0.625029
2051.640789,0.625029
2055.953486,0.625029
2056.547263,0.593777
2057.156666,0.609403
2057.766069,0.609403
2058.375472,0.609403
2059.016126,0.640654
2059.641155,0.625029
2060.281809,0.640654
2068.063416,0.593777
2068.641567,0.578151
2073.532416,0.640654
2074.173070,0.640654
2074.782473,0.609403
2075.391876,0.609403
2076.001279,0.609403
2076.610682,0.609403
2077.235710,0.625029
2077.845113,0.609403
2078.470142,0.625029
2079.063919,0.593777
2079.673322,0.609403
2080.298351,0.625029
2080.939005,0.640654
2081.564034,0.625029
2082.204688,0.640654
2082.767214,0.562526
2083.376616,0.609403
2083.986019,0.609403
2084.595422,0.609403
2085.189199,0.593777
2085.829854,0.640654
2086.517385,0.687531
2105.283869,0.671906
2105.893272,0.609403
2110.690367,0.843789
2113.753007,0.671906
2114.471790,0.718783
2115.206198,0.734409
2119.268884,0.734409
2119.925164,0.656280
2120.581445,0.656280
2121.253350,0.671906
2121.894005,0.640654
2122.581536,0.687531
2123.190939,0.609403
2123.878470,0.687531
2124.566002,0.687531
2125.191031,0.625029
2125.878562,0.687531
2126.550468,0.671906
2138.832280,0.625029
2139.566689,0.734409
2140.238594,0.671906
2141.082383,0.843789
2144.270029,0.781286
2144.816929,0.546900
2174.490162,0.640654
2175.130816,0.640654
2175.771471,0.640654
2176.427751,0.656280
2177.130908,0.703157
2177.802814,0.671906
2178.490345,0.687531
2179.224754,0.734409
2179.974788,0.750034
2180.677945,0.703157
2181.365477,0.687531
2182.053008,0.687531
2190.490895,0.687531
2191.178426,0.687531
2191.850332,0.671906
2192.490986,0.640654
2193.162892,0.671906
2193.850423,0.687531
2194.459826,0.609403
2195.162983,0.703157
2195.803638,0.640654
2196.459918,0.656280
2197.131824,0.671906
2197.803729,0.671906
2198.460009,0.656280
2199.147541,0.687531
2199.819447,0.671906
2200.522604,0.703157
2201.163258,0.640654
2201.835164,0.671906
2210.835576,0.625029
2211.491856,0.656280
2212.132510,0.640654
2212.835667,0.703157
2213.429445,0.593777
2214.054473,0.625029
2214.742005,0.687531
2215.351408,0.609403
2216.117068,0.765660
2216.773348,0.656280
2217.460879,0.687531
2218.195288,0.734409
2228.055114,0.640654
2228.695768,0.640654
2272.729034,0.703157
2273.463443,0.734409
2274.197851,0.734409
2274.932260,0.734409
2275.697920,0.765660
2276.401077,0.703157
2277.104234,0.703157
2277.776140,0.671906
2278.463671,0.687531
2279.135577,0.671906
2287.464083,0.734409
2288.167241,0.703157
2288.807895,0.640654
2289.511052,0.703157
2290.182958,0.671906
2290.823612,0.640654
2291.417389,0.593777
2294.917550,0.640654
2295.589455,0.671906
2296.261361,0.671906
2307.402496,0.578151
2307.996273,0.593777
2334.763124,0.671906
2335.481906,0.718783
2343.076004,0.593777
2343.716658,0.640654
2344.341687,0.625029
2344.966716,0.625029
2345.576118,0.609403
2346.201147,0.625029
2346.810550,0.609403
2347.404327,0.593777
2348.013730,0.609403
2348.607507,0.593777
2349.232536,0.625029
2349.841939,0.609403
2350.435716,0.593777
2351.045119,0.609403
2351.670147,0.625029
2352.310802,0.640654
2352.951456,0.640654
2353.607736,0.656280
2354.248390,0.640654
2354.873419,0.625029
2355.514073,0.640654
2356.139102,0.625029
2356.795382,0.656280
2357.482913,0.687531
2358.170445,0.687531
2358.826725,0.656280
2359.561134,0.734409
2360.248665,0.687531
2360.998699,0.750034
2361.686231,0.687531
2362.358137,0.671906
2363.061294,0.703157
2363.717574,0.656280
2364.389480,0.671906
2365.061385,0.671906
2365.686414,0.625029
2366.342694,0.656280
2366.998974,0.656280
2367.717757,0.718783
2368.436540,0.718783
2369.124071,0.687531
2369.874106,0.750034
2370.592889,0.718783
2371.374174,0.781286
2372.046080,0.671906
2372.780489,0.734409
2373.468020,0.687531
2374.171177,0.703157
2374.874335,0.703157
2375.514989,0.640654
2376.202520,0.687531
2376.890052,0.687531
2377.608835,0.718783
2378.327618,0.718783
2378.999523,0.671906
2379.749558,0.750034
2380.452715,0.703157
2381.155872,0.703157
2381.874655,0.718783
2382.468432,0.593777
2383.093461,0.625029
2387.859304,0.796911
2388.578087,0.718783
2389.312495,0.734409
2390.000027,0.687531
2390.718810,0.718783
2391.312587,0.593777
2392.046996,0.734409
2392.703276,0.656280
2393.359556,0.656280
2394.031461,0.671906
2394.765870,0.734409
2395.437776,0.671906
2396.109682,0.671906
2396.797213,0.687531
2397.469119,0.671906
2398.172276,0.703157
2398.844182,0.671906
2399.516088,0.671906
2433.111375,0.609403
2433.705152,0.593777
2434.314555,0.609403
2434.955209,0.640654
2435.580238,0.625029
2436.174015,0.593777
2436.799044,0.625029
2437.408447,0.609403
2438.033475,0.625029
2438.721007,0.687531
2439.330410,0.609403
2440.002316,0.671906
2440.642970,0.640654
2441.299250,0.656280
2441.908653,0.609403
2442.471179,0.562526
2443.064956,0.593777
2443.643107,0.578151
2444.236884,0.593777
2444.893164,0.656280
2445.486942,0.593777
2446.174473,0.687531
2446.830753,0.656280
2447.502659,0.671906
2448.252693,0.750034
2448.924599,0.671906
2449.627756,0.703157
2461.050154,0.562526
2461.597054,0.546900
2462.190831,0.593777
2462.737731,0.546900
2463.315883,0.578151
2504.208380,0.609403
2926.305826,0.609403
2926.883977,0.578151
2927.493380,0.609403
2968.760895,0.593777
2969.401549,0.640654
2970.026577,0.625029
2970.651606,0.625029
2971.292260,0.640654
2971.886038,0.593777
2972.495440,0.609403
2973.151721,0.656280
2973.698621,0.546900
2974.386152,0.687531
2974.886175,0.500023
2975.589332,0.703157
2976.245612,0.656280
2976.901892,0.656280
2977.573798,0.671906
3133.440308,0.609403
3134.034085,0.593777
3134.627862,0.593777
3142.378217,0.625029
3143.034497,0.656280
3143.706403,0.671906
3144.237677,0.531274
3144.909583,0.671906
3145.534611,0.625029
3146.128388,0.593777
3271.368496,0.671906
3331.824389,0.640654
3332.433791,0.609403
3470.658869,0.593777
3645.166857,0.609403
3645.807511,0.640654
3661.089461,0.609403
3661.698864,0.609403
3662.370770,0.671906
3662.933295,0.562526
3663.605201,0.671906
3742.436934,0.671906
3743.046337,0.609403
3743.655740,0.609403
3744.202640,0.546900
3785.923300,0.593777
3786.563954,0.640654
3787.204609,0.640654
3795.595618,0.656280
3796.236272,0.640654
3796.970681,0.734409
3797.658212,0.687531
3798.392621,0.734409
3816.518450,0.781286
3817.221608,0.703157
3854.285804,0.593777
3855.004587,0.718783
3907.210102,0.578151
3907.850756,0.640654
3908.491410,0.640654
3909.007059,0.515649
3978.213352,0.640654
3978.932135,0.718783
3979.588415,0.656280
3980.291572,0.703157
3980.994730,0.703157
3981.697887,0.703157
4031.293907,0.703157
4031.997064,0.703157
4063.436003,0.656280
4064.170412,0.734409
4064.889195,0.718783
4065.623604,0.734409
4076.217839,0.625029
4076.858493,0.640654
4077.483521,0.625029
4078.092924,0.609403
4078.717953,0.625029
4079.327356,0.609403
4079.952384,0.625029
4080.608665,0.656280
4081.280570,0.671906
4081.983727,0.703157
4082.686885,0.703157
4083.390042,0.703157
4094.781188,0.687531
4095.499971,0.718783
4096.265631,0.765660
4102.015894,0.781286
4111.985101,0.734409
4112.703884,0.718783
4113.391415,0.687531
4114.094572,0.703157
4114.750852,0.656280
4115.469635,0.718783
4116.110290,0.640654
4116.782195,0.671906
4117.454101,0.671906
4118.157258,0.703157
4118.813538,0.656280
4119.454193,0.640654
4120.126098,0.671906
4120.813630,0.687531
4121.532413,0.718783
4122.235570,0.703157
4122.923101,0.687531
4123.626259,0.703157
4220.771330,0.734409
4221.505739,0.734409
4222.224522,0.718783
4222.865176,0.640654
4223.583959,0.718783
4224.302742,0.718783
4224.943396,0.640654
4225.552799,0.609403
4226.224705,0.671906
4226.880985,0.656280
4227.521639,0.640654
4228.193545,0.671906
4262.195101,0.703157
4262.867007,0.671906
4263.648293,0.781286
4264.242070,0.593777
4264.929602,0.687531
4265.523379,0.593777
4266.164033,0.640654
4266.851565,0.687531
4267.492219,0.640654
4268.132873,0.640654
4268.789153,0.656280
4269.507936,0.718783
4270.226719,0.718783
4270.914251,0.687531
4271.633034,0.718783
4272.336191,0.703157
4273.101851,0.765660
4273.820634,0.718783
4274.711299,0.890666
4275.648842,0.937543
4283.008554,0.703157
4283.742963,0.734409
4284.430494,0.687531
4285.118026,0.687531
4285.774306,0.656280
4286.508714,0.734409
4287.164994,0.656280
4287.899403,0.734409
4288.649437,0.750034
4289.368220,0.718783
4290.118255,0.750034
4290.821412,0.703157
4291.524569,0.703157
4292.274603,0.750034
4293.009012,0.734409
4293.743421,0.734409
4294.430952,0.687531
4295.134109,0.703157
4295.884144,0.750034
4296.571675,0.687531
4297.290458,0.718783
4297.993615,0.703157
4298.743649,0.750034
4302.400067,0.703157
4310.306679,0.812537
4310.994210,0.687531
4311.744245,0.750034
4312.431776,0.687531
4313.119308,0.687531
4313.791213,0.671906
4314.431868,0.640654
4315.088148,0.656280
4315.760053,0.671906
4316.400708,0.640654
4322.963508,0.750034
4323.682291,0.718783
4324.354197,0.671906
4325.057354,0.703157
4325.744885,0.687531
4326.432417,0.687531
4327.104323,0.671906
4327.791854,0.687531
4328.479386,0.687531
4329.198169,0.718783
4329.963829,0.765660
4330.682611,0.718783
4331.370143,0.687531
4332.120177,0.750034
4332.823334,0.703157
4333.510866,0.687531
4334.214023,0.703157
4334.932806,0.718783
4335.620337,0.687531
4336.354746,0.734409
4337.057903,0.703157
4337.776686,0.718783
4338.511095,0.734409
4339.183001,0.671906
4339.901783,0.718783
4340.620566,0.718783
4341.370601,0.750034
4342.058132,0.687531
4342.792541,0.734409
4343.480072,0.687531
4344.230107,0.750034
4351.683573,0.734409
4367.137405,0.750034
4367.887439,0.750034
4368.606222,0.718783
4369.293754,0.687531
4369.934408,0.640654
4370.575063,0.640654
4371.184465,0.609403
4371.825120,0.640654
4372.481400,0.656280
4373.215808,0.734409
4374.028346,0.812537
4374.809631,0.781286
4375.544040,0.734409
4376.340951,0.796911
4377.122237,0.781286
4377.731640,0.609403
4385.653878,0.687531
4386.357035,0.703157
4399.232624,0.640654
4399.888904,0.656280
4400.592062,0.703157
4401.279593,0.687531
4401.967124,0.687531
4422.499314,0.703157
4423.155594,0.656280
4423.827500,0.671906
4424.515032,0.687531
4425.265066,0.750034
4426.046352,0.781286
4426.765135,0.718783
4427.499543,0.734409
4428.155823,0.656280
4428.827729,0.671906
4429.609015,0.781286
4430.280921,0.671906
4431.030955,0.750034
4431.765363,0.734409
4432.452895,0.687531
4432.999795,0.546900
4503.706156,0.718783
4504.456191,0.750034
4505.128097,0.671906
4505.831254,0.703157
4519.363123,0.750034
4528.160401,0.843789
4528.941687,0.781286
4583.881701,0.578151
4584.600484,0.718783
4585.163010,0.562526
4597.913594,0.640654
4598.726131,0.812537
4606.773374,0.734409
4607.617163,0.843789
4616.351938,0.500023
4707.606115,0.656280
4708.340523,0.734409
4709.106184,0.765660
4716.340890,0.750034
4717.044047,0.703157
4717.778455,0.734409
4718.465987,0.687531
4719.169144,0.703157
4719.872301,0.703157
4720.559833,0.687531
4721.231739,0.671906
4721.919270,0.687531
4722.638053,0.718783
4723.372462,0.734409
4724.106870,0.734409
4724.872530,0.765660
4770.171479,0.859414
4789.875506,0.593777
4888.380015,0.812537
4889.176926,0.796911
4890.067592,0.890666
4978.274755,0.718783
4978.946661,0.671906
4979.634192,0.687531
4980.352975,0.718783
4981.056132,0.703157
4981.618658,0.562526
4982.290564,0.671906
4983.009346,0.718783
4983.665627,0.656280
4984.446912,0.781286
4985.275075,0.828163
4986.087612,0.812537
4986.837647,0.750034
4987.634558,0.796911
4988.384593,0.750034
4989.087750,0.703157
4989.744030,0.656280
4990.400310,0.656280
4991.056590,0.656280
4991.712870,0.656280
4992.400401,0.687531
4993.103559,0.703157
4993.806716,0.703157
4994.541124,0.734409
4995.306784,0.765660
4996.056819,0.750034
5001.697702,0.656280
5002.369608,0.671906
5003.025888,0.656280
5003.729045,0.703157
5004.432202,0.703157
5005.229114,0.796911
5005.947896,0.718783
5006.729182,0.781286
5007.494842,0.765660
5008.260502,0.765660
5008.963660,0.703157
5009.682442,0.718783
5010.401225,0.718783
5011.120008,0.718783
5011.791914,0.671906
5012.557574,0.765660
5013.291983,0.734409
5014.042017,0.750034
5014.729548,0.687531
5022.964300,0.750034
5023.729960,0.765660
5024.542498,0.812537
5025.214403,0.671906
5026.120695,0.906291
5029.652107,0.796911
5030.464644,0.812537
5031.183427,0.718783
5031.949087,0.765660
5032.683495,0.734409
5033.449155,0.765660
5034.167938,0.718783
5034.964850,0.796911
5035.871141,0.906291
5042.496444,0.734409
5043.230853,0.734409
5044.027765,0.796911
5044.824676,0.796911
5045.543459,0.718783
5053.512574,0.718783
5054.231357,0.718783
5054.918888,0.687531
5055.606420,0.687531
5056.325202,0.718783
5057.059611,0.734409
5057.840897,0.781286
5058.606557,0.765660
5059.372217,0.765660
5060.153503,0.781286
5060.934788,0.781286
5061.684823,0.750034
5062.419231,0.734409
5063.138014,0.718783
5063.903674,0.765660
5064.684960,0.781286
5065.419369,0.734409
5066.185029,0.765660
5067.028817,0.843789
5067.856980,0.828163
5068.622640,0.765660
5069.403926,0.781286
5070.200838,0.796911
5075.872972,0.750034
5076.638632,0.765660
5077.404292,0.765660
5078.154327,0.750034
5078.873110,0.718783
5079.560641,0.687531
5080.248173,0.687531
5080.935704,0.687531
5081.576358,0.640654
5082.248264,0.671906
5082.920170,0.671906
5083.638953,0.718783
5084.342110,0.703157
5085.045267,0.703157
5085.732799,0.687531
5086.435956,0.703157
5087.154739,0.718783
5087.982902,0.828163
5093.280019,0.625029
5093.983176,0.703157
5094.686333,0.703157
5095.451993,0.765660
5096.123899,0.671906
5126.797178,0.718783
5127.562838,0.765660
5128.281621,0.718783
5129.000404,0.718783
5129.734813,0.734409
5130.453596,0.718783
5131.172379,0.718783
5131.922413,0.750034
5132.656821,0.734409
5133.484984,0.828163
5134.297522,0.812537
5135.125684,0.828163
5135.938222,0.812537
5136.735133,0.796911
5137.422665,0.687531
5138.125822,0.703157
5138.828979,0.703157
5139.516510,0.687531
5140.172791,0.656280
5140.969702,0.796911
5141.813491,0.843789
5142.829162,1.015671
5143.876085,1.046923
5150.985785,0.734409
5151.751446,0.765660
5152.548357,0.796911
5153.392146,0.843789
5154.173431,0.781286
5154.939091,0.765660
5155.704751,0.765660
5156.517289,0.812537
5157.329826,0.812537
5158.142363,0.812537
5158.908023,0.765660
5159.751812,0.843789
5160.658103,0.906291
5165.877092,0.875040
5166.658378,0.781286
5167.424038,0.765660
5168.205324,0.781286
5168.908481,0.703157
5169.642889,0.734409
5170.330421,0.687531
5171.096081,0.765660
5171.877367,0.781286
5172.611775,0.734409
5173.393061,0.781286
5174.189973,0.796911
5175.002510,0.812537
5175.768170,0.765660
5176.580707,0.812537
5177.377619,0.796911
5178.174530,0.796911
5178.924564,0.750034
5179.674599,0.750034
5180.377756,0.703157
5181.112164,0.734409
5181.862199,0.750034
5182.549730,0.687531
5183.268513,0.718783
5184.002922,0.734409
5192.940831,0.796911
5213.785535,0.640654
5214.488692,0.703157
5215.207475,0.718783
5215.973135,0.765660
5216.660667,0.687531
5217.332572,0.671906
5218.035730,0.703157
5218.707635,0.671906
5263.256550,0.765660
5264.006584,0.750034
5264.787870,0.781286
5265.491027,0.703157
5266.272313,0.781286
5287.695168,0.687531
5288.413951,0.718783
5289.054605,0.640654
5289.757763,0.703157
5290.476546,0.718783
5291.132826,0.656280
5291.851609,0.718783
5292.601643,0.750034
5377.793042,0.796911
5378.511825,0.718783
5446.171172,0.765660
5447.061838,0.890666
5457.406061,0.671906
5458.124844,0.718783
5458.843627,0.718783
5459.593662,0.750034
5460.234316,0.640654
5492.407664,0.765660
5493.173324,0.765660
5494.017112,0.843789
5494.767147,0.750034
5495.517181,0.750034
5513.361748,0.625029
5514.064905,0.703157
5514.721185,0.656280
5515.502471,0.781286
5516.315008,0.812537
5517.143171,0.828163
5517.940082,0.796911
5518.705742,0.765660
5519.440151,0.734409
5520.143308,0.703157
5520.893342,0.750034
5521.627751,0.734409
5522.440288,0.812537
5523.190323,0.750034
5524.034111,0.843789
5524.815397,0.781286
5525.768566,0.953169
5526.534226,0.765660
5567.504851,0.656280
5568.395517,0.890666
5569.145551,0.750034
5647.836653,0.828163
5648.508559,0.671906
5649.258593,0.750034
5650.086756,0.828163
5650.899293,0.812537
5651.680579,0.781286
5652.461865,0.781286
5653.243151,0.781286
5653.993185,0.750034
5659.415308,0.843789
5660.196594,0.781286
5661.009131,0.812537
5721.636906,0.734409
5722.418192,0.781286
5723.152601,0.734409
5723.871384,0.718783
5724.668295,0.796911
5725.449581,0.781286
5726.340247,0.890666
5727.059030,0.718783
5727.902818,0.843789
5728.590350,0.687531
5729.402887,0.812537
5730.137295,0.734409
5730.949833,0.812537
5731.574861,0.625029
5732.324896,0.750034
5733.074930,0.750034
5733.824964,0.750034
5734.574999,0.750034
5735.465664,0.890666
5736.106319,0.640654
5746.966191,0.671906
5772.123592,0.906291
5772.811124,0.687531
5773.451778,0.640654
5774.248690,0.796911
6165.594728,0.484397
6256.739526,0.703157
6257.317677,0.578151
6257.973957,0.656280
6258.645863,0.671906
6259.286517,0.640654
6259.895920,0.609403
6260.692832,0.796911
6295.100657,0.750034
6322.633167,0.906291
6323.398827,0.765660
6324.211364,0.812537
6325.023901,0.812537
6325.836438,0.812537
6326.648976,0.812537
6327.461513,0.812537
6328.195921,0.734409
6344.946688,0.984420
6345.806103,0.859414
6361.791209,0.593777
6362.634998,0.843789
6363.291278,0.656280
6364.181944,0.890666
6367.525847,0.687531
6374.604296,0.734409
6375.307453,0.703157
6375.994984,0.687531
6376.698142,0.703157
6377.448176,0.750034
6378.198210,0.750034
6378.963870,0.765660
6379.698279,0.734409
6380.526442,0.828163
6381.276476,0.750034
6382.057762,0.781286
6382.807796,0.750034
6383.526579,0.718783
6384.276613,0.750034
6385.026648,0.750034
6385.792308,0.765660
6386.573594,0.781286
6387.339254,0.765660
6388.151791,0.812537
6395.824017,0.828163
6402.011800,0.812537
6402.730583,0.718783
6403.543120,0.812537
6404.183775,0.640654
6409.621524,0.734409
6410.418435,0.796911
6411.309101,0.890666
6412.027884,0.718783
6419.231339,0.828163
6447.779520,0.796911
6448.592057,0.812537
6449.388969,0.796911
6450.170255,0.781286
6451.045295,0.875040
6451.873458,0.828163
6452.685995,0.812537
6453.529783,0.843789
6454.357946,0.828163
6455.232986,0.875040
6456.061149,0.828163
6456.873687,0.812537
6457.686224,0.812537
6458.514387,0.828163
6459.248795,0.734409
6460.076958,0.828163
6460.858244,0.781286
6461.623904,0.765660
6462.373938,0.750034
6463.170850,0.796911
6463.936510,0.765660
6464.717796,0.781286
6465.483456,0.765660
6466.233490,0.750034
6467.092904,0.859414
6467.717933,0.625029
6468.405464,0.687531
6469.108622,0.703157
6469.858656,0.750034
6470.624316,0.765660
6471.436853,0.812537
6472.186888,0.750034
6472.983799,0.796911
6473.780710,0.796911
6474.577622,0.796911
6475.343282,0.765660
6476.093316,0.750034
6476.890228,0.796911
6477.640262,0.750034
6478.452799,0.812537
6479.187208,0.734409
6479.968494,0.781286
6480.812282,0.843789
6488.359503,0.843789
6489.250169,0.890666
6490.156460,0.906291
6491.047126,0.890666
6495.031683,0.812537
6495.844220,0.812537
6496.734886,0.890666
6527.595674,1.093800
6537.674260,0.781286
6538.439920,0.765660
6539.283709,0.843789
6540.018117,0.734409
6540.799403,0.781286
6541.783823,0.984420
6545.330861,0.734409
6546.112146,0.781286
6546.924684,0.812537
6547.690344,0.765660
6548.518507,0.828163
6549.315418,0.796911
6550.127955,0.812537
6550.831112,0.703157
6551.596772,0.765660
6552.346807,0.750034
6553.065590,0.718783
6553.784373,0.718783
6554.628161,0.843789
6561.815990,0.703157
6562.566025,0.750034
6563.347310,0.781286
6564.222350,0.875040
6565.128642,0.906291
6565.909928,0.781286
6566.956851,1.046923
6567.894393,0.937543
6568.785059,0.890666
6569.800731,1.015671
6589.114115,0.812537
6589.895401,0.781286
6590.723563,0.828163
6591.551726,0.828163
6592.379889,0.828163
6593.051795,0.671906
6593.817455,0.765660
6621.646854,0.781286
6622.428140,0.781286
6623.178174,0.750034
6623.990711,0.812537
6624.709494,0.718783
6625.475154,0.765660
6635.631869,0.828163
6636.444406,0.812537
6637.210066,0.765660
6638.022604,0.812537
6638.913269,0.890666
6639.944566,1.031297
6656.148433,0.765660
6656.804713,0.656280
6667.617708,0.656280
6668.367743,0.750034
6668.945894,0.578151
6745.699407,0.765660
6746.480693,0.781286
6747.308856,0.828163
6748.121393,0.812537
6778.779047,0.750034
6969.397147,0.781286
6970.100304,0.703157
6970.975344,0.875040
6971.756630,0.781286
6977.631899,0.531274
7005.789438,0.687531
7031.712499,0.703157
7040.291017,0.843789
7044.931854,0.609403
7045.619386,0.687531
7046.385046,0.765660
7047.197583,0.812537
7047.963243,0.765660
7048.728903,0.765660
7049.463312,0.734409
7050.150843,0.687531
7050.869626,0.718783
7051.557158,0.687531
7052.275941,0.718783
7052.994724,0.718783
7053.776009,0.781286
7054.572921,0.796911
7059.041875,0.718783
7059.807535,0.765660
7060.557570,0.750034
7061.448236,0.890666
7115.810099,0.921917
7140.592483,0.937543
7258.769768,0.765660
7259.535428,0.765660
7260.316714,0.781286
7261.113625,0.796911
7261.973039,0.859414
7262.879331,0.906291
7263.707494,0.828163
7264.551282,0.843789
7265.395071,0.843789
7266.145105,0.750034
7266.910765,0.765660
7267.692051,0.781286
7268.457711,0.765660
7269.207746,0.750034
7270.004657,0.796911
7270.739066,0.734409
7271.551603,0.812537
7284.489695,0.765660
7285.192852,0.703157
7285.911635,0.718783
7286.646044,0.734409
7287.317950,0.671906
7288.146112,0.828163
7289.114907,0.968794
7290.052450,0.937543
7290.943115,0.890666
7291.833781,0.890666
7292.693196,0.859414
7293.536984,0.843789
7294.333896,0.796911
7295.130807,0.796911
7301.256088,0.828163
7302.099876,0.843789
7308.943939,0.718783
7309.756477,0.812537
7310.553388,0.796911
7311.365925,0.812537
7312.162837,0.796911
7312.944123,0.781286
7313.709783,0.765660
7314.491068,0.781286
7315.209851,0.718783
7315.959886,0.750034
7316.709920,0.750034
7317.475580,0.765660
7318.319369,0.843789
7319.069403,0.750034
7319.835063,0.765660
7320.647600,0.812537
7321.366383,0.718783
7322.132043,0.765660
7322.913329,0.781286
7323.710240,0.796911
7324.507152,0.796911
7325.225935,0.718783
7325.913466,0.687531
7326.647875,0.734409
7341.507930,0.765660
7342.226713,0.718783
7343.039250,0.812537
7343.804910,0.765660
7344.586196,0.781286
7345.320605,0.734409
7346.070639,0.750034
7346.820673,0.750034
7347.648836,0.828163
7348.414496,0.765660
7349.180156,0.765660
7350.008319,0.828163
7361.258834,1.156303
7405.151468,0.718783
7405.839000,0.687531
7406.604660,0.765660
7407.401571,0.796911
7408.198483,0.796911
7412.948700,0.734409
7413.698735,0.750034
7414.620652,0.921917
7415.573820,0.953169
7416.448860,0.875040
7417.433280,0.984420
7418.198941,0.765660
7418.948975,0.750034
7419.792763,0.843789
7420.527172,0.734409
7421.214704,0.687531
7421.964738,0.750034
7422.730398,0.765660
7527.375813,0.718783
7537.345019,0.734409
7538.048177,0.703157
7538.782585,0.734409
7539.563871,0.781286
7540.267028,0.703157
7609.942092,0.875040
7610.676501,0.734409
7655.600432,0.937543
7656.600478,1.000046
7657.600524,1.000046
7846.640427,0.781286
7847.265456,0.625029
8054.087423,0.812537
8054.806206,0.718783
8055.478112,0.671906
8056.118766,0.640654
8056.790672,0.671906
8057.415700,0.625029
8058.118857,0.703157
8058.837640,0.718783
8059.603300,0.765660
8060.337709,0.734409
8061.103369,0.765660
8061.853403,0.750034
8108.011766,0.750034
8108.871181,0.859414
8109.636841,0.765660
8130.106528,0.734409
8130.856562,0.750034
8131.653473,0.796911
8168.514536,0.796911
8209.110144,0.750034
8232.111197,0.796911
8232.783103,0.671906
8233.564388,0.781286
8234.298797,0.734409
8235.142586,0.843789
8236.017626,0.875040
8236.877040,0.859414
8237.720829,0.843789
8238.564617,0.843789
8239.392780,0.828163
8240.189692,0.796911
8241.002229,0.812537
8241.830392,0.828163
8242.674180,0.843789
8243.486717,0.812537
8244.314880,0.828163
8245.143043,0.828163
8245.955580,0.812537
8246.752492,0.796911
8247.627532,0.875040
8248.502572,0.875040
8249.346361,0.843789
8250.174524,0.828163
8250.924558,0.750034
8251.674592,0.750034
8252.440252,0.765660
8253.252789,0.812537
8254.096578,0.843789
8254.971618,0.875040
8255.784155,0.812537
8256.581067,0.796911
8257.409230,0.828163
8258.221767,0.812537
8258.971801,0.750034
8259.768713,0.796911
8260.503121,0.734409
8261.253156,0.750034
8262.034441,0.781286
8262.846979,0.812537
8263.643890,0.796911
8264.393924,0.750034
8265.190836,0.796911
8266.003373,0.812537
8266.784659,0.781286
8267.550319,0.765660
8268.269102,0.718783
8269.034762,0.765660
8269.847299,0.812537
8270.644211,0.796911
8271.441122,0.796911
8272.238034,0.796911
8273.034945,0.796911
8273.831856,0.796911
8274.628768,0.796911
8275.550685,0.921917
8279.207103,0.781286
8279.925885,0.718783
8280.644668,0.718783
8281.394703,0.750034
8282.160363,0.765660
8282.988526,0.828163
8311.333573,0.750034
8312.130485,0.796911
8312.958647,0.828163
8313.771185,0.812537
8314.536845,0.765660
8315.240002,0.703157
8315.990036,0.750034
8316.677568,0.687531
8317.380725,0.703157
8318.083882,0.703157
8318.865168,0.781286
8319.568325,0.703157
8320.458991,0.890666
8321.302779,0.843789
8330.115683,0.796911
8331.006349,0.890666
8331.662629,0.656280
8332.506417,0.843789
8333.272077,0.765660
8334.037737,0.765660
8334.803397,0.765660
8335.647186,0.843789
8336.350343,0.703157
8337.037875,0.687531
8337.787909,0.750034
8338.537943,0.750034
8339.334855,0.796911
8340.116141,0.781286
8347.007081,0.781286
8347.850870,0.843789
8348.741535,0.890666
8349.538447,0.796911
8350.522867,0.984420
8361.664002,0.750034
8362.414036,0.750034
8363.210948,0.796911
8363.992234,0.781286
8364.773519,0.781286
8375.086491,0.734409
8375.883403,0.796911
8376.711566,0.828163
8377.508477,0.796911
8378.289763,0.781286
8379.071049,0.781286
8379.821083,0.750034
8380.539866,0.718783
8381.258649,0.718783
8382.008683,0.750034
8382.805595,0.796911
8383.571255,0.765660
8384.368166,0.796911
8385.227581,0.859414
8386.024492,0.796911
8394.681138,0.750034
8395.509301,0.828163
8396.212458,0.703157
8401.040804,0.796911
8401.790839,0.750034
8402.572124,0.781286
8403.525293,0.953169
8414.791434,0.812537
8415.588345,0.796911
8416.338380,0.750034
8417.150917,0.812537
8417.807197,0.656280
8418.729114,0.921917
8424.823143,0.953169
8435.683015,0.625029
8436.370547,0.687531
8437.104955,0.734409
8437.776861,0.671906
8442.667710,0.703157
8443.448996,0.781286
8444.214656,0.765660
8444.980316,0.765660
8445.761601,0.781286
8446.527261,0.765660
8447.261670,0.734409
8447.996079,0.734409
8448.746113,0.750034
8449.433645,0.687531
8450.121176,0.687531
8450.933713,0.812537
8451.589993,0.656280
8452.277525,0.687531
8453.027559,0.750034
8453.793219,0.765660
8454.433873,0.640654
8455.121405,0.687531
8455.762059,0.640654
8456.543345,0.781286
8457.105871,0.562526
8457.840279,0.734409
8458.590314,0.750034
8459.309097,0.718783
8460.059131,0.750034
8460.856042,0.796911
8461.590451,0.734409
8462.402988,0.812537
8463.246777,0.843789
8463.996811,0.750034
8485.013398,0.703157
8485.794684,0.781286
8486.497841,0.703157
8487.185373,0.687531
8487.966658,0.781286
8488.685441,0.718783
8489.372973,0.687531
8490.201136,0.828163
8490.810539,0.609403
8491.638701,0.828163
8492.435613,0.796911
8493.154396,0.718783
8493.920056,0.765660
8494.685716,0.765660
8495.373247,0.687531
8523.249523,0.937543
8524.124563,0.875040
8524.983978,0.859414
8525.765264,0.781286
8526.609052,0.843789
8527.405964,0.796911
8528.296629,0.890666
8529.156044,0.859414
8530.031084,0.875040
8535.140693,0.828163
8535.906353,0.765660
8536.703264,0.796911
8537.484550,0.781286
8545.828682,0.734409
8546.594342,0.765660
8547.328751,0.734409
8548.063159,0.734409
8548.860071,0.796911
8549.563228,0.703157
8550.360139,0.796911
8551.047671,0.687531
8555.594754,0.843789
8556.266660,0.671906
8557.047945,0.781286
8557.813606,0.765660
8558.516763,0.703157
8559.251171,0.734409
8560.001206,0.750034
8567.532800,0.750034
8568.345338,0.812537
8569.126623,0.781286
8569.829781,0.703157
8570.501686,0.671906
8571.236095,0.734409
8571.939252,0.703157
8572.673661,0.734409
8573.470572,0.796911
8574.298735,0.828163
8575.126898,0.828163
8575.986312,0.859414
8583.564784,0.750034
8584.361696,0.796911
8585.174233,0.812537
8586.002396,0.828163
8586.768056,0.765660
8587.564967,0.796911
8588.346253,0.781286
8589.111913,0.765660
8589.846322,0.734409
8590.580730,0.734409
8591.346390,0.765660
8592.049548,0.703157
8592.815208,0.765660
8593.533991,0.718783
8594.362154,0.828163
8595.143439,0.781286
8596.002854,0.859414
8596.752888,0.750034
8597.659179,0.906291
8598.440465,0.781286
8599.268628,0.828163
8599.987411,0.718783
8662.693406,0.765660
8663.490318,0.796911
8664.334106,0.843789
8665.131018,0.796911
8665.896678,0.765660
8666.662338,0.765660
8667.506127,0.843789
8668.349915,0.843789
8669.131201,0.781286
8669.849984,0.718783
8670.662521,0.812537
8671.428181,0.765660
8672.271970,0.843789
8672.990753,0.718783
8673.834541,0.843789
8684.538156,0.859414
8685.397571,0.859414
8686.210108,0.812537
8687.069522,0.859414
8687.897685,0.828163
8688.757099,0.859414
8689.507134,0.750034
8690.413425,0.906291
8691.257214,0.843789
8692.163505,0.906291
8973.051363,0.828163
8973.942029,0.890666
8974.707689,0.765660
8997.739993,0.750034
9049.726748,0.718783
9050.508034,0.781286
9051.242442,0.734409
9052.023728,0.781286
9052.758137,0.734409
9053.555048,0.796911
9054.351959,0.796911
9054.992614,0.640654
9055.836402,0.843789
9056.508308,0.671906
9057.195840,0.687531
9057.914623,0.718783
9058.649031,0.734409
9059.383440,0.734409
9060.133474,0.750034
9060.774128,0.640654
9061.492911,0.718783
9062.227320,0.734409
9062.961729,0.734409
9063.758640,0.796911
9064.508674,0.750034
9065.289960,0.781286
9066.024369,0.734409
9087.915996,0.718783
9088.697282,0.781286
9089.447316,0.750034
9090.150473,0.703157
9090.822379,0.671906
9091.588039,0.765660
9092.275571,0.687531
9093.025605,0.750034
9093.681885,0.656280
9094.416294,0.734409
9221.031464,0.718783
9235.969648,0.718783
9236.672805,0.703157
9269.861825,0.781286
9270.564982,0.703157
9271.330642,0.765660
9272.018173,0.687531
9272.799459,0.781286
9273.565119,0.765660
9274.346405,0.781286
9368.491339,0.718783
9381.851326,0.687531
9382.570109,0.718783
9383.288892,0.718783
9383.976423,0.687531
9384.726457,0.750034
9393.976881,0.812537
9394.664412,0.687531
9395.336318,0.671906
9395.898844,0.562526
9396.648878,0.750034
9425.978346,0.718783
9431.775486,0.703157
9442.416598,0.734409
9443.166632,0.750034
9446.604290,0.640654
9447.401201,0.796911
9448.088733,0.687531
9448.916896,0.828163
9449.651304,0.734409
9450.370087,0.718783
9451.120121,0.750034
9451.870156,0.750034
9452.557687,0.687531
9456.761005,0.656280
9457.511039,0.750034
9458.167319,0.656280
9458.839225,0.671906
9459.589259,0.750034
9460.339293,0.750034
9461.073702,0.734409
9461.761234,0.687531
9462.480016,0.718783
9463.198799,0.718783
9478.324492,0.750034
9479.027649,0.703157
9479.777683,0.750034
9480.543343,0.765660
9481.230875,0.687531
9482.012161,0.781286
9482.746569,0.734409
9483.512229,0.765660
9484.168509,0.656280
9484.934169,0.765660
9485.637326,0.703157
9486.324858,0.687531
9487.028015,0.703157
9487.778049,0.750034
9488.449955,0.671906
9489.293744,0.843789
9490.012527,0.718783
9490.715684,0.703157
9491.481344,0.765660
9507.388322,0.687531
9508.138356,0.750034
9508.841514,0.703157
9509.544671,0.703157
9510.279079,0.734409
9539.108524,0.703157
9554.390474,0.578151
9555.046754,0.656280
9555.718659,0.671906
9579.282238,0.906291
9604.267756,1.046923
9607.580408,0.718783
9608.330442,0.750034
9609.017974,0.687531
9613.768191,0.734409
9614.440097,0.671906
9638.441196,0.796911
9639.175604,0.734409
9639.941264,0.765660
9640.738176,0.796911
9641.503836,0.765660
9642.300747,0.796911
9643.003905,0.703157
9643.769565,0.765660
9644.519599,0.750034
9645.254008,0.734409
9645.957165,0.703157
9646.769702,0.812537
9647.582239,0.812537
9648.410402,0.828163
9649.160436,0.750034
9649.988599,0.828163
9650.801136,0.812537
9651.519919,0.718783
9652.285579,0.765660
9652.988737,0.703157
9653.754397,0.765660
9654.441928,0.687531
9655.176337,0.734409
9655.926371,0.750034
9656.707657,0.781286
9657.457691,0.750034
9658.223351,0.765660
9685.302716,0.546900
9685.896493,0.593777
9686.490270,0.593777
9687.052796,0.562526
9707.491231,0.750034
9725.523307,0.812537
9726.351470,0.828163
9727.117130,0.765660
9727.976544,0.859414
9818.136922,0.781286
10035.850013,0.734409
10036.725053,0.875040
10071.711029,0.953169
10079.867652,0.703157
10080.602061,0.734409
10081.477101,0.875040
10114.025466,0.687531
10114.822377,0.796911
10115.541160,0.718783
10116.259943,0.718783
10117.041229,0.781286
10117.822515,0.781286
10118.635052,0.812537
10119.431963,0.796911
10120.244501,0.812537
10121.041412,0.796911
10121.869575,0.828163
10122.557106,0.687531
10123.416521,0.859414
10124.135304,0.718783
10124.900964,0.765660
10125.729127,0.828163
10141.386093,0.765660
10142.183005,0.796911
10142.964291,0.781286
10143.761202,0.796911
10144.573739,0.812537
10145.355025,0.781286
10163.902749,0.687531
10164.543403,0.640654
10165.215309,0.671906
10165.840338,0.625029
10166.418489,0.578151
10176.153310,0.718783
10176.903344,0.750034
10177.637753,0.734409
10178.356536,0.718783
10223.327344,0.921917
10224.249262,0.921917
10339.988935,0.843789
10345.067292,0.812537
10345.817326,0.750034
10346.629864,0.812537
10347.286144,0.656280
10348.036178,0.750034
10348.833089,0.796911
10349.614375,0.781286
10393.819524,0.750034
10394.616435,0.796911
10395.319592,0.703157
10396.054001,0.734409
10424.524054,0.781286
10425.352217,0.828163
10426.102251,0.750034
10488.589487,0.703157
10489.308270,0.718783
10490.152058,0.843789
10513.715637,0.875040
10514.481297,0.765660
10659.316052,0.796911
10660.066086,0.750034
10660.831746,0.765660
10661.581780,0.750034
10662.300563,0.718783
10663.034972,0.734409
10663.785006,0.750034
10664.675672,0.890666
10665.472584,0.796911
10666.206992,0.734409
10666.925775,0.718783
10745.976269,0.765660
10746.820057,0.843789
10747.476337,0.656280
10748.351377,0.875040
10749.023283,0.671906
10749.757692,0.734409
10758.976864,0.703157
10820.307796,0.703157
10821.120333,0.812537
10821.854742,0.734409
10829.542593,0.796911
10830.277002,0.734409
10831.105165,0.828163
10831.886451,0.781286
10832.730239,0.843789
10833.574028,0.843789
10834.402191,0.828163
10835.199102,0.796911
10835.964762,0.765660
10836.777300,0.812537
10837.527334,0.750034
10842.652569,0.828163
10843.433854,0.781286
10844.277643,0.843789
10853.824955,0.734409
10854.574989,0.750034
10929.797183,0.656280
10930.500340,0.703157
10942.313380,0.750034
10943.094666,0.781286
10943.813449,0.718783
10944.547858,0.734409
10945.297892,0.750034
10946.063552,0.765660
10946.813586,0.750034
10947.547995,0.734409
10948.313655,0.765660
10949.063689,0.750034
10949.829350,0.765660
10950.595010,0.765660
10951.470050,0.875040
10952.173207,0.703157
10952.876364,0.703157
10953.610773,0.734409
10954.345181,0.734409
10955.095216,0.750034
10955.845250,0.750034
10956.564033,0.718783
10957.314067,0.750034
10958.048476,0.734409
10958.782884,0.734409
10982.549597,0.687531
10983.284006,0.734409
10984.080917,0.796911
10984.830952,0.750034
10985.690366,0.859414
10989.378035,0.765660
10990.003063,0.625029
10994.472018,0.703157
10995.237678,0.765660
11008.144519,0.875040
11009.128939,0.984420
11012.441591,0.750034
11013.019742,0.578151
11140.025556,0.703157
11140.869344,0.843789
11141.494373,0.625029
11142.213156,0.718783
11142.900687,0.687531
11143.588219,0.687531
11144.338253,0.750034
11144.900779,0.562526
11246.530431,0.625029
11247.217962,0.687531
11247.874242,0.656280
11248.530522,0.656280
11249.171177,0.640654
11249.843082,0.671906
11250.483737,0.640654
11251.140017,0.656280
11251.749420,0.609403
11252.421325,0.671906
11253.061980,0.640654
11253.733886,0.671906
11254.405791,0.671906
11255.015194,0.609403
11255.718351,0.703157
11256.327754,0.609403
11256.952783,0.625029
11257.562186,0.609403
11258.171589,0.609403
11258.734114,0.562526
11259.327892,0.593777
11259.937294,0.609403
11260.593575,0.656280
11261.249855,0.656280
11261.937386,0.687531
11286.172870,0.687531
11286.829150,0.656280
11287.485430,0.656280
11288.157336,0.671906
11288.782365,0.625029
11289.438645,0.656280
11290.079299,0.640654
11290.688702,0.609403
11291.313731,0.625029
11291.954385,0.640654
11292.657542,0.703157
11293.360699,0.703157
11294.032605,0.671906
11294.688885,0.656280
11295.329540,0.640654
11295.938942,0.609403
11296.563971,0.625029
11297.235877,0.671906
11297.939034,0.703157
11298.610940,0.671906
11299.298471,0.687531
11299.923500,0.625029
11300.595406,0.671906
11301.345440,0.750034
11302.189229,0.843789
11302.861134,0.671906
11303.595543,0.734409
11304.298700,0.703157
11305.001857,0.703157
11305.705014,0.703157
11306.439423,0.734409
11307.251960,0.812537
11316.908652,0.796911
11317.721189,0.812537
11318.518101,0.796911
11319.299387,0.781286
11320.049421,0.750034
11320.752578,0.703157
11321.408858,0.656280
11322.049513,0.640654
11322.690167,0.640654
11323.283944,0.593777
11323.924598,0.640654
11324.580878,0.656280
11325.315287,0.734409
11326.174701,0.859414
11338.831531,0.687531
11339.503437,0.671906
11340.144091,0.640654
11340.815997,0.671906
11341.456651,0.640654
11342.128557,0.671906
11342.769211,0.640654
11343.425491,0.656280
11344.034894,0.609403
11344.691174,0.656280
11345.409957,0.718783
11346.175617,0.765660
11346.910026,0.734409
11361.598198,0.734409
11362.316981,0.718783
11363.129518,0.812537
11364.020184,0.890666
11377.348919,0.703157
11378.036450,0.687531
11378.739608,0.703157
11379.411513,0.671906
11380.083419,0.671906
11380.708448,0.625029
11381.411605,0.703157
11382.067885,0.656280
11382.708539,0.640654
11383.364819,0.656280
11384.005474,0.640654
11384.630502,0.625029
11385.255531,0.625029
11385.958688,0.703157
11386.661845,0.703157
11387.396254,0.734409
11388.083785,0.687531
11388.755691,0.671906
11389.443223,0.687531
11390.052625,0.609403
11390.677654,0.625029
11391.255805,0.578151
11391.865208,0.609403
11392.443360,0.578151
11401.943795,0.625029
11402.631326,0.687531
11403.287606,0.656280
11403.928261,0.640654
11404.568915,0.640654
11405.178318,0.609403
11405.787721,0.609403
11406.412749,0.625029
11407.053404,0.640654
11407.662807,0.609403
11408.319087,0.656280
11409.006618,0.687531
11409.725401,0.718783
11410.428558,0.703157
11411.131715,0.703157
11420.600899,0.671906
11421.272804,0.671906
11422.022839,0.750034
11422.725996,0.703157
11423.397902,0.671906
11424.101059,0.703157
11424.788590,0.687531
11425.460496,0.671906
11426.116776,0.656280
11426.773056,0.656280
11427.413711,0.640654
11428.054365,0.640654
11428.679394,0.625029
11429.304422,0.625029
11429.960702,0.656280
11430.632608,0.671906
11431.288888,0.656280
11431.992045,0.703157
11432.648325,0.656280
11433.304605,0.656280
11433.929634,0.625029
11434.570288,0.640654
11435.226568,0.656280
11435.882848,0.656280
11436.523503,0.640654
11437.164157,0.640654
11437.820437,0.656280
11438.523594,0.703157
11439.164248,0.640654
11452.430481,0.656280
11453.071135,0.640654
11453.711789,0.640654
11454.352444,0.640654
11455.024349,0.671906
11455.711881,0.687531
11456.399412,0.687531
11457.086944,0.687531
11457.743224,0.656280
11471.321970,0.703157
11472.025128,0.703157
11472.712659,0.687531
11473.400191,0.687531
11474.072096,0.671906
11474.728376,0.656280
11475.337779,0.609403
11486.916434,0.625029
11487.541463,0.625029
11488.213369,0.671906
11488.854023,0.640654
11489.541554,0.687531
11509.151827,0.578151
11509.714353,0.562526
11510.323756,0.609403
11515.839633,0.828163
11516.542790,0.703157
11517.230322,0.687531
11517.995982,0.765660
11518.761642,0.765660
11519.464799,0.703157
11520.167956,0.703157
11520.855488,0.687531
11521.496142,0.640654
11522.168048,0.671906
11522.871205,0.703157
11523.605614,0.734409
11524.293145,0.687531
11524.980677,0.687531
11525.699460,0.718783
11526.402617,0.703157
11527.074522,0.671906
11527.933937,0.859414
11528.668345,0.734409
11529.371503,0.703157
11530.090286,0.718783
11530.871571,0.781286
11531.652857,0.781286
11532.371640,0.718783
11533.137300,0.765660
11533.918586,0.781286
11534.778000,0.859414
11535.528034,0.750034
11536.309320,0.781286
11537.012477,0.703157
11537.684383,0.671906
11547.966104,0.687531
11548.653635,0.687531
11549.372418,0.718783
11550.075575,0.703157
11550.825610,0.750034
11551.528767,0.703157
11552.263175,0.734409
11552.997584,0.734409
11553.747618,0.750034
11554.497653,0.750034
11555.169559,0.671906
11574.045423,0.671906
11574.795457,0.750034
11575.529866,0.734409
11576.186146,0.656280
11584.936546,0.640654
11585.639703,0.703157
11586.280358,0.640654
11586.967889,0.687531
11587.624169,0.656280
11588.405455,0.781286
11589.124238,0.718783
11589.858646,0.734409
11590.624306,0.765660
11725.661738,0.750034
11726.474275,0.812537
11727.286812,0.812537
11728.146226,0.859414
11729.021266,0.875040
11729.865055,0.843789
11747.615868,0.625029
11748.225271,0.609403
11748.834673,0.609403
11749.475328,0.640654
11750.178485,0.703157
11750.897268,0.718783
11751.647302,0.750034
11752.412962,0.765660
11753.147371,0.734409
11753.913031,0.765660
11754.647439,0.734409
11755.397474,0.750034
11756.116257,0.718783
11826.572607,0.796911
11827.244513,0.671906
11828.103927,0.859414
11832.854144,0.812537
11833.604179,0.750034
11834.354213,0.750034
11835.104247,0.750034
11835.838656,0.734409
11836.588690,0.750034
11837.260596,0.671906
11838.010630,0.750034
11838.776290,0.765660
11839.354442,0.578151
11840.213856,0.859414
11883.497087,0.750034
11884.262748,0.765660
11885.059659,0.796911
11885.919073,0.859414
11886.731611,0.812537
11887.606651,0.875040
11888.403562,0.796911
11902.654214,0.796911
11903.419874,0.765660
11904.263663,0.843789
11905.091826,0.828163
11906.107497,1.015671
11909.576406,0.625029
11918.404935,0.703157
11919.061215,0.656280
11919.670618,0.609403
11931.296150,0.765660
11931.905553,0.609403
11932.624336,0.718783
11933.311868,0.687531
11933.999399,0.687531
11934.733808,0.734409
11940.718457,0.781286
11941.343485,0.625029
11942.015391,0.671906
11942.718548,0.703157
11943.374828,0.656280
11944.046734,0.671906
11944.734266,0.687531
11945.390546,0.656280
11946.093703,0.703157
11946.859363,0.765660
11947.765654,0.906291
11948.453186,0.687531
11949.203220,0.750034
11949.922003,0.718783
11950.656412,0.734409
11951.297066,0.640654
11952.109603,0.812537
11952.828386,0.718783
11953.594046,0.765660
11954.406583,0.812537
11955.281623,0.875040
11956.062909,0.781286
11956.937949,0.875040
11957.672358,0.734409
11958.563024,0.890666
11959.469315,0.906291
11963.172610,0.937543
11964.016398,0.843789
11964.875813,0.859414
11965.735227,0.859414
11966.563390,0.828163
11967.313424,0.750034
11968.063458,0.750034
11968.813493,0.750034
11969.516650,0.703157
11970.266684,0.750034
11970.985467,0.718783
11971.798004,0.812537
11972.579290,0.781286
11973.391827,0.812537
11974.173113,0.781286
11974.970025,0.796911
11975.735685,0.765660
11976.548222,0.812537
11977.235753,0.687531
11980.298393,0.781286
11988.361263,0.750034
11989.158174,0.796911
11989.876957,0.718783
11990.689494,0.812537
11991.455154,0.765660
11992.252066,0.796911
11993.080229,0.828163
11993.970894,0.890666
11994.783432,0.812537
11995.674097,0.890666
11996.580389,0.906291
12000.580572,0.968794
12020.534610,0.765660
12021.206516,0.671906
12022.112808,0.906291
12022.878468,0.765660
12023.722256,0.843789
12024.628548,0.906291
12025.316079,0.687531
12026.222371,0.906291
12027.034908,0.812537
12027.706814,0.671906
12028.409971,0.703157
12065.192904,0.750034
12066.036693,0.843789
12066.661722,0.625029
12067.411756,0.750034
12068.146165,0.734409
12068.911825,0.765660
12069.739988,0.828163
12070.536899,0.796911
12071.286933,0.750034
12072.068219,0.781286
12072.849505,0.781286
12073.630791,0.781286
12074.271445,0.640654
12114.257650,0.812537
12115.132690,0.875040
12115.929602,0.796911
12116.726513,0.796911
12117.539051,0.812537
12118.320336,0.781286
12119.164125,0.843789
12119.961036,0.796911
12120.820451,0.859414
12274.014963,0.765660
12274.874377,0.859414
12290.687601,0.781286
12291.359507,0.671906
12355.737454,0.765660
12356.440611,0.703157
12357.175020,0.734409
12357.909428,0.734409
12358.659462,0.750034
12359.393871,0.734409
12360.190783,0.796911
12360.909565,0.718783
12361.706477,0.796911
12362.425260,0.718783
12366.691080,0.718783
12367.487992,0.796911
12368.331780,0.843789
12369.206820,0.875040
12370.019357,0.812537
12370.769392,0.750034
12371.566303,0.796911
12372.253835,0.687531
12373.081998,0.828163
12373.878909,0.796911
12374.535189,0.656280
12375.160218,0.625029
12381.097990,0.640654
12390.114027,0.734409
12390.864062,0.750034
12391.770353,0.906291
12392.473510,0.703157
12393.129790,0.656280
12397.286231,0.625029
12397.864382,0.578151
12398.520662,0.656280
12399.161316,0.640654
12399.848848,0.687531
12400.614508,0.765660
12401.348917,0.734409
12402.036448,0.687531
12402.770857,0.734409
12403.520891,0.750034
12404.192797,0.671906
12404.833451,0.640654
12405.505357,0.671906
12406.130385,0.625029
12406.802291,0.671906
12407.505448,0.703157
12408.224231,0.718783
12409.036768,0.812537
12409.849306,0.812537
12410.646217,0.796911
12411.411877,0.765660
12417.755918,0.875040
12418.630958,0.875040
12421.787352,0.796911
12422.553012,0.765660
12423.365549,0.812537
12424.209338,0.843789
12424.974998,0.765660
12425.818787,0.843789
12426.678201,0.859414
12427.475112,0.796911
12428.350152,0.875040
12429.178315,0.828163
12430.022104,0.843789
12430.819016,0.796911
12431.631553,0.812537
12432.381587,0.750034
12433.069118,0.687531
12433.741024,0.671906
12434.491059,0.750034
12435.303596,0.812537
12436.100507,0.796911
12560.528078,0.687531
12561.184358,0.656280
12561.840638,0.656280
12562.496918,0.656280
12563.246952,0.750034
12563.918858,0.671906
12564.481384,0.562526
12572.575504,0.656280
12573.294287,0.718783
12573.919316,0.625029
12574.591222,0.671906
12575.216250,0.625029
12575.872530,0.656280
12576.513185,0.640654
12577.138213,0.625029
12577.872622,0.734409
12578.450773,0.578151
12596.170334,0.656280
12605.233249,0.765660
12606.077038,0.843789
12606.780195,0.703157
12607.483352,0.703157
12608.186509,0.703157
12608.920918,0.734409
12643.953772,0.734409
12669.845582,0.750034
12670.626868,0.781286
12671.392528,0.765660
12672.173814,0.781286
12672.939474,0.765660
12673.705134,0.765660
12674.470794,0.765660
12675.252079,0.781286
12676.002114,0.750034
12676.674020,0.671906
12677.424054,0.750034
12678.252217,0.828163
12679.002251,0.750034
12679.830414,0.828163
12680.564823,0.734409
12681.314857,0.750034
12682.033640,0.718783
12682.752423,0.718783
12683.533709,0.781286
12684.314994,0.781286
12685.080654,0.765660
12685.768186,0.687531
12686.549472,0.781286
12687.299506,0.750034
12688.033915,0.734409
12688.752697,0.718783
12689.487106,0.734409
12690.252766,0.765660
12690.940298,0.687531
12691.659081,0.718783
12692.346612,0.687531
12693.034143,0.687531
12693.752926,0.718783
12694.534212,0.781286
12695.299872,0.765660
12696.174912,0.875040
12697.128081,0.953169
12716.175828,0.796911
12716.816482,0.640654
12720.972922,0.687531
12721.644828,0.671906
12722.316734,0.671906
12723.051142,0.734409
12723.816803,0.765660
12729.707697,0.718783
12730.442106,0.734409
12731.129637,0.687531
12737.614309,0.750034
12738.364343,0.750034
12739.176881,0.812537
12739.926915,0.750034
12740.676949,0.750034
12741.426984,0.750034
12742.083264,0.656280
12742.895801,0.812537
12743.552081,0.656280
12744.333367,0.781286
12745.052150,0.718783
12745.724055,0.671906
12746.489715,0.765660
12747.224124,0.734409
12747.942907,0.718783
12748.614813,0.671906
12749.333596,0.718783
12750.052378,0.718783
12750.771161,0.718783
12751.505570,0.734409
12752.208727,0.703157
12752.880633,0.671906
12753.677544,0.796911
12754.474456,0.796911
12755.271367,0.796911
12756.193285,0.921917
12777.397380,0.718783
12778.084912,0.687531
12778.803694,0.718783
12779.538103,0.734409
12780.350640,0.812537
12781.147552,0.796911
12781.881960,0.734409
12782.647620,0.765660
12783.413280,0.765660
12784.194566,0.781286
12784.944601,0.750034
12785.741512,0.796911
12786.475921,0.734409
12787.210329,0.734409
12787.960364,0.750034
12788.679147,0.718783
12789.382304,0.703157
12790.132338,0.750034
12790.835495,0.703157
12791.507401,0.671906
12792.226184,0.718783
12792.913715,0.687531
12793.585621,0.671906
12797.882693,0.718783
12798.585850,0.703157
12799.304633,0.718783
12800.039042,0.734409
12800.804702,0.765660
12801.539110,0.734409
12802.289145,0.750034
12803.039179,0.750034
12803.804839,0.765660
12804.570499,0.765660
12805.336159,0.765660
12806.148696,0.812537
12806.898731,0.750034
12807.633139,0.734409
12808.367548,0.734409
12809.148834,0.781286
12809.883242,0.734409
12810.664528,0.781286
12811.352059,0.687531
12812.086468,0.734409
12818.493011,0.765660
12819.227420,0.734409
12819.961828,0.734409
12820.633734,0.671906
12821.180634,0.546900
12821.977546,0.796911
12822.649451,0.671906
12823.258854,0.609403
12823.883883,0.625029
12824.508912,0.625029
12825.133940,0.625029
12825.727717,0.593777
12826.368372,0.640654
12827.055903,0.687531
12827.821563,0.765660
12828.571598,0.750034
12829.306006,0.734409
12830.009163,0.703157
12830.712321,0.703157
12831.524858,0.812537
12834.962515,0.750034
12835.571918,0.609403
12836.212572,0.640654
12836.884478,0.671906
12837.556384,0.671906
12838.228290,0.671906
12838.900195,0.671906
12839.540850,0.640654
12840.150253,0.609403
12840.806533,0.656280
12841.431561,0.625029
12842.056590,0.625029
12842.665993,0.609403
12843.306647,0.640654
12848.009987,0.765660
12848.697519,0.687531
12849.400676,0.703157
12850.166336,0.765660
12850.916370,0.750034
12851.682030,0.765660
12852.447690,0.765660
12853.135222,0.687531
12853.885256,0.750034
12854.557162,0.671906
12855.260319,0.703157
12855.994728,0.734409
12856.697885,0.703157
12857.432294,0.734409
12858.104199,0.671906
12862.088757,0.765660
12862.745037,0.656280
12863.401317,0.656280
12864.073223,0.671906
12864.729503,0.656280
12865.401408,0.671906
12866.151443,0.750034
12866.901477,0.750034
12867.714014,0.812537
12868.526551,0.812537
12869.229709,0.703157
12873.667412,0.687531
12874.386195,0.718783
12875.151855,0.765660
12875.886263,0.734409
12876.714426,0.828163
12877.448835,0.734409
12878.183244,0.734409
12878.917652,0.734409
12879.714564,0.796911
12880.464598,0.750034
12881.261509,0.796911
12881.964667,0.703157
12882.745952,0.781286
12883.480361,0.734409
12884.261647,0.781286
12884.855424,0.593777
12885.714838,0.859414
12886.417995,0.703157
12887.168030,0.750034
12887.871187,0.703157
12888.652473,0.781286
12889.418133,0.765660
12890.246296,0.828163
12890.980704,0.734409
12891.683861,0.703157
12892.449522,0.765660
12893.152679,0.703157
12893.902713,0.750034
12894.605870,0.703157
12907.418957,0.406269
12907.809600,0.390643
12908.278371,0.468771
12964.562197,0.953169
12965.562243,1.000046
12979.391001,0.765660
13051.659934,1.062549
13052.675606,1.015671
13151.273869,0.828163
13152.039529,0.765660
13163.961950,0.828163
13164.821364,0.859414
13165.524521,0.703157
13166.383936,0.859414
13167.118344,0.734409
13167.852753,0.734409
13168.540284,0.687531
13169.259067,0.718783
13170.055979,0.796911
13170.759136,0.703157
13171.524796,0.765660
13172.290456,0.765660
13173.071742,0.781286
13173.853028,0.781286
13174.712442,0.859414
13175.462476,0.750034
13176.321891,0.859414
13177.040673,0.718783
13183.494094,0.781286
13184.212877,0.718783
13184.978537,0.765660
13224.199082,0.703157
13225.027245,0.828163
13236.465269,0.609403
13237.152800,0.687531
13240.762340,0.703157
13241.512375,0.750034
13242.278035,0.765660
13243.012443,0.734409
13243.778103,0.765660
13244.575015,0.796911
13245.340675,0.765660
13246.090709,0.750034
13246.887621,0.796911
13247.559526,0.671906
13248.278309,0.718783
13248.997092,0.718783
13249.668998,0.671906
13250.387781,0.718783
13251.075312,0.687531
13251.747218,0.671906
13252.434750,0.687531
13258.185013,0.750034
13258.950673,0.765660
13259.669456,0.718783
13260.341362,0.671906
13261.216402,0.875040
13261.841430,0.625029
13262.435207,0.593777
13263.013359,0.578151
13263.700890,0.687531
13278.982840,0.609403
13279.701623,0.718783
13280.342277,0.640654
13286.780072,0.718783
13287.530106,0.750034
13298.702492,0.765660
13299.483778,0.781286
13300.202561,0.718783
13301.015098,0.812537
13301.749507,0.734409
13302.608921,0.859414
13303.437084,0.828163
13312.015602,0.859414
13312.656256,0.640654
13313.406291,0.750034
13314.062571,0.656280
13314.796979,0.734409
13352.329947,0.703157
13353.033104,0.703157
13353.720636,0.687531
13354.408167,0.687531
13355.080073,0.671906
13355.767605,0.687531
13412.207688,0.671906
13412.817091,0.609403
13413.520248,0.703157
13414.114025,0.593777
13418.645483,0.734409
13419.426769,0.781286
13420.254931,0.828163
13420.926837,0.671906
13426.239580,0.703157
13426.973989,0.734409
13427.724023,0.750034
13428.395929,0.671906
13429.270969,0.875040
13492.226976,0.703157
13492.930133,0.703157
13493.633290,0.703157
13494.289570,0.656280
13494.992728,0.703157
13495.664633,0.671906
13496.336539,0.671906
13497.070948,0.734409
13497.774105,0.703157
13498.430385,0.656280
13499.258548,0.828163
13499.961705,0.703157
13500.711739,0.750034
13501.446148,0.734409
13502.164931,0.718783
13502.946217,0.781286
13507.805814,0.718783
13508.493345,0.687531
13509.243380,0.750034
13509.930911,0.687531
13510.540314,0.609403
13511.274723,0.734409
13511.931003,0.656280
13512.681037,0.750034
13513.399820,0.718783
13514.118603,0.718783
13514.853012,0.734409
13515.571795,0.718783
13516.290577,0.718783
13517.009360,0.718783
13517.743769,0.734409
13518.400049,0.656280
13519.087580,0.687531
13519.775112,0.687531
13520.447018,0.671906
13598.294331,0.687531
13659.156492,0.593777
13659.719018,0.562526
13660.281543,0.562526
13660.844069,0.562526
13661.406595,0.562526
13661.969121,0.562526
13662.531646,0.562526
13663.109798,0.578151
13663.719201,0.609403
13664.375481,0.656280
13665.063012,0.687531
13665.766170,0.703157
13666.500578,0.734409
13667.266238,0.765660
13668.016273,0.750034
13668.750681,0.734409
13669.453838,0.703157
13670.156996,0.703157
13670.844527,0.687531
13671.500807,0.656280
13672.141461,0.640654
13672.750864,0.609403
13673.375893,0.625029
13673.985296,0.609403
13674.625950,0.640654
13675.250979,0.625029
13894.354759,0.718783
13894.979787,0.625029
13895.667319,0.687531
13896.417353,0.750034
13897.183013,0.765660
13897.901796,0.718783
13898.698707,0.796911
13899.433116,0.734409
13900.167525,0.734409
13900.901933,0.734409
13901.667593,0.765660
13902.464505,0.796911
13903.198913,0.734409
13903.964573,0.765660
13904.730233,0.765660
13905.464642,0.734409
13906.199051,0.734409
13906.870956,0.671906
13907.574114,0.703157
13908.292897,0.718783
13909.058557,0.765660
13909.792965,0.734409
13910.574251,0.781286
13929.121975,0.656280
13929.793881,0.671906
13930.450161,0.656280
13931.075189,0.625029
13931.731469,0.656280
13996.203171,0.703157
13996.921953,0.718783
13997.656362,0.734409
13998.406396,0.750034
13999.156431,0.750034
13999.890839,0.734409
14000.687751,0.796911
14001.406534,0.718783
14002.125317,0.718783
14002.859725,0.734409
14003.594134,0.734409
14004.312917,0.718783
14005.047325,0.734409
14005.750483,0.703157
14006.484891,0.734409
14007.188048,0.703157
14007.922457,0.734409
14008.672491,0.750034
14009.391274,0.718783
14021.173064,0.781286
14021.907472,0.734409
14022.657506,0.750034
14023.376289,0.718783
14024.095072,0.718783
14024.813855,0.718783
14025.532638,0.718783
14026.235795,0.703157
14026.970204,0.734409
14027.720238,0.750034
14028.454647,0.734409
14029.251558,0.796911
14029.970341,0.718783
14030.751627,0.781286
14031.423533,0.671906
14032.142316,0.718783
14032.876724,0.734409
14033.595507,0.718783
14034.329916,0.734409
14035.095576,0.765660
14035.829984,0.734409
14036.580019,0.750034
14037.345679,0.765660
14038.142590,0.796911
14038.861373,0.718783
14039.580156,0.718783
14040.298939,0.718783
14041.002096,0.703157
14041.674002,0.671906
14042.361533,0.687531
14043.064691,0.703157
14043.783473,0.718783
14044.471005,0.687531
14045.189788,0.718783
14045.908571,0.718783
14046.642979,0.734409
14047.377388,0.734409
14048.143048,0.765660
14048.893082,0.750034
14049.658742,0.765660
14050.393151,0.734409
14051.158811,0.765660
14051.908845,0.750034
14052.612003,0.703157
14053.362037,0.750034
14054.096446,0.734409
14054.830854,0.734409
14055.612140,0.781286
14056.409051,0.796911
14057.190337,0.781286
14057.940372,0.750034
14058.690406,0.750034
14059.424814,0.734409
14060.143597,0.718783
14060.878006,0.734409
14061.659292,0.781286
14062.393700,0.734409
14063.174986,0.781286
14063.925020,0.750034
14064.706306,0.781286
14065.425089,0.718783
14066.175123,0.750034
14066.909532,0.734409
14067.643941,0.734409
14068.378349,0.734409
14069.112758,0.734409
14069.847167,0.734409
14070.550324,0.703157
14071.269107,0.718783
14072.003515,0.734409
14072.706672,0.703157
14073.441081,0.734409
14074.378624,0.937543
14075.456798,1.078174
14086.019782,0.671906
14086.707313,0.687531
14087.472973,0.765660
14088.207382,0.734409
14088.941791,0.734409
14089.676199,0.734409
14090.441859,0.765660
14091.129391,0.687531
14091.863799,0.734409
14092.566957,0.703157
14093.332617,0.765660
14094.035774,0.703157
14106.411340,0.703157
14107.130123,0.718783
14107.848906,0.718783
14108.536438,0.687531
14109.302098,0.765660
14109.942752,0.640654
14110.677161,0.734409
14111.411569,0.734409
14112.130352,0.718783
14112.880386,0.750034
14113.646046,0.765660
14114.427332,0.781286
14115.146115,0.718783
14115.896149,0.750034
14116.599307,0.703157
14117.349341,0.750034
14118.083750,0.734409
14118.833784,0.750034
14119.568192,0.734409
14120.302601,0.734409
14121.037010,0.734409
14121.755793,0.718783
14122.443324,0.687531
14123.115230,0.671906
14123.787136,0.671906
14124.474667,0.687531
14125.193450,0.718783
14125.896607,0.703157
14126.584139,0.687531
14127.302922,0.718783
14128.021704,0.718783
14128.662359,0.640654
14129.349890,0.687531
14130.021796,0.671906
14130.709327,0.687531
14131.396859,0.687531
14132.084390,0.687531
14132.803173,0.718783
14133.537582,0.734409
14134.287616,0.750034
14135.022025,0.734409
14135.740808,0.718783
14136.475216,0.734409
14137.178374,0.703157
14137.881531,0.703157
14138.584688,0.703157
14139.287845,0.703157
14140.006628,0.718783
14140.741037,0.734409
14141.506697,0.765660
14142.256731,0.750034
14142.991140,0.734409
14143.709923,0.718783
14144.413080,0.703157
14145.116237,0.703157
14145.819394,0.703157
14146.538177,0.718783
14147.272586,0.734409
14148.038246,0.765660
14148.757029,0.718783
14149.491437,0.734409
14150.210220,0.718783
14150.960254,0.750034
14151.663412,0.703157
14164.898392,0.843789
14165.523421,0.625029
14166.242204,0.718783
14167.007864,0.765660
14167.742273,0.734409
14168.507933,0.765660
14169.257967,0.750034
14170.039253,0.781286
14170.711159,0.671906
14176.383293,0.703157
14181.571031,0.671906
14182.305439,0.734409
14182.961719,0.656280
14183.633625,0.671906
14184.321157,0.687531
14185.024314,0.703157
14191.290226,0.718783
14191.946506,0.656280
14192.587160,0.640654
14193.321568,0.734409
14194.071603,0.750034
14194.806011,0.734409
14195.540420,0.734409
14196.274829,0.734409
14197.024863,0.750034
14197.696769,0.671906
14198.415552,0.718783
14199.181212,0.765660
14199.915620,0.734409
14200.634403,0.718783
14201.337560,0.703157
14202.056343,0.718783
14202.728249,0.671906
14203.431406,0.703157
14204.150189,0.718783
14204.900223,0.750034
14205.603381,0.703157
14206.353415,0.750034
14207.119075,0.765660
14207.869109,0.750034
14214.072518,0.609403
14214.869430,0.796911
14218.275836,0.703157
14218.885239,0.609403
14219.525893,0.640654
14220.197799,0.671906
14220.854079,0.656280
14233.745294,0.828163
14234.557831,0.812537
14235.323491,0.765660
14236.182905,0.859414
14236.886063,0.703157
14237.573594,0.687531
14238.292377,0.718783
14238.979908,0.687531
14239.714317,0.734409
14240.448726,0.734409
14241.073754,0.625029
14241.745660,0.671906
14242.417566,0.671906
14243.151974,0.734409
14243.886383,0.734409
14244.573915,0.687531
14245.277072,0.703157
14245.948977,0.671906
14246.652135,0.703157
14247.324040,0.671906
14248.042823,0.718783
14248.808483,0.765660
14249.621021,0.812537
14250.386681,0.765660
14251.136715,0.750034
14251.871124,0.734409
14252.636784,0.765660
14253.339941,0.703157
14254.089975,0.750034
14254.871261,0.781286
14255.605669,0.734409
14256.293201,0.687531
14257.027610,0.734409
14257.762018,0.734409
14258.558930,0.796911
14259.293338,0.734409
14260.105875,0.812537
14260.855910,0.750034
14279.341131,0.750034
14280.044288,0.703157
14280.794322,0.750034
14281.544357,0.750034
14282.263140,0.718783
14282.981923,0.718783
14283.685080,0.703157
14284.419488,0.734409
14285.122646,0.703157
14285.841429,0.718783
14286.482083,0.640654
14287.153989,0.671906
14287.825894,0.671906
14288.513426,0.687531
14289.216583,0.703157
14289.919740,0.703157
14297.576341,0.687531
14298.279498,0.703157
14298.982655,0.703157
14316.545959,0.796911
14317.280368,0.734409
14318.061653,0.781286
14318.764811,0.703157
14319.467968,0.703157
14320.218002,0.750034
14329.140285,0.640654
14368.282702,0.687531
14368.985859,0.703157
14369.751519,0.765660
14370.470302,0.718783
14371.157834,0.687531
14371.876616,0.718783
14372.564148,0.687531
14373.267305,0.703157
14373.954837,0.687531
14374.626742,0.671906
14375.283022,0.656280
14376.079934,0.796911
14379.330083,0.687531
14380.126994,0.796911
14380.705146,0.578151
14381.423928,0.718783
14382.080209,0.656280
14382.767740,0.687531
14383.439646,0.671906
14384.095926,0.656280
14384.783457,0.687531
14385.486614,0.703157
14386.236649,0.750034
14386.955432,0.718783
14387.705466,0.750034
14388.471126,0.765660
14389.299289,0.828163
14389.939943,0.640654
14390.689978,0.750034
14391.346258,0.656280
14392.080666,0.734409
14392.830701,0.750034
14393.533858,0.703157
14454.130382,0.796911
14457.458659,0.703157
14461.505719,0.671906
14462.177625,0.671906
14462.880782,0.703157
14463.552688,0.671906
14464.224594,0.671906
14465.099634,0.875040
14468.443537,0.640654
14469.099817,0.656280
14469.740471,0.640654
14470.428003,0.687531
14471.131160,0.703157
14471.803066,0.671906
14472.490597,0.687531
14473.193754,0.703157
14473.928163,0.734409
14477.881469,0.640654
14525.008626,0.656280
14525.664906,0.656280
14526.461818,0.796911
14527.055595,0.593777
14527.836881,0.781286
14528.524412,0.687531
14529.227569,0.703157
14529.946352,0.718783
14530.665135,0.718783
14531.337041,0.671906
14532.008947,0.671906
14532.680852,0.671906
14533.524641,0.843789
14540.259324,0.718783
14540.946856,0.687531
14541.634387,0.687531
14542.368796,0.734409
14543.009450,0.640654
14543.712607,0.703157
14544.447016,0.734409
14545.103296,0.656280
14545.743950,0.640654
14546.462733,0.718783
14547.056510,0.593777
14547.775293,0.718783
14548.447199,0.671906
14549.119105,0.671906
14569.854429,0.687531
14570.557586,0.703157
14571.291995,0.734409
14572.010778,0.718783
14572.698309,0.687531
14573.385841,0.687531
14574.057746,0.671906
14574.745278,0.687531
14575.432809,0.687531
14576.057838,0.625029
14576.698492,0.640654
14577.370398,0.671906
14578.073555,0.703157
14578.870467,0.796911
14579.620501,0.750034
14580.370535,0.750034
14581.089318,0.718783
14581.808101,0.718783
14582.542510,0.734409
14583.261293,0.718783
14583.980076,0.718783
14584.714484,0.734409
14585.448893,0.734409
14586.183301,0.734409
14586.933336,0.750034
14587.667744,0.734409
14588.339650,0.671906
14589.058433,0.718783
14589.761590,0.703157
14590.464747,0.703157
14591.152279,0.687531
14591.824185,0.671906
14592.480465,0.656280
14593.183622,0.703157
14593.902405,0.718783
14594.636813,0.734409
14595.324345,0.687531
14596.011876,0.687531
14596.699408,0.687531
14597.371314,0.671906
14598.074471,0.703157
14598.730751,0.656280
14599.402657,0.671906
14600.027685,0.625029
14600.715217,0.687531
14601.418374,0.703157
14609.887511,0.625029
14610.512540,0.625029
14611.153194,0.640654
14611.825100,0.671906
14612.512632,0.687531
14613.231415,0.718783
14613.965823,0.734409
14614.684606,0.718783
14615.450266,0.765660
14616.153423,0.703157
14616.872206,0.718783
14617.575363,0.703157
14618.278521,0.703157
14618.966052,0.687531
14619.669209,0.703157
14620.356741,0.687531
14620.981769,0.625029
14621.700552,0.718783
14622.263078,0.562526
14622.919358,0.656280
14623.560012,0.640654
14624.216292,0.656280
14624.888198,0.671906
14625.560104,0.671906
14626.247635,0.687531
14626.966418,0.718783
14627.669575,0.703157
14628.403984,0.734409
14629.122767,0.718783
14629.779047,0.656280
14630.466578,0.687531
14631.122859,0.656280
14631.794764,0.671906
14654.389549,0.750034
14654.967700,0.578151
14655.639606,0.671906
14656.249009,0.609403
14665.468181,0.718783
14678.921921,0.625029
14679.531324,0.609403
14680.187604,0.656280
14680.765756,0.578151
14681.312656,0.546900
14682.000187,0.687531
14682.531462,0.531274
14683.109613,0.578151
14683.656513,0.546900
14684.297168,0.640654
14684.812816,0.515649
14685.437845,0.625029
14686.094125,0.656280
14686.812908,0.718783
14687.453562,0.640654
14688.172345,0.718783
14688.875502,0.703157
14689.516156,0.640654
14692.672551,0.562526
14696.625857,0.734409
14697.344640,0.718783
14698.094674,0.750034
14698.891586,0.796911
14699.657246,0.765660
14700.422906,0.765660
14701.172940,0.750034
14701.891723,0.718783
14819.334599,0.671906
14872.415154,0.687531
14873.118311,0.703157
14873.852719,0.734409
14874.602754,0.750034
14875.368414,0.765660
14876.118448,0.750034
14876.852857,0.734409
14877.587265,0.734409
14878.290422,0.703157
14878.993580,0.703157
14879.696737,0.703157
14880.384268,0.687531
14881.087425,0.703157
14881.774957,0.687531
14882.462488,0.687531
14883.212523,0.750034
14883.946931,0.734409
14884.728217,0.781286
14885.556380,0.828163
14886.368917,0.812537
14887.150203,0.781286
14887.900237,0.750034
14888.634646,0.734409
14889.322177,0.687531
14890.040960,0.718783
14890.728492,0.687531
14891.431649,0.703157
14892.103555,0.671906
14892.806712,0.703157
14893.494243,0.687531
15084.377981,0.890666
15145.427651,0.734409
15146.146434,0.718783
15146.833965,0.687531
15147.521497,0.687531
15148.209028,0.687531
15148.896560,0.687531
15149.584091,0.687531
15150.302874,0.718783
15150.896651,0.593777
15176.054053,0.718783
15176.710333,0.656280
15185.945131,0.750034
15186.585785,0.640654
15187.320194,0.734409
15187.945222,0.625029
15188.601502,0.656280
15189.242157,0.640654
15189.914062,0.671906
15190.554717,0.640654
15191.226622,0.671906
15191.898528,0.671906
15192.554808,0.656280
15193.289217,0.734409
15193.976748,0.687531
15194.679905,0.703157
15195.414314,0.734409
15196.101846,0.687531
15196.789377,0.687531
15197.492534,0.703157
15198.164440,0.671906
15198.820720,0.656280
15199.492626,0.671906
15200.180157,0.687531
15200.898940,0.718783
15201.586472,0.687531
15202.289629,0.703157
15203.008412,0.718783
15203.711569,0.703157
15204.414726,0.703157
15205.133509,0.718783
15205.836666,0.703157
15206.508572,0.671906
15207.196103,0.687531
15207.868009,0.671906
15208.477412,0.609403
15209.133692,0.656280
15209.930604,0.796911
15217.509075,0.765660
15218.180981,0.671906
15235.978671,0.625029
15236.650577,0.671906
15237.306857,0.656280
15238.010014,0.703157
15238.697545,0.687531
15239.353825,0.656280
15243.557143,0.750034
15244.229048,0.671906
15245.010334,0.781286
15268.761421,0.656280
15269.402076,0.640654
15270.058356,0.656280
15315.904204,0.734409
15316.607362,0.703157
15317.326144,0.718783
15318.044927,0.718783
15318.732459,0.687531
15319.435616,0.703157
15320.091896,0.656280
15320.779428,0.687531
15321.482585,0.703157
15322.170116,0.687531
15322.888899,0.718783
15323.529553,0.640654
15324.248336,0.718783
15393.954653,0.640654
15435.050284,0.625029
15435.659687,0.609403
15436.269089,0.609403
15436.894118,0.625029
15437.550398,0.656280
15438.175427,0.625029
15438.831707,0.656280
15439.534864,0.703157
15440.206770,0.671906
15440.894301,0.687531
15441.550581,0.656280
15442.206861,0.656280
15442.863141,0.656280
15443.550673,0.687531
15444.206953,0.656280
15444.956987,0.750034
15445.691396,0.734409
15446.410179,0.718783
15447.082084,0.671906
15447.816493,0.734409
15448.519650,0.703157
15449.254059,0.734409
15450.004093,0.750034
15450.769753,0.765660
15451.457285,0.687531
15452.160442,0.703157
15452.832348,0.671906
15453.504253,0.671906
15454.144908,0.640654
15454.816813,0.671906
15455.488719,0.671906
15456.176251,0.687531
15456.848156,0.671906
15457.582565,0.734409
15458.348225,0.765660
15459.098259,0.750034
15459.863919,0.765660
15460.629580,0.765660
15461.348362,0.718783
15462.067145,0.718783
15462.754677,0.687531
15463.426583,0.671906
15464.067237,0.640654
15464.754768,0.687531
15465.348546,0.593777
15465.973574,0.625029
15466.614228,0.640654
15467.286134,0.671906
15467.942414,0.656280
15468.629946,0.687531
15469.301852,0.671906
15470.020634,0.718783
15470.864423,0.843789
15471.692586,0.828163
15472.489497,0.796911
15473.270783,0.781286
15474.067695,0.796911
15474.802103,0.734409
15475.520886,0.718783
15476.224043,0.703157
15476.895949,0.671906
15477.567855,0.671906
15478.239761,0.671906
15478.896041,0.656280
15479.552321,0.656280
15480.208601,0.656280
15480.864881,0.656280
15481.552412,0.687531
15482.318072,0.765660
15483.114984,0.796911
15483.865018,0.750034
15484.615052,0.750034
15485.365087,0.750034
15486.115121,0.750034
15486.802653,0.687531
15487.458933,0.656280
15488.099587,0.640654
15488.755867,0.656280
15489.412147,0.656280
15490.099679,0.687531
15490.802836,0.703157
15491.474741,0.671906
15492.177899,0.703157
15492.943559,0.765660
15493.599839,0.656280
15494.334247,0.734409
15495.037405,0.703157
15495.693685,0.656280
15496.396842,0.703157
15497.099999,0.703157
15497.803156,0.703157
15498.537565,0.734409
15499.240722,0.703157
15499.943879,0.703157
15500.662662,0.718783
15508.069251,0.640654
15508.725531,0.656280
15509.366185,0.640654
15510.069343,0.703157
15510.663120,0.593777
15511.335026,0.671906
15511.975680,0.640654
15512.553831,0.578151
15513.225737,0.671906
15516.929032,0.671906
15517.616563,0.687531
15518.304095,0.687531
15518.991626,0.687531
15519.647906,0.656280
15520.319812,0.671906
15521.007343,0.687531
15521.679249,0.671906
15522.319903,0.640654
15522.991809,0.671906
15523.679341,0.687531
15524.319995,0.640654
15525.007526,0.687531
15525.679432,0.671906
15526.335712,0.656280
15527.116998,0.781286
15527.804529,0.687531
15550.914962,0.718783
15551.664997,0.750034
15587.291627,0.609403
15590.010502,0.640654
15598.885908,0.843789
15603.589248,0.640654
15608.636354,0.640654
15661.795038,0.750034
15670.248550,0.781286
15675.592545,0.687531
15863.960542,0.750034
15864.694950,0.734409
15865.460610,0.765660
15866.163768,0.703157
15866.945053,0.781286
15867.648211,0.703157
15868.351368,0.703157
15869.054525,0.703157
15869.757682,0.703157
15870.445214,0.687531
15871.163996,0.718783
15882.883283,0.640654
15883.617692,0.734409
15884.336474,0.718783
15885.055257,0.718783
15885.742789,0.687531
15886.430320,0.687531
15887.149103,0.718783
15887.867886,0.718783
15888.602295,0.734409
15889.321078,0.718783
15890.024235,0.703157
15890.743018,0.718783
15891.430549,0.687531
15892.118081,0.687531
15892.805612,0.687531
15893.508769,0.703157
15894.180675,0.671906
15894.852581,0.671906
15895.540112,0.687531
15896.227644,0.687531
15896.852672,0.625029
15901.352878,0.656280
15902.024784,0.671906
15902.665438,0.640654
15903.368596,0.703157
15908.681339,0.671906
15909.368870,0.687531
15910.072027,0.703157
15910.775185,0.703157
15911.462716,0.687531
15912.134622,0.671906
15912.822153,0.687531
15917.462991,0.718783
15918.228651,0.765660
15918.947434,0.718783
15919.681842,0.734409
15935.635698,0.671906
15988.200604,0.718783
15988.903761,0.703157
16006.576445,0.718783
16009.748465,0.609403
16088.517696,0.765660
16089.267730,0.750034
16139.066885,0.687531
16139.754416,0.687531
16140.441947,0.687531
16141.113853,0.671906
16141.817010,0.703157
16142.535793,0.718783
16146.801614,0.687531
16147.473519,0.671906
16148.161051,0.687531
16148.801705,0.640654
16149.473611,0.671906
16150.145517,0.671906
16150.817422,0.671906
16151.536205,0.718783
16152.208111,0.671906
16152.911268,0.703157
16153.598800,0.687531
16154.286331,0.687531
16155.005114,0.718783
16155.630143,0.625029
16156.317674,0.687531
16156.973954,0.656280
16157.645860,0.671906
16158.317766,0.671906
16191.834925,0.843789
16241.993471,0.687531
16242.681002,0.687531
16243.399785,0.718783
16244.071691,0.671906
16244.790474,0.718783
16245.509257,0.718783
16246.243665,0.734409
16247.009326,0.765660
16247.743734,0.734409
16248.462517,0.718783
16257.931700,0.687531
16258.619232,0.687531
16259.291138,0.671906
16259.963043,0.671906
16260.634949,0.671906
16261.291229,0.656280
16261.947509,0.656280
16262.572538,0.625029
16263.228818,0.656280
16263.885098,0.656280
16264.541378,0.656280
16265.228909,0.687531
16265.947692,0.718783
16310.574735,0.781286
16311.356021,0.781286
16312.090430,0.734409
16312.871715,0.781286
16313.637375,0.765660
16325.012896,0.671906
16325.919187,0.906291
16336.107154,0.796911
16373.124473,0.812537
16373.858882,0.734409
16374.687045,0.828163
16375.390202,0.703157
16376.171488,0.781286
16388.718937,0.734409
16389.453346,0.734409
16390.140877,0.687531
16390.890911,0.750034
16391.609694,0.718783
16392.265974,0.656280
16392.969131,0.703157
16393.609786,0.640654
16394.234814,0.625029
16394.906720,0.671906
16395.531749,0.625029
16396.250532,0.718783
16396.906812,0.656280
16397.578717,0.671906
16398.250623,0.671906
16398.953780,0.703157
16399.594435,0.640654
16400.313218,0.718783
16401.000749,0.687531
16401.782035,0.781286
16402.438315,0.656280
16403.172724,0.734409
16403.891506,0.718783
16404.657166,0.765660
16405.407201,0.750034
16406.016604,0.609403
16406.704135,0.687531
16407.438544,0.734409
16443.815209,0.734409
16444.549618,0.734409
16445.315278,0.765660
16446.080938,0.765660
16446.752843,0.671906
16447.534129,0.781286
16448.284163,0.750034
16454.175058,0.750034
16454.956344,0.781286
16455.737630,0.781286
16456.503290,0.765660
16461.675401,0.796911
16462.409810,0.734409
16466.691256,0.671906
16522.490685,0.687531
16523.225094,0.734409
16523.912625,0.687531
16524.615782,0.703157
16525.459571,0.843789
16559.711139,0.656280
16560.429922,0.718783
16561.133079,0.703157
16561.789359,0.656280
16562.461265,0.671906
16563.133171,0.671906
16645.918210,0.796911
16646.761998,0.843789
16730.234570,0.734409
16731.047107,0.812537
16736.609861,0.687531
16737.344270,0.734409
16738.063053,0.718783
16738.750584,0.687531
16739.516244,0.765660
16740.172524,0.656280
16740.828804,0.656280
16741.469459,0.640654
16742.156990,0.687531
16742.782019,0.625029
16743.532053,0.750034
16744.313339,0.781286
16745.016496,0.703157
16745.704028,0.687531
16746.329056,0.625029
16747.000962,0.671906
16747.704119,0.703157
16748.391651,0.687531
16749.126059,0.734409
16749.766714,0.640654
16750.501122,0.734409
16751.048022,0.546900
16751.798057,0.750034
16752.485588,0.687531
16775.471015,0.703157
16776.111670,0.640654
16776.783575,0.671906
16777.549235,0.765660
16778.174264,0.625029
16778.705538,0.531274
16791.127982,0.640654
16791.815513,0.687531
16792.565548,0.750034
16793.190576,0.625029
16793.831231,0.640654
16794.471885,0.640654
16795.112539,0.640654
16795.768819,0.656280
16796.409474,0.640654
16797.097005,0.687531
16797.768911,0.671906
16798.456442,0.687531
16799.190851,0.734409
16804.644226,0.687531
16805.347383,0.703157
16806.066166,0.718783
16806.753697,0.687531
16807.566234,0.812537
16808.331894,0.765660
16809.081929,0.750034
16809.753834,0.671906
16810.410115,0.656280
16811.082020,0.671906
16811.722675,0.640654
16812.410206,0.687531
16813.082112,0.671906
16813.863398,0.781286
16814.629058,0.765660
16815.394718,0.765660
16816.191629,0.796911
16817.004166,0.812537
16817.801078,0.796911
16818.504235,0.703157
16819.238644,0.734409
16820.004304,0.765660
16820.738712,0.734409
16821.426244,0.687531
16822.160652,0.734409
16822.926312,0.765660
16823.707598,0.781286
16824.520135,0.812537
16825.348298,0.828163
16826.160836,0.812537
16826.942121,0.781286
16827.676530,0.734409
16828.457816,0.781286
16829.285979,0.828163
16830.051639,0.765660
16830.770422,0.718783
16831.473579,0.703157
16832.239239,0.765660
16833.004899,0.765660
16833.833062,0.828163
16834.614347,0.781286
16835.348756,0.734409
16836.130042,0.781286
16836.942579,0.812537
16837.708239,0.765660
16838.411396,0.703157
16839.161431,0.750034
16839.942716,0.781286
16840.692751,0.750034
16844.255414,0.671906
16844.911694,0.656280
16845.692980,0.781286
16863.725055,0.765660
16864.318832,0.593777
16865.068866,0.750034
16865.756398,0.687531
16866.443929,0.687531
16867.115835,0.671906
16867.787741,0.671906
16868.506524,0.718783
16869.225307,0.718783
16869.975341,0.750034
16870.631621,0.656280
16871.381655,0.750034
16872.116064,0.734409
16872.834847,0.718783
16873.506753,0.671906
16874.241161,0.734409
16874.928693,0.687531
16875.631850,0.703157
16876.241253,0.609403
16876.975662,0.734409
16877.678819,0.703157
16878.444479,0.765660
16879.069507,0.625029
16879.819542,0.750034
16880.522699,0.703157
16881.257107,0.734409
16884.804145,0.750034
16885.491676,0.687531
16886.351091,0.859414
16887.101125,0.750034
16887.851159,0.750034
16888.648071,0.796911
16889.351228,0.703157
16894.148323,0.625029
16894.867105,0.718783
16895.601514,0.734409
16896.398426,0.796911
16944.869394,0.734409
16945.572551,0.703157
16946.338212,0.765660
16947.025743,0.687531
17049.874201,0.703157
17050.561732,0.687531
17051.343018,0.781286
17052.124304,0.781286
17052.858712,0.734409
17053.749378,0.890666
17072.265851,0.703157
17072.937757,0.671906
17073.609662,0.671906
17074.359697,0.750034
17075.047228,0.687531
17075.797262,0.750034
17076.453542,0.656280
17077.141074,0.687531
17077.797354,0.656280
17078.500511,0.703157
17079.141165,0.640654
17079.828697,0.687531
17080.500603,0.671906
17081.203760,0.703157
17081.875666,0.671906
17082.594449,0.718783
17083.328857,0.734409
17084.000763,0.671906
17084.703920,0.703157
17090.469809,0.796911
17091.204218,0.734409
17092.001129,0.796911
17092.719912,0.718783
17093.485572,0.765660
17094.251232,0.765660
17094.970015,0.718783
17095.751301,0.781286
17096.501335,0.750034
17097.251369,0.750034
17097.923275,0.671906
17098.657684,0.734409
17099.345215,0.687531
17109.876947,0.703157
17110.548853,0.671906
17111.236385,0.687531
17111.877039,0.640654
17196.271527,0.656280
17200.521722,0.765660
17201.256130,0.734409
17201.912410,0.656280
17202.615567,0.703157
17203.240596,0.625029
17203.959379,0.718783
17204.646910,0.687531
17205.428196,0.781286
17206.162605,0.734409
17206.772008,0.609403
17213.975462,0.671906
17214.631742,0.656280
17215.272397,0.640654
17215.944303,0.671906
17216.584957,0.640654
17217.256863,0.671906
17217.944394,0.687531
17218.616300,0.671906
17219.303831,0.687531
17220.006989,0.703157
17220.678894,0.671906
17221.366426,0.687531
17222.053957,0.687531
17222.725863,0.671906
17223.366517,0.640654
17224.054049,0.687531
17224.710329,0.656280
17225.413486,0.703157
17228.866769,0.687531
17229.554301,0.687531
17230.210581,0.656280
17230.835609,0.625029
17231.491889,0.656280
17232.132544,0.640654
17232.788824,0.656280
17233.429478,0.640654
17234.101384,0.671906
17234.788915,0.687531
17273.946958,0.671906
17274.509483,0.562526
17275.181389,0.671906
17280.306624,0.609403
17281.056658,0.750034
17281.759815,0.703157
17282.447347,0.687531
17283.119252,0.671906
17283.853661,0.734409
17288.682007,0.703157
17289.416416,0.734409
17290.150824,0.734409
17290.853981,0.703157
17291.650893,0.796911
17314.292554,0.687531
17326.058718,0.703157
17326.793127,0.734409
17327.465032,0.671906
17328.136938,0.671906
17343.200128,0.687531
17343.840782,0.640654
17344.528313,0.687531
17345.200219,0.671906
17345.903376,0.703157
17346.559656,0.656280
17347.215936,0.656280
17347.934719,0.718783
17348.637877,0.703157
17360.560297,0.671906
17361.185326,0.625029
17361.810354,0.625029
17362.482260,0.671906
17373.639021,0.703157
17374.295301,0.656280
17421.641218,0.781286
17451.048814,0.718783
17451.767597,0.718783
17452.470754,0.703157
17453.142660,0.671906
17453.830192,0.687531
17454.502097,0.671906
17455.158377,0.656280
17462.689972,0.734409
17487.503608,0.671906
17488.206765,0.703157
17488.831794,0.625029
17489.488074,0.656280
17490.097477,0.609403
17490.706880,0.609403
17491.300657,0.593777
17506.629483,0.562526
17507.192009,0.562526
17507.770161,0.578151
17508.379564,0.609403
17508.942089,0.562526
17509.520241,0.578151
17510.114018,0.593777
17510.707795,0.593777
17511.364075,0.656280
17572.913768,0.812537
17573.741930,0.828163
17574.460713,0.718783
17575.257625,0.796911
17575.992033,0.734409
17576.773319,0.781286
17577.601482,0.828163
17578.351516,0.750034
17579.132802,0.781286
17579.851585,0.718783
17580.617245,0.765660
17581.351654,0.734409
17582.179817,0.828163
17582.945477,0.765660
17583.711137,0.765660
17584.492423,0.781286
17585.258083,0.765660
17586.008117,0.750034
17586.805028,0.796911
17587.508186,0.703157
17588.273846,0.765660
17589.055131,0.781286
17589.883294,0.828163
17590.633329,0.750034
17591.398989,0.765660
17592.274029,0.875040
17593.070940,0.796911
17593.789723,0.718783
17594.508506,0.718783
17595.258540,0.750034
17595.992949,0.734409
17596.774235,0.781286
17597.539895,0.765660
17598.243052,0.703157
17599.024338,0.781286
17599.821249,0.796911
17603.321409,0.718783
17603.977690,0.656280
17604.821478,0.843789
17605.587138,0.765660
17606.337173,0.750034
17607.087207,0.750034
17607.790364,0.703157
17608.540398,0.750034
17609.227930,0.687531
17609.962338,0.734409
17610.587367,0.625029
17611.274899,0.687531
17611.946804,0.671906
17612.665587,0.718783
17613.384370,0.718783
17614.056276,0.671906
17614.837562,0.781286
17615.603222,0.765660
17616.368882,0.765660
17632.729006,0.750034
17633.432163,0.703157
17634.182197,0.750034
17634.885354,0.703157
17635.619763,0.734409
17636.307294,0.687531
17636.994826,0.687531
17637.713609,0.718783
17638.432392,0.718783
17639.151175,0.718783
17639.807455,0.656280
17640.494986,0.687531
17641.229395,0.734409
17641.932552,0.703157
17642.635709,0.703157
17643.276363,0.640654
17643.995146,0.718783
17653.183067,0.656280
17653.823721,0.640654
17654.480001,0.656280
17655.151907,0.671906
17668.949414,0.687531
17669.668196,0.718783
17670.402605,0.734409
17682.746920,0.656280
17683.512580,0.765660
17684.184486,0.671906
17684.903269,0.718783
17685.575175,0.671906
17686.309583,0.734409
17686.981489,0.671906
17687.731523,0.750034
17688.465932,0.734409
17689.247218,0.781286
17689.950375,0.703157
17695.044358,0.718783
17695.778767,0.734409
17696.575678,0.796911
17697.325712,0.750034
17698.075747,0.750034
17698.888284,0.812537
17699.825827,0.937543
17703.044724,0.718783
17703.763507,0.718783
17704.529167,0.765660
17705.326079,0.796911
17706.060487,0.734409
17706.841773,0.781286
17707.529305,0.687531
17708.279339,0.750034
17712.623288,0.781286
17713.451451,0.828163
17714.263988,0.812537
17715.170279,0.906291
17715.904688,0.734409
17716.701599,0.796911
17717.389131,0.687531
17718.154791,0.765660
17718.842322,0.687531
17719.576731,0.734409
17720.295514,0.718783
17721.108051,0.812537
17721.842460,0.734409
17722.623745,0.781286
17723.373780,0.750034
17724.155066,0.781286
17724.873848,0.718783
17725.748888,0.875040
17729.124043,0.734409
17729.858452,0.734409
17730.639737,0.781286
17731.311643,0.671906
17732.077303,0.765660
17732.780460,0.703157
17733.514869,0.734409
17734.186775,0.671906
17734.874306,0.687531
17735.624341,0.750034
17742.780918,0.750034
17743.468450,0.687531
17744.155981,0.687531
17744.890390,0.734409
17745.577921,0.687531
17746.343581,0.765660
17747.046738,0.703157
17747.859276,0.812537
17748.593684,0.734409
17749.390596,0.796911
17750.093753,0.703157
17750.890664,0.796911
17751.593822,0.703157
17752.343856,0.750034
17753.015762,0.671906
17753.750170,0.734409
17754.468953,0.718783
17755.172110,0.703157
17755.875268,0.703157
17756.609676,0.734409
17757.344085,0.734409
17758.031616,0.687531
17758.797276,0.765660
17759.453556,0.656280
17760.156713,0.703157
17760.844245,0.687531
17761.563028,0.718783
17762.313062,0.750034
17763.031845,0.718783
17763.735002,0.703157
17764.438159,0.703157
17765.110065,0.671906
17765.844474,0.734409
17766.438251,0.593777
17767.157034,0.718783
17767.828940,0.671906
17768.547723,0.718783
17769.219628,0.671906
17769.954037,0.734409
17770.657194,0.703157
17771.375977,0.718783
17778.454426,0.843789
17779.188835,0.734409
17779.985746,0.796911
17780.688903,0.703157
17781.501441,0.812537
17782.267101,0.765660
17783.064012,0.796911
17787.892358,0.703157
17788.658018,0.765660
17789.392427,0.734409
17790.142461,0.750034
17790.876870,0.734409
17791.626904,0.750034
17792.345687,0.718783
17793.017593,0.671906
17793.705124,0.687531
17794.455158,0.750034
17795.205193,0.750034
17795.908350,0.703157
17796.642759,0.734409
17797.392793,0.750034
17798.111576,0.718783
17798.861610,0.750034
17799.533516,0.671906
17800.346053,0.812537
17801.064836,0.718783
17801.830496,0.765660
17802.580530,0.750034
17803.283688,0.703157
17810.080874,0.734409
17813.471654,0.656280
17814.127934,0.656280
17814.815465,0.687531
17815.549874,0.734409
17816.299908,0.750034
17817.096820,0.796911
17817.862480,0.765660
17818.596889,0.734409
17819.425051,0.828163
17820.175086,0.750034
17820.940746,0.765660
17821.612652,0.671906
17822.300183,0.687531
17822.909586,0.609403
17823.565866,0.656280
17824.190895,0.625029
17833.535072,0.734409
17896.647336,0.828163
17908.022857,0.765660
17908.788517,0.765660
17909.522926,0.734409
17910.226083,0.703157
17910.944866,0.718783
17911.616771,0.671906
17912.288677,0.671906
18008.433703,0.765660
18009.199363,0.765660
18009.949398,0.750034
18010.668180,0.718783
18021.481175,0.671906
18043.919703,0.765660
18044.622860,0.703157
18045.326017,0.703157
18046.122928,0.796911
18046.872963,0.750034
18047.576120,0.703157
18048.388657,0.812537
18049.169943,0.781286
18049.935603,0.765660
18050.748140,0.812537
18051.607554,0.859414
18052.404466,0.796911
18053.138875,0.734409
18053.904535,0.765660
18054.654569,0.750034
18055.263972,0.609403
18055.998380,0.734409
18056.685912,0.687531
18057.420321,0.734409
18069.967770,0.734409
18070.749056,0.781286
18071.483464,0.734409
18072.217873,0.734409
18072.936656,0.718783
18187.832540,0.421894
18198.426775,0.718783
18199.161183,0.734409
18242.460040,0.734409
18243.210075,0.750034
18243.960109,0.750034
18244.725769,0.765660
18256.038787,0.734409
18256.757570,0.718783
18257.491978,0.734409
18258.257638,0.765660
18258.960796,0.703157
18259.663953,0.703157
18260.413987,0.750034
18261.070267,0.656280
18261.835927,0.765660
18262.554710,0.718783
18263.273493,0.718783
18263.961025,0.687531
18264.711059,0.750034
18265.445467,0.734409
18266.132999,0.687531
18266.789279,0.656280
