1.5204e+09,1.5204e+09,1.5204e+09
32,32,32
-46,-28,33
-47,-28,33
-47,-28,34
-47,-28,33
-49,-28,32
-50,-27,32
-52,-27,31
-51,-27,31
-51,-27,31
-53,-27,30
-54,-27,30
-53,-27,30
-53,-27,30
-52,-27,31
-53,-28,30
-53,-28,30
-50,-28,31
-50,-28,30
-49,-28,30
-49,-29,30
-49,-29,31
-49,-29,30
-49,-29,31
-49,-29,31
-48,-29,31
-50,-28,31
-49,-29,32
-49,-29,32
-50,-29,32
-50,-29,32
-48,-28,33
-49,-28,33
-50,-28,31
-50,-27,31
-51,-28,31
-50,-27,32
-50,-28,31
-51,-28,31
-50,-28,32
-51,-29,32
-51,-28,31
-51,-28,31
-51,-27,32
-51,-27,32
-52,-27,31
-52,-27,31
-51,-27,31
-50,-28,31
-51,-28,30
-49,-28,32
-50,-28,32
-50,-28,31
-51,-28,32
-50,-27,33
-49,-28,32
-49,-28,33
-50,-29,32
-50,-28,32
-44,-28,35
-47,-28,33
-50,-28,32
-47,-27,34
-46,-27,33
-52,-27,32
-52,-27,31
-49,-27,34
-49,-27,34
-51,-27,33
-52,-28,32
-52,-27,33
-48,-28,36
-49,-28,34
-53,-28,32
-53,-28,33
-45,-29,38
-44,-28,38
-47,-28,36
-51,-28,33
-47,-28,38
-34,-29,45
-36,-28,42
-45,-28,37
-43,-28,41
-39,-28,43
-39,-28,37
-48,-28,32
-53,-28,34
-49,-27,35
-48,-28,33
-54,-28,30
-54,-28,29
-47,-28,33
-47,-28,31
-53,-28,29
-52,-29,30
-50,-29,31
-50,-29,30
-53,-28,29
-52,-28,30
-49,-28,32
-52,-28,27
-56,-28,27
-53,-28,28
-50,-29,29
-53,-29,28
-55,-28,27
-53,-29,29
-52,-29,29
-53,-29,28
-52,-29,28
-50,-29,29
-50,-29,29
-51,-29,28
-51,-29,28
-51,-29,29
-51,-30,29
-52,-30,29
-52,-29,29
-51,-29,29
-52,-29,29
-53,-29,29
-52,-29,29
-51,-29,29
-52,-29,29
-52,-29,29
-52,-28,29
-52,-29,29
-53,-29,29
-52,-28,30
-52,-28,30
-53,-28,29
-54,-27,29
-53,-27,30
-52,-27,32
-51,-26,31
-50,-26,32
-49,-26,33
-48,-26,33
-48,-26,32
-48,-26,32
-48,-26,33
-47,-26,34
-48,-26,34
-48,-25,35
-48,-26,35
-49,-26,34
-49,-26,35
-48,-26,36
-49,-26,35
-49,-26,35
-49,-25,36
-49,-25,36
-49,-25,36
-49,-25,36
-49,-24,36
-49,-24,37
-49,-24,36
-49,-24,36
-49,-24,36
-48,-24,36
-48,-24,37
-48,-24,37
-48,-24,37
-48,-24,36
-48,-24,37
-49,-24,37
-49,-25,36
-49,-25,37
-50,-25,36
-49,-25,36
-48,-25,36
-48,-24,37
-48,-24,37
-48,-24,37
-49,-24,37
-49,-24,37
-49,-24,37
-49,-24,36
-49,-24,37
-48,-24,37
-49,-24,36
-48,-24,37
-48,-24,37
-49,-24,37
-48,-24,38
-49,-24,37
-49,-24,37
-47,-24,38
-48,-24,38
-48,-24,38
-48,-24,38
-48,-23,38
-48,-23,38
-48,-23,38
-48,-23,38
-48,-24,38
-48,-24,38
-48,-23,38
-47,-23,38
-48,-24,38
-49,-23,38
-46,-24,40
-45,-24,40
-49,-23,39
-46,-23,40
-46,-23,39
-47,-23,39
-48,-23,38
-46,-23,39
-47,-23,39
-48,-23,38
-47,-23,40
-48,-23,39
-48,-23,39
-48,-23,39
-48,-23,39
-48,-23,39
-48,-23,39
-48,-23,39
-48,-23,39
-48,-23,39
-48,-23,39
-48,-23,38
-48,-23,39
-48,-23,39
-47,-23,38
-47,-24,39
-47,-24,39
-46,-24,39
-48,-24,38
-47,-23,39
-47,-24,39
-48,-23,39
-47,-23,39
-48,-24,39
-48,-23,39
-48,-23,38
-48,-23,38
-48,-23,38
-48,-23,38
-47,-23,38
-48,-23,39
-48,-23,39
-48,-23,38
-47,-23,39
-47,-23,39
-48,-23,38
-49,-23,38
-48,-23,39
-48,-23,38
-48,-23,39
-48,-23,39
-49,-23,39
-49,-23,40
-48,-23,40
-48,-23,38
-48,-24,38
-47,-24,38
-46,-24,38
-47,-24,38
-48,-24,38
-47,-24,38
-48,-24,38
-48,-24,38
-46,-24,40
-49,-23,39
-47,-23,40
-46,-22,41
-48,-22,39
-45,-22,40
-44,-21,42
-47,-22,41
-46,-22,42
-45,-22,42
-47,-22,42
-47,-22,42
-46,-22,42
-45,-23,42
-45,-23,42
-45,-23,41
-45,-23,41
-45,-24,41
-44,-24,41
-45,-25,41
-44,-25,42
-44,-25,41
-44,-26,42
-44,-25,41
-43,-25,42
-44,-25,42
-44,-25,42
-44,-25,41
-44,-25,42
-45,-25,42
-45,-24,42
-44,-24,43
-44,-24,42
-43,-25,43
-43,-25,43
-43,-24,43
-42,-24,44
-43,-24,43
-41,-24,43
-41,-24,43
-41,-24,43
-42,-24,43
-42,-23,43
-42,-24,43
-43,-23,43
-42,-23,44
-43,-23,44
-42,-23,44
-43,-23,44
-43,-24,44
-43,-23,43
-43,-23,43
-43,-23,43
-44,-24,42
-43,-26,42
-44,-28,42
-44,-30,43
-44,-29,41
-44,-28,41
-43,-25,41
-42,-25,41
-44,-25,42
-43,-26,45
-44,-26,45
-42,-26,45
-41,-26,45
-39,-25,45
-39,-25,45
-37,-25,45
-37,-24,45
-38,-22,47
-39,-23,47
-38,-23,47
-40,-22,48
-39,-20,49
-36,-19,49
-37,-17,49
-37,-17,50
-35,-18,52
-35,-18,52
-38,-17,52
-39,-17,53
-38,-16,53
-38,-15,51
-37,-15,51
-35,-17,51
-35,-18,51
-34,-21,52
-33,-21,53
-34,-21,52
-35,-20,53
-34,-19,54
-34,-18,53
-35,-18,53
-33,-17,55
-33,-17,54
-33,-17,53
-33,-18,52
-34,-18,52
-37,-19,51
-37,-18,51
-38,-19,51
-38,-20,50
-38,-20,49
-36,-20,49
-35,-20,50
-35,-19,47
-36,-20,45
-39,-19,47
-38,-20,47
-37,-20,47
-37,-21,48
-37,-21,50
-39,-23,50
-41,-24,49
-37,-24,53
-39,-24,50
-42,-24,48
-32,-24,51
-34,-24,50
-39,-23,49
-31,-22,52
-34,-21,52
-36,-20,51
-33,-19,51
-35,-20,53
-31,-20,54
-33,-21,52
-36,-21,52
-32,-21,54
-32,-22,53
-34,-23,51
-35,-24,50
-33,-23,50
-33,-23,51
-32,-23,50
-30,-23,51
-30,-23,52
-30,-24,52
-30,-24,51
-30,-24,51
-32,-24,52
-32,-24,51
-33,-23,51
-32,-23,52
-33,-23,52
-33,-24,52
-32,-23,51
-32,-24,52
-31,-24,52
-31,-25,51
-30,-25,50
-31,-25,50
-31,-25,51
-32,-25,50
-30,-25,51
-29,-26,51
-30,-26,51
-30,-27,51
-30,-26,51
-31,-27,51
-31,-27,51
-31,-26,51
-31,-25,51
-31,-25,51
-31,-23,52
-31,-23,52
-33,-22,51
-33,-22,51
-31,-22,52
-31,-22,52
-32,-22,52
-32,-22,52
-32,-22,52
-31,-21,52
-32,-20,51
-35,-20,51
-34,-21,51
-34,-22,51
-36,-22,51
-36,-21,51
-34,-20,51
-35,-19,50
-36,-20,50
-36,-21,50
-37,-22,50
-37,-22,50
-38,-23,50
-38,-23,49
-38,-24,49
-38,-24,49
-38,-25,49
-37,-25,49
-36,-25,49
-36,-25,49
-35,-25,48
-36,-25,48
-35,-24,49
-35,-25,49
-37,-25,48
-37,-24,49
-37,-24,49
-37,-25,48
-37,-24,48
-36,-24,49
-36,-25,49
-36,-24,49
-36,-24,49
-36,-24,49
-37,-23,49
-36,-23,49
-36,-23,49
-36,-23,50
-36,-22,50
-35,-23,50
-34,-22,50
-35,-23,50
-35,-22,50
-35,-22,50
-35,-22,50
-35,-22,51
-35,-22,51
-35,-22,51
-33,-22,51
-33,-22,50
-33,-22,52
-34,-22,51
-35,-22,50
-33,-22,51
-33,-22,51
-33,-22,51
-33,-22,51
-33,-22,51
-32,-22,51
-33,-22,51
-33,-22,51
-33,-23,51
-34,-23,51
-34,-23,51
-34,-23,51
-34,-23,51
-33,-23,51
-33,-23,51
-33,-23,51
-33,-23,51
-34,-23,51
-34,-22,50
-33,-23,51
-33,-23,50
-33,-23,51
-33,-23,50
-31,-23,52
-32,-23,52
-37,-22,50
-39,-21,50
-38,-21,50
-41,-21,48
-42,-22,48
-40,-22,48
-39,-22,49
-39,-22,47
-37,-22,48
-32,-22,51
-35,-22,49
-38,-21,48
-35,-21,51
-33,-21,50
-37,-21,46
-39,-21,49
-37,-22,51
-39,-22,49
-40,-22,48
-38,-22,48
-37,-22,49
-40,-22,48
-38,-21,49
-37,-21,49
-37,-21,49
-37,-21,49
-35,-22,50
-37,-22,48
-38,-22,48
-39,-22,48
-39,-22,49
-39,-22,48
-39,-22,48
-41,-22,47
-41,-22,47
-39,-22,46
-40,-21,46
-39,-21,46
-40,-22,46
-41,-24,46
-40,-25,48
-42,-25,47
-41,-24,48
-42,-23,48
-43,-23,48
-41,-22,49
-40,-22,49
-39,-21,49
-38,-21,50
-37,-20,49
-36,-20,50
-36,-20,50
-35,-19,49
-36,-19,50
-35,-19,50
-37,-19,50
-36,-19,52
-37,-19,52
-36,-18,51
-36,-17,52
-36,-17,52
-33,-17,53
-34,-17,52
-33,-18,52
-32,-19,53
-32,-19,53
-31,-19,53
-31,-19,53
-31,-18,53
-33,-17,52
-34,-16,51
-32,-16,52
-32,-17,51
-32,-18,53
-31,-19,54
-29,-21,56
-27,-20,55
-27,-19,53
-30,-18,53
-32,-19,53
-30,-15,50
-31,-15,51
-34,-19,53
-35,-19,56
-34,-20,58
-36,-21,55
-37,-19,56
-36,-18,56
-36,-18,54
-35,-18,52
-29,-18,52
-28,-18,50
-31,-18,50
-29,-18,51
-35,-21,47
-39,-20,45
-39,-19,49
-40,-17,47
-39,-18,46
-41,-16,47
-43,-16,49
-41,-17,50
-43,-19,49
-39,-21,51
-37,-23,52
-39,-23,52
-36,-24,53
-35,-24,53
-34,-25,54
-34,-26,53
-29,-27,51
-31,-27,50
-31,-28,49
-33,-29,46
-34,-29,45
-35,-30,46
-34,-30,47
-32,-30,47
-33,-27,48
-33,-26,48
-33,-23,49
-33,-22,49
-35,-22,50
-34,-22,52
-34,-22,52
-35,-22,52
-36,-22,52
-36,-22,51
-37,-22,50
-34,-23,50
-34,-23,50
-34,-23,50
-32,-22,50
-33,-22,51
-33,-23,50
-33,-22,50
-33,-22,52
-33,-22,52
-33,-23,51
-34,-22,52
-34,-22,53
-35,-22,52
-35,-23,53
-35,-22,52
-34,-22,52
-33,-21,52
-33,-21,51
-33,-22,52
-33,-23,52
-33,-23,51
-32,-24,52
-33,-23,50
-33,-23,51
-31,-23,51
-31,-23,51
-32,-23,51
-32,-23,51
-30,-21,52
-32,-22,50
-32,-22,50
-29,-22,53
-31,-22,52
-33,-22,51
-31,-21,53
-34,-21,52
-31,-21,55
-27,-22,57
-33,-20,54
-35,-20,53
-29,-20,56
-29,-20,56
-32,-20,54
-28,-19,55
-28,-19,55
-32,-20,53
-34,-20,51
-29,-22,54
-27,-22,54
-37,-22,49
-32,-22,53
-30,-22,53
-35,-22,51
-34,-22,51
-32,-22,52
-32,-22,52
-29,-22,55
-30,-22,53
-33,-22,52
-27,-21,55
-26,-21,54
-31,-21,53
-29,-21,55
-29,-21,54
-33,-22,51
-33,-22,52
-34,-22,51
-35,-22,51
-36,-22,50
-34,-22,51
-35,-22,50
-37,-21,50
-36,-21,50
-35,-22,51
-35,-22,50
-39,-21,48
-34,-22,51
-34,-22,50
-38,-22,49
-36,-21,50
-35,-22,50
-37,-22,49
-36,-21,50
-35,-22,51
-36,-22,50
-35,-21,50
-35,-21,50
-36,-22,49
-36,-22,50
-36,-22,50
