,Binary,Multiclass
2018-02-22 11:46:40,1.0,1.0
2018-02-22 11:46:45,1.0,1.0
2018-02-22 11:46:50,1.0,1.0
2018-02-22 11:46:55,1.0,1.0
2018-02-22 11:47:00,1.0,1.0
2018-02-22 11:47:05,1.0,1.0
2018-02-22 11:47:10,1.0,1.0
2018-02-22 11:47:15,1.0,1.0
2018-02-22 11:47:20,1.0,1.0
2018-02-22 11:47:25,1.0,1.0
2018-02-22 11:47:30,1.0,1.0
2018-02-22 11:47:35,1.0,1.0
2018-02-22 11:47:40,1.0,1.0
2018-02-22 11:47:45,1.0,1.0
2018-02-22 11:47:50,1.0,1.0
2018-02-22 11:47:55,1.0,1.0
2018-02-22 11:48:00,1.0,1.0
2018-02-22 11:48:05,1.0,1.0
2018-02-22 11:48:10,1.0,1.0
2018-02-22 11:48:15,-1.0,1.0
