,EDA,rise_time,max_deriv,amp,decay_time,SCR_width,AUC
2018-02-22 11:47:35.750000,0.24353000000000002,4.0,0.02144757690472754,0.038410000000000055,,,
2018-02-22 11:48:05.250000,0.29602,4.0,0.012126247094102371,0.03969,,,
