1.5191e+09,1.5191e+09
1787,1.0469
1788,1.0313
1788.9,0.93754
1790,1.0625
1825.9,0.82816
1881.8,0.89067
1882.7,0.90629
1883.6,0.85941
1884.5,0.85941
1885.3,0.85941
1886.2,0.85941
2009,0.76566
2009.7,0.75003
2010.5,0.73441
2011.2,0.76566
2012,0.79691
2012.8,0.79691
2013.6,0.81254
2014.5,0.89067
2018.3,0.73441
2019.2,0.82816
2019.9,0.71878
2020.8,0.87504
2021.5,0.75003
2026.6,0.89067
2027.4,0.81254
2028.2,0.81254
2108,0.78129
2108.7,0.71878
2109.6,0.87504
2110.3,0.67191
2184.2,0.85941
2185.1,0.87504
2192.7,0.75003
2193.4,0.70316
2194.2,0.81254
2195.1,0.90629
2196,0.92192
2196.8,0.82816
2197.7,0.89067
2225.6,0.84379
2226.5,0.90629
2236.8,0.84379
2237.7,0.92192
2413.9,0.98442
2414.9,1.0157
2415.9,0.98442
2417,1.0469
2418,1
2418.8,0.87504
2424.6,0.87504
2425.5,0.89067
2426.4,0.95317
2427.3,0.90629
2428.3,0.90629
2429.3,1
2430.1,0.89067
2431.1,0.98442
2432.1,0.98442
2432.9,0.82816
2433.9,0.96879
2434.9,1
2439.2,0.89067
2440.1,0.87504
2441.1,0.96879
2442,0.90629
2443,1.0313
2444,0.98442
2444.9,0.93754
2445.9,0.95317
2446.7,0.84379
2447.6,0.85941
2448.5,0.89067
2449.4,0.90629
2450.3,0.90629
