1530342365.000000, IBI
13.563121,0.750034
20.000916,0.625029
20.625944,0.625029
27.016862,0.765660
34.064059,0.734409
34.798468,0.734409
51.486732,0.875040
52.205515,0.718783
52.986800,0.781286
53.736835,0.750034
54.377489,0.640654
55.002518,0.625029
59.112081,0.828163
75.800345,0.812537
76.644133,0.843789
77.456671,0.812537
85.175774,0.625029
90.707277,0.656280
91.363557,0.656280
92.129217,0.765660
105.286069,0.765660
105.957975,0.671906
106.723635,0.765660
107.426792,0.703157
108.208078,0.781286
126.818305,0.890666
127.630842,0.812537
128.443379,0.812537
129.255917,0.812537
129.990325,0.734409
130.802862,0.812537
131.552897,0.750034
132.334183,0.781286
154.975844,0.796911
155.741504,0.765660
156.507164,0.765660
157.241573,0.734409
158.022858,0.781286
158.804144,0.781286
159.554178,0.750034
160.257336,0.703157
161.007370,0.750034
161.788656,0.781286
162.523064,0.734409
170.117162,0.796911
170.898448,0.781286
171.679734,0.781286
172.445394,0.765660
173.242305,0.796911
174.054842,0.812537
180.883280,0.750034
181.570811,0.687531
182.352097,0.781286
183.164634,0.812537
187.555460,0.640654
188.367997,0.812537
189.039903,0.671906
189.899318,0.859414
190.743106,0.843789
191.586895,0.843789
199.415378,0.750034
200.181038,0.765660
201.040452,0.859414
201.743610,0.703157
202.587398,0.843789
203.274930,0.687531
203.884333,0.609403
204.618741,0.734409
205.228144,0.609403
205.853173,0.625029
206.509453,0.656280
207.212610,0.703157
207.978270,0.765660
208.728304,0.750034
209.525216,0.796911
210.353379,0.828163
211.150290,0.796911
211.947202,0.796911
212.697236,0.750034
213.431645,0.734409
214.259808,0.828163
214.962965,0.703157
215.759876,0.796911
216.525536,0.765660
217.400576,0.875040
218.228739,0.828163
218.978774,0.750034
219.744434,0.765660
220.463217,0.718783
237.651503,0.781286
238.495292,0.843789
242.307966,0.718783
243.011124,0.703157
243.886164,0.875040
244.589321,0.703157
245.370607,0.781286
255.808584,0.781286
283.809866,0.796911
284.622403,0.812537
285.466192,0.843789
286.247478,0.781286
287.028764,0.781286
311.561136,0.750034
312.420551,0.859414
313.170585,0.750034
314.045625,0.875040
314.780034,0.734409
315.545694,0.765660
316.373857,0.828163
317.061388,0.687531
325.124257,0.765660
325.905543,0.781286
326.749332,0.843789
327.577495,0.828163
328.343155,0.765660
329.140066,0.796911
329.936978,0.796911
330.687012,0.750034
331.515175,0.828163
332.374589,0.859414
333.202752,0.828163
334.093418,0.890666
334.890329,0.796911
335.718492,0.828163
336.562281,0.843789
337.327941,0.765660
338.171730,0.843789
338.968641,0.796911
339.796804,0.828163
340.609341,0.812537
341.406253,0.796911
342.265667,0.859414
343.093830,0.828163
343.968870,0.875040
344.843910,0.875040
345.656447,0.812537
346.547113,0.890666
347.312773,0.765660
348.140936,0.828163
348.969099,0.828163
349.750385,0.781286
350.594173,0.843789
351.391085,0.796911
352.234873,0.843789
353.063036,0.828163
353.844322,0.781286
354.672485,0.828163
355.469396,0.796911
356.266308,0.796911
357.110096,0.843789
357.891382,0.781286
358.672668,0.781286
359.469579,0.796911
360.282117,0.812537
361.063402,0.781286
361.907191,0.843789
362.735354,0.828163
363.501014,0.765660
364.235423,0.734409
365.016708,0.781286
365.735491,0.718783
366.532403,0.796911
367.344940,0.812537
368.048097,0.703157
368.798131,0.750034
369.532540,0.734409
370.251323,0.718783
371.001357,0.750034
371.673263,0.671906
372.407672,0.734409
380.189278,0.734409
380.939312,0.750034
381.689347,0.750034
399.315153,0.640654
400.049562,0.734409
400.815222,0.765660
401.690262,0.875040
402.565302,0.875040
403.424716,0.859414
404.268505,0.843789
405.127919,0.859414
405.971708,0.843789
406.752994,0.781286
407.518654,0.765660
408.268688,0.750034
409.018723,0.750034
409.800008,0.781286
410.659423,0.859414
411.518837,0.859414
412.378251,0.859414
413.237666,0.859414
414.112706,0.875040
415.018997,0.906291
415.894037,0.875040
416.769077,0.875040
417.644117,0.875040
418.456655,0.812537
419.269192,0.812537
419.972349,0.703157
420.613003,0.640654
421.253658,0.640654
421.909938,0.656280
454.833320,0.734409
455.645857,0.812537
456.411517,0.765660
457.130300,0.718783
457.849083,0.718783
458.599117,0.750034
459.427280,0.828163
460.302320,0.875040
461.161734,0.859414
467.537026,0.796911
468.318312,0.781286
469.146475,0.828163
470.021515,0.875040
470.896555,0.875040
471.693466,0.796911
472.537255,0.843789
473.318541,0.781286
474.068575,0.750034
474.881112,0.812537
475.662398,0.781286
476.459310,0.796911
477.318724,0.859414
478.115635,0.796911
488.709870,0.828163
489.538033,0.828163
490.334945,0.796911
491.131856,0.796911
491.944393,0.812537
492.756931,0.812537
493.538216,0.781286
494.256999,0.718783
494.944531,0.687531
495.663314,0.718783
496.491477,0.828163
497.350891,0.859414
498.210305,0.859414
499.022842,0.812537
499.866631,0.843789
500.694794,0.828163
501.507331,0.812537
502.257365,0.750034
503.023026,0.765660
503.710557,0.687531
504.366837,0.656280
505.038743,0.671906
505.741900,0.703157
506.538811,0.796911
507.398226,0.859414
508.242014,0.843789
509.132680,0.890666
510.007720,0.875040
510.867135,0.859414
511.695297,0.828163
512.476583,0.781286
513.257869,0.781286
513.992278,0.734409
514.648558,0.656280
515.320463,0.671906
515.961118,0.640654
516.633024,0.671906
517.367432,0.734409
518.164344,0.796911
519.023758,0.859414
519.930049,0.906291
520.836341,0.906291
521.727007,0.890666
522.602047,0.875040
523.398958,0.796911
524.164618,0.765660
524.899027,0.734409
525.649061,0.750034
526.399096,0.750034
527.086627,0.687531
527.805410,0.718783
528.617947,0.812537
529.352356,0.734409
530.039887,0.687531
530.696167,0.656280
531.368073,0.671906
532.102482,0.734409
536.274548,0.812537
537.087085,0.812537
537.883996,0.796911
538.634031,0.750034
539.384065,0.750034
540.165351,0.781286
541.009139,0.843789
541.884179,0.875040
542.727968,0.843789
543.603008,0.875040
544.462422,0.859414
545.290585,0.828163
546.071871,0.781286
546.868783,0.796911
547.634443,0.765660
548.400103,0.765660
549.212640,0.812537
550.056428,0.843789
550.868966,0.812537
551.681503,0.812537
552.478414,0.796911
553.197197,0.718783
553.869103,0.671906
554.509757,0.640654
555.150412,0.640654
555.837943,0.687531
556.619229,0.781286
557.447392,0.828163
558.306806,0.859414
559.197472,0.890666
560.103763,0.906291
560.978803,0.875040
561.838218,0.859414
562.635129,0.796911
563.369538,0.734409
564.041444,0.671906
564.682098,0.640654
565.400881,0.718783
566.104038,0.703157
566.838447,0.734409
567.604107,0.765660
568.479147,0.875040
569.385438,0.906291
570.276104,0.890666
571.166770,0.890666
571.901178,0.734409
572.557458,0.656280
573.213738,0.656280
573.885644,0.671906
574.666930,0.781286
575.510719,0.843789
576.385759,0.875040
577.245173,0.859414
578.104587,0.859414
578.948376,0.843789
579.714036,0.765660
580.432819,0.718783
581.120350,0.687531
581.854759,0.734409
582.636045,0.781286
583.526711,0.890666
584.401751,0.875040
585.261165,0.859414
586.104954,0.843789
586.964368,0.859414
587.839408,0.875040
588.636319,0.796911
589.370728,0.734409
590.042634,0.671906
590.761417,0.718783
591.511451,0.750034
592.323988,0.812537
593.136525,0.812537
593.980314,0.843789
594.824103,0.843789
595.621014,0.796911
596.339797,0.718783
597.011703,0.671906
597.636731,0.625029
598.293011,0.656280
598.949291,0.656280
599.699326,0.750034
600.543114,0.843789
601.433780,0.890666
602.324446,0.890666
603.183860,0.859414
604.027649,0.843789
604.824560,0.796911
605.621472,0.796911
606.418383,0.796911
607.230921,0.812537
608.059083,0.828163
608.902872,0.843789
609.684158,0.781286
610.481069,0.796911
611.231104,0.750034
611.887384,0.656280
612.590541,0.703157
613.340575,0.750034
614.184364,0.843789
614.903147,0.718783
615.590678,0.687531
616.325087,0.734409
617.121998,0.796911
633.341491,0.640654
633.997771,0.656280
634.669677,0.671906
635.341582,0.671906
636.091617,0.750034
636.857277,0.765660
637.622937,0.765660
638.279217,0.656280
638.982374,0.703157
639.732408,0.750034
640.482443,0.750034
641.169974,0.687531
641.982511,0.812537
649.060960,0.703157
649.873497,0.812537
650.654783,0.781286
658.092624,0.875040
658.936412,0.843789
659.764575,0.828163
660.608364,0.843789
661.389650,0.781286
662.124058,0.734409
662.842841,0.718783
663.545998,0.703157
664.374161,0.828163
665.342956,0.968794
666.124241,0.781286
667.030533,0.906291
667.952450,0.921917
673.155813,0.781286
674.062105,0.906291
674.780888,0.718783
675.609051,0.828163
676.452839,0.843789
677.202873,0.750034
678.077914,0.875040
678.906076,0.828163
679.671736,0.765660
680.499899,0.828163
681.312437,0.812537
694.313032,0.593777
703.735338,0.875040
704.532249,0.796911
705.422915,0.890666
706.266704,0.843789
715.095233,0.718783
715.876519,0.781286
716.579676,0.703157
727.220788,0.718783
727.955197,0.734409
728.720857,0.765660
729.517768,0.796911
730.408434,0.890666
736.486837,0.890666
737.486883,1.000046
738.440052,0.953169
739.408846,0.968794
740.315137,0.906291
741.174552,0.859414
753.409487,0.812537
754.175147,0.765660
754.956433,0.781286
755.722093,0.765660
756.503378,0.781286
757.269038,0.765660
758.065950,0.796911
758.784733,0.718783
759.487890,0.703157
760.206673,0.718783
760.987959,0.781286
761.800496,0.812537
762.628659,0.828163
763.456822,0.828163
764.331862,0.875040
765.175650,0.843789
765.956936,0.781286
766.878853,0.921917
776.176154,0.921917
785.082812,0.890666
795.661421,0.765660
796.458332,0.796911
797.223992,0.765660
798.036530,0.812537
798.817815,0.781286
799.567850,0.750034
800.380387,0.812537
801.161673,0.781286
801.942958,0.781286
802.739870,0.796911
803.568033,0.828163
804.349319,0.781286
809.052659,0.796911
815.990476,0.828163
816.803014,0.812537
821.334471,0.656280
822.193885,0.859414
823.100177,0.906291
832.178717,0.906291
833.022506,0.843789
833.756915,0.734409
834.522575,0.765660
835.397615,0.875040
836.210152,0.812537
837.100818,0.890666
837.850852,0.750034
838.632138,0.781286
839.491552,0.859414
840.288464,0.796911
849.679518,0.875040
850.382676,0.703157
864.617702,0.781286
865.461491,0.843789
866.195899,0.734409
867.024062,0.828163
867.836600,0.812537
868.617885,0.781286
869.336668,0.718783
870.117954,0.781286
870.821111,0.703157
871.586771,0.765660
872.399308,0.812537
873.196220,0.796911
874.024383,0.828163
874.836920,0.812537
875.665083,0.828163
876.461994,0.796911
877.290157,0.828163
877.993315,0.703157
878.852729,0.859414
894.212807,0.812537
923.526649,0.718783
924.136052,0.609403
924.823583,0.687531
925.495489,0.671906
938.199195,0.765660
938.949230,0.750034
939.746141,0.796911
944.808873,0.796911
945.574533,0.765660
946.449573,0.875040
947.137105,0.687531
947.871513,0.734409
948.559045,0.687531
949.277828,0.718783
949.965359,0.687531
950.637265,0.671906
951.293545,0.656280
951.996702,0.703157
952.777988,0.781286
953.574899,0.796911
954.293682,0.718783
959.075151,0.734409
963.669111,0.765660
964.419146,0.750034
965.091051,0.671906
965.841086,0.750034
966.544243,0.703157
967.309903,0.765660
968.091189,0.781286
968.919352,0.828163
976.060303,0.640654
976.716583,0.656280
977.372864,0.656280
978.122898,0.750034
978.919809,0.796911
979.716721,0.796911
980.435504,0.718783
981.248041,0.812537
981.951198,0.703157
982.638730,0.687531
983.326261,0.687531
984.029418,0.703157
984.732575,0.703157
985.404481,0.671906
986.092013,0.687531
986.795170,0.703157
987.482701,0.687531
988.185858,0.703157
988.951519,0.765660
989.810933,0.859414
990.623470,0.812537
991.482884,0.859414
992.232919,0.750034
992.967327,0.734409
993.686110,0.718783
994.389267,0.703157
1008.780551,0.812537
1009.514960,0.734409
1013.905786,0.687531
1014.640194,0.734409
1022.093661,0.781286
1022.859321,0.765660
1023.656232,0.796911
1029.937770,0.875040
1030.812810,0.875040
1031.703475,0.890666
1062.298626,0.843789
1062.908029,0.609403
1063.658063,0.750034
1088.065430,0.687531
1088.737336,0.671906
1089.331113,0.593777
1107.035049,0.703157
1107.956966,0.921917
1118.723084,0.656280
1119.426241,0.703157
1120.223152,0.796911
1120.926310,0.703157
1121.629467,0.703157
1122.426378,0.796911
1123.176413,0.750034
1123.926447,0.750034
1136.583276,0.859414
1137.411439,0.828163
1142.302288,0.640654
1154.146580,0.890666
1155.005995,0.859414
1155.865409,0.859414
1156.724823,0.859414
1157.537360,0.812537
1165.381469,0.593777
1174.819402,0.750034
1175.522559,0.703157
1176.225716,0.703157
1176.928873,0.703157
1177.616405,0.687531
1178.319562,0.703157
1179.022719,0.703157
1179.788379,0.765660
1180.600916,0.812537
1181.366576,0.765660
1182.304119,0.937543
1233.322079,0.734409
1234.103365,0.781286
1234.900277,0.796911
1235.650311,0.750034
1236.400345,0.750034
1237.103503,0.703157
1237.822285,0.718783
1238.587945,0.765660
1239.384857,0.796911
1240.072388,0.687531
1240.822423,0.750034
1241.603709,0.781286
1242.494374,0.890666
1243.322537,0.828163
1244.166326,0.843789
1245.010114,0.843789
1245.853903,0.843789
1246.682066,0.828163
1247.416475,0.734409
1248.166509,0.750034
1248.963420,0.796911
1249.760332,0.796911
1250.666623,0.906291
1251.447909,0.781286
1252.354201,0.906291
1253.197989,0.843789
1253.963649,0.765660
1254.682432,0.718783
1255.479344,0.796911
1263.854727,0.796911
1264.651639,0.796911
1265.464176,0.812537
1266.307964,0.843789
1267.167379,0.859414
1267.979916,0.812537
1268.854956,0.875040
1269.886253,1.031297
1293.809223,0.656280
1294.449878,0.640654
1295.028029,0.578151
1299.700118,0.812537
1309.856833,0.703157
1310.622493,0.765660
1311.481907,0.859414
1312.278819,0.796911
1313.028853,0.750034
1313.872642,0.843789
1314.591424,0.718783
1315.419587,0.828163
1316.232125,0.812537
1316.935282,0.703157
1317.779070,0.843789
1318.544730,0.765660
1319.247888,0.703157
1319.997922,0.750034
1320.622951,0.625029
1321.357359,0.734409
1322.076142,0.718783
1333.154774,0.734409
1341.592660,0.703157
1342.327069,0.734409
1343.077103,0.750034
1343.874015,0.796911
1344.670926,0.796911
1345.467838,0.796911
1346.389755,0.921917
1349.639904,0.718783
1350.327435,0.687531
1351.077470,0.750034
1351.811878,0.734409
1352.515035,0.703157
1353.218193,0.703157
1353.936975,0.718783
1354.655758,0.718783
1355.452670,0.796911
1356.218330,0.765660
1357.140247,0.921917
1360.546653,0.546900
1361.124804,0.578151
1374.250405,0.671906
1375.062943,0.812537
1375.781725,0.718783
1376.438005,0.656280
1377.078660,0.640654
1377.719314,0.640654
1378.406846,0.687531
1379.172506,0.765660
1379.922540,0.750034
1380.578820,0.656280
1403.501744,0.718783
1404.220527,0.718783
1405.095567,0.875040
1405.954982,0.859414
1406.845647,0.890666
1407.736313,0.890666
1408.626979,0.890666
1409.517645,0.890666
1410.361433,0.843789
1411.314602,0.953169
1429.206046,0.859414
1430.065460,0.859414
1430.893623,0.828163
1431.721786,0.828163
1432.643703,0.921917
1433.331235,0.687531
1438.018949,0.828163
1438.847112,0.828163
1439.659649,0.812537
1440.487812,0.828163
1441.347227,0.859414
1442.206641,0.859414
1443.112932,0.906291
1469.879783,0.703157
1470.520437,0.640654
1471.254846,0.734409
1479.192709,0.781286
1479.942743,0.750034
1480.739655,0.796911
1481.505315,0.765660
1482.302226,0.796911
1483.161641,0.859414
1483.974178,0.812537
1484.802341,0.828163
1485.583627,0.781286
1486.411789,0.828163
1487.146198,0.734409
1487.911858,0.765660
1488.740021,0.828163
1489.599435,0.859414
1490.396347,0.796911
1491.240135,0.843789
1492.099550,0.859414
1492.912087,0.812537
1493.771501,0.859414
1494.615290,0.843789
1495.380950,0.765660
1496.177861,0.796911
1497.006024,0.828163
1497.771684,0.765660
1498.584222,0.812537
1499.428010,0.843789
1510.803531,0.859414
1511.662945,0.859414
1512.569237,0.906291
1513.475528,0.906291
1514.319317,0.843789
1519.272669,0.796911
1530.288798,0.906291
1531.241966,0.953169
1547.242699,0.765660
1548.086488,0.843789
1548.914650,0.828163
1549.602182,0.687531
1556.899391,0.843789
1557.696302,0.796911
1558.493214,0.796911
1559.274500,0.781286
1560.102663,0.828163
1560.868323,0.765660
1561.618357,0.750034
1562.384017,0.765660
1563.180928,0.796911
1563.993466,0.812537
1564.743500,0.750034
1565.477909,0.734409
1566.259194,0.781286
1567.087357,0.828163
1567.899894,0.812537
1568.712432,0.812537
1569.571846,0.859414
1570.368757,0.796911
1571.134418,0.765660
1572.025083,0.890666
1572.775118,0.750034
1573.650158,0.875040
1574.337689,0.687531
1575.197104,0.859414
1576.025266,0.828163
1576.947184,0.921917
1577.790972,0.843789
1578.666012,0.875040
1579.525427,0.859414
1580.322338,0.796911
1581.291132,0.968794
1587.307033,0.828163
1588.228950,0.921917
1589.041487,0.812537
1589.916527,0.875040
1590.729064,0.812537
1591.557227,0.828163
1592.338513,0.781286
1592.994793,0.656280
1593.760453,0.765660
1594.588616,0.828163
1595.369902,0.781286
1596.135562,0.765660
1596.932473,0.796911
1597.776262,0.843789
1598.666928,0.890666
1599.479465,0.812537
1600.323254,0.843789
1601.167042,0.843789
1601.932702,0.765660
1602.745239,0.812537
1603.526525,0.781286
1604.354688,0.828163
1605.182851,0.828163
1613.902000,0.765660
1614.652035,0.750034
1615.417695,0.765660
1616.230232,0.812537
1617.074020,0.843789
1617.949060,0.875040
1618.745972,0.796911
1619.527258,0.781286
1620.292918,0.765660
1621.074203,0.781286
1621.777361,0.703157
1622.527395,0.750034
1623.293055,0.765660
1624.011838,0.718783
1638.684385,0.750034
1639.512547,0.828163
1640.278208,0.765660
1641.028242,0.750034
1641.762650,0.734409
1642.528311,0.765660
1643.325222,0.796911
1644.090882,0.765660
1650.169285,0.718783
1650.966197,0.796911
1651.794360,0.828163
1652.622523,0.828163
1653.372557,0.750034
1654.122591,0.750034
1654.888251,0.765660
1661.451052,0.828163
1662.279215,0.828163
1663.154255,0.875040
1673.326595,0.906291
1679.483127,0.843789
1680.311290,0.828163
1681.108202,0.796911
1681.795733,0.687531
1682.436387,0.640654
1683.045790,0.609403
1683.670819,0.625029
1684.264596,0.593777
1684.873999,0.609403
1685.483402,0.609403
1686.108430,0.625029
1686.795962,0.687531
1691.499302,0.921917
1692.421219,0.921917
1693.343137,0.921917
1694.233802,0.890666
1695.140094,0.906291
1695.921380,0.781286
1696.702665,0.781286
1697.468325,0.765660
1698.312114,0.843789
1699.109025,0.796911
1699.890311,0.781286
1700.765351,0.875040
1701.609140,0.843789
1702.531057,0.921917
1703.390471,0.859414
1704.234260,0.843789
1705.078049,0.843789
1705.953089,0.875040
1706.828129,0.875040
1707.687543,0.859414
1708.500080,0.812537
1709.296992,0.796911
1710.109529,0.812537
1710.968943,0.859414
1711.859609,0.890666
1712.765901,0.906291
1713.640941,0.875040
1714.515981,0.875040
1715.297266,0.781286
1716.062927,0.765660
1716.812961,0.750034
1717.578621,0.765660
1718.328655,0.750034
1719.063064,0.734409
1719.797472,0.734409
1736.376356,0.562526
1736.985759,0.609403
1737.657665,0.671906
1738.329571,0.671906
1738.985851,0.656280
1739.610879,0.625029
1740.235908,0.625029
1740.907814,0.671906
1741.595345,0.687531
1742.236000,0.640654
1742.970408,0.734409
1743.861074,0.890666
1744.814243,0.953169
1745.579903,0.765660
1746.392440,0.812537
1747.204977,0.812537
1748.033140,0.828163
1748.783174,0.750034
1749.533209,0.750034
1750.392623,0.859414
1751.189534,0.796911
1752.002072,0.812537
1752.861486,0.859414
1753.720900,0.859414
1754.658443,0.937543
1755.549109,0.890666
1756.408523,0.859414
1757.267938,0.859414
1758.174229,0.906291
1759.064895,0.890666
1759.908684,0.843789
1760.799349,0.890666
1761.611887,0.812537
1762.440049,0.828163
1763.252587,0.812537
1764.096375,0.843789
1764.987041,0.890666
1765.768327,0.781286
1766.596490,0.828163
1767.440278,0.843789
1768.362195,0.921917
1769.221610,0.859414
1770.002896,0.781286
1770.784181,0.781286
1780.393996,0.640654
1791.378874,0.859414
1792.238288,0.859414
1800.223029,0.734409
1801.098069,0.875040
1807.332729,0.796911
1808.098389,0.765660
1808.926552,0.828163
1809.879721,0.953169
1810.754761,0.875040
1844.287546,0.890666
1845.115709,0.828163
1845.928246,0.812537
1846.897040,0.968794
1847.709578,0.812537
1852.412918,1.015671
1867.257347,0.859414
1868.069885,0.812537
1868.898047,0.828163
1869.866842,0.968794
1870.663753,0.796911
1871.460665,0.796911
1872.429459,0.968794
1873.351376,0.921917
1874.320171,0.968794
1875.210836,0.890666
1876.117128,0.906291
1877.085922,0.968794
1878.023465,0.937543
1878.945382,0.921917
1879.914177,0.968794
1908.727996,0.812537
1909.524907,0.796911
1910.368696,0.843789
1911.196859,0.828163
1912.025022,0.828163
1912.790682,0.765660
1927.853871,0.687531
1928.541403,0.687531
1929.260186,0.718783
1933.744766,0.734409
1934.479175,0.734409
1961.074142,0.703157
1961.746048,0.671906
1962.464831,0.718783
1963.199239,0.734409
1963.933648,0.734409
1964.730559,0.796911
1965.418091,0.687531
1966.089997,0.671906
1966.761902,0.671906
1967.418182,0.656280
1968.230720,0.812537
1969.121385,0.890666
1969.965174,0.843789
1970.746460,0.781286
1971.746505,1.000046
1972.449663,0.703157
1973.152820,0.703157
1973.887228,0.734409
1974.621637,0.734409
1975.371671,0.750034
1976.152957,0.781286
1976.918617,0.765660
1977.699903,0.781286
1978.387434,0.687531
1979.059340,0.671906
1979.762497,0.703157
1980.496906,0.734409
1981.246940,0.750034
1981.996975,0.750034
1982.731383,0.734409
1983.450166,0.718783
1984.231452,0.781286
1984.950235,0.718783
1985.700269,0.750034
1986.387801,0.687531
1987.059706,0.671906
1987.778489,0.718783
1988.497272,0.718783
1989.200429,0.703157
1989.981715,0.781286
2026.155246,0.703157
2026.920906,0.765660
2027.717818,0.796911
2028.467852,0.750034
2033.608712,0.812537
2034.405624,0.796911
2035.405669,1.000046
2047.593727,0.781286
2082.579704,0.640654
2083.251610,0.671906
2083.939141,0.687531
2084.673550,0.734409
2085.423584,0.750034
2086.142367,0.718783
2086.814273,0.671906
2087.564307,0.750034
2088.267464,0.703157
2141.129259,0.718783
2141.926170,0.796911
2142.754333,0.828163
2143.598122,0.843789
2152.457902,0.906291
2153.582954,1.125051
2154.411117,0.828163
2155.208028,0.796911
2155.989314,0.781286
2156.911231,0.921917
2157.614388,0.703157
2158.333171,0.718783
2159.301966,0.968794
2166.942940,0.937543
2167.911735,0.968794
2168.802401,0.890666
2169.646189,0.843789
2170.489978,0.843789
2171.443146,0.953169
2172.302561,0.859414
2173.021344,0.718783
2173.833881,0.812537
2174.833927,1.000046
2175.771470,0.937543
2176.646510,0.875040
2177.552801,0.906291
2183.349941,0.984420
2184.193730,0.843789
2185.053144,0.859414
2186.037565,0.984420
2186.834476,0.796911
2187.725142,0.890666
2188.631433,0.906291
2189.459596,0.828163
2190.287759,0.828163
2191.100296,0.812537
2191.912833,0.812537
2192.647242,0.734409
2193.381651,0.734409
2194.225439,0.843789
2194.881719,0.656280
2195.663005,0.781286
2215.351406,0.718783
2222.179844,0.765660
2223.117387,0.937543
2224.008053,0.890666
2224.836215,0.828163
2225.789384,0.953169
2226.680050,0.890666
2230.633356,0.890666
2231.492770,0.859414
2232.258430,0.765660
2233.149096,0.890666
2234.024136,0.875040
2234.852299,0.828163
2235.805468,0.953169
2236.680508,0.875040
2240.524434,0.828163
2241.461977,0.937543
2242.290139,0.828163
2243.212057,0.921917
2244.133974,0.921917
2244.946511,0.812537
2245.821551,0.875040
2246.696591,0.875040
2247.524754,0.828163
2248.399794,0.875040
2249.290460,0.890666
2250.024868,0.734409
2250.837406,0.812537
2273.854084,0.828163
2274.666621,0.812537
2275.510410,0.843789
2276.338573,0.828163
2277.135484,0.796911
2277.901145,0.765660
2278.604302,0.703157
2279.244956,0.640654
2279.869985,0.625029
2280.573142,0.703157
2281.432556,0.859414
2282.323222,0.890666
2283.120133,0.796911
2283.932671,0.812537
2284.729582,0.796911
2285.573371,0.843789
2286.464036,0.890666
2287.401579,0.937543
2288.370374,0.968794
2303.839832,0.718783
2304.667995,0.828163
2305.433655,0.765660
2306.230566,0.796911
2307.121232,0.890666
2308.105652,0.984420
2309.230704,1.125051
2313.402770,0.906291
2314.371564,0.968794
2315.309107,0.937543
2316.309153,1.000046
2317.246696,0.937543
2318.199864,0.953169
2319.074904,0.875040
2320.043699,0.968794
2320.871861,0.828163
2321.778153,0.906291
2327.028393,0.843789
2327.887808,0.859414
2328.731596,0.843789
2329.622262,0.890666
2330.481676,0.859414
2331.356716,0.875040
2332.263008,0.906291
2333.138048,0.875040
2334.044339,0.906291
2334.966257,0.921917
2335.950677,0.984420
2336.903845,0.953169
2337.872640,0.968794
2338.841434,0.968794
2339.669597,0.828163
2340.544637,0.875040
2341.435303,0.890666
2342.357220,0.921917
2343.201009,0.843789
2344.060423,0.859414
2344.966714,0.906291
2352.076415,0.953169
2353.029583,0.953169
2354.045255,1.015671
2354.920295,0.875040
2355.873464,0.953169
2356.686001,0.812537
2357.654795,0.968794
2358.467332,0.812537
2359.342372,0.875040
2360.170535,0.828163
2361.154955,0.984420
2362.108124,0.953169
2362.905035,0.796911
2363.858204,0.953169
2364.592613,0.734409
2365.467653,0.875040
2366.467699,1.000046
2367.327113,0.859414
2368.202153,0.875040
2385.327937,0.875040
2386.156100,0.828163
2386.984263,0.828163
2414.969919,0.625029
2415.594947,0.625029
2416.344982,0.750034
2417.048139,0.703157
2417.782547,0.734409
2418.532582,0.750034
2419.329493,0.796911
2420.110779,0.781286
2420.954568,0.843789
2421.829608,0.875040
2422.782776,0.953169
2423.610939,0.828163
2424.392225,0.781286
2425.204762,0.812537
2443.627481,0.906291
2444.518146,0.890666
2445.393186,0.875040
2446.205724,0.812537
2447.143266,0.937543
2447.908926,0.765660
2448.752715,0.843789
2458.362530,0.765660
2459.237570,0.875040
2460.050107,0.812537
2470.097442,0.703157
2470.847476,0.750034
2471.706891,0.859414
2472.660059,0.953169
2473.581977,0.921917
2484.019954,0.812537
2484.863743,0.843789
2485.738783,0.875040
2486.676326,0.937543
2487.473238,0.796911
2488.285775,0.812537
2489.067060,0.781286
2489.832721,0.765660
2490.692135,0.859414
2491.567175,0.875040
2492.442215,0.875040
2493.348506,0.906291
2494.114166,0.765660
2494.879827,0.765660
2495.645487,0.765660
2496.536152,0.890666
2497.348690,0.812537
2498.208104,0.859414
2499.020641,0.812537
2499.801927,0.781286
2500.551961,0.750034
2501.348873,0.796911
2502.161410,0.812537
2503.067701,0.906291
2503.880239,0.812537
2508.771087,0.703157
2509.552373,0.781286
2510.302408,0.750034
2511.130570,0.828163
2512.052488,0.921917
2512.974405,0.921917
2513.833819,0.859414
2514.740111,0.906291
2515.615151,0.875040
2516.474565,0.859414
2517.302728,0.828163
2518.162142,0.859414
2519.005931,0.843789
2519.880971,0.875040
2520.693508,0.812537
2521.506045,0.812537
2537.975549,0.671906
2538.709958,0.734409
2553.320002,0.890666
2554.195042,0.875040
2555.038830,0.843789
2556.085753,1.046923
2557.070173,0.984420
2557.960839,0.890666
2574.477220,0.906291
2575.399137,0.921917
2576.227300,0.828163
2577.117966,0.890666
2577.977380,0.859414
2578.727415,0.750034
2579.524326,0.796911
2580.289986,0.765660
2581.071272,0.781286
2581.852558,0.781286
2582.633843,0.781286
2591.696758,0.812537
2592.540547,0.843789
2593.321833,0.781286
2594.087493,0.765660
