1.5192e+09,1.5192e+09
332.28,0.62503
349.95,0.62503
356.77,0.65628
357.41,0.64065
358.08,0.67191
358.78,0.70316
359.47,0.68753
360.09,0.62503
363.92,0.78129
364.67,0.75003
368.03,0.65628
368.74,0.70316
369.49,0.75003
370.22,0.73441
370.95,0.73441
374.38,0.67191
375.08,0.70316
375.83,0.75003
394.28,0.73441
395.02,0.73441
395.72,0.70316
396.47,0.75003
397.19,0.71878
397.91,0.71878
398.61,0.70316
399.3,0.68753
400,0.70316
400.77,0.76566
401.44,0.67191
496.07,0.70316
496.76,0.68753
497.44,0.68753
498.18,0.73441
498.87,0.68753
499.57,0.70316
500.29,0.71878
500.98,0.68753
501.69,0.71878
502.41,0.71878
503.16,0.75003
503.88,0.71878
504.62,0.73441
505.35,0.73441
506.09,0.73441
506.84,0.75003
507.51,0.67191
508.27,0.76566
508.98,0.70316
509.68,0.70316
510.38,0.70316
511.1,0.71878
511.79,0.68753
512.55,0.76566
513.21,0.65628
513.95,0.73441
514.68,0.73441
515.57,0.89067
518.96,0.73441
519.65,0.68753
520.38,0.73441
521.07,0.68753
521.76,0.68753
522.43,0.67191
523.12,0.68753
523.81,0.68753
524.48,0.67191
525.26,0.78129
525.96,0.70316
526.7,0.73441
527.38,0.68753
528.1,0.71878
528.82,0.71878
529.48,0.65628
530.18,0.70316
530.88,0.70316
531.62,0.73441
532.27,0.65628
532.98,0.70316
533.65,0.67191
534.42,0.76566
535.09,0.67191
535.77,0.68753
536.46,0.68753
540.65,0.70316
541.35,0.70316
542.07,0.71878
542.77,0.70316
543.49,0.71878
557.37,0.64065
558.09,0.71878
558.73,0.64065
559.49,0.76566
560.18,0.68753
569.1,0.73441
569.81,0.70316
570.56,0.75003
571.29,0.73441
578.78,0.65628
579.46,0.68753
580.17,0.70316
580.85,0.68753
581.59,0.73441
582.26,0.67191
583.01,0.75003
593.06,0.65628
593.73,0.67191
594.4,0.67191
595.06,0.65628
595.73,0.67191
596.37,0.64065
597.03,0.65628
597.7,0.67191
598.39,0.68753
599.06,0.67191
599.76,0.70316
600.46,0.70316
601.17,0.70316
601.92,0.75003
602.56,0.64065
603.32,0.76566
604,0.67191
604.7,0.70316
605.37,0.67191
606.01,0.64065
606.67,0.65628
607.32,0.65628
607.95,0.62503
608.61,0.65628
619.9,0.65628
620.48,0.57815
635.34,0.68753
643.44,0.65628
644.11,0.67191
644.78,0.67191
645.48,0.70316
646.15,0.67191
646.84,0.68753
647.51,0.67191
648.2,0.68753
648.87,0.67191
654.4,0.70316
655.09,0.68753
655.8,0.70316
656.48,0.68753
657.16,0.67191
657.84,0.68753
658.53,0.68753
659.25,0.71878
659.94,0.68753
660.62,0.68753
661.31,0.68753
662.01,0.70316
662.7,0.68753
663.41,0.70316
664.12,0.71878
664.84,0.71878
665.59,0.75003
666.3,0.70316
667.01,0.71878
667.73,0.71878
668.44,0.70316
669.14,0.70316
669.84,0.70316
670.55,0.70316
671.25,0.70316
671.97,0.71878
672.67,0.70316
673.37,0.70316
674.06,0.68753
674.77,0.70316
675.48,0.71878
676.17,0.68753
676.87,0.70316
677.55,0.67191
678.25,0.70316
678.92,0.67191
679.62,0.70316
680.28,0.65628
680.98,0.70316
681.67,0.68753
682.36,0.68753
683.03,0.67191
683.7,0.67191
684.38,0.67191
685.03,0.65628
685.67,0.64065
686.34,0.67191
687.02,0.67191
687.69,0.67191
688.34,0.65628
689.02,0.67191
689.69,0.67191
690.36,0.67191
691.05,0.68753
691.75,0.70316
692.48,0.73441
693.17,0.68753
693.89,0.71878
694.59,0.70316
695.28,0.68753
695.97,0.68753
696.63,0.65628
697.28,0.65628
697.95,0.67191
698.61,0.65628
699.28,0.67191
699.97,0.68753
700.63,0.65628
701.28,0.65628
701.95,0.67191
702.61,0.65628
703.28,0.67191
703.95,0.67191
704.61,0.65628
705.28,0.67191
705.95,0.67191
706.61,0.65628
707.28,0.67191
707.95,0.67191
708.64,0.68753
709.31,0.67191
710.02,0.70316
710.69,0.67191
711.36,0.67191
712.05,0.68753
712.74,0.68753
719.03,0.75003
719.72,0.68753
720.41,0.68753
721.13,0.71878
721.81,0.68753
722.5,0.68753
723.16,0.65628
723.83,0.67191
724.46,0.62503
725.19,0.73441
725.81,0.62503
726.44,0.62503
727.13,0.68753
727.77,0.64065
728.44,0.67191
729.08,0.64065
729.74,0.65628
730.38,0.64065
731.1,0.71878
731.75,0.65628
732.39,0.64065
733.06,0.67191
733.75,0.68753
734.41,0.65628
735.08,0.67191
735.71,0.62503
736.46,0.75003
737.13,0.67191
737.82,0.68753
