1.5205e+09,1.5205e+09
940.93,0.62503
941.56,0.62503
942.25,0.68753
942.98,0.73441
943.67,0.68753
954.78,0.65628
955.43,0.65628
956.11,0.67191
956.81,0.70316
957.48,0.67191
958.15,0.67191
958.84,0.68753
959.54,0.70316
967.73,0.70316
1027.5,0.62503
1028.2,0.64065
1031,0.6094
1031.6,0.59378
1032.1,0.4844
1058.2,0.67191
1064.5,0.70316
1065.2,0.6094
1065.8,0.67191
1083.2,0.68753
1083.8,0.6094
1098.9,0.67191
1099.6,0.67191
1100.3,0.64065
1100.9,0.6094
1101.4,0.5469
1102,0.59378
1102.6,0.56253
1103.1,0.56253
1103.7,0.56253
1104.2,0.4844
1104.7,0.51565
1105.3,0.57815
1114.6,0.64065
1115.2,0.59378
1115.8,0.62503
1116.4,0.59378
1117,0.6094
1117.6,0.64065
1133.2,0.85941
1139.3,0.62503
1140,0.65628
1140.7,0.65628
1148.3,0.56253
