,Binary,Multiclass
2018-03-09 12:53:20,1.0,1.0
2018-03-09 12:53:25,1.0,1.0
2018-03-09 12:53:30,1.0,1.0
2018-03-09 12:53:35,1.0,1.0
2018-03-09 12:53:40,1.0,1.0
2018-03-09 12:53:45,1.0,1.0
2018-03-09 12:53:50,1.0,1.0
2018-03-09 12:53:55,1.0,1.0
2018-03-09 12:54:00,1.0,1.0
2018-03-09 12:54:05,1.0,1.0
2018-03-09 12:54:10,1.0,1.0
2018-03-09 12:54:15,1.0,1.0
2018-03-09 12:54:20,1.0,1.0
2018-03-09 12:54:25,1.0,1.0
2018-03-09 12:54:30,1.0,1.0
2018-03-09 12:54:35,1.0,1.0
2018-03-09 12:54:40,1.0,1.0
2018-03-09 12:54:45,1.0,1.0
2018-03-09 12:54:50,1.0,1.0
2018-03-09 12:54:55,1.0,1.0
2018-03-09 12:55:00,1.0,1.0
2018-03-09 12:55:05,1.0,1.0
2018-03-09 12:55:10,1.0,1.0
2018-03-09 12:55:15,1.0,1.0
2018-03-09 12:55:20,1.0,1.0
2018-03-09 12:55:25,1.0,1.0
2018-03-09 12:55:30,1.0,1.0
2018-03-09 12:55:35,1.0,1.0
2018-03-09 12:55:40,1.0,1.0
2018-03-09 12:55:45,1.0,1.0
2018-03-09 12:55:50,1.0,1.0
2018-03-09 12:55:55,1.0,1.0
2018-03-09 12:56:00,-1.0,1.0
