1530777812.000000, IBI
17.641433,0.734409
18.391467,0.750034
30.251385,0.828163
31.063922,0.812537
31.892085,0.828163
32.673371,0.781286
33.485908,0.812537
34.314071,0.828163
35.126608,0.812537
35.970397,0.843789
36.829811,0.859414
74.347153,0.781286
75.159690,0.812537
75.972228,0.812537
76.753513,0.781286
77.519173,0.765660
78.300459,0.781286
79.112996,0.812537
79.925534,0.812537
80.769322,0.843789
81.628736,0.859414
82.488151,0.859414
83.300688,0.812537
84.128851,0.828163
84.925762,0.796911
93.098011,0.906291
167.273282,0.750034
168.023316,0.750034
168.804602,0.781286
169.632765,0.828163
170.492179,0.859414
171.367219,0.875040
172.164131,0.796911
179.133200,0.859414
179.914485,0.781286
180.773900,0.859414
181.570811,0.796911
182.305220,0.734409
183.055254,0.750034
183.727160,0.671906
184.477194,0.750034
185.195977,0.718783
185.977263,0.781286
186.742923,0.765660
187.477332,0.734409
188.274243,0.796911
194.040132,0.718783
194.899546,0.859414
195.758961,0.859414
196.555872,0.796911
197.337158,0.781286
198.071567,0.734409
198.852852,0.781286
199.634138,0.781286
200.384172,0.750034
201.165458,0.781286
201.977995,0.812537
202.743655,0.765660
231.182457,0.796911
231.994994,0.812537
232.807532,0.812537
242.276715,0.703157
293.185295,0.859414
294.029084,0.843789
294.825995,0.796911
295.622907,0.796911
296.404193,0.781286
297.122976,0.718783
297.888636,0.765660
298.669921,0.781286
299.576213,0.906291
300.513756,0.937543
301.529427,1.015671
302.466970,0.937543
303.404513,0.937543
304.326430,0.921917
305.248348,0.921917
306.029633,0.781286
306.904673,0.875040
307.748462,0.843789
308.576625,0.828163
309.342285,0.765660
310.154822,0.812537
310.826728,0.671906
311.686142,0.859414
312.389299,0.703157
313.170585,0.781286
313.873742,0.703157
314.608151,0.734409
315.420688,0.812537
316.201974,0.781286
317.077014,0.875040
317.920803,0.843789
318.748966,0.828163
319.561503,0.812537
320.374040,0.812537
321.124074,0.750034
321.889734,0.765660
322.624143,0.734409
323.389803,0.765660
324.124212,0.734409
324.889872,0.765660
325.702409,0.812537
326.546197,0.843789
327.327483,0.781286
328.186898,0.859414
329.061938,0.875040
329.936978,0.875040
345.281430,0.765660
346.093967,0.812537
346.953382,0.859414
347.844047,0.890666
348.672210,0.828163
349.531625,0.859414
350.422290,0.890666
351.297330,0.875040
352.125493,0.828163
352.969282,0.843789
353.813071,0.843789
354.578731,0.765660
355.360016,0.781286
356.141302,0.781286
356.922588,0.781286
357.828879,0.906291
358.672668,0.843789
375.267178,0.765660
375.923458,0.656280
376.657866,0.734409
377.407901,0.750034
378.142309,0.734409
378.939221,0.796911
379.720506,0.781286
380.329909,0.609403
431.144735,0.859414
432.035401,0.890666
432.941693,0.906291
433.816733,0.875040
434.644896,0.828163
435.473058,0.828163
436.394976,0.921917
437.363770,0.968794
438.379441,1.015671
439.316984,0.937543
440.192024,0.875040
441.238947,1.046923
444.957868,0.781286
445.786031,0.828163
446.661071,0.875040
447.598614,0.937543
448.489279,0.890666
449.411196,0.921917
450.286237,0.875040
451.005019,0.718783
451.801931,0.796911
452.598842,0.796911
453.380128,0.781286
454.208291,0.828163
455.036454,0.828163
456.020874,0.984420
457.052171,1.031297
458.036591,0.984420
458.958508,0.921917
459.833549,0.875040
460.677337,0.843789
461.505500,0.828163
462.302412,0.796911
463.099323,0.796911
463.943112,0.843789
464.802526,0.859414
465.693192,0.890666
466.599483,0.906291
467.490149,0.890666
468.365189,0.875040
469.208978,0.843789
470.084018,0.875040
470.912181,0.828163
471.709092,0.796911
472.506004,0.796911
473.365418,0.859414
474.302961,0.937543
475.224878,0.921917
476.099918,0.875040
476.974958,0.875040
477.834373,0.859414
478.693787,0.859414
479.506324,0.812537
480.271984,0.765660
481.037644,0.765660
481.865807,0.828163
482.647093,0.781286
483.444004,0.796911
502.476125,0.734409
503.163657,0.687531
503.929317,0.765660
504.726228,0.796911
505.616894,0.890666
509.898340,0.734409
510.554620,0.656280
511.304654,0.750034
511.960934,0.656280
512.757846,0.796911
513.539132,0.781286
514.273540,0.734409
630.700745,0.937543
640.998091,0.875040
641.888757,0.890666
642.748171,0.859414
643.545083,0.796911
644.388871,0.843789
645.232660,0.843789
653.998686,0.843789
666.030487,0.796911
666.796147,0.765660
667.561807,0.765660
668.343093,0.781286
669.218133,0.875040
670.093173,0.875040
670.921336,0.828163
671.890130,0.968794
672.968304,1.078174
689.015914,0.750034
689.797200,0.781286
690.500357,0.703157
691.219140,0.718783
691.984800,0.765660
692.734834,0.750034
693.453617,0.718783
694.188026,0.734409
694.938060,0.750034
695.734972,0.796911
696.563134,0.828163
697.313169,0.750034
698.172583,0.859414
699.047623,0.875040
699.922663,0.875040
700.782078,0.859414
701.578989,0.796911
702.360275,0.781286
703.157186,0.796911
703.938472,0.781286
704.688506,0.750034
705.532295,0.843789
706.485464,0.953169
707.516761,1.031297
708.516807,1.000046
709.548104,1.031297
710.548150,1.000046
711.470067,0.921917
712.376358,0.906291
713.251398,0.875040
726.439502,0.796911
727.392671,0.953169
728.283336,0.890666
729.111499,0.828163
729.939662,0.828163
744.846595,0.875040
745.674757,0.828163
749.674941,0.812537
750.487478,0.812537
751.362518,0.875040
752.221932,0.859414
753.018844,0.796911
753.847007,0.828163
754.784549,0.937543
755.628338,0.843789
756.565881,0.937543
757.456547,0.890666
758.378464,0.921917
813.005965,0.703157
813.755999,0.750034
814.474782,0.718783
815.162313,0.687531
815.896722,0.734409
816.631130,0.734409
817.349913,0.718783
818.053071,0.703157
818.771853,0.718783
819.475011,0.703157
820.240671,0.765660
820.959454,0.718783
821.662611,0.703157
822.428271,0.765660
823.240808,0.812537
824.068971,0.828163
824.787754,0.718783
825.522162,0.734409
826.240945,0.718783
826.944103,0.703157
827.647260,0.703157
828.319165,0.671906
829.069200,0.750034
829.866111,0.796911
830.631771,0.765660
831.459934,0.828163
832.334974,0.875040
833.131886,0.796911
833.991300,0.859414
834.866340,0.875040
835.678877,0.812537
836.491415,0.812537
837.288326,0.796911
838.069612,0.781286
838.772769,0.703157
839.538429,0.765660
840.319715,0.781286
841.179129,0.859414
842.054169,0.875040
842.976086,0.921917
843.913629,0.937543
844.757418,0.843789
845.601207,0.843789
846.444995,0.843789
847.288784,0.843789
848.038818,0.750034
848.788852,0.750034
849.570138,0.781286
850.273295,0.703157
851.023330,0.750034
861.148793,0.734409
861.836325,0.687531
862.539482,0.703157
863.242639,0.703157
863.945796,0.703157
864.633328,0.687531
865.383362,0.750034
866.117771,0.734409
866.914682,0.796911
867.617839,0.703157
868.367874,0.750034
869.133534,0.765660
869.899194,0.765660
870.617977,0.718783
871.352385,0.734409
872.102420,0.750034
872.805577,0.703157
873.555611,0.750034
874.274394,0.718783
874.993177,0.718783
875.790088,0.796911
876.493246,0.703157
877.321409,0.828163
878.102694,0.781286
878.993360,0.890666
879.805897,0.812537
880.618434,0.812537
881.399720,0.781286
882.134129,0.734409
882.837286,0.703157
883.556069,0.718783
884.274852,0.718783
885.009260,0.734409
885.681166,0.671906
886.399949,0.718783
887.103106,0.703157
887.900018,0.796911
888.665678,0.765660
889.368835,0.703157
890.165746,0.796911
890.993909,0.828163
891.868949,0.875040
892.759615,0.890666
893.697158,0.937543
894.540947,0.843789
895.369110,0.828163
896.197273,0.828163
896.962933,0.765660
897.791095,0.828163
898.634884,0.843789
902.150670,0.937543
903.103839,0.953169
904.010130,0.906291
904.916422,0.906291
916.026305,0.843789
916.807591,0.781286
917.604502,0.796911
918.417040,0.812537
919.167074,0.750034
919.963985,0.796911
920.776523,0.812537
921.604686,0.828163
922.401597,0.796911
923.245386,0.843789
924.073549,0.828163
924.948589,0.875040
925.776752,0.828163
926.620540,0.843789
927.479954,0.859414
928.308117,0.828163
929.136280,0.828163
930.011320,0.875040
930.980115,0.968794
931.902032,0.921917
932.823949,0.921917
933.792743,0.968794
934.761538,0.968794
935.714706,0.953169
936.605372,0.890666
937.558541,0.953169
938.386704,0.828163
939.261744,0.875040
940.105532,0.843789
941.011824,0.906291
941.996244,0.984420
943.074418,1.078174
944.090090,1.015671
945.074510,0.984420
945.949550,0.875040
946.762087,0.812537
947.527747,0.765660
948.340284,0.812537
949.152822,0.812537
949.902856,0.750034
950.715393,0.812537
951.512305,0.796911
952.402970,0.890666
953.278010,0.875040
954.090548,0.812537
954.903085,0.812537
955.746873,0.843789
956.590662,0.843789
957.340696,0.750034
958.106356,0.765660
958.887642,0.781286
959.684554,0.796911
960.403337,0.718783
961.200248,0.796911
962.012785,0.812537
962.903451,0.890666
963.762865,0.859414
964.622280,0.859414
965.528571,0.906291
966.356734,0.828163
967.153646,0.796911
967.981808,0.828163
968.825597,0.843789
969.497503,0.671906
970.263163,0.765660
971.060074,0.796911
971.888237,0.828163
972.669523,0.781286
973.513312,0.843789
974.560235,1.046923
975.513403,0.953169
976.325940,0.812537
986.076387,0.890666
986.888924,0.812537
987.748338,0.859414
988.576501,0.828163
989.389038,0.812537
990.201576,0.812537
991.029738,0.828163
991.842276,0.812537
992.639187,0.796911
993.436099,0.796911
994.295513,0.859414
995.123676,0.828163
995.951839,0.828163
996.780002,0.828163
997.670667,0.890666
998.451953,0.781286
999.233239,0.781286
999.983273,0.750034
1000.780185,0.796911
1001.483342,0.703157
1002.123996,0.640654
1002.842779,0.718783
1003.624065,0.781286
1004.545982,0.921917
1005.358519,0.812537
1006.249185,0.890666
1007.139851,0.890666
1007.983639,0.843789
1008.858680,0.875040
1009.702468,0.843789
1010.483754,0.781286
1011.218163,0.734409
1026.000089,0.718783
1026.625118,0.625029
1027.328275,0.703157
1028.047058,0.718783
1028.828344,0.781286
1029.625255,0.796911
1030.375289,0.750034
1031.187827,0.812537
1032.000364,0.812537
1032.891030,0.890666
1033.828573,0.937543
1034.703613,0.875040
1035.531775,0.828163
1036.375564,0.843789
1037.188101,0.812537
1037.875633,0.687531
1038.735047,0.859414
1039.563210,0.828163
1040.500753,0.937543
1041.407044,0.906291
1042.188330,0.781286
1043.016493,0.828163
1043.797779,0.781286
1044.532187,0.734409
1045.297848,0.765660
1046.032256,0.734409
1104.706817,0.890666
1248.822789,0.703157
1249.479069,0.656280
1250.197852,0.718783
1250.822881,0.625029
1251.572915,0.750034
1260.885841,0.859414
1261.698378,0.812537
1262.542167,0.843789
1267.729904,0.984420
1268.558067,0.828163
1269.479985,0.921917
1270.355025,0.875040
1271.355070,1.000046
1272.105105,0.750034
1275.870902,0.875040
1276.824071,0.953169
1277.730362,0.906291
1281.949305,0.734409
1282.746217,0.796911
1283.558754,0.812537
1284.246285,0.687531
1284.902565,0.656280
1285.636974,0.734409
1286.449511,0.812537
1287.168294,0.718783
1287.965206,0.796911
1288.683989,0.718783
1293.746720,0.859414
1294.653012,0.906291
1295.496800,0.843789
1296.293712,0.796911
1297.153126,0.859414
1297.996915,0.843789
1298.996961,1.000046
1299.965755,0.968794
1300.981426,1.015671
1301.981472,1.000046
1302.856512,0.875040
1303.762804,0.906291
1348.030455,0.859414
1348.811741,0.781286
1349.671155,0.859414
1350.561821,0.890666
1351.389984,0.828163
1449.035078,0.781286
1449.878867,0.843789
1450.738281,0.859414
1503.100053,0.828163
1503.959467,0.859414
1504.725127,0.765660
1505.584542,0.859414
1506.443956,0.859414
1507.318996,0.875040
1508.162785,0.843789
1514.819340,0.812537
1515.647502,0.828163
1516.569420,0.921917
1517.366331,0.796911
1518.241371,0.875040
1519.132037,0.890666
1520.085206,0.953169
1520.960246,0.875040
1521.772783,0.812537
1522.616571,0.843789
1523.475986,0.859414
1524.366652,0.890666
1525.257317,0.890666
1526.007352,0.750034
1526.819889,0.812537
1536.429704,0.812537
1537.226615,0.796911
1538.117281,0.890666
1546.445787,0.828163
1547.367704,0.921917
1548.117739,0.750034
1548.899024,0.781286
1549.789690,0.890666
1550.774110,0.984420
1554.243019,0.703157
1554.961802,0.718783
1555.774339,0.812537
1556.539999,0.765660
1557.352536,0.812537
1558.211951,0.859414
1559.071365,0.859414
1559.883902,0.812537
1560.696440,0.812537
1561.508977,0.812537
1562.259011,0.750034
1563.040297,0.781286
1563.821583,0.781286
1564.680997,0.859414
1565.446657,0.765660
1566.368574,0.921917
1567.290491,0.921917
1568.165531,0.875040
1569.040571,0.875040
1569.931237,0.890666
1570.821903,0.890666
1571.603189,0.781286
1572.384475,0.781286
1573.181386,0.796911
1573.962672,0.781286
1574.697080,0.734409
1575.525243,0.828163
1576.228400,0.703157
1577.134692,0.906291
1577.915978,0.781286
1578.759766,0.843789
1579.666058,0.906291
1580.525472,0.859414
1581.369261,0.843789
1582.228675,0.859414
1583.072464,0.843789
1583.853750,0.781286
1584.666287,0.812537
1585.478824,0.812537
1586.322613,0.843789
1587.025770,0.703157
1587.885184,0.859414
1588.557090,0.671906
1589.307124,0.750034
1590.057158,0.750034
1590.791567,0.734409
1591.557227,0.765660
1592.354139,0.796911
1593.291682,0.937543
1594.276102,0.984420
1595.213645,0.937543
1596.166813,0.953169
1597.088730,0.921917
1597.995022,0.906291
1598.807559,0.812537
1599.588845,0.781286
1600.370131,0.781286
1601.198293,0.828163
1602.104585,0.906291
1602.963999,0.859414
1603.870291,0.906291
1604.807834,0.937543
1605.729751,0.921917
1606.604791,0.875040
1607.401702,0.796911
1608.182988,0.781286
1609.011151,0.828163
1609.933068,0.921917
1610.870611,0.937543
1611.776903,0.906291
1612.667568,0.890666
1613.605111,0.937543
1614.589531,0.984420
1615.558326,0.968794
1616.433366,0.875040
1617.370909,0.937543
1618.324077,0.953169
1619.261620,0.937543
1620.105409,0.843789
1620.949198,0.843789
1621.855489,0.906291
1622.793032,0.937543
1623.683698,0.890666
1624.464983,0.781286
1625.308772,0.843789
1626.152561,0.843789
1627.121355,0.968794
1627.949518,0.828163
1628.855809,0.906291
1629.746475,0.890666
1630.637141,0.890666
1631.480930,0.843789
1632.309093,0.828163
1633.152881,0.843789
1633.918541,0.765660
1634.731078,0.812537
1635.559241,0.828163
1636.371778,0.812537
1637.215567,0.843789
1638.059356,0.843789
1638.934396,0.875040
1639.746933,0.812537
1640.590722,0.843789
1641.450136,0.859414
1642.262673,0.812537
1643.106462,0.843789
1643.934625,0.828163
1644.778413,0.843789
1645.544073,0.765660
1646.387862,0.843789
1647.169148,0.781286
1647.997311,0.828163
1648.747345,0.750034
1649.575508,0.828163
1650.372419,0.796911
1651.231834,0.859414
1652.028745,0.796911
1652.888160,0.859414
1653.606942,0.718783
1654.419480,0.812537
1655.232017,0.812537
1656.028928,0.796911
1656.794588,0.765660
1657.560248,0.765660
1658.310283,0.750034
1658.997814,0.687531
1659.747849,0.750034
1660.451006,0.703157
1661.091660,0.640654
1661.763566,0.671906
1662.435472,0.671906
1663.091752,0.656280
1663.779283,0.687531
1664.544943,0.765660
1665.279352,0.734409
1666.107515,0.828163
1667.013806,0.906291
1667.935723,0.921917
1668.888892,0.953169
1669.763932,0.875040
1670.545218,0.781286
1671.389006,0.843789
1672.279672,0.890666
1673.201589,0.921917
1674.107881,0.906291
1674.936044,0.828163
1675.889212,0.953169
1676.873632,0.984420
1677.858052,0.984420
1678.717467,0.859414
1679.576881,0.859414
1680.483173,0.906291
1681.420716,0.937543
1682.358258,0.937543
1683.248924,0.890666
1684.123964,0.875040
1685.061507,0.937543
1686.045927,0.984420
1687.045973,1.000046
1687.983516,0.937543
1688.999187,1.015671
1690.077362,1.078174
1691.108659,1.031297
1692.093079,0.984420
1692.999371,0.906291
1693.936913,0.937543
1702.265420,0.953169
1703.156086,0.890666
1704.062377,0.906291
1704.937417,0.875040
1705.781206,0.843789
1706.546866,0.765660
1707.312526,0.765660
1708.078186,0.765660
1708.984478,0.906291
1709.890769,0.906291
1710.718932,0.828163
1711.609598,0.890666
1712.531515,0.921917
1713.344052,0.812537
1714.203466,0.859414
1715.062881,0.859414
1715.953547,0.890666
1716.687955,0.734409
1717.484867,0.796911
1718.266152,0.781286
1719.031812,0.765660
1719.750595,0.718783
1720.469378,0.718783
1721.172535,0.703157
1721.906944,0.734409
1722.610101,0.703157
1723.313258,0.703157
1724.063293,0.750034
1724.907081,0.843789
1725.688367,0.781286
1726.547781,0.859414
1727.407196,0.859414
1728.313487,0.906291
1729.141650,0.828163
1730.016690,0.875040
1730.876105,0.859414
1731.735519,0.859414
1732.532430,0.796911
1733.376219,0.843789
1734.220008,0.843789
1735.110673,0.890666
1759.080521,0.921917
1759.877432,0.796911
1771.752976,0.812537
1795.488437,1.046923
1806.567069,0.953169
1807.520238,0.953169
1808.504658,0.984420
1809.489078,0.984420
1810.504750,1.015671
1811.426667,0.921917
1812.332958,0.906291
1813.176747,0.843789
1814.067413,0.890666
1815.020581,0.953169
1815.895621,0.875040
1816.786287,0.890666
1866.116670,0.578151
1866.819827,0.703157
1867.429230,0.609403
1868.007382,0.578151
1868.616785,0.609403
1881.179860,0.937543
1882.148654,0.968794
1889.477114,0.890666
1900.712004,0.812537
1901.524541,0.812537
1902.352704,0.828163
1911.165607,0.812537
1911.900016,0.734409
1912.681302,0.781286
1913.431336,0.750034
1914.118867,0.687531
1914.837650,0.718783
1920.712919,0.828163
1926.806948,0.843789
1927.760117,0.953169
1928.744537,0.984420
1929.744583,1.000046
1930.713377,0.968794
1931.650920,0.937543
1932.588463,0.937543
1933.541631,0.953169
1934.463549,0.921917
1935.401092,0.937543
1936.135500,0.734409
1937.104295,0.968794
1937.932457,0.828163
1941.448243,0.953169
1942.151401,0.703157
1947.511021,0.828163
1948.323558,0.812537
1949.120470,0.796911
1949.964258,0.843789
1950.839298,0.875040
1951.714338,0.875040
1952.605004,0.890666
1953.464418,0.859414
1954.355084,0.890666
1955.105119,0.750034
1955.933281,0.828163
1956.714567,0.781286
1957.527104,0.812537
1958.292764,0.765660
1959.136553,0.843789
1959.964716,0.828163
1960.777253,0.812537
1961.621042,0.843789
1962.480456,0.859414
1963.339870,0.859414
1964.168033,0.828163
1965.011822,0.843789
1965.839985,0.828163
1966.683774,0.843789
1967.480685,0.796911
1968.324474,0.843789
1969.183888,0.859414
1970.090179,0.906291
1970.871465,0.781286
1971.621500,0.750034
1972.418411,0.796911
1973.184071,0.765660
1974.074737,0.890666
1978.106171,0.875040
1978.918709,0.812537
1979.746871,0.828163
1980.543783,0.796911
1981.340694,0.796911
1982.184483,0.843789
1982.981395,0.796911
1983.778306,0.796911
1984.590843,0.812537
1985.434632,0.843789
1986.309672,0.875040
1987.169086,0.859414
1988.044126,0.875040
1999.685284,0.921917
2000.560324,0.875040
2017.701734,0.796911
2018.514271,0.812537
2019.311182,0.796911
2020.186223,0.875040
2020.983134,0.796911
2021.826923,0.843789
2022.545706,0.718783
2023.280114,0.734409
2027.514683,0.718783
2028.405349,0.890666
2029.233512,0.828163
2030.124177,0.890666
2030.983592,0.859414
2031.874258,0.890666
2032.718046,0.843789
2033.561835,0.843789
2043.577918,0.781286
2044.421707,0.843789
2045.202993,0.781286
2045.984278,0.781286
2046.734313,0.750034
2047.515599,0.781286
2048.312510,0.796911
2049.078170,0.765660
2049.921959,0.843789
2050.781373,0.859414
2051.672039,0.890666
2052.531453,0.859414
2053.390867,0.859414
2054.250282,0.859414
2055.062819,0.812537
2055.890982,0.828163
2056.672268,0.781286
2057.516056,0.843789
2058.281716,0.765660
2059.156756,0.875040
2059.938042,0.781286
2064.844517,0.812537
2065.625803,0.781286
2066.469591,0.843789
2067.282128,0.812537
2068.157168,0.875040
2069.032208,0.875040
2069.907248,0.875040
2070.672909,0.765660
2071.516697,0.843789
2072.282357,0.765660
2076.970072,0.765660
2077.766983,0.796911
2078.610772,0.843789
2079.470186,0.859414
2080.345226,0.875040
2081.235892,0.890666
2082.095306,0.859414
2092.002010,0.828163
2097.424133,0.734409
2098.174167,0.750034
2098.861699,0.687531
2099.596107,0.734409
2100.314890,0.718783
2101.064925,0.750034
2101.814959,0.750034
2102.533742,0.718783
2103.315028,0.781286
2104.096313,0.781286
2104.877599,0.781286
2105.612008,0.734409
2106.393294,0.781286
2107.158954,0.765660
2107.908988,0.750034
2108.674648,0.765660
2109.471560,0.796911
2110.284097,0.812537
2111.065382,0.781286
2111.877920,0.812537
2112.674831,0.796911
2113.487368,0.812537
2114.190526,0.703157
2114.940560,0.750034
2115.674968,0.734409
2116.378126,0.703157
2117.112534,0.734409
2117.831317,0.718783
2118.596977,0.765660
2119.378263,0.781286
2120.237677,0.859414
2121.018963,0.781286
2121.800249,0.781286
2122.565909,0.765660
2123.347195,0.781286
2124.050352,0.703157
2124.800386,0.750034
2125.534795,0.734409
2126.206701,0.671906
2126.878606,0.671906
2127.534886,0.656280
2128.175541,0.640654
2128.816195,0.640654
2167.786729,0.906291
2168.614892,0.828163
2169.443055,0.828163
2170.302469,0.859414
2171.130632,0.828163
2171.896292,0.765660
2172.646326,0.750034
2173.490115,0.843789
2174.193272,0.703157
2175.037061,0.843789
2175.740218,0.703157
2176.552755,0.812537
2177.318415,0.765660
2178.130952,0.812537
2178.927864,0.796911
2179.771652,0.843789
2180.599815,0.828163
2181.412353,0.812537
2242.180759,0.875040
2253.009380,0.890666
2253.884420,0.875040
2254.775086,0.890666
2255.759506,0.984420
2256.806429,1.046923
2257.822100,1.015671
2368.327158,0.656280
2369.030316,0.703157
2369.827227,0.796911
2370.655390,0.828163
2386.999888,0.656280
2387.671794,0.671906
2388.374951,0.703157
2389.078108,0.703157
2389.812517,0.734409
2390.562551,0.750034
2391.390714,0.828163
2392.125123,0.734409
2392.843906,0.718783
2415.266807,0.875040
2416.173099,0.906291
2417.048139,0.875040
2417.907553,0.859414
2418.720090,0.812537
2430.142488,0.812537
2430.876897,0.734409
2431.642557,0.765660
2432.392591,0.750034
2433.111374,0.718783
2433.861408,0.750034
2434.642694,0.781286
2435.423980,0.781286
2436.189640,0.765660
2436.939674,0.750034
2437.689708,0.750034
2438.408491,0.718783
2439.111649,0.703157
2439.783554,0.671906
2440.471086,0.687531
2441.158617,0.687531
2441.799272,0.640654
2442.455552,0.656280
2443.111832,0.656280
2443.768112,0.656280
2444.424392,0.656280
2445.096298,0.671906
2445.783829,0.687531
2446.502612,0.718783
2447.205769,0.703157
2447.908926,0.703157
2448.612083,0.703157
2449.315241,0.703157
2449.987146,0.671906
2450.674678,0.687531
2451.362209,0.687531
2452.065367,0.703157
2452.784149,0.718783
2453.565435,0.781286
2454.221715,0.656280
2454.940498,0.718783
2455.737410,0.796911
2456.456192,0.718783
2457.221853,0.765660
2457.987513,0.765660
2458.737547,0.750034
2459.471956,0.734409
2460.096984,0.625029
2460.800141,0.703157
2461.487673,0.687531
2462.112701,0.625029
2462.768981,0.656280
2463.487764,0.718783
2464.300302,0.812537
2465.128464,0.828163
2465.987879,0.859414
2466.847293,0.859414
2467.706707,0.859414
2468.487993,0.781286
2469.269279,0.781286
2470.019313,0.750034
2470.769348,0.750034
2471.472505,0.703157
2472.175662,0.703157
2472.878819,0.703157
2473.597602,0.718783
2474.300759,0.703157
2475.019542,0.718783
2475.707074,0.687531
2476.441482,0.734409
2477.129014,0.687531
2477.800920,0.671906
2478.472825,0.671906
2479.175982,0.703157
2479.879140,0.703157
2480.613548,0.734409
2481.301080,0.687531
2482.004237,0.703157
2482.707394,0.703157
2483.410551,0.703157
2484.082457,0.671906
2484.754363,0.671906
2485.426269,0.671906
2486.113800,0.687531
2486.801332,0.687531
2487.520114,0.718783
2488.254523,0.734409
2489.004557,0.750034
2489.770217,0.765660
2490.489000,0.718783
2491.207783,0.718783
2491.926566,0.718783
2492.676600,0.750034
2493.411009,0.734409
2494.114166,0.703157
2494.786072,0.671906
2495.473603,0.687531
2496.176761,0.703157
2496.911169,0.734409
2497.614326,0.703157
2498.364361,0.750034
2499.130021,0.765660
2499.833178,0.703157
2500.598838,0.765660
2501.301995,0.703157
2502.020778,0.718783
2502.723935,0.703157
2503.442718,0.718783
2504.161501,0.718783
2504.927161,0.765660
2505.645944,0.718783
2506.380353,0.734409
2507.114761,0.734409
2507.817919,0.703157
2508.505450,0.687531
2509.192981,0.687531
2509.911764,0.718783
2510.646173,0.734409
2511.427459,0.781286
2512.255622,0.828163
2513.115036,0.859414
2531.569006,0.703157
2532.272163,0.703157
2533.147203,0.875040
2533.897237,0.750034
2534.647272,0.750034
2535.397306,0.750034
2553.226247,0.796911
2553.960656,0.734409
2554.710690,0.750034
2558.960885,0.718783
2559.585913,0.625029
2560.273445,0.687531
2560.976602,0.703157
2561.695385,0.718783
2562.382916,0.687531
2571.242697,0.843789
2572.117737,0.875040
2572.899023,0.781286
2573.602180,0.703157
2574.320963,0.718783
2575.055371,0.734409
2575.727277,0.671906
2576.414809,0.687531
2577.102340,0.687531
2577.868000,0.765660
2578.633660,0.765660
2579.352443,0.718783
2580.055600,0.703157
2580.790009,0.734409
2581.477540,0.687531
2582.180697,0.703157
2582.915106,0.734409
2583.649515,0.734409
2584.399549,0.750034
2585.149583,0.750034
2585.899618,0.750034
2586.634026,0.734409
2587.368435,0.734409
2588.102844,0.734409
2588.806001,0.703157
2589.540409,0.734409
2590.290444,0.750034
2591.024852,0.734409
2591.790512,0.765660
2592.587424,0.796911
2593.337458,0.750034
2594.134370,0.796911
2594.946907,0.812537
2595.759444,0.812537
2596.525104,0.765660
2597.322016,0.796911
2598.118927,0.796911
2598.915838,0.796911
2599.744001,0.828163
2600.587790,0.843789
2601.369076,0.781286
2602.119110,0.750034
2602.900396,0.781286
2603.697307,0.796911
2613.854022,0.875040
2626.995249,0.656280
2627.870289,0.875040
2640.636498,0.734409
2641.464661,0.828163
2642.261573,0.796911
2643.027233,0.765660
2643.777267,0.750034
2644.542927,0.765660
2645.292961,0.750034
2646.042996,0.750034
2646.746153,0.703157
2647.464936,0.718783
2648.199344,0.734409
2648.918127,0.718783
2649.636910,0.718783
2650.355693,0.718783
2651.074476,0.718783
2651.762007,0.687531
2652.449539,0.687531
2662.403120,0.703157
2663.137528,0.734409
2663.903188,0.765660
2664.637597,0.734409
2665.387631,0.750034
2666.106414,0.718783
2666.840823,0.734409
2667.575231,0.734409
2682.763427,0.750034
2683.435332,0.671906
2684.200992,0.765660
2684.888524,0.687531
2685.654184,0.765660
2686.576101,0.921917
2702.295571,0.812537
2710.389691,0.750034
2711.092848,0.703157
2711.796005,0.703157
2712.514788,0.718783
2713.233571,0.718783
2713.967980,0.734409
2719.593237,0.640654
2720.249517,0.656280
2734.984567,0.718783
2751.735334,0.718783
2752.454117,0.718783
2886.679011,0.796911
2887.538425,0.859414
2888.257208,0.718783
2888.866611,0.609403
2898.585806,0.718783
2926.274573,0.625029
2926.930853,0.656280
2927.555882,0.625029
2928.212162,0.656280
2928.852816,0.640654
2929.477845,0.625029
2930.118499,0.640654
2930.790405,0.671906
2931.509188,0.718783
2932.149842,0.640654
2932.790497,0.640654
2933.493654,0.703157
2934.181185,0.687531
2934.821840,0.640654
2935.478120,0.656280
2936.134400,0.656280
2936.775054,0.640654
2937.446960,0.671906
2938.103240,0.656280
2938.775146,0.671906
2939.431426,0.656280
2940.103331,0.671906
2940.743986,0.640654
2941.415891,0.671906
2942.103423,0.687531
2942.790954,0.687531
2943.447234,0.656280
2944.119140,0.671906
2944.791046,0.671906
2945.462952,0.671906
2946.181735,0.718783
3060.233830,0.609403
3060.890110,0.656280
3061.515139,0.625029
3062.171419,0.656280
3062.874576,0.703157
3063.499605,0.625029
3064.265265,0.765660
3064.968422,0.703157
3065.593451,0.625029
3066.280982,0.687531
3066.984139,0.703157
3067.765425,0.781286
3086.266272,0.546900
3086.860049,0.593777
3087.594458,0.734409
3088.250738,0.656280
3088.938269,0.687531
3089.672678,0.734409
3090.391461,0.718783
3094.204135,0.562526
3094.688532,0.484397
3095.266684,0.578151
3095.797958,0.531274
3096.438612,0.640654
3097.001138,0.562526
3101.563847,0.515649
3102.141999,0.578151
3102.579519,0.437520
3106.110930,0.640654
3106.720333,0.609403
3107.267233,0.546900
3107.829759,0.562526
3132.049618,0.640654
3132.549640,0.500023
3164.472977,0.625029
3165.113631,0.640654
3183.301964,0.687531
3184.036372,0.734409
3184.802032,0.765660
3185.536441,0.734409
3186.333352,0.796911
3187.114638,0.781286
3187.864672,0.750034
3188.583455,0.718783
3189.255361,0.671906
3189.911641,0.656280
3190.552295,0.640654
3191.208575,0.656280
3191.817978,0.609403
3192.474258,0.656280
3193.177416,0.703157
3193.927450,0.750034
3194.724361,0.796911
3195.536899,0.812537
3196.349436,0.812537
3197.146347,0.796911
3205.584234,0.828163
3206.287391,0.703157
3206.990548,0.703157
3207.584325,0.593777
3211.553257,0.796911
3221.975609,0.781286
3222.772520,0.796911
3223.569432,0.796911
3224.303840,0.734409
3235.007455,0.703157
3235.726238,0.718783
3236.476273,0.750034
3237.179430,0.703157
3237.991967,0.812537
3238.726376,0.734409
3239.492036,0.765660
3240.335824,0.843789
3320.245732,0.812537
3320.964515,0.718783
3324.308418,0.671906
3325.042827,0.734409
3325.745984,0.703157
3326.511644,0.765660
3327.230427,0.718783
3328.105467,0.875040
3332.511919,0.687531
3333.418210,0.906291
3334.293250,0.875040
3335.277670,0.984420
3336.043330,0.765660
3336.824616,0.781286
3337.559025,0.734409
3338.340310,0.781286
3339.137222,0.796911
3342.262365,0.843789
3343.059276,0.796911
3343.824936,0.765660
3344.621848,0.796911
3345.418759,0.796911
3346.246922,0.828163
3358.059963,0.796911
3358.888126,0.828163
3359.622535,0.734409
3360.388195,0.765660
3361.091352,0.703157
3361.841386,0.750034
3362.560169,0.718783
3363.310203,0.750034
3364.091489,0.781286
3378.623404,0.796911
3379.420316,0.796911
3380.451613,1.031297
3383.826767,0.640654
3384.498673,0.671906
3385.186205,0.687531
3385.904988,0.718783
3386.701899,0.796911
3387.295676,0.593777
3390.577076,0.750034
3391.311485,0.734409
3391.936514,0.625029
3392.624045,0.687531
3393.358454,0.734409
3394.092862,0.734409
3394.999154,0.906291
3395.733562,0.734409
3396.592977,0.859414
3397.436765,0.843789
3398.311805,0.875040
3399.374354,1.062549
3403.765180,0.890666
3414.312538,0.843789
3414.937567,0.625029
3423.547336,0.812537
3424.344247,0.796911
3425.172410,0.828163
3425.922444,0.750034
3426.703730,0.781286
3427.469390,0.765660
3431.157059,0.718783
3431.922719,0.765660
3432.688379,0.765660
3433.344659,0.656280
3434.157196,0.812537
3434.938482,0.781286
3435.704142,0.765660
3436.469802,0.765660
3437.188585,0.718783
3437.922994,0.734409
3438.673028,0.750034
3439.438688,0.765660
3440.157471,0.718783
3440.891880,0.734409
3441.626288,0.734409
3442.360697,0.734409
3443.126357,0.765660
3443.892017,0.765660
3444.595174,0.703157
3445.360834,0.765660
3446.048366,0.687531
3446.767148,0.718783
3447.579686,0.812537
3448.282843,0.703157
3448.939123,0.656280
3449.626654,0.687531
3450.376689,0.750034
3451.126723,0.750034
3451.861132,0.734409
3452.642417,0.781286
3453.423703,0.781286
3454.158112,0.734409
3454.861269,0.703157
3458.970832,0.703157
3459.673989,0.703157
3460.392772,0.718783
3461.127181,0.734409
3461.939718,0.812537
3462.721004,0.781286
3463.533541,0.812537
3464.361704,0.828163
3465.205492,0.843789
3478.940496,0.703157
3479.659279,0.718783
3480.456191,0.796911
3491.534823,0.703157
3492.331734,0.796911
3493.113020,0.781286
3493.925557,0.812537
3494.738094,0.812537
3495.503754,0.765660
3496.253789,0.750034
3497.003823,0.750034
3497.769483,0.765660
3498.535143,0.765660
3499.394557,0.859414
3500.191469,0.796911
3500.925878,0.734409
3501.722789,0.796911
3502.472823,0.750034
3503.254109,0.781286
3503.957266,0.703157
3504.722926,0.765660
3505.472961,0.750034
3506.238621,0.765660
3506.973029,0.734409
3507.723064,0.750034
3508.473098,0.750034
3509.301261,0.828163
3510.051295,0.750034
3514.801513,0.781286
3515.551547,0.750034
3516.270330,0.718783
3517.020364,0.750034
3517.848527,0.828163
3540.927709,0.828163
3541.724620,0.796911
3542.474654,0.750034
3543.193437,0.718783
3543.849717,0.656280
3544.662255,0.812537
3545.349786,0.687531
3546.131072,0.781286
3546.943609,0.812537
3547.803023,0.859414
3548.740566,0.937543
3557.756604,0.687531
3558.412884,0.656280
3559.084790,0.671906
3559.772321,0.687531
3560.475478,0.703157
3561.116133,0.640654
3561.803664,0.687531
3562.569324,0.765660
3563.381861,0.812537
3564.178773,0.796911
3565.069439,0.890666
3573.866716,0.812537
3574.694879,0.828163
3575.476165,0.781286
3576.273077,0.796911
3577.054362,0.781286
3577.851274,0.796911
3578.648185,0.796911
3579.445097,0.796911
3580.273260,0.828163
3581.101423,0.828163
3581.898334,0.796911
3582.632743,0.734409
3583.445280,0.812537
3584.226566,0.781286
3584.960974,0.734409
3585.726634,0.765660
3586.492294,0.765660
3587.273580,0.781286
3588.039240,0.765660
3588.804900,0.765660
3589.554935,0.750034
3590.336220,0.781286
3591.242512,0.906291
3601.321098,0.703157
3602.055507,0.734409
3602.805541,0.750034
3603.649330,0.843789
3604.524370,0.875040
3609.508973,0.765660
3610.290259,0.781286
3611.024667,0.734409
3611.774702,0.750034
3612.509110,0.734409
3613.274770,0.765660
3614.040430,0.765660
3614.806090,0.765660
3615.603002,0.796911
3616.446790,0.843789
3617.243702,0.796911
3618.056239,0.812537
3618.853151,0.796911
3619.603185,0.750034
3623.978385,0.781286
3624.775297,0.796911
3625.619085,0.843789
3626.415997,0.796911
3627.369165,0.953169
3631.088086,0.750034
3631.838120,0.750034
3632.572529,0.734409
3633.338189,0.765660
3634.088223,0.750034
3634.853883,0.765660
3635.619543,0.765660
3636.338326,0.718783
3637.103986,0.765660
3637.900898,0.796911
3638.666558,0.765660
3639.400966,0.734409
3640.166626,0.765660
3640.901035,0.734409
3641.682321,0.781286
3642.354226,0.671906
3643.088635,0.734409
3643.901172,0.812537
3644.588704,0.687531
3645.369989,0.781286
3646.198152,0.828163
3647.026315,0.828163
3647.854478,0.828163
3648.651390,0.796911
3649.463927,0.812537
3650.245213,0.781286
3651.026498,0.781286
3651.760907,0.734409
3652.495316,0.734409
3653.229724,0.734409
3653.995384,0.765660
3654.729793,0.734409
3655.511079,0.781286
3656.323616,0.812537
3657.151779,0.828163
3657.870562,0.718783
3658.636222,0.765660
3659.417507,0.781286
3660.214419,0.796911
3661.011330,0.796911
3661.745739,0.734409
3662.495773,0.750034
3663.245808,0.750034
3663.964591,0.718783
3664.683373,0.718783
3665.402156,0.718783
3666.167816,0.765660
3666.933476,0.765660
3667.636634,0.703157
3668.355417,0.718783
3669.074199,0.718783
3669.777357,0.703157
3670.511765,0.734409
3671.230548,0.718783
3671.996208,0.765660
3672.761868,0.765660
3673.449400,0.687531
3674.230685,0.781286
3674.965094,0.734409
3675.668251,0.703157
3679.918446,0.718783
3680.793486,0.875040
3681.637275,0.843789
3682.449812,0.812537
3683.309226,0.859414
3684.106138,0.796911
3684.934300,0.828163
3685.684335,0.750034
3686.481246,0.796911
3687.262532,0.781286
3688.043818,0.781286
3688.793852,0.750034
3689.543886,0.750034
3690.309546,0.765660
3691.059581,0.750034
3691.809615,0.750034
3692.590901,0.781286
3693.403438,0.812537
3694.231601,0.828163
3695.091015,0.859414
3695.872301,0.781286
3696.778593,0.906291
3697.481750,0.703157
3698.169281,0.687531
3698.888064,0.718783
3703.700784,0.875040
3704.591450,0.890666
3705.419613,0.828163
3706.200899,0.781286
3706.966559,0.765660
3707.685342,0.718783
3708.451002,0.765660
3709.185410,0.734409
3709.935445,0.750034
3713.935628,0.828163
3714.685662,0.750034
3715.420071,0.734409
3716.201357,0.781286
3716.935765,0.734409
3717.592045,0.656280
3718.435834,0.843789
3719.123365,0.687531
3719.904651,0.781286
3720.670311,0.765660
3721.435971,0.765660
3722.232883,0.796911
3723.061046,0.828163
3723.873583,0.812537
3724.686120,0.812537
3725.483032,0.796911
3726.295569,0.812537
3727.045603,0.750034
3727.811263,0.765660
3728.592549,0.781286
3729.405086,0.812537
3730.217623,0.812537
3730.983283,0.765660
3731.780195,0.796911
3732.608358,0.828163
3733.499023,0.890666
3734.327186,0.828163
3735.124098,0.796911
3735.874132,0.750034
3736.608541,0.734409
3737.311698,0.703157
3738.061732,0.750034
3738.796141,0.734409
3739.624304,0.828163
3740.483718,0.859414
3741.327507,0.843789
3742.202547,0.875040
3743.061961,0.859414
3743.827621,0.765660
3744.608907,0.781286
3745.358941,0.750034
3746.171479,0.812537
3746.827759,0.656280
3747.577793,0.750034
3748.343453,0.765660
3749.202867,0.859414
3750.046656,0.843789
3750.906070,0.859414
3751.843613,0.937543
3752.624899,0.781286
3753.468688,0.843789
3754.203096,0.734409
3754.968756,0.765660
3758.843934,0.812537
3759.703348,0.859414
3760.578388,0.875040
3761.437802,0.859414
3762.250340,0.812537
3763.094128,0.843789
3763.937917,0.843789
3764.656700,0.718783
3765.406734,0.750034
3766.188020,0.781286
3766.984931,0.796911
3767.719340,0.734409
3768.469374,0.750034
3769.203783,0.734409
3769.953817,0.750034
3770.672600,0.718783
3771.360132,0.687531
3772.063289,0.703157
3772.750820,0.687531
3773.469603,0.718783
3774.157135,0.687531
3774.829040,0.671906
3775.594700,0.765660
3776.313483,0.718783
3777.047892,0.734409
3777.782300,0.734409
3778.532335,0.750034
3779.282369,0.750034
3780.079281,0.796911
3780.798064,0.718783
3781.532472,0.734409
3782.251255,0.718783
3782.985664,0.734409
3783.673195,0.687531
3784.438855,0.765660
3785.063884,0.625029
3785.735790,0.671906
3786.407695,0.671906
3787.110852,0.703157
3787.829635,0.718783
3788.610921,0.781286
3789.376581,0.765660
3790.157867,0.781286
3790.954778,0.796911
3791.689187,0.734409
3792.361093,0.671906
3793.220507,0.859414
3796.423779,0.640654
3797.189439,0.765660
3797.970725,0.781286
3798.783262,0.812537
3799.658302,0.875040
3800.470839,0.812537
3801.314628,0.843789
3802.142791,0.828163
3802.986579,0.843789
3803.752239,0.765660
3804.439771,0.687531
3805.221056,0.781286
3805.955465,0.734409
3806.705499,0.750034
3807.439908,0.734409
3808.221194,0.781286
3809.002480,0.781286
3809.815017,0.812537
3810.549425,0.734409
3811.315085,0.765660
3812.096371,0.781286
3812.877657,0.781286
3813.612066,0.734409
3814.377726,0.765660
3815.127760,0.750034
3815.893420,0.765660
3816.612203,0.718783
3817.346611,0.734409
3818.049769,0.703157
3818.784177,0.734409
3819.534212,0.750034
3820.221743,0.687531
3820.971777,0.750034
3821.737437,0.765660
3822.549975,0.812537
3823.300009,0.750034
3824.112546,0.812537
3824.893832,0.781286
3825.706369,0.812537
3826.472029,0.765660
3827.190812,0.718783
3827.956472,0.765660
3828.675255,0.718783
3829.378412,0.703157
3830.112821,0.734409
3830.894107,0.781286
3831.706644,0.812537
3832.472304,0.765660
3833.378595,0.906291
3834.113004,0.734409
3834.878664,0.765660
3835.628698,0.750034
3836.363107,0.734409
3837.066264,0.703157
3837.831924,0.765660
3842.754025,0.765660
3843.566562,0.812537
3844.363473,0.796911
3845.129133,0.765660
3845.879168,0.750034
3846.660453,0.781286
3847.441739,0.781286
3848.238651,0.796911
3849.019936,0.781286
3849.863725,0.843789
3850.754391,0.890666
3851.660682,0.906291
3852.504471,0.843789
3853.379511,0.875040
3854.207674,0.828163
3855.035837,0.828163
3855.848374,0.812537
3856.598408,0.750034
3857.348443,0.750034
3858.098477,0.750034
3858.895388,0.796911
3859.770428,0.875040
3860.661094,0.890666
3861.473631,0.812537
3862.348671,0.875040
3863.239337,0.890666
3864.067500,0.828163
3864.895663,0.828163
3865.723826,0.828163
3866.489486,0.765660
3867.223895,0.734409
3867.958303,0.734409
3868.739589,0.781286
3869.536500,0.796911
3870.317786,0.781286
3871.114698,0.796911
3872.036615,0.921917
3872.880404,0.843789
3873.692941,0.812537
3874.474226,0.781286
3875.411769,0.937543
3879.052561,0.765660
3879.865098,0.812537
3880.662010,0.796911
3881.412044,0.750034
3882.146453,0.734409
3882.865236,0.718783
3883.599644,0.734409
3884.365304,0.765660
3885.146590,0.781286
3885.943501,0.796911
3886.677910,0.734409
3887.443570,0.765660
3888.209230,0.765660
3888.990516,0.781286
3889.709299,0.718783
3890.459333,0.750034
3891.224993,0.765660
3892.037530,0.812537
3895.865831,0.812537
3896.662742,0.796911
3897.444028,0.781286
3898.256565,0.812537
3899.069102,0.812537
3899.834762,0.765660
3900.600422,0.765660
3901.366082,0.765660
3902.178620,0.812537
3902.913028,0.734409
3903.709940,0.796911
3904.522477,0.812537
3905.350640,0.828163
3910.632132,0.703157
3911.413417,0.781286
3912.210329,0.796911
3912.944737,0.734409
3913.804152,0.859414
3914.538560,0.734409
3915.351098,0.812537
3916.194886,0.843789
3922.085781,0.859414
3922.992072,0.906291
3923.898364,0.906291
3924.773404,0.875040
3925.679695,0.906291
3926.523484,0.843789
3927.351647,0.828163
3928.086056,0.734409
3928.804838,0.718783
3929.507996,0.703157
3930.258030,0.750034
3931.070567,0.812537
3931.851853,0.781286
3932.726893,0.875040
3933.633184,0.906291
3934.508224,0.875040
3935.320762,0.812537
3936.133299,0.812537
3936.930210,0.796911
3937.758373,0.828163
3938.492782,0.734409
3939.211565,0.718783
3940.008476,0.796911
3940.758511,0.750034
3941.664802,0.906291
3942.602345,0.937543
3943.446134,0.843789
3944.289922,0.843789
3945.164962,0.875040
3946.008751,0.843789
3946.758785,0.750034
3951.805891,0.765660
3966.931584,0.781286
3972.947484,0.734409
3973.760021,0.812537
3974.510056,0.750034
3975.400721,0.890666
3979.104016,0.750034
3979.854050,0.750034
3980.666587,0.812537
3981.463499,0.796911
3982.260410,0.796911
3983.088573,0.828163
3983.791730,0.703157
3984.557390,0.765660
3985.323050,0.765660
3991.557711,0.765660
3992.307745,0.750034
3993.073405,0.765660
3993.839065,0.765660
3994.557848,0.718783
3995.276631,0.718783
3996.026665,0.750034
3996.807951,0.781286
3997.698617,0.890666
3998.479903,0.781286
4005.105206,0.781286
4005.964620,0.859414
4006.824035,0.859414
4007.886583,1.062549
4008.699121,0.812537
4009.621038,0.921917
4010.527329,0.906291
4011.464872,0.937543
4012.308661,0.843789
4013.168075,0.859414
4018.183930,0.843789
4024.277959,0.843789
4025.106122,0.828163
4025.918659,0.812537
4026.731196,0.812537
4027.528107,0.796911
4028.371896,0.843789
4029.278188,0.906291
4030.090725,0.812537
4030.934513,0.843789
4031.715799,0.781286
4032.575213,0.859414
4033.434628,0.859414
4034.215914,0.781286
4035.044076,0.828163
4035.919116,0.875040
4036.794157,0.875040
4037.622319,0.828163
4038.512985,0.890666
4039.403651,0.890666
4040.247440,0.843789
4041.028725,0.781286
4041.810011,0.781286
4042.622548,0.812537
4043.466337,0.843789
4044.325751,0.859414
4045.216417,0.890666
4046.138334,0.921917
4047.029000,0.890666
4047.904040,0.875040
4048.794706,0.890666
4049.669746,0.875040
4050.497909,0.828163
4051.294820,0.796911
4052.091732,0.796911
4052.935520,0.843789
4053.716806,0.781286
4054.498092,0.781286
4055.310629,0.812537
4056.232546,0.921917
4057.185715,0.953169
4058.092006,0.906291
4059.060801,0.968794
4059.857712,0.796911
4060.623372,0.765660
4065.498595,0.875040
4066.420513,0.921917
4067.264301,0.843789
4068.108090,0.843789
4068.967504,0.859414
4069.795667,0.828163
4070.545702,0.750034
4071.311362,0.765660
4072.045770,0.734409
4072.889559,0.843789
4073.655219,0.765660
4074.545885,0.890666
4075.436550,0.890666
4076.342842,0.906291
4077.186630,0.843789
4078.077296,0.890666
4078.936711,0.859414
4079.780499,0.843789
4080.561785,0.781286
4081.343071,0.781286
4082.139982,0.796911
4082.968145,0.828163
4083.749431,0.781286
4084.593220,0.843789
4085.421382,0.828163
4086.265171,0.843789
4087.046457,0.781286
4087.874620,0.828163
4088.687157,0.812537
4089.530946,0.843789
4090.187226,0.656280
4094.203034,0.765660
4108.672447,0.781286
4109.438107,0.765660
4110.235018,0.796911
4111.047555,0.812537
4111.875718,0.828163
4112.750758,0.875040
4113.594547,0.843789
4114.453961,0.859414
4115.329001,0.875040
4116.172790,0.843789
4116.985327,0.812537
4117.797864,0.812537
4118.610402,0.812537
4119.422939,0.812537
4120.251102,0.828163
4121.048013,0.796911
4121.860550,0.812537
4122.735590,0.875040
4123.610631,0.875040
4131.173477,0.812537
4131.939137,0.765660
4132.767300,0.828163
4133.689217,0.921917
4134.564257,0.875040
4135.486174,0.921917
4136.454968,0.968794
4137.298757,0.843789
4138.173797,0.875040
4138.986334,0.812537
4139.845749,0.859414
4140.673912,0.828163
4141.548952,0.875040
4142.408366,0.859414
4143.252155,0.843789
4160.393564,0.859414
4161.315481,0.921917
4162.221773,0.906291
4163.096813,0.875040
4233.146894,0.812537
4314.650625,0.796911
4315.478788,0.828163
4316.275700,0.796911
4317.135114,0.859414
4317.978903,0.843789
4318.822691,0.843789
4319.728983,0.906291
4320.635274,0.906291
4321.463437,0.828163
4330.338843,1.078174
4331.182632,0.843789
4360.058954,0.906291
4360.918368,0.859414
4361.809034,0.890666
4362.699700,0.890666
4367.793683,0.859414
4368.637471,0.843789
4375.309652,0.859414
4376.231569,0.921917
4377.122235,0.890666
4378.028526,0.906291
4378.934818,0.906291
4379.872361,0.937543
4380.794278,0.921917
4381.638067,0.843789
4382.497481,0.859414
4383.388147,0.890666
4384.294438,0.906291
4385.216355,0.921917
4386.091395,0.875040
4386.997687,0.906291
4387.888353,0.890666
4388.794644,0.906291
4452.672568,0.796911
4453.438228,0.765660
4454.235140,0.796911
4455.032051,0.796911
4455.641454,0.609403
4459.626011,0.750034
4460.407297,0.781286
4461.235460,0.828163
4462.141752,0.906291
4463.001166,0.859414
4463.844954,0.843789
4464.735620,0.890666
4465.704415,0.968794
4466.673209,0.968794
4467.563875,0.890666
4468.438915,0.875040
4469.360832,0.921917
4470.298375,0.937543
4471.220292,0.921917
4472.126584,0.906291
4473.079752,0.953169
4474.064172,0.984420
4475.064218,1.000046
4475.954884,0.890666
4476.767421,0.812537
4477.626835,0.859414
4478.501875,0.875040
4479.376915,0.875040
4480.267581,0.890666
4481.048867,0.781286
4481.814527,0.765660
4482.611439,0.796911
4483.533356,0.921917
4484.564653,1.031297
4485.502196,0.937543
4486.502242,1.000046
4487.486662,0.984420
4488.439830,0.953169
4489.299245,0.859414
4490.096156,0.796911
4490.971196,0.875040
4491.768108,0.796911
4492.565019,0.796911
4493.330679,0.765660
4494.158842,0.828163
4495.127636,0.968794
4496.190185,1.062549
4497.174605,0.984420
4498.080897,0.906291
4498.987188,0.906291
4499.877854,0.890666
4500.752894,0.875040
4501.581057,0.828163
4502.377968,0.796911
4503.284260,0.906291
4504.237428,0.953169
4505.206223,0.968794
4506.112514,0.906291
4506.956303,0.843789
4507.784466,0.828163
4508.643880,0.859414
4509.487669,0.843789
4510.268955,0.781286
4511.081492,0.812537
4511.909655,0.828163
4512.753443,0.843789
4513.534729,0.781286
4514.284763,0.750034
4515.066049,0.781286
4515.847335,0.781286
4516.644246,0.796911
4517.409906,0.765660
4518.159941,0.750034
4518.909975,0.750034
4519.644384,0.734409
4520.394418,0.750034
4521.097575,0.703157
4521.785107,0.687531
4522.503890,0.718783
4523.285175,0.781286
4524.128964,0.843789
4524.957127,0.828163
4525.785290,0.828163
4526.629078,0.843789
4527.488493,0.859414
4528.285404,0.796911
4529.051064,0.765660
4529.769847,0.718783
4530.473004,0.703157
4531.176162,0.703157
4531.863693,0.687531
4532.535599,0.671906
4533.207505,0.671906
4533.941913,0.734409
4534.660696,0.718783
4535.332602,0.671906
4536.004508,0.671906
4536.707665,0.703157
4537.426448,0.718783
4538.207733,0.781286
4538.910891,0.703157
4539.614048,0.703157
4540.364082,0.750034
4541.114116,0.750034
4541.911028,0.796911
4542.692314,0.781286
4543.457974,0.765660
4544.254885,0.796911
4545.098674,0.843789
4546.004965,0.906291
4546.942508,0.937543
4547.833174,0.890666
4548.708214,0.875040
4549.598880,0.890666
4550.505171,0.906291
4551.380211,0.875040
4552.239626,0.859414
4553.067789,0.828163
4553.927203,0.859414
4554.755366,0.828163
4555.536652,0.781286
4556.489820,0.953169
4580.287785,0.765660
4581.037819,0.750034
4581.678473,0.640654
4582.366005,0.687531
4583.084788,0.718783
4583.819196,0.734409
4584.600482,0.781286
4585.334891,0.734409
4625.742990,0.718783
4626.524276,0.781286
4665.057290,0.750034
4665.822950,0.765660
4666.510481,0.687531
4667.323019,0.812537
4668.088679,0.765660
4668.916842,0.828163
4669.901262,0.984420
4670.870056,0.968794
4671.885727,1.015671
4672.792019,0.906291
4673.729562,0.937543
4732.310368,0.984420
4747.936083,0.875040
4748.764246,0.828163
4749.514281,0.750034
4750.217438,0.703157
4750.920595,0.703157
4751.639378,0.718783
4752.420664,0.781286
4753.233201,0.812537
4754.092615,0.859414
4755.045784,0.953169
4756.014578,0.968794
4756.873992,0.859414
4766.561936,0.796911
4767.390099,0.828163
4768.327642,0.937543
4769.171430,0.843789
4769.983968,0.812537
4770.749628,0.765660
4771.530913,0.781286
4772.265322,0.734409
4773.030982,0.765660
4773.843519,0.812537
4774.687308,0.843789
4775.531096,0.843789
4776.281131,0.750034
4777.093668,0.812537
4777.859328,0.765660
4778.624988,0.765660
4779.421900,0.796911
4780.187560,0.765660
4780.875091,0.687531
4781.578248,0.703157
4782.265780,0.687531
4782.984563,0.718783
4783.734597,0.750034
4784.453380,0.718783
4785.250291,0.796911
4786.094080,0.843789
4786.922243,0.828163
4787.766032,0.843789
4788.641072,0.875040
4789.500486,0.859414
4790.375526,0.875040
4791.234940,0.859414
4791.984975,0.750034
4806.391884,0.750034
4807.173170,0.781286
4808.032584,0.859414
4808.845121,0.812537
4821.111308,0.765660
4821.861342,0.750034
4822.548874,0.687531
4823.314534,0.765660
4824.064568,0.750034
4824.830228,0.765660
4825.642765,0.812537
4826.486554,0.843789
4827.361594,0.875040
4828.221008,0.859414
4829.111674,0.890666
4830.002340,0.890666
4839.143383,0.796911
4840.065300,0.921917
4875.598177,0.734409
4887.598726,0.718783
4888.411263,0.812537
4889.301929,0.890666
4890.192595,0.890666
4891.098886,0.906291
4892.020804,0.921917
4892.942721,0.921917
4893.677130,0.734409
4894.489667,0.812537
4895.333455,0.843789
5004.697836,0.906291
5016.120234,0.796911
5017.010900,0.890666
5017.792186,0.781286
5018.604723,0.812537
5019.386009,0.781286
5020.167295,0.781286
5020.901703,0.734409
5021.682989,0.781286
5022.448649,0.765660
5023.245560,0.796911
5024.011220,0.765660
5024.823758,0.812537
5025.636295,0.812537
5026.464458,0.828163
5027.245744,0.781286
5028.042655,0.796911
5028.886444,0.843789
5039.293170,0.718783
5040.058830,0.765660
5040.840116,0.781286
5047.262285,0.859414
5048.090448,0.828163
5060.575394,0.796911
5061.434808,0.859414
5062.294223,0.859414
5063.138011,0.843789
5063.919297,0.781286
5064.700583,0.781286
5065.481869,0.781286
5066.310032,0.828163
5141.172833,0.781286
5165.767709,0.718783
5170.267915,0.750034
5171.017950,0.750034
5171.814861,0.796911
5172.674275,0.859414
5204.816372,1.125051
5205.800792,0.984420
5206.738335,0.937543
5207.644626,0.906291
5255.599946,0.796911
5256.474986,0.875040
5257.193769,0.718783
5258.053184,0.859414
5258.881346,0.828163
5259.584504,0.703157
5260.506421,0.921917
5261.318958,0.812537
5262.131495,0.812537
5262.865904,0.734409
5263.865950,1.000046
5270.631884,0.718783
5271.335042,0.703157
5271.975696,0.640654
5272.647602,0.671906
5273.272630,0.625029
5423.373251,0.765660
5424.263917,0.890666
5425.138957,0.875040
5425.920243,0.781286
5505.392630,0.687531
5506.064536,0.671906
5506.720816,0.656280
5507.377096,0.656280
5508.049002,0.671906
5508.720908,0.671906
5515.393088,1.046923
5524.924774,0.859414
5525.815440,0.890666
5547.003910,0.765660
5547.753944,0.750034
5548.519604,0.765660
5560.051382,0.828163
5560.817042,0.765660
5561.551451,0.734409
5562.363988,0.812537
5563.176525,0.812537
5563.989063,0.812537
5564.770348,0.781286
5565.582886,0.812537
5566.411048,0.828163
5573.723883,0.953169
5574.661426,0.937543
5575.583343,0.921917
5584.724387,0.859414
5585.599427,0.875040
5586.505718,0.906291
5598.771905,0.812537
5599.600068,0.828163
5600.412605,0.812537
5601.256393,0.843789
5602.053305,0.796911
5602.787714,0.734409
5603.553374,0.765660
5604.350285,0.796911
5605.147197,0.796911
5673.837841,0.812537
5674.681630,0.843789
5675.525418,0.843789
5676.353581,0.828163
5677.166118,0.812537
5677.963030,0.796911
5678.759941,0.796911
5679.588104,0.828163
5680.416267,0.828163
5681.213179,0.796911
5682.056967,0.843789
5682.932007,0.875040
5683.775796,0.843789
5684.619585,0.843789
5685.463373,0.843789
5686.291536,0.828163
5687.104073,0.812537
5687.963488,0.859414
5688.869779,0.906291
5689.744819,0.875040
5690.541731,0.796911
5691.323016,0.781286
5692.119928,0.796911
5699.979663,0.796911
5700.760948,0.781286
5701.557860,0.796911
5702.307894,0.750034
5703.026677,0.718783
5703.792337,0.765660
5704.511120,0.718783
5705.245529,0.734409
5705.964312,0.718783
5706.745597,0.781286
5707.526883,0.781286
5708.276917,0.750034
5709.105080,0.828163
5709.901992,0.796911
5710.714529,0.812537
5711.542692,0.828163
5712.245849,0.703157
5712.995883,0.750034
5713.730292,0.734409
5714.449075,0.718783
5715.199109,0.750034
5715.980395,0.781286
5716.792932,0.812537
5717.667972,0.875040
5718.527387,0.859414
5719.386801,0.859414
5720.136835,0.750034
5720.886870,0.750034
5721.636904,0.750034
5722.402564,0.765660
5723.121347,0.718783
5723.902633,0.781286
5724.730796,0.828163
5725.512081,0.781286
5726.355870,0.843789
5727.074653,0.718783
5727.855939,0.781286
5728.590347,0.734409
5729.277879,0.687531
5729.996662,0.718783
5730.715445,0.718783
5731.449853,0.734409
5732.153010,0.703157
5732.918670,0.765660
5733.684330,0.765660
5734.371862,0.687531
5735.121896,0.750034
5735.934433,0.812537
5753.185223,0.765660
5753.919632,0.734409
5754.669666,0.750034
5755.450952,0.781286
5756.232238,0.781286
5756.951020,0.718783
5757.669803,0.718783
5758.388586,0.718783
5759.091743,0.703157
5759.794901,0.703157
5760.498058,0.703157
5761.263718,0.765660
5762.013752,0.750034
5762.748161,0.734409
5763.498195,0.750034
5764.248230,0.750034
5764.998264,0.750034
5765.748298,0.750034
5766.513958,0.765660
5767.295244,0.781286
5768.045278,0.750034
5768.795313,0.750034
5769.545347,0.750034
5770.311007,0.765660
5771.092293,0.781286
5771.811076,0.718783
5772.545484,0.734409
5773.279893,0.734409
5774.045553,0.765660
5774.826839,0.781286
5775.592499,0.765660
5795.030889,0.843789
5795.796549,0.765660
5796.624712,0.828163
5797.452874,0.828163
5798.156032,0.703157
5798.890440,0.734409
5799.656100,0.765660
5800.468637,0.812537
5801.312426,0.843789
5802.093712,0.781286
5802.874998,0.781286
5803.718786,0.843789
5804.484446,0.765660
5805.281358,0.796911
5806.078269,0.796911
5806.890806,0.812537
5807.703344,0.812537
5808.515881,0.812537
5809.328418,0.812537
5810.156581,0.828163
5818.766350,0.781286
5819.578887,0.812537
5849.752143,0.859414
5850.595932,0.843789
5857.205610,0.828163
5858.049398,0.843789
5858.877561,0.828163
5859.674473,0.796911
5860.471384,0.796911
5864.393439,0.796911
5865.143473,0.750034
5865.877882,0.734409
5866.643542,0.765660
5867.440453,0.796911
5868.237365,0.796911
5869.018650,0.781286
5869.831187,0.812537
5870.674976,0.843789
5871.409385,0.734409
5872.190670,0.781286
5872.971956,0.781286
5873.706365,0.734409
5874.518902,0.812537
5881.503597,0.796911
5882.269257,0.765660
5882.956788,0.687531
5883.816203,0.859414
5884.659991,0.843789
5885.503780,0.843789
5886.222563,0.718783
5887.066351,0.843789
5887.863263,0.796911
5888.707052,0.843789
5889.535214,0.828163
5890.379003,0.843789
5891.144663,0.765660
5891.957200,0.812537
5892.972872,1.015671
5896.738669,0.828163
5897.598083,0.859414
5898.457498,0.859414
5899.285661,0.828163
5900.098198,0.812537
5900.926361,0.828163
5901.707647,0.781286
5902.457681,0.750034
5903.223341,0.765660
5904.004627,0.781286
5904.785913,0.781286
5905.535947,0.750034
5906.301607,0.765660
5907.051641,0.750034
5907.817301,0.765660
5908.536084,0.718783
5909.254867,0.718783
5909.973650,0.718783
5910.723684,0.750034
5911.489344,0.765660
5912.208127,0.718783
5912.989413,0.781286
5913.770699,0.781286
5914.567610,0.796911
5934.912292,0.890666
5935.709203,0.796911
5942.928283,0.781286
5943.725195,0.796911
5944.522106,0.796911
5945.334644,0.812537
5946.084678,0.750034
5946.819087,0.734409
5947.569121,0.750034
5948.334781,0.765660
5955.944504,0.687531
5956.647661,0.703157
5957.382070,0.734409
5958.085227,0.703157
5958.866513,0.781286
5959.679050,0.812537
5960.507213,0.828163
5961.272873,0.765660
5962.069785,0.796911
5962.772942,0.703157
5963.491725,0.718783
5964.226133,0.734409
5964.913665,0.687531
5965.632448,0.718783
5966.351231,0.718783
5967.085639,0.734409
5967.820048,0.734409
5968.523205,0.703157
5969.257614,0.734409
5970.023274,0.765660
6018.869260,0.734409
6019.634920,0.765660
6020.369328,0.734409
6021.103737,0.734409
6021.822520,0.718783
6022.556929,0.734409
6023.244460,0.687531
6023.947617,0.703157
6024.682026,0.734409
6025.432060,0.750034
6026.244597,0.812537
6027.135263,0.890666
6027.932175,0.796911
6028.744712,0.812537
6039.151438,0.687531
6039.854595,0.703157
6040.573378,0.718783
6041.292161,0.718783
6042.010944,0.718783
6042.651598,0.640654
6043.339130,0.687531
6044.026661,0.687531
6044.745444,0.718783
6045.479853,0.734409
6046.104882,0.625029
6046.808039,0.703157
6047.495570,0.687531
6048.245605,0.750034
6048.980013,0.734409
6049.698796,0.718783
6050.417579,0.718783
6051.167613,0.750034
6051.886396,0.718783
6052.683308,0.796911
6053.433342,0.750034
6054.230253,0.796911
6054.949036,0.718783
6055.699071,0.750034
6056.449105,0.750034
6057.214765,0.765660
6057.933548,0.718783
6058.714834,0.781286
6059.464868,0.750034
6060.230528,0.765660
6060.949311,0.718783
6061.714971,0.765660
6062.496257,0.781286
6063.293168,0.796911
6064.027577,0.734409
6064.808863,0.781286
6065.558897,0.750034
6066.308931,0.750034
6067.027714,0.718783
6067.793374,0.765660
6068.559034,0.765660
6069.387197,0.828163
6070.152857,0.765660
6070.949769,0.796911
6071.762306,0.812537
6072.574843,0.812537
6073.309252,0.734409
6074.090538,0.781286
6074.887449,0.796911
6075.715612,0.828163
6076.528149,0.812537
6077.340686,0.812537
6078.153224,0.812537
6078.965761,0.812537
6079.778298,0.812537
6080.543958,0.765660
6081.293992,0.750034
6082.044027,0.750034
6082.747184,0.703157
6083.450341,0.703157
6084.216001,0.765660
6085.091041,0.875040
6086.012958,0.921917
6086.856747,0.843789
6087.731787,0.875040
6088.606827,0.875040
6089.481867,0.875040
6090.263153,0.781286
6091.091316,0.828163
6091.919479,0.828163
6092.763267,0.843789
6093.544553,0.781286
6094.388342,0.843789
6095.232130,0.843789
6096.107170,0.875040
6096.919708,0.812537
6097.763496,0.843789
6098.591659,0.828163
6099.451073,0.859414
6100.216733,0.765660
6101.029271,0.812537
6101.857434,0.828163
6102.763725,0.906291
6103.591888,0.828163
6104.466928,0.875040
6105.341968,0.875040
6106.201382,0.859414
6106.982668,0.781286
6107.795205,0.812537
6108.592117,0.796911
6109.420280,0.828163
6110.264068,0.843789
6111.060980,0.796911
6111.967271,0.906291
6112.936066,0.968794
6113.904860,0.968794
6114.826777,0.921917
6115.764320,0.937543
6116.717489,0.953169
6117.686283,0.968794
6118.608200,0.921917
6119.545743,0.937543
6120.545789,1.000046
6121.545835,1.000046
6122.545881,1.000046
6123.592803,1.046923
6124.577224,0.984420
6125.467889,0.890666
6126.264801,0.796911
6127.030461,0.765660
6127.842998,0.812537
6128.749290,0.906291
6129.639955,0.890666
6130.577498,0.937543
6131.530667,0.953169
6132.358830,0.828163
6133.202618,0.843789
6134.030781,0.828163
6134.843318,0.812537
6135.593353,0.750034
6136.343387,0.750034
6137.062170,0.718783
6137.796579,0.734409
6138.499736,0.703157
6139.156016,0.656280
6139.843547,0.687531
6140.515453,0.671906
6141.249862,0.734409
6141.953019,0.703157
6142.687428,0.734409
6143.453088,0.765660
6144.265625,0.812537
6145.046911,0.781286
6145.875073,0.828163
6146.718862,0.843789
6147.484522,0.765660
6148.281434,0.796911
6149.062719,0.781286
6149.844005,0.781286
6150.562788,0.718783
6151.328448,0.765660
6152.109734,0.781286
6152.922271,0.812537
6153.672305,0.750034
6154.469217,0.796911
6155.266128,0.796911
6156.047414,0.781286
6156.766197,0.718783
6157.453728,0.687531
6158.141260,0.687531
6158.828791,0.687531
6159.485071,0.656280
6160.172603,0.687531
6160.891386,0.718783
6161.641420,0.750034
6162.422706,0.781286
6163.141489,0.718783
6163.907149,0.765660
6164.672809,0.765660
6165.454095,0.781286
6166.235380,0.781286
6166.938538,0.703157
6167.704198,0.765660
6168.438606,0.734409
6169.219892,0.781286
6169.923049,0.703157
6170.673084,0.750034
6171.438744,0.765660
6172.235655,0.796911
6173.048192,0.812537
6173.813852,0.765660
6174.595138,0.781286
6175.407675,0.812537
6176.204587,0.796911
6176.938995,0.734409
6177.673404,0.734409
6178.392187,0.718783
6179.110970,0.718783
6179.861004,0.750034
6180.611038,0.750034
6181.361073,0.750034
6182.204861,0.843789
6183.064276,0.859414
6183.861187,0.796911
6184.626847,0.765660
6185.408133,0.781286
6186.189419,0.781286
6186.970705,0.781286
6187.689487,0.718783
6188.455148,0.765660
6189.236433,0.781286
6190.017719,0.781286
6190.705251,0.687531
6191.455285,0.750034
6192.174068,0.718783
6192.939728,0.765660
6193.767891,0.828163
6194.580428,0.812537
6195.424217,0.843789
6196.283631,0.859414
6197.111794,0.828163
6197.861828,0.750034
6198.643114,0.781286
6199.424400,0.781286
6200.205685,0.781286
6200.924468,0.718783
6201.690128,0.765660
6202.502666,0.812537
6203.362080,0.859414
6204.174617,0.812537
6205.018406,0.843789
6205.862194,0.843789
6206.690357,0.828163
6207.456017,0.765660
6208.221677,0.765660
6209.002963,0.781286
6209.831126,0.828163
6210.768669,0.937543
6211.706212,0.937543
6212.565626,0.859414
6213.440666,0.875040
6214.300081,0.859414
6215.143869,0.843789
6216.003284,0.859414
6216.800195,0.796911
6217.597106,0.796911
6218.362767,0.765660
6219.128427,0.765660
6219.894087,0.765660
6220.644121,0.750034
6221.425407,0.781286
6222.253570,0.828163
6223.112984,0.859414
6223.941147,0.828163
6224.769310,0.828163
6225.613098,0.843789
6226.488138,0.875040
6227.300676,0.812537
6228.128839,0.828163
6228.941376,0.812537
6229.800790,0.859414
6230.707082,0.906291
6231.535244,0.828163
6232.410285,0.875040
6233.316576,0.906291
6234.332247,1.015671
6235.285416,0.953169
6236.207333,0.921917
6237.082373,0.875040
6237.879285,0.796911
6238.660571,0.781286
6239.473108,0.812537
6240.395025,0.921917
6241.301316,0.906291
6242.285737,0.984420
6243.348285,1.062549
6244.332705,0.984420
6245.223371,0.890666
6246.098411,0.875040
6246.895323,0.796911
6247.629731,0.734409
6248.379766,0.750034
6249.145426,0.765660
6250.004840,0.859414
6250.848629,0.843789
6251.848674,1.000046
6252.942474,1.093800
6253.989397,1.046923
6254.942566,0.953169
6255.880109,0.937543
6256.802026,0.921917
6257.692692,0.890666
6258.505229,0.812537
6259.333392,0.828163
6260.130303,0.796911
6260.927215,0.796911
6261.692875,0.765660
6262.458535,0.765660
6263.349201,0.890666
6264.349247,1.000046
6265.286789,0.937543
6266.224332,0.937543
6267.161875,0.937543
6268.083792,0.921917
6268.896330,0.812537
6269.724493,0.828163
6270.568281,0.843789
6271.396444,0.828163
6272.177730,0.781286
6273.005893,0.828163
6273.834056,0.828163
6274.630967,0.796911
6275.459130,0.828163
6276.318544,0.859414
6277.209210,0.890666
6277.927993,0.718783
6278.724905,0.796911
6279.490565,0.765660
6280.287476,0.796911
6281.037510,0.750034
6281.834422,0.796911
6282.646959,0.812537
6283.443871,0.796911
6284.162653,0.718783
6295.850688,0.671906
6296.538220,0.687531
6297.178874,0.640654
6297.803903,0.625029
6298.428931,0.625029
6299.038334,0.609403
6299.632112,0.593777
6300.225889,0.593777
6300.804040,0.578151
6301.366566,0.562526
6301.944717,0.578151
6302.538495,0.593777
6303.132272,0.593777
6303.741675,0.609403
6304.351078,0.609403
6304.976106,0.625029
6305.632386,0.656280
6306.319918,0.687531
6307.038701,0.718783
6307.819986,0.781286
6308.523144,0.703157
6309.241926,0.718783
6310.007586,0.765660
6310.773247,0.765660
6318.711110,0.812537
6319.523647,0.812537
6320.304933,0.781286
6321.070593,0.765660
6321.789376,0.718783
6322.461282,0.671906
6323.148813,0.687531
6323.836344,0.687531
6324.570753,0.734409
6325.289536,0.718783
6326.148950,0.859414
6327.008365,0.859414
6327.899030,0.890666
6328.664690,0.765660
6329.570982,0.906291
6330.430396,0.859414
6331.305436,0.875040
6332.164851,0.859414
6333.039891,0.875040
6333.883679,0.843789
6334.664965,0.781286
6335.493128,0.828163
6336.305665,0.812537
6337.149454,0.843789
6337.993243,0.843789
6338.790154,0.796911
6339.633943,0.843789
6340.540234,0.906291
6341.477777,0.937543
6342.352817,0.875040
6343.259109,0.906291
6344.165400,0.906291
6345.056066,0.890666
6345.899854,0.843789
6346.774894,0.875040
6347.665560,0.890666
6348.509349,0.843789
6349.290635,0.781286
6350.087546,0.796911
6350.962586,0.875040
6351.900129,0.937543
6352.822046,0.921917
6353.743963,0.921917
6354.712758,0.968794
6355.619049,0.906291
6356.431587,0.812537
6357.275375,0.843789
6358.134789,0.859414
6358.994204,0.859414
6359.853618,0.859414
6360.619278,0.765660
6361.431815,0.812537
6362.322481,0.890666
6370.088462,0.828163
6370.854122,0.765660
6371.651033,0.796911
6387.761146,0.968794
6388.714314,0.953169
6389.651857,0.937543
6390.636277,0.984420
6391.589446,0.953169
6392.542614,0.953169
6393.558286,1.015671
6394.511455,0.953169
6395.402120,0.890666
6396.370915,0.968794
6397.261580,0.890666
6398.183498,0.921917
6399.167918,0.984420
6400.199215,1.031297
6401.199261,1.000046
6402.183681,0.984420
6403.136849,0.953169
6404.074392,0.937543
6405.043187,0.968794
6406.090110,1.046923
6407.090155,1.000046
6408.152704,1.062549
6409.027744,0.875040
6409.949661,0.921917
6410.824701,0.875040
6411.793496,0.968794
6412.918547,1.125051
6413.949844,1.031297
6415.059270,1.109426
6416.153070,1.093800
6417.278122,1.125051
6431.591277,0.968794
6432.575697,0.984420
6433.591368,1.015671
6434.607040,1.015671
6435.732091,1.125051
6436.810266,1.078174
6437.935317,1.125051
6482.656114,0.734409
6483.406149,0.750034
6484.078054,0.671906
6484.812463,0.734409
6485.546872,0.734409
6486.343783,0.796911
6487.015689,0.671906
6487.703220,0.687531
6490.984621,0.765660
6491.812783,0.828163
6492.625321,0.812537
6493.562864,0.937543
6494.437904,0.875040
6505.547787,0.890666
6506.438453,0.890666
6507.250990,0.812537
6508.079153,0.828163
6508.891690,0.812537
6509.751105,0.859414
6510.641770,0.890666
6511.548062,0.906291
6512.423102,0.875040
6513.266891,0.843789
6514.095053,0.828163
6514.938842,0.843789
6515.813882,0.875040
6516.657671,0.843789
6517.517085,0.859414
6518.392125,0.875040
6519.251539,0.859414
6520.173457,0.921917
6521.204754,1.031297
6522.189174,0.984420
6523.220471,1.031297
6524.267394,1.046923
6525.142434,0.875040
6525.954971,0.812537
6526.783134,0.828163
6527.642549,0.859414
6528.564466,0.921917
6529.470757,0.906291
6530.486429,1.015671
6531.611480,1.125051
6532.642777,1.031297
6533.674075,1.031297
6534.705372,1.031297
6535.658540,0.953169
6536.580458,0.921917
6537.502375,0.921917
6538.346164,0.843789
6539.174326,0.828163
6540.049366,0.875040
6540.940032,0.890666
6541.893201,0.953169
6542.908872,1.015671
6543.846415,0.937543
6544.737081,0.890666
6545.627747,0.890666
6546.534038,0.906291
6547.424704,0.890666
6548.299744,0.875040
6549.221661,0.921917
6550.221707,1.000046
6551.237379,1.015671
6552.206173,0.968794
6553.143716,0.937543
6554.034382,0.890666
6554.862545,0.828163
6555.706333,0.843789
6556.534496,0.828163
6557.331408,0.796911
6558.128319,0.796911
6558.972108,0.843789
6559.831522,0.859414
6560.737813,0.906291
6561.722234,0.984420
6562.691028,0.968794
6563.581694,0.890666
6564.425482,0.843789
6565.284897,0.859414
6566.081808,0.796911
6566.863094,0.781286
6567.706882,0.843789
6568.566297,0.859414
6569.441337,0.875040
6570.316377,0.875040
6571.300797,0.984420
6572.316468,1.015671
6573.285263,0.968794
6574.285309,1.000046
6575.175974,0.890666
6576.066640,0.890666
6576.957306,0.890666
6577.785469,0.828163
6578.707386,0.921917
6579.551175,0.843789
6580.316835,0.765660
6581.082495,0.765660
6581.848155,0.765660
6589.645387,0.828163
6593.551816,0.828163
6594.348727,0.796911
6595.098761,0.750034
6595.880047,0.781286
6596.645707,0.765660
6597.411367,0.765660
6598.177027,0.765660
6598.927062,0.750034
6599.692722,0.765660
6600.474007,0.781286
6601.255293,0.781286
6602.005327,0.750034
6602.802239,0.796911
6603.599150,0.796911
6604.364810,0.765660
6605.114845,0.750034
6605.849253,0.734409
6606.630539,0.781286
6607.505579,0.875040
6608.427496,0.921917
6609.302536,0.875040
6610.224454,0.921917
6611.130745,0.906291
6612.037037,0.906291
6612.912077,0.875040
6613.802742,0.890666
6614.630905,0.828163
6615.490320,0.859414
6616.365360,0.875040
6617.302903,0.937543
6618.224820,0.921917
6619.193614,0.968794
6620.146783,0.953169
6621.053074,0.906291
6621.912489,0.859414
6622.740652,0.828163
6623.521937,0.781286
6624.350100,0.828163
6625.256392,0.906291
6626.147058,0.890666
6627.053349,0.906291
6627.912763,0.859414
6628.787803,0.875040
6629.584715,0.796911
6630.428504,0.843789
6637.475701,1.046923
6638.506998,1.031297
6659.742345,0.906291
6660.617385,0.875040
6661.508051,0.890666
6662.320588,0.812537
6663.133126,0.812537
6663.898786,0.765660
6664.695697,0.796911
6665.523860,0.828163
6666.430151,0.906291
6667.336443,0.906291
6668.273986,0.937543
6669.211529,0.937543
6670.117820,0.906291
6670.930357,0.812537
6671.727269,0.796911
6672.508555,0.781286
6673.321092,0.812537
6674.243009,0.921917
6675.071172,0.828163
6675.821206,0.750034
6676.586866,0.765660
6677.352526,0.765660
6678.133812,0.781286
6678.961975,0.828163
6679.790138,0.828163
6697.962845,0.656280
6698.666002,0.703157
6720.823266,0.765660
6721.682681,0.859414
6722.557721,0.875040
