1.5198e+09,1.5198e+09
468.44,0.57815
469.12,0.67191
469.85,0.73441
470.47,0.62503
471.1,0.62503
471.66,0.56253
472.27,0.6094
472.83,0.56253
473.49,0.65628
474.15,0.65628
474.82,0.67191
475.49,0.67191
476.26,0.76566
477.05,0.79691
477.74,0.68753
478.65,0.90629
485.44,0.82816
486.15,0.70316
486.94,0.79691
487.62,0.67191
488.26,0.64065
497.49,0.81254
498.19,0.70316
498.85,0.65628
499.63,0.78129
566.54,0.89067
588.46,0.78129
600.29,0.75003
600.92,0.62503
601.61,0.68753
602.36,0.75003
603.06,0.70316
603.78,0.71878
604.53,0.75003
605.29,0.76566
606.11,0.81254
606.81,0.70316
607.56,0.75003
608.25,0.68753
608.92,0.67191
609.54,0.62503
610.25,0.70316
610.93,0.68753
611.7,0.76566
612.47,0.76566
613.17,0.70316
613.93,0.76566
614.7,0.76566
615.47,0.76566
616.17,0.70316
616.87,0.70316
617.61,0.73441
618.36,0.75003
619.12,0.76566
619.84,0.71878
620.53,0.68753
621.34,0.81254
622.08,0.73441
622.81,0.73441
623.51,0.70316
624.23,0.71878
624.95,0.71878
625.64,0.68753
626.33,0.68753
627.06,0.73441
627.84,0.78129
628.59,0.75003
629.29,0.70316
630.03,0.73441
630.78,0.75003
631.51,0.73441
632.23,0.71878
633,0.76566
633.76,0.76566
634.54,0.78129
635.36,0.81254
636.19,0.82816
636.95,0.76566
637.67,0.71878
638.37,0.70316
639.06,0.68753
639.79,0.73441
640.53,0.73441
641.29,0.76566
642.11,0.81254
642.95,0.84379
643.7,0.75003
659.19,0.71878
659.84,0.65628
660.58,0.73441
663.87,0.68753
664.5,0.62503
665.2,0.70316
665.94,0.73441
666.72,0.78129
667.42,0.70316
668.14,0.71878
668.86,0.71878
675.75,0.71878
688.63,0.68753
689.31,0.68753
690.06,0.75003
690.77,0.70316
707.11,0.67191
707.83,0.71878
708.56,0.73441
709.24,0.67191
710.02,0.78129
710.63,0.6094
711.25,0.62503
712,0.75003
717.25,0.73441
717.99,0.73441
752.27,0.6094
752.86,0.59378
753.46,0.59378
754.08,0.62503
754.68,0.59378
764.36,0.67191
765.07,0.70316
765.69,0.62503
766.44,0.75003
767.13,0.68753
767.79,0.65628
768.49,0.70316
796.99,0.78129
797.63,0.64065
819.07,0.6094
842.99,0.65628
843.6,0.6094
849.63,0.62503
850.32,0.68753
850.96,0.64065
851.59,0.62503
852.2,0.6094
857.15,0.67191
857.8,0.65628
858.46,0.65628
859.12,0.65628
859.8,0.68753
860.48,0.67191
861.15,0.67191
861.84,0.68753
862.54,0.70316
863.18,0.64065
863.85,0.67191
864.51,0.65628
865.18,0.67191
865.84,0.65628
866.49,0.65628
867.13,0.64065
867.77,0.64065
868.37,0.59378
869.04,0.67191
869.87,0.82816
873.29,0.68753
873.95,0.65628
883.63,0.65628
884.27,0.64065
884.88,0.6094
885.49,0.6094
951.17,0.64065
951.86,0.68753
952.56,0.70316
953.22,0.65628
953.89,0.67191
954.57,0.68753
955.26,0.68753
955.86,0.59378
960.4,0.62503
961.06,0.65628
961.7,0.64065
962.29,0.59378
963.04,0.75003
966.36,0.67191
967.09,0.73441
967.76,0.67191
968.37,0.6094
969.03,0.65628
969.7,0.67191
970.29,0.59378
970.89,0.59378
971.51,0.62503
972.2,0.68753
972.9,0.70316
973.62,0.71878
974.28,0.65628
983.58,0.70316
984.23,0.65628
995.67,0.70316
996.31,0.64065
1010.7,0.59378
