,Binary,Multiclass
2018-03-08 09:06:40,-1.0,-1.0
2018-03-08 09:06:45,1.0,1.0
2018-03-08 09:06:50,1.0,1.0
2018-03-08 09:06:55,1.0,1.0
2018-03-08 09:07:00,1.0,1.0
2018-03-08 09:07:05,1.0,1.0
2018-03-08 09:07:10,1.0,1.0
2018-03-08 09:07:15,1.0,1.0
2018-03-08 09:07:20,1.0,1.0
2018-03-08 09:07:25,1.0,1.0
2018-03-08 09:07:30,1.0,1.0
2018-03-08 09:07:35,1.0,1.0
2018-03-08 09:07:40,1.0,1.0
2018-03-08 09:07:45,1.0,1.0
2018-03-08 09:07:50,1.0,1.0
2018-03-08 09:07:55,1.0,1.0
2018-03-08 09:08:00,1.0,1.0
2018-03-08 09:08:05,1.0,1.0
2018-03-08 09:08:10,1.0,1.0
2018-03-08 09:08:15,1.0,1.0
2018-03-08 09:08:20,1.0,1.0
2018-03-08 09:08:25,1.0,1.0
2018-03-08 09:08:30,1.0,1.0
2018-03-08 09:08:35,1.0,1.0
2018-03-08 09:08:40,1.0,1.0
2018-03-08 09:08:45,1.0,1.0
2018-03-08 09:08:50,1.0,1.0
2018-03-08 09:08:55,1.0,1.0
2018-03-08 09:09:00,1.0,1.0
2018-03-08 09:09:05,1.0,1.0
2018-03-08 09:09:10,1.0,1.0
2018-03-08 09:09:15,1.0,1.0
2018-03-08 09:09:20,1.0,1.0
2018-03-08 09:09:25,1.0,1.0
2018-03-08 09:09:30,1.0,1.0
2018-03-08 09:09:35,1.0,1.0
2018-03-08 09:09:40,1.0,1.0
2018-03-08 09:09:45,1.0,1.0
2018-03-08 09:09:50,1.0,1.0
2018-03-08 09:09:55,1.0,1.0
2018-03-08 09:10:00,1.0,1.0
2018-03-08 09:10:05,1.0,1.0
2018-03-08 09:10:10,1.0,1.0
2018-03-08 09:10:15,1.0,1.0
2018-03-08 09:10:20,1.0,1.0
2018-03-08 09:10:25,1.0,1.0
2018-03-08 09:10:30,1.0,1.0
2018-03-08 09:10:35,1.0,1.0
2018-03-08 09:10:40,1.0,1.0
2018-03-08 09:10:45,1.0,1.0
2018-03-08 09:10:50,1.0,1.0
2018-03-08 09:10:55,1.0,1.0
2018-03-08 09:11:00,1.0,1.0
2018-03-08 09:11:05,1.0,1.0
2018-03-08 09:11:10,1.0,1.0
2018-03-08 09:11:15,1.0,1.0
2018-03-08 09:11:20,1.0,1.0
2018-03-08 09:11:25,1.0,1.0
2018-03-08 09:11:30,1.0,1.0
2018-03-08 09:11:35,1.0,1.0
2018-03-08 09:11:40,1.0,1.0
2018-03-08 09:11:45,1.0,1.0
2018-03-08 09:11:50,1.0,1.0
2018-03-08 09:11:55,1.0,1.0
2018-03-08 09:12:00,1.0,1.0
2018-03-08 09:12:05,1.0,1.0
2018-03-08 09:12:10,1.0,1.0
2018-03-08 09:12:15,1.0,1.0
2018-03-08 09:12:20,1.0,1.0
2018-03-08 09:12:25,1.0,1.0
2018-03-08 09:12:30,1.0,1.0
2018-03-08 09:12:35,1.0,1.0
2018-03-08 09:12:40,-1.0,1.0
