1.5204e+09,1.5204e+09
1723.1,0.65628
1723.7,0.6094
1724.5,0.78129
1740.5,0.67191
1741.2,0.64065
1741.8,0.67191
1742.4,0.59378
1743.1,0.70316
1747.6,0.70316
1748.2,0.62503
1748.9,0.67191
1749.5,0.67191
1750.1,0.6094
1750.8,0.65628
1751.4,0.57815
1752,0.64065
1752.7,0.64065
1753.3,0.62503
1753.9,0.62503
1754.6,0.67191
1755.3,0.70316
