,EDA,rise_time,max_deriv,amp,decay_time,SCR_width,AUC
2018-03-09 12:53:46.500000,1.2641,4.0,0.021592777889384962,0.04610000000000003,1.125,2.5,0.11525000000000007
2018-03-09 12:53:58.625000,1.6252,4.0,0.06396189261498364,0.22025000000000006,,,
2018-03-09 12:54:01.750000,1.5727,1.25,0.04074281218675324,0.039699999999999847,0.5,1.625,0.06451249999999975
2018-03-09 12:54:09.375000,1.4312,1.0,0.05024147689355374,0.02110000000000012,,,
2018-03-09 12:54:11.875000,1.6303,4.0,0.0660273876376074,0.17090000000000005,1.0,2.5,0.42725000000000013
2018-03-09 12:54:18,1.9209,4.0,0.14318174956970786,0.3841000000000001,1.625,3.125,1.2003125000000003
2018-03-09 12:54:26,1.8313,4.0,0.041884484916511866,0.16389999999999993,1.125,2.875,0.4712124999999998
