1.5186e+09,1.5186e+09,1.5186e+09
32,32,32
-51,-7,42
-50,-7,42
-47,-7,44
-54,-6,40
-50,-6,41
-49,-6,42
-55,-6,39
-55,-6,38
-53,-6,39
-51,-6,40
-54,-6,40
-51,-6,40
-53,-6,40
-51,-6,41
-53,-6,40
-53,-6,40
-52,-6,41
-53,-6,40
-52,-6,40
-52,-6,40
-53,-6,39
-53,-6,40
-51,-6,40
-51,-6,41
-50,-7,41
-52,-7,41
-52,-7,41
-52,-7,41
-53,-7,41
-50,-7,42
-52,-7,40
-50,-7,43
-48,-7,43
-49,-7,42
-49,-7,42
-46,-8,47
-49,-7,42
-50,-7,42
-46,-7,46
-44,-8,48
-46,-7,46
-42,-7,50
-42,-7,52
-45,-7,50
-41,-7,53
-42,-7,48
-40,-8,55
-41,-8,54
-37,-7,55
-35,-8,50
-40,-10,56
-32,-6,60
-26,-7,54
-35,-8,51
-37,-9,57
-27,-7,61
-25,-8,51
-32,-8,55
-29,-7,60
-28,-8,59
-29,-7,58
-26,-7,58
-31,-7,56
-28,-8,60
-27,-8,57
-28,-8,58
-27,-8,60
-27,-8,58
-28,-8,56
-26,-8,59
-28,-8,58
-27,-8,58
-27,-8,58
-29,-8,58
-26,-8,59
-26,-7,59
-26,-8,59
-27,-8,59
-27,-8,60
-28,-8,58
-27,-8,59
-26,-8,59
-26,-8,59
-27,-8,59
-26,-8,59
-26,-7,58
-27,-7,58
-27,-8,60
-26,-7,58
-26,-8,57
-27,-7,59
-27,-7,60
-26,-7,58
-27,-8,60
-27,-8,60
-26,-7,57
-27,-8,59
-27,-8,59
-26,-7,59
-25,-7,58
-28,-8,59
-27,-7,59
-27,-7,58
-26,-7,59
-28,-7,59
-27,-6,60
-26,-6,59
-27,-5,58
-26,-6,59
-28,-6,59
-28,-6,58
-28,-7,59
-27,-8,59
-28,-8,58
-28,-8,59
-28,-8,59
-27,-8,58
-28,-9,58
-27,-9,59
-26,-8,57
-27,-8,59
-26,-7,58
-27,-7,57
-27,-7,60
-27,-6,60
-27,-6,58
-26,-6,60
-27,-6,59
-27,-6,58
-25,-7,59
-26,-7,59
-26,-6,58
-25,-7,59
-26,-6,60
-25,-6,60
-26,-6,59
-25,-6,61
-25,-6,59
-23,-6,60
-25,-6,60
-23,-6,58
-23,-7,60
-24,-6,60
-24,-6,60
-23,-6,60
-23,-6,61
-24,-6,60
-22,-6,60
-22,-6,60
-22,-6,61
-22,-6,60
-22,-6,60
-21,-6,61
-21,-6,61
-20,-6,61
-20,-6,61
-20,-6,61
-20,-6,62
-20,-6,61
-20,-6,61
-20,-6,62
-20,-6,62
-19,-6,61
-19,-6,61
-20,-6,62
-19,-6,62
-19,-6,61
-19,-6,61
-20,-6,61
-19,-6,61
-19,-6,61
-20,-6,61
-20,-6,61
-20,-6,61
-19,-6,61
-20,-6,62
-19,-6,61
-20,-6,62
-19,-6,61
-20,-6,61
-19,-6,61
-20,-6,61
-20,-6,61
-20,-6,61
-20,-6,61
-20,-6,61
-20,-6,62
-20,-6,61
-20,-6,61
-20,-6,61
-20,-6,61
-20,-6,61
-20,-6,62
-20,-6,61
-20,-6,61
-20,-6,61
-20,-6,61
-20,-6,60
-20,-6,61
-20,-6,61
-20,-6,61
-21,-6,61
-20,-6,62
-20,-6,61
-21,-6,62
-20,-6,61
-20,-6,61
-20,-6,61
-20,-6,61
-20,-6,61
-20,-6,61
-20,-6,61
-20,-6,61
-22,-6,61
-20,-6,61
-20,-6,62
-21,-6,62
-21,-6,60
-21,-6,61
-21,-6,61
-20,-6,61
-20,-6,61
-21,-6,61
-21,-6,61
-21,-6,61
-20,-6,61
-20,-6,61
-22,-6,61
-21,-6,61
-20,-5,60
-20,-6,60
-22,-6,62
-21,-6,61
-20,-6,60
-21,-6,62
-21,-6,62
-20,-6,61
-20,-6,60
-20,-6,62
-21,-6,61
-21,-6,60
-21,-6,61
-21,-6,61
-20,-6,61
-20,-6,61
-21,-6,61
-21,-6,61
-20,-6,60
-21,-6,62
-21,-6,61
-21,-6,61
-21,-6,61
-20,-6,62
-21,-5,61
-21,-5,61
-21,-5,61
-21,-5,61
-21,-5,61
-20,-5,61
-21,-5,60
-21,-5,61
-21,-5,61
-22,-5,61
-22,-5,60
-20,-5,61
-22,-5,62
-23,-5,60
-22,-5,61
-22,-5,61
-23,-5,60
-22,-5,61
-22,-6,62
-23,-5,61
-22,-6,61
-24,-5,61
-23,-5,61
-22,-5,60
-23,-5,60
-23,-5,60
-22,-4,60
-23,-5,60
-23,-5,61
-25,-5,60
-23,-5,61
-24,-5,60
-24,-4,61
-25,-4,60
-25,-4,59
-25,-4,60
-25,-4,60
-24,-4,59
-24,-4,59
-25,-4,60
-25,-4,60
-25,-4,60
-25,-4,61
-25,-4,60
-24,-4,60
-25,-4,60
-24,-4,60
-24,-4,60
-24,-4,59
-25,-4,59
-25,-4,59
-26,-4,59
-26,-4,59
-27,-4,58
-30,-4,58
-30,-4,57
-32,-5,59
-32,-5,58
-32,-4,57
-32,-4,57
-31,-4,58
-31,-4,57
-32,-4,56
-33,-4,56
-33,-4,55
-35,-3,55
-36,-4,54
-36,-4,54
-40,-3,53
-39,-4,53
-39,-2,53
-42,-4,52
-41,-3,51
-41,-3,51
-40,-3,52
-40,-3,51
-41,-3,51
-40,-3,52
-41,-4,52
-42,-3,49
-43,-2,49
-42,-2,51
-42,-2,50
-42,-1,49
-44,-2,50
-43,-1,49
-45,-1,47
-46,-1,47
-50,-1,43
-52,0,42
-53,0,40
-53,2,39
-53,2,42
-55,1,39
-55,1,37
-55,1,38
-59,-1,44
-55,-1,41
-56,3,26
-56,-2,41
-50,-1,52
-42,4,36
-49,-1,43
-46,0,51
-38,2,45
-41,-2,51
-39,-1,58
-32,0,54
-30,-1,50
-36,-3,62
-27,-2,58
-30,-2,54
-33,-3,61
-31,-2,60
-25,-3,56
-32,-3,56
-32,-2,58
-30,-4,58
-32,-2,58
-34,-3,58
-25,-1,59
-30,-3,57
-28,-4,58
-30,-3,60
-23,-3,59
-24,-4,61
-25,-4,59
-25,-4,60
-27,-4,59
-22,-2,60
-23,-5,57
-27,-4,57
-29,-4,51
-49,-5,40
-47,-4,39
-65,-5,30
-56,-8,27
-62,-6,25
-76,-4,18
-70,-4,16
-61,-7,10
-64,-5,6
-62,-7,5
-74,-5,-7
-65,-4,-6
-64,-4,-8
-69,-4,-9
-65,-2,-14
-63,-4,-7
-65,-3,-9
-62,-2,-13
-57,-3,-8
-68,-5,-8
-68,-6,-12
-57,-9,-9
-64,-7,-14
-68,-5,-26
-63,-7,-13
-63,-7,-16
-66,-7,-19
-67,-6,-14
-68,-5,-17
-74,-8,-13
-65,-8,-4
-69,-11,16
-74,-9,12
-59,-7,7
-66,-11,10
-55,-11,18
-61,-8,4
-63,-7,1
-67,-7,-1
-64,-7,-2
-67,-7,0
-71,-6,-3
-69,-5,-12
-64,-6,-9
-62,-8,-5
-63,-9,2
-64,-8,-1
-66,-7,-6
-63,-7,-6
-61,-7,-12
-67,-7,-14
-62,-9,-10
-63,-7,-18
-68,-6,-22
-66,-6,-17
-64,-9,-18
-65,-6,-20
-54,-7,-5
-60,-7,-10
-71,-5,-15
-65,-6,-6
-63,-5,-11
-63,-6,-4
-67,-6,-4
-66,-5,-9
-62,-5,-8
-63,-5,-3
-65,-5,-5
-64,-5,-6
-63,-5,-6
-64,-5,-4
-65,-5,-6
-66,-5,-8
-66,-5,-7
-64,-5,-6
-65,-5,-7
-64,-4,-8
-65,-4,-9
-66,-5,-9
-65,-4,-10
-63,-4,-10
-64,-5,-9
-64,-4,-12
-64,-4,-10
-65,-4,-12
-64,-5,-10
-66,-5,-14
-64,-6,-8
-63,-5,-6
-66,-4,-10
-63,-4,-9
-62,-6,-8
-63,-4,-9
-63,-5,-12
-63,-4,-15
-66,-4,-12
-66,-5,-10
-65,-4,-10
-64,-5,-10
-67,-4,-14
-64,-6,-13
-63,-5,-8
-61,-5,-6
-65,-4,-12
-66,-5,-9
-62,-6,0
-64,-4,-6
-65,-4,-7
-60,-7,6
-61,-6,5
-66,-6,-1
-63,-7,4
-65,-6,-1
-67,-6,-4
-62,-7,-2
-62,-5,-2
-60,-3,-10
-64,-1,-14
-61,-1,-11
-60,-1,-9
-63,3,-22
-65,4,-25
-65,1,-16
-67,2,-17
-64,6,-27
-60,8,-20
-54,9,-17
-61,11,-29
-60,11,-30
-58,11,-24
-57,11,-23
-60,14,-29
-59,15,-28
-60,17,-28
-57,16,-29
-59,18,-32
-52,17,-30
-52,16,-29
-49,20,-35
-49,19,-33
-55,20,-34
-45,22,-33
-41,24,-35
-56,24,-37
-56,23,-30
-55,24,-30
-52,27,-25
-55,26,-24
-56,25,-21
-63,27,-23
-62,26,-17
-57,24,-4
-57,25,-2
-58,26,-6
-56,25,-5
-57,25,-3
-59,26,-6
-61,27,-10
-59,27,-7
-57,28,-7
-55,28,-6
-57,28,-7
-59,27,-8
-63,27,-7
-61,27,-6
-58,25,-4
-61,25,-5
-61,24,-5
-62,25,-6
-61,24,-6
-61,24,-5
-60,24,-6
-61,25,-9
-61,24,-9
-61,24,-7
-61,24,-7
-61,25,-8
-62,25,-9
-60,24,-6
-60,25,-8
-59,25,-8
-59,24,-7
-59,25,-8
-60,24,-9
-59,24,-8
-59,24,-10
-60,25,-10
-61,25,-11
-60,24,-11
-60,25,-11
-60,24,-12
-59,24,-12
-59,24,-12
-59,24,-12
-59,23,-12
-61,23,-11
-61,23,-11
-60,23,-12
-60,23,-12
-60,23,-13
-57,22,-15
-59,21,-15
-60,20,-14
-61,21,-13
-60,22,-14
-62,22,-13
-60,22,-12
-61,23,-12
-61,22,-14
-61,21,-15
-61,22,-15
-61,22,-15
-60,22,-16
-60,21,-16
-60,21,-16
-59,21,-15
-60,21,-15
-59,21,-15
-59,22,-16
-60,21,-14
-61,22,-14
-60,22,-15
-60,22,-15
-60,23,-15
-59,23,-15
-58,23,-14
-58,24,-15
-59,23,-15
-59,24,-14
-57,24,-14
-58,23,-14
-59,23,-14
-59,23,-14
-58,24,-13
-59,24,-14
-60,24,-15
-59,23,-14
-60,24,-15
-60,24,-15
-58,23,-14
-59,24,-14
-60,24,-15
-58,24,-15
-59,24,-15
-59,23,-15
-59,24,-15
-59,24,-16
-59,24,-15
-59,24,-16
-59,23,-16
-59,24,-16
-59,24,-15
-59,23,-15
-60,24,-16
-58,24,-15
-59,24,-17
-59,23,-15
-60,24,-16
-58,24,-16
-58,23,-16
-59,24,-17
-58,24,-16
-59,24,-16
-58,25,-16
-57,24,-16
-58,24,-16
-58,24,-16
-59,24,-17
-59,24,-16
-61,23,-16
-57,23,-14
-58,24,-14
-60,24,-15
-59,23,-13
-60,24,-12
-59,23,-12
-60,24,-12
-59,23,-11
-60,24,-12
-61,23,-12
-60,24,-12
-60,24,-12
-59,24,-12
-59,24,-13
-59,24,-12
-59,24,-13
-60,23,-13
-60,24,-13
-59,24,-12
-60,24,-13
-60,24,-12
-60,24,-12
-60,24,-13
-59,23,-12
-60,23,-13
-60,24,-12
-60,24,-12
-59,24,-12
-60,24,-13
-59,24,-13
-60,24,-13
-59,24,-13
-59,24,-13
-60,23,-13
-60,24,-13
-60,24,-13
-60,23,-12
-60,24,-13
-60,24,-13
-60,24,-13
-60,24,-13
-60,24,-13
-60,23,-12
-59,24,-13
-60,24,-13
-60,24,-13
-60,24,-13
-59,24,-13
-60,24,-13
-59,23,-12
-59,24,-13
-60,24,-13
-60,23,-13
-59,24,-13
-60,24,-13
-60,24,-12
-59,24,-13
-60,24,-13
-60,24,-13
-60,24,-13
-59,24,-13
-60,24,-12
-60,23,-13
-60,24,-13
-59,24,-13
-59,24,-13
-59,24,-13
-59,24,-13
-59,24,-13
-59,24,-13
-59,24,-13
-59,24,-13
-60,24,-13
-60,24,-13
-60,24,-13
-60,24,-13
-60,24,-13
-60,24,-13
-60,24,-13
-60,24,-13
-60,24,-13
-60,24,-13
-59,24,-13
-59,23,-13
-59,23,-13
-59,24,-14
-59,24,-13
-60,24,-14
-60,24,-13
-60,24,-12
-60,25,-13
-60,24,-13
-60,23,-13
-60,24,-12
-61,23,-13
-60,24,-12
-62,24,-12
-62,24,-10
-61,24,-8
-63,25,-9
-60,24,-4
-61,24,0
-58,24,0
-60,24,3
-60,24,7
-60,24,7
-62,24,7
-58,24,11
-62,24,14
-63,24,13
-70,24,13
-61,24,26
-59,25,26
-44,25,31
-41,25,27
-19,21,26
-20,20,33
-33,14,29
-53,8,6
-66,-2,-7
-76,2,-36
-86,2,-38
-75,8,-26
-75,-1,-20
-64,11,-57
-61,3,-28
-58,2,-39
-41,12,-64
-53,3,-51
-39,3,-36
-35,7,-54
-32,11,-57
-35,9,-53
-28,13,-68
-43,14,-65
-49,12,-61
-43,18,-67
-29,13,-46
-28,19,-39
-28,13,-23
-35,20,-28
-35,16,-17
-37,15,-18
-39,21,-31
-40,25,-51
-42,22,-48
-48,25,-41
-43,29,-42
-45,28,-37
-52,25,-35
-46,29,-41
-52,30,-31
-48,30,-30
-40,31,-39
-40,30,-41
-44,26,-34
-40,29,-39
-39,29,-37
-40,27,-34
-38,30,-42
-43,29,-41
-43,28,-37
-44,31,-39
-43,31,-40
-45,29,-38
-43,30,-37
-41,31,-39
-40,29,-40
-41,28,-38
-39,30,-41
-41,30,-40
-42,29,-37
-41,30,-37
-42,30,-37
-43,29,-36
-42,30,-39
-43,29,-37
-44,30,-36
-41,30,-40
-43,30,-39
-43,29,-37
-44,29,-37
-45,29,-36
-43,30,-38
-42,29,-37
-44,29,-35
-46,30,-35
-45,31,-35
-45,31,-36
-45,31,-36
-44,29,-31
-46,30,-33
-46,30,-34
-45,29,-34
-45,28,-32
-48,28,-32
-46,28,-30
-49,26,-30
-55,24,-28
-59,24,-27
-62,26,-26
-66,28,-26
-51,27,-23
-51,27,-12
-61,25,-5
-53,28,2
-51,29,0
-67,29,-2
-61,26,1
-56,28,9
-53,27,5
-70,25,-2
-66,24,-2
-61,23,1
-61,23,1
-47,24,-4
-55,20,-1
-74,20,-5
-56,26,-9
-71,26,-14
-65,28,-7
-58,27,-8
-63,27,-25
-53,22,-10
-61,20,-4
-65,24,-13
-78,23,-2
-63,27,-1
-48,22,8
-53,22,17
-53,24,19
-60,28,15
-58,27,15
-63,27,12
-62,27,11
-50,24,11
-54,28,3
-52,23,9
-53,26,5
-61,28,-19
-66,23,-5
-60,23,1
-63,30,-32
-58,28,-25
-57,25,-15
-58,23,-21
-57,24,-28
-60,24,-26
-56,25,-23
-55,24,-23
-59,24,-23
-59,26,-21
-56,26,-20
-57,27,-19
-55,28,-14
-63,24,-10
-63,26,-15
-61,25,-10
-51,26,-6
-59,24,2
-63,25,-1
-59,25,2
-60,27,1
-60,26,1
-60,25,10
-62,25,10
-64,26,8
-60,25,12
-64,26,11
-65,27,8
-56,26,17
-53,25,11
-53,29,1
-50,23,16
-55,23,9
-59,27,0
-62,26,5
-64,27,-3
-51,25,3
-73,26,-6
-56,27,7
-53,24,10
-64,27,-11
-65,25,-10
-64,26,-7
-64,28,-12
-58,24,-6
-64,27,-13
-65,28,-12
-51,28,-1
-56,27,-7
-61,27,-7
-60,27,-3
-58,27,-4
-63,27,-11
-59,27,-7
-60,26,-8
-62,27,-10
-58,27,-5
-59,26,-8
-62,27,-10
-55,27,-3
-62,27,-10
-60,27,-10
-59,27,-8
-58,26,-10
-61,27,-14
-59,26,-11
-59,25,-13
-63,26,-15
-59,26,-11
-57,27,-8
-64,27,-13
-58,27,-7
-53,26,-1
-58,27,-5
-58,27,-5
-60,27,-3
-60,27,-4
-59,27,-6
-60,27,-5
-60,27,-5
-60,27,-6
-59,27,-4
-60,27,-5
-60,27,-6
-60,27,-5
-59,27,-5
-60,27,-6
-59,27,-5
-59,28,-5
-59,27,-6
-58,27,-4
-59,27,-5
-62,27,-7
-60,27,-5
-60,27,-5
-59,28,-7
-60,27,-5
-60,27,-5
-59,27,-7
-60,27,-6
-60,27,-5
-60,27,-7
-59,27,-6
-59,27,-5
-59,27,-6
-60,27,-6
-59,27,-6
-59,27,-6
-60,27,-7
-60,27,-6
-60,27,-8
-60,27,-7
-59,27,-6
-60,27,-6
-59,27,-5
-60,27,-7
-60,27,-7
-59,27,-6
-60,27,-6
-59,27,-6
-60,27,-7
-60,27,-7
-59,27,-6
-59,27,-7
-59,27,-6
-59,28,-7
-60,27,-6
-60,28,-6
-59,27,-6
-59,27,-5
-59,27,-6
-60,27,-6
-59,27,-7
-60,27,-7
-60,27,-6
-60,27,-6
-59,27,-6
-60,27,-6
-59,27,-6
-59,27,-6
-59,27,-6
-60,27,-6
-59,27,-6
-60,27,-6
-60,27,-5
-59,27,-5
-60,27,-6
-59,27,-5
-60,28,-7
-60,27,-7
-59,27,-5
-60,27,-6
-59,27,-5
-59,27,-5
-58,27,-4
-60,27,-6
-60,27,-5
-59,28,-5
-60,28,-6
-59,27,-5
-59,27,-5
-59,27,-5
-59,27,-6
-59,27,-5
-60,27,-5
-60,27,-6
-59,27,-5
-59,27,-4
-59,28,-4
-60,28,-6
-59,28,-5
-59,27,-5
-59,27,-5
-59,27,-5
-59,27,-5
-59,27,-5
-59,27,-5
-59,27,-5
-60,27,-5
-59,28,-5
-59,28,-5
-60,28,-5
-59,28,-5
-59,27,-5
-59,27,-5
-60,27,-6
-59,27,-5
-59,27,-5
-61,27,-5
-60,27,-5
-58,28,-5
-59,27,-5
-60,27,-5
-60,28,-5
-59,28,-5
-60,27,-5
-59,28,-5
-59,27,-6
-60,27,-5
-60,27,-5
-60,27,-5
-59,27,-5
-59,27,-5
-60,27,-5
-60,27,-5
-59,27,-6
-58,28,-5
-59,28,-6
-60,27,-6
-60,27,-5
-60,27,-5
-59,27,-4
-60,27,-5
-59,27,-5
-59,27,-8
-60,27,-8
-59,27,-6
-59,27,-8
-59,28,-7
-59,28,-8
-59,29,-7
-59,28,-7
-59,28,-7
-60,28,-6
-59,28,-6
-60,29,-8
-58,29,-5
-58,28,-6
-60,28,-11
-59,29,-9
-58,27,-8
-58,27,-11
-59,26,-10
-57,25,-10
-59,25,-13
-58,26,-11
-58,26,-11
-62,27,-14
-61,27,-14
-58,27,-12
-58,27,-13
-57,28,-12
-57,28,-10
-57,28,-10
-58,28,-11
-57,29,-10
-59,29,-9
-59,30,-10
-59,29,-10
-58,29,-9
-58,29,-9
-58,29,-10
-58,29,-10
-57,28,-9
-59,28,-11
-58,28,-11
-57,28,-9
-58,28,-10
-59,28,-10
-58,28,-10
-58,28,-10
-58,28,-10
-57,28,-10
-59,28,-11
-59,28,-10
-58,28,-10
-59,28,-10
-59,28,-9
-59,28,-11
-58,29,-10
-57,28,-10
-57,28,-10
-58,28,-12
-59,28,-11
-59,29,-11
-57,28,-8
-58,28,-8
-59,29,-8
-58,28,-6
-58,28,-6
-60,29,-8
-59,29,-8
-58,29,-9
-58,29,-9
-59,28,-10
-59,28,-9
-57,28,-8
-59,28,-9
-58,28,-7
-59,28,-8
-58,28,-7
-59,27,-9
-59,28,-8
-60,28,-8
-58,29,-8
-58,29,-8
-59,29,-9
-59,29,-9
-60,29,-7
-60,29,-8
-59,27,-7
-58,25,-6
-59,26,-8
-57,26,-6
-57,26,-6
-59,27,-7
-57,27,-8
-57,28,-8
-57,28,-9
-59,28,-10
-63,27,-20
-63,29,-19
-59,28,-14
-62,27,-17
-65,29,-21
-53,26,-5
-56,27,-5
-60,27,-2
-53,27,5
-54,27,5
-56,27,5
-61,27,10
-57,26,10
-61,28,5
-61,27,11
-62,27,9
-61,28,6
-58,28,8
-59,27,6
-58,27,7
-59,26,7
-59,26,4
-63,26,5
-61,27,6
-59,28,3
-62,28,0
-61,28,0
-60,29,0
-60,29,2
-59,28,1
-60,29,-4
-57,27,4
-59,28,2
-58,27,3
-60,27,3
-58,25,5
-64,25,4
-55,25,5
-57,28,-1
-61,26,-6
-58,27,0
-56,26,-1
-54,28,-12
-60,27,-19
-57,26,-7
-60,27,-21
-52,28,-18
-67,24,-18
-61,25,-16
-64,23,-19
-61,24,-21
-62,21,-21
-58,22,-17
-59,20,-13
-60,22,-23
-59,23,-25
-58,18,-16
-58,19,-18
-59,26,-30
-59,23,-20
-61,22,-19
-56,25,-22
-55,25,-19
-60,24,-18
-62,22,-15
-50,28,-29
-53,28,-26
-46,27,-25
-50,27,-27
-53,28,-35
-48,30,-35
-44,29,-37
-46,27,-34
-43,27,-38
-44,23,-40
-38,23,-38
-43,21,-34
-38,25,-42
-46,22,-36
-44,21,-28
-57,25,-44
-48,27,-49
-46,22,-35
-53,29,-42
-40,28,-38
-48,24,-28
-49,26,-26
-48,27,-28
-52,24,-29
-51,25,-33
-57,23,-31
-50,23,-30
-48,21,-32
-52,21,-33
-51,20,-29
-50,22,-33
-52,23,-43
-48,23,-39
-47,20,-36
-48,21,-42
-46,22,-40
-49,21,-41
-44,21,-39
-45,21,-40
-46,21,-40
-46,20,-39
-50,20,-40
-52,20,-39
-60,20,-39
-55,20,-37
-65,22,-38
-58,22,-32
-60,19,-24
-53,24,-24
-49,26,-17
-59,24,-12
-53,25,-7
-57,25,-4
-58,28,-6
-57,25,-1
-67,26,0
-73,27,0
-60,30,4
-56,28,8
-60,28,11
-59,29,8
-61,28,11
-54,26,16
-52,27,13
-57,30,14
-51,26,18
-52,27,16
-58,30,15
-62,29,14
-52,29,17
-54,31,16
-51,31,14
-53,31,14
-56,32,12
-63,33,9
-59,31,12
-55,31,10
-58,31,9
-60,31,8
-62,31,7
-58,31,7
-57,30,7
-57,30,6
-59,30,5
-59,30,6
-58,29,4
-59,30,4
-58,30,6
-59,31,5
-59,30,5
-59,31,6
-58,31,7
-59,31,6
-59,30,6
-57,31,10
-59,31,7
-58,31,9
-57,31,12
-55,31,11
-56,30,12
-57,30,14
-57,31,14
-58,30,14
-56,30,16
-57,30,14
-58,30,14
-57,30,16
-57,30,15
-57,30,15
-56,30,16
-57,31,16
-57,30,15
-57,31,15
-57,31,15
-57,31,15
-56,31,15
-54,30,15
-56,31,13
-55,30,14
-57,29,12
-57,29,10
-56,30,9
-53,30,9
-54,27,2
-55,28,1
-56,26,-5
-61,27,-14
-67,26,-26
-61,27,-17
-56,26,-15
-58,26,-20
-60,26,-20
-59,27,-19
-56,27,-17
-58,27,-23
-56,27,-20
-53,27,-20
-55,27,-21
-56,27,-21
-54,27,-18
-55,27,-17
-55,27,-18
-56,27,-18
-52,27,-15
-54,26,-22
-53,27,-22
-57,25,-26
-63,25,-27
-65,27,-24
-50,30,-18
-47,28,-8
-66,27,-24
-71,27,-23
-47,29,0
-50,26,1
-55,27,-8
-57,26,-2
-57,26,2
-61,28,-5
-62,28,-7
-60,27,1
-58,27,0
-60,28,-2
-60,27,0
-60,27,0
-64,28,-1
-62,27,1
-60,28,2
-60,28,0
-58,28,5
-57,28,4
-57,29,3
-58,27,5
-59,28,6
-60,28,4
-60,28,6
-59,28,6
-59,28,6
-60,28,5
-61,28,4
-62,28,2
-59,28,5
-58,28,4
-61,28,1
-59,28,5
-58,29,5
-59,28,2
-59,28,4
-60,28,3
-59,28,5
-60,28,4
-58,29,4
-57,29,5
-57,29,5
-58,28,3
-59,29,-1
-63,28,-4
-62,28,-3
-58,27,-2
-58,27,-6
-62,27,-9
-60,27,-8
-60,27,-10
-61,27,-10
-59,27,-10
-57,27,-8
-59,27,-9
-59,27,-8
-58,26,-8
-61,27,-5
-61,27,-6
-65,27,-6
-59,27,-2
-59,28,-4
-61,27,-1
-63,27,-5
-58,27,-7
-55,25,1
-52,26,0
-50,25,2
-53,26,-4
-58,26,-11
-58,27,-24
-58,27,-26
-54,25,-26
-59,26,-33
-59,25,-33
-57,27,-33
-55,27,-29
-52,26,-31
-48,26,-29
-52,25,-24
-56,25,-26
-55,27,-26
-54,27,-26
-52,26,-20
-55,25,-27
-52,25,-27
-50,24,-28
-55,24,-30
-53,23,-26
-52,23,-26
-46,24,-29
-45,23,-26
-48,21,-31
-57,25,-34
-46,23,-27
-53,21,-33
-49,21,-38
-50,18,-36
-50,17,-44
-50,18,-42
-46,16,-41
-46,17,-46
-44,13,-42
-53,16,-45
-38,16,-41
-46,14,-43
-51,14,-49
-53,15,-48
-42,16,-50
-44,21,-48
-48,17,-40
-43,19,-45
-42,17,-40
-39,18,-42
-35,19,-44
-39,19,-48
-33,20,-49
-29,20,-51
-31,20,-52
-29,19,-53
-23,19,-60
-26,19,-56
-24,19,-54
-22,19,-56
-19,19,-55
-22,19,-55
-24,21,-56
-22,20,-55
-22,20,-58
-28,19,-58
-23,19,-53
-31,19,-58
-23,19,-58
-28,19,-57
-18,20,-50
-34,19,-55
-30,20,-50
-28,21,-49
-36,20,-52
-35,20,-50
-36,20,-46
-38,20,-48
-32,20,-43
-38,21,-47
-38,22,-47
-39,22,-45
-40,22,-46
-38,22,-42
-40,22,-41
-40,23,-45
-40,22,-44
-40,22,-43
-39,22,-44
-38,22,-44
-41,23,-48
-40,22,-44
-39,23,-46
-39,22,-46
-42,23,-44
-38,23,-42
-39,23,-41
-41,23,-46
-44,22,-41
-41,22,-41
-40,23,-45
-43,21,-43
-41,22,-44
-40,22,-46
-39,22,-41
-40,22,-43
-41,22,-45
-41,22,-44
-39,22,-45
-41,22,-45
-40,22,-44
-40,23,-46
-39,22,-45
-39,22,-44
-39,23,-45
-39,22,-44
-39,22,-45
-39,22,-46
-39,21,-45
-40,21,-46
-39,22,-45
-40,22,-45
-41,22,-46
-39,22,-45
-39,22,-44
-39,22,-45
-40,22,-45
-41,21,-45
-40,22,-45
-39,22,-44
-41,22,-44
-41,22,-45
-40,22,-44
-40,22,-44
-40,22,-44
-41,22,-45
-39,22,-43
-39,22,-46
-40,22,-44
-41,22,-44
-41,22,-44
-40,22,-44
-40,22,-45
-41,22,-44
-40,22,-44
-39,22,-45
-39,21,-44
-41,21,-44
-40,21,-45
-39,22,-45
-40,22,-46
-39,22,-46
-38,22,-46
-38,22,-46
-39,22,-46
-39,22,-45
-39,22,-46
-39,22,-45
-39,22,-45
-40,21,-46
-38,22,-45
-39,22,-46
-38,22,-45
-38,21,-46
-38,21,-46
-39,21,-46
-38,21,-45
-38,21,-46
-38,21,-47
-39,22,-48
-38,22,-47
-36,22,-47
-37,21,-46
-39,21,-47
-37,21,-46
-37,21,-46
-37,21,-45
-38,21,-49
-37,21,-48
-36,21,-46
-37,21,-47
-37,21,-48
-37,21,-47
-37,21,-48
-36,21,-47
-36,20,-47
-35,21,-49
-36,21,-49
-36,21,-48
-37,21,-49
-36,21,-49
-36,21,-49
-36,21,-49
-38,20,-49
-38,21,-49
-38,20,-47
-35,20,-47
-35,21,-46
-38,21,-47
-38,22,-47
-37,22,-47
-37,21,-47
-38,21,-47
-37,21,-48
-37,20,-47
-37,21,-47
-38,21,-48
-37,21,-47
-36,21,-47
-37,21,-47
-37,21,-47
-37,21,-47
-37,21,-48
-36,21,-47
-38,21,-48
-38,21,-48
-38,20,-46
-37,20,-47
-38,21,-47
-38,21,-48
-38,21,-48
-36,21,-47
-36,21,-47
-36,21,-47
-36,21,-47
-37,21,-48
-37,21,-47
-37,21,-47
-38,20,-47
-38,20,-47
-38,21,-47
-39,20,-47
-34,21,-48
-36,21,-48
-38,21,-48
-36,21,-47
-36,20,-48
-37,20,-47
-37,20,-48
-37,21,-47
-37,21,-47
-37,21,-47
-37,21,-48
-37,20,-48
-37,20,-48
-37,20,-47
-37,20,-48
-37,21,-47
-37,21,-47
-38,20,-48
-37,21,-48
-35,21,-47
-36,20,-47
-38,20,-48
-36,21,-48
-36,20,-48
-38,19,-46
-37,20,-49
-38,21,-49
-36,21,-47
-36,20,-48
-38,20,-48
-38,20,-47
-36,20,-48
-37,19,-47
-38,20,-48
-36,20,-47
-37,21,-48
-37,20,-48
-37,21,-49
-36,21,-48
-37,20,-48
-37,20,-48
-37,20,-47
-37,20,-47
-37,20,-48
-37,20,-47
-37,20,-48
-37,20,-48
-36,20,-47
-37,20,-49
-36,20,-48
-37,20,-48
-37,20,-49
-36,20,-48
-37,20,-49
-36,20,-50
-37,19,-47
-37,19,-47
-36,19,-49
-37,19,-48
-37,19,-49
-36,19,-48
-36,19,-48
-37,19,-49
-37,19,-49
-37,19,-48
-35,19,-49
-36,19,-49
-37,19,-50
-36,19,-49
-35,19,-47
-36,19,-49
-36,19,-50
-35,19,-48
-36,19,-50
-35,18,-48
-37,18,-50
-35,18,-50
-33,16,-47
-33,17,-52
-34,16,-49
-34,16,-46
-38,19,-55
-35,19,-52
-38,21,-54
-38,22,-57
-33,19,-49
-35,20,-59
-31,17,-43
-37,18,-59
-34,17,-55
-32,19,-54
-32,20,-55
-29,15,-43
-31,14,-49
-30,16,-54
-29,16,-50
-30,17,-51
-27,17,-53
-31,16,-51
-32,17,-56
-28,18,-59
-30,17,-52
-30,19,-56
-30,17,-53
-30,16,-50
-29,16,-55
-29,16,-53
-30,16,-52
-29,15,-50
-26,14,-54
-26,13,-55
-27,12,-56
-26,12,-56
-26,12,-55
-25,13,-57
-24,13,-56
-24,12,-57
-24,11,-57
-24,10,-58
-24,8,-57
-24,8,-58
-24,7,-58
-25,7,-58
-24,6,-58
-25,6,-58
-26,5,-57
-26,5,-59
-24,5,-57
-29,6,-55
-38,7,-57
-23,9,-55
-23,8,-55
-34,9,-54
-27,11,-59
-26,9,-56
-32,7,-50
-33,9,-51
-28,9,-58
-29,9,-54
-33,8,-51
-31,10,-56
-31,10,-56
-35,9,-52
-35,12,-55
-33,12,-55
-36,13,-57
-38,15,-62
-34,14,-53
-30,15,-52
-35,13,-50
-37,14,-50
-35,15,-53
-32,12,-40
-37,15,-53
-31,15,-52
-33,12,-49
-37,16,-48
-32,17,-46
-41,13,-66
-32,16,-49
-35,15,-51
-32,18,-56
-29,17,-53
-31,17,-52
-32,17,-53
-32,17,-51
-32,17,-56
-29,17,-55
-37,17,-56
-39,18,-59
-34,18,-49
-46,16,-57
-41,18,-46
-44,9,-41
-53,14,-59
-30,9,-30
-40,7,-32
-38,15,-46
-41,12,-46
-46,8,-32
-25,8,-18
-33,3,-21
-42,5,-55
-54,6,-51
-65,5,-27
-73,6,-35
-63,5,-41
-63,-7,-23
-60,-10,-22
-71,-20,-34
-74,-14,-53
-56,-20,-52
-57,-22,-45
-46,-26,-25
-45,-27,-20
-49,-26,-27
-59,-25,-41
-59,-23,-29
-41,-19,-26
-43,-11,-44
-55,-11,-47
-76,-11,-62
-68,-8,-53
-44,-18,-33
-67,-5,-43
-90,-11,-57
-75,-16,-46
-39,-10,-22
-62,-2,-2
-69,8,-16
-36,8,20
-41,12,25
-47,12,33
-46,18,28
-44,18,23
-58,19,20
-57,21,25
-46,24,30
-43,23,27
-51,26,30
-49,26,39
-56,26,38
-36,26,42
-50,27,39
-26,30,55
-13,28,60
-21,31,57
-4,27,60
-5,27,59
-1,23,64
5,19,64
-9,16,57
-3,15,61
-4,19,62
-5,21,58
-1,20,56
4,19,55
8,18,58
-4,20,57
3,19,60
5,17,61
0,17,60
-1,18,62
2,20,62
3,20,59
2,23,60
4,23,61
8,23,59
6,24,58
6,23,60
6,23,58
11,23,56
10,23,61
9,22,60
8,21,59
12,20,59
11,20,57
12,18,58
12,19,59
13,19,56
14,17,61
13,16,60
12,16,63
10,15,61
13,15,63
13,15,62
10,15,58
12,14,63
12,14,66
10,15,59
8,14,56
14,13,64
13,13,64
12,13,60
17,12,62
16,11,63
14,11,60
17,11,60
17,10,60
17,10,62
18,10,61
19,10,60
17,10,61
18,11,60
17,12,60
17,12,58
17,12,60
16,13,59
18,13,58
17,13,59
17,13,61
17,13,61
19,12,64
17,13,62
11,13,61
15,13,61
10,13,60
0,14,57
-1,14,58
9,13,66
9,14,64
5,13,61
0,14,65
0,14,65
-1,15,63
-3,14,60
-9,16,62
-7,15,66
-9,15,65
-20,15,56
-24,17,55
-26,17,55
-28,17,52
-32,17,51
-34,17,55
-36,17,53
-42,18,48
-43,17,47
-38,18,54
-34,18,55
-39,19,47
-41,20,46
-37,19,49
-46,17,41
-53,18,35
-50,19,39
-49,18,41
-49,18,40
-56,18,35
-55,18,36
-54,17,34
-54,18,35
-56,18,32
-59,18,29
-59,18,30
-58,18,31
-56,18,31
-53,18,33
-59,19,30
-34,19,50
-31,19,53
-39,19,49
-43,19,49
-45,20,48
-37,20,52
-35,19,53
-36,20,50
-38,20,47
-40,21,48
-37,19,47
-42,20,45
-44,20,42
-44,20,41
-41,20,40
-41,21,38
-57,19,24
-64,16,16
-64,15,18
-62,12,19
-69,10,14
-70,9,10
-71,8,7
-68,8,9
-77,7,6
-76,6,6
-64,7,14
-61,6,16
-64,6,18
-63,7,22
-70,9,17
-58,11,24
-59,12,24
-60,14,25
-57,13,27
-62,15,26
-46,16,39
-43,16,42
-57,17,32
-63,17,28
-48,19,43
-42,16,46
-42,18,44
-40,20,48
-38,19,47
-30,20,52
-31,20,52
-39,22,50
-36,20,51
-37,21,49
-35,21,50
-36,20,50
-32,19,53
-33,19,52
-34,19,53
-35,19,53
-35,20,50
-25,19,56
-21,18,58
-24,19,57
-25,19,55
-20,18,58
-14,18,63
-16,19,62
-19,18,58
-18,19,61
-13,18,64
-14,18,62
-22,18,56
-21,19,58
-12,19,63
-15,19,58
-19,19,57
-19,19,62
-15,19,62
-15,18,58
-17,19,59
-17,19,62
-17,18,59
-17,18,59
-18,19,60
-17,19,60
-15,19,59
-16,19,61
-17,18,60
-18,19,58
-17,19,58
-16,19,60
-17,19,60
-18,19,59
-17,19,60
-16,19,60
-20,19,58
-19,19,59
-14,19,61
-17,19,59
-19,19,58
-17,18,59
-16,19,58
-20,19,58
-20,18,59
-18,18,59
-19,19,58
-20,19,58
-20,18,58
-20,18,58
-20,17,60
-20,17,60
-21,17,58
-21,17,59
-21,16,60
-22,16,58
-22,16,59
-21,15,60
-23,16,59
-22,15,58
-22,15,59
-22,14,59
-23,14,59
-22,13,59
-23,14,60
-25,14,59
-23,14,60
-23,14,60
-25,14,59
-23,14,60
-24,14,59
-24,14,58
-24,14,59
-24,15,57
-23,15,58
-23,15,58
-25,15,58
-25,15,58
-25,15,58
-25,16,59
-25,16,58
-25,17,58
-25,17,58
-25,17,58
-25,17,58
-25,17,57
-25,17,57
-25,17,59
-26,17,57
-26,18,58
-25,18,59
-26,18,58
-26,18,58
-26,18,59
-26,17,57
-25,18,58
-25,17,59
-25,17,56
-24,18,57
-25,18,57
-25,18,57
-24,17,58
-25,18,57
-25,18,57
-25,18,57
-25,17,57
-25,18,57
-25,18,57
-24,18,57
-25,18,58
-26,17,58
-25,19,57
-25,19,57
-26,19,58
-25,18,58
-25,18,57
-25,18,58
-25,18,58
-24,18,57
-25,18,57
-24,17,58
-24,17,58
-25,17,58
-24,17,58
-25,18,58
-23,18,58
-24,18,57
-24,18,58
-25,18,57
-24,18,58
-25,18,57
-25,18,58
-23,17,58
-23,17,58
-24,17,58
-23,17,58
-24,18,57
-26,18,57
-23,18,58
-20,17,58
-21,18,58
-26,18,58
-23,17,58
-22,18,58
-22,17,58
-23,17,58
-24,17,58
-22,17,59
-22,17,59
-24,17,58
-23,17,59
-22,17,59
-23,17,58
-22,17,60
-22,17,59
-22,17,58
-21,17,58
-21,18,59
-23,18,58
-21,17,59
-20,17,59
-19,17,59
-19,17,60
-21,17,59
-18,17,60
-19,17,59
-16,17,61
-14,17,62
-16,16,60
-19,16,60
-18,17,61
-15,16,61
-12,16,61
-19,16,57
-16,17,62
-9,16,64
-13,16,58
-17,18,59
-7,17,66
-5,17,62
-6,17,62
-14,17,61
-11,17,63
-3,16,63
-5,16,63
-12,17,60
-16,17,61
-10,18,64
-11,17,61
-21,17,58
-20,17,60
-15,16,60
-19,18,57
-18,17,60
-17,18,62
-23,17,56
-26,18,56
-23,17,59
-21,16,59
-23,17,57
-25,17,59
-27,17,57
-24,18,57
-21,18,60
-22,17,59
-28,18,56
-29,18,56
-26,18,58
-24,17,57
-22,17,58
-28,17,56
-29,18,56
-27,18,56
-28,17,55
-27,17,57
-27,17,56
-29,17,56
-29,17,57
-29,17,56
-33,17,53
-35,17,54
-33,17,54
-31,18,54
-30,17,55
-32,18,55
-31,17,55
-29,17,56
-29,17,55
-31,18,54
-32,17,55
-31,17,55
-31,17,55
-31,17,54
-30,17,55
-31,17,55
-32,17,54
-31,17,56
-32,18,55
-31,18,55
-30,17,55
-31,17,55
-31,17,55
-31,17,55
-31,17,55
-30,18,56
-32,17,54
-34,17,53
-31,17,55
-29,16,56
-33,16,53
-36,17,53
-33,17,54
-32,16,54
-31,17,55
-32,16,55
-32,16,55
-34,17,54
-33,16,54
-33,16,54
-32,16,53
-32,17,54
-31,16,55
-30,17,55
-30,16,54
-31,16,55
-32,16,56
-31,16,55
-31,17,55
-30,17,55
-31,17,56
-31,17,55
-30,17,56
-31,16,55
-32,16,55
-33,17,55
-32,17,54
-31,16,55
-32,16,55
-35,17,53
-36,17,52
-32,16,54
-31,17,55
-32,17,54
-32,17,55
-33,17,55
-33,18,55
-34,18,54
-34,18,55
-32,18,56
-32,18,55
-34,17,54
-31,17,55
-30,16,55
-31,16,54
-31,16,54
-31,17,54
-31,16,55
-30,17,55
-30,17,55
-31,17,55
-29,17,56
-30,17,55
-30,18,56
-31,17,56
-30,16,56
-30,16,56
-31,16,55
-32,16,55
-29,17,55
-28,17,56
-26,17,57
-26,17,57
-26,17,57
-28,17,56
-28,17,57
-27,17,57
-28,18,56
-28,18,56
-27,17,57
-28,18,56
-27,18,57
-27,18,56
-35,19,52
-36,19,52
-33,19,55
-30,18,54
-31,18,55
-32,18,56
-36,18,53
-37,18,51
-34,18,54
-28,17,56
-36,17,51
-35,18,52
-34,17,53
-35,17,52
-36,18,52
-35,17,54
-36,17,52
-37,17,51
-35,17,53
-36,16,51
-38,16,50
-37,17,52
-35,16,53
-37,16,52
-39,16,51
-37,16,53
-36,17,51
-33,17,52
-34,17,52
-36,17,52
-38,17,51
-36,17,52
-36,17,52
-36,17,52
-36,17,52
-35,17,53
-35,17,52
-37,18,51
-37,17,52
-36,17,52
-36,17,53
-36,17,53
-36,17,53
-36,17,52
-35,17,53
-36,17,52
-35,17,53
-35,17,52
-35,17,52
-37,17,52
-35,17,53
-36,17,52
-36,17,52
-36,17,52
-35,17,52
-36,17,52
-36,17,52
-35,17,53
-35,17,52
-35,17,53
-35,17,53
-35,17,53
-35,17,53
-35,17,52
-36,18,53
-35,17,53
-35,17,52
-34,18,53
-35,17,52
-36,17,52
-36,17,52
-34,17,53
-34,18,54
-35,17,53
-35,17,53
-35,17,52
-34,17,53
-34,17,53
-36,17,53
-36,17,52
-33,17,54
-31,17,55
-32,17,55
-31,17,55
-31,18,55
-30,17,55
-30,17,55
-31,17,55
-32,17,54
-31,17,55
-31,17,55
-30,17,55
-32,18,55
-33,18,54
-28,17,56
-27,18,57
-26,17,57
-29,18,56
-29,18,56
-30,18,54
-28,18,55
-28,17,57
-29,18,56
-29,18,55
-30,18,56
-29,17,56
-29,17,55
-30,17,55
-30,18,56
-30,18,56
-29,17,55
-29,18,56
-29,18,56
-30,18,56
-30,18,55
-30,17,56
-30,17,55
-30,17,55
-29,18,56
-29,17,56
-31,18,55
-29,17,56
-30,18,56
-30,18,55
-31,18,56
-30,18,56
-30,18,55
-30,17,55
-30,18,55
-29,18,55
-31,18,55
-28,18,56
-30,18,56
-30,18,56
-30,18,54
-29,18,56
-29,18,55
-29,18,56
-29,18,55
-29,18,57
-30,17,55
-33,18,53
-35,18,53
-33,17,54
-33,18,55
-32,18,54
-35,18,53
-34,18,52
-30,18,56
-31,17,54
-37,18,51
-33,18,54
-30,18,56
-38,18,49
-38,19,51
-37,18,51
-36,19,50
-38,19,50
-40,18,49
-38,18,51
-40,18,48
-40,18,47
-41,19,48
-44,19,46
-45,19,46
-40,18,50
-41,18,48
-41,19,47
-42,18,47
-41,18,48
-42,19,48
-44,19,47
-43,18,46
-43,18,46
-42,18,48
-43,18,46
-43,19,45
-42,19,47
-39,18,49
-42,18,46
-43,19,46
-40,19,51
-39,18,50
-41,19,47
-40,19,48
-39,18,51
-41,19,47
-41,19,48
-39,19,49
-38,19,50
-38,19,49
-39,19,50
-39,19,50
-37,19,50
-37,18,49
-37,19,51
-38,19,50
-37,19,51
-36,18,52
-38,19,51
-38,19,51
-38,19,50
-33,18,53
-32,18,54
-36,18,51
-33,18,54
-33,18,53
-36,18,52
-36,19,52
-32,18,54
-31,18,54
-31,18,54
-29,18,55
-27,18,55
-33,18,53
-36,18,51
-45,18,48
-46,18,47
-43,18,47
-38,18,50
-39,19,49
-42,19,47
-41,19,48
-42,18,48
-41,19,48
-39,19,49
-39,18,50
-41,19,49
-41,18,48
-42,19,47
-41,17,46
-42,18,47
-42,18,47
-42,18,46
-41,18,48
-42,17,46
-46,17,45
-46,18,46
-46,19,45
-41,18,46
-33,19,52
-30,17,55
-27,17,56
-28,18,57
-28,17,59
-30,18,58
-28,17,56
-28,18,56
-27,17,56
-26,18,57
-28,18,56
-27,18,56
-26,18,57
-26,18,57
-24,17,57
-26,18,57
-24,17,58
-24,18,58
-22,17,58
-21,17,59
-23,17,58
-21,18,59
-17,17,62
-16,17,60
-19,17,58
-24,17,58
-18,17,61
-16,17,58
-19,17,60
-22,18,60
-24,17,58
-25,18,57
-21,18,60
-22,18,58
-23,18,57
-23,18,58
-22,18,59
-22,18,58
-23,17,57
-22,18,60
-22,18,58
-23,17,57
-22,17,59
-23,17,59
-23,17,57
-22,18,58
-23,17,58
-23,17,58
-23,18,58
-23,17,58
-23,18,58
-24,18,58
-23,18,59
-24,18,59
-23,18,58
-22,18,58
-23,18,58
-23,17,57
-23,17,58
-22,17,59
-24,17,57
-22,18,59
-22,17,58
-24,18,58
-23,17,58
-24,18,58
-23,17,58
-24,18,57
-23,17,57
-23,17,58
-19,17,60
-20,17,59
-20,17,60
-23,18,58
-18,17,60
-17,18,61
-18,17,61
-21,18,59
-21,18,60
-22,17,58
-20,17,58
-20,17,59
-21,17,58
-21,17,58
-21,17,60
-21,18,59
-21,17,59
-21,17,59
-21,18,60
-21,18,59
-20,18,59
-21,18,59
-21,17,59
-21,18,59
-21,17,59
-21,18,59
-21,18,58
-20,17,58
-21,17,59
-22,18,58
-21,18,59
-21,17,59
-21,18,59
-21,18,59
-21,17,59
-21,18,59
-20,17,58
-20,18,59
-22,18,59
-21,17,58
-20,18,59
-21,18,59
-22,18,58
-21,17,59
-21,18,59
-22,18,59
-21,18,59
-20,17,59
-21,17,58
-21,18,59
-21,18,59
-20,17,58
-21,18,59
-21,17,58
-20,18,58
-18,17,59
-24,18,56
-26,18,56
-25,19,59
-19,16,60
-26,18,56
-35,18,55
-33,18,55
-25,19,53
-32,19,50
-34,19,51
-36,19,43
-36,19,44
-39,16,40
-41,16,37
-47,17,33
-52,16,30
-53,20,28
-58,19,25
-59,19,24
-63,26,16
-60,27,17
-55,25,21
-68,31,13
-63,29,14
-55,28,15
-61,28,12
-66,30,5
-55,30,7
-59,30,2
-64,32,-5
-60,33,-6
-55,31,-5
-59,31,-7
-63,32,-13
-63,32,-14
-60,32,-11
-57,32,-17
-56,32,-19
-58,31,-22
-57,30,-24
-54,30,-26
-51,30,-25
-54,30,-29
-50,29,-27
-54,29,-27
-50,28,-25
-50,25,-19
-52,21,-17
-55,23,-21
-59,25,-29
-54,24,-24
-54,23,-24
-55,22,-25
-55,23,-22
-54,21,-24
-56,21,-27
-57,22,-27
-58,22,-24
-57,22,-20
-58,22,-19
-57,22,-23
-64,20,-21
-61,22,-19
-58,20,-18
-60,20,-16
-61,20,-16
-62,23,-13
-63,23,-14
-56,22,-12
-59,22,-12
-58,23,-13
-56,22,-11
-52,24,-14
-58,24,-17
-57,23,-15
-61,22,-22
-55,24,-20
-49,22,-19
-57,22,-27
-54,22,-32
-51,20,-35
-48,20,-34
-45,20,-39
-43,21,-46
-46,21,-49
-42,20,-45
-42,20,-44
-41,21,-45
-41,20,-46
-38,20,-46
-38,19,-46
-35,19,-45
-35,17,-49
-37,18,-52
-34,17,-51
-34,18,-52
-31,17,-53
-30,18,-55
-30,19,-55
-30,19,-54
-31,19,-55
-28,20,-57
-24,21,-58
-29,20,-61
-27,19,-52
-22,20,-51
-21,19,-58
-21,19,-58
-20,18,-53
-19,19,-55
-20,19,-54
-22,19,-51
-19,19,-49
-23,22,-57
-21,22,-58
-20,21,-55
-21,21,-57
-20,21,-57
-20,19,-54
-19,20,-55
-19,19,-57
-20,19,-59
-21,16,-55
-20,17,-57
-20,17,-58
-22,16,-56
-21,16,-54
-22,17,-59
-22,16,-58
-26,15,-55
-24,15,-56
-26,16,-61
-29,13,-53
-31,13,-49
-34,15,-54
-32,15,-54
-31,14,-51
-36,14,-55
-34,14,-53
-32,14,-52
-33,14,-53
-33,14,-54
-35,14,-50
-36,15,-50
-34,16,-50
-32,16,-52
-37,16,-51
-35,15,-50
-37,16,-49
-40,15,-47
-41,16,-50
-40,16,-46
-42,15,-42
-43,14,-35
-48,17,-39
-45,17,-37
-44,17,-37
-51,18,-47
-45,18,-43
-46,18,-42
-46,17,-34
-46,16,-34
-49,18,-43
-47,17,-43
-44,15,-37
-40,17,-40
-42,17,-44
-39,17,-46
-36,17,-48
-31,16,-53
-30,16,-58
-26,15,-56
-23,15,-56
-23,15,-57
-22,14,-56
-23,14,-57
-17,14,-58
-17,14,-58
-17,15,-59
-16,14,-59
-16,13,-58
-14,12,-59
-15,12,-60
-15,11,-61
-14,11,-62
-14,12,-62
-16,12,-62
-14,12,-60
-15,12,-60
-16,12,-61
-13,12,-60
-16,11,-58
-16,12,-59
-15,12,-60
-15,12,-60
-16,12,-58
-17,12,-59
-16,12,-60
-17,12,-60
-17,12,-59
-17,12,-59
-17,13,-60
-19,13,-59
-19,12,-57
-20,12,-59
-21,12,-60
-21,12,-58
-22,14,-59
-23,13,-58
-26,13,-56
-27,13,-55
-26,14,-55
-28,13,-52
-29,13,-52
-29,14,-56
-28,14,-55
-29,14,-55
-30,13,-55
-30,13,-55
-30,13,-53
-30,13,-53
-29,15,-54
-29,15,-54
-29,15,-53
-29,14,-54
-29,14,-56
-30,13,-54
-30,13,-54
-29,13,-55
-29,13,-55
-29,13,-54
-29,13,-54
-29,13,-54
-28,13,-55
-28,13,-55
-28,13,-55
-26,13,-55
-26,13,-54
-28,14,-56
-29,14,-57
-26,13,-56
-27,13,-56
-27,14,-55
-27,14,-56
-27,14,-56
-27,13,-55
-27,13,-55
-27,13,-55
-27,13,-55
-27,14,-55
-28,13,-56
-28,13,-56
-30,14,-55
-29,13,-55
-27,14,-54
-28,14,-55
-30,15,-56
-28,14,-53
-29,14,-52
-31,14,-54
-30,14,-54
-33,14,-56
-32,13,-55
-32,13,-51
-37,13,-53
-39,13,-52
-37,15,-48
-32,15,-42
-43,15,-50
-43,15,-51
-39,16,-48
-36,15,-44
-43,15,-44
-40,17,-48
-44,16,-47
-43,17,-39
-44,16,-39
-44,17,-48
-45,15,-42
-44,15,-38
-47,15,-38
-47,17,-42
-45,15,-42
-46,16,-40
-48,15,-37
-47,16,-38
-47,16,-38
-48,16,-39
-49,16,-39
-49,16,-40
-49,16,-40
-49,16,-38
-48,16,-39
-49,16,-41
-50,16,-39
-49,16,-38
-49,16,-35
-50,16,-35
-50,16,-35
-49,16,-34
-50,16,-33
-50,17,-35
-50,16,-35
-49,16,-36
-49,16,-36
-50,17,-39
-49,17,-38
-49,17,-38
-48,17,-39
-49,17,-41
-48,17,-40
-47,17,-39
-47,17,-38
-46,17,-39
-47,17,-41
-46,17,-41
-45,16,-40
-44,17,-41
-44,17,-41
-43,17,-43
-43,17,-46
-42,17,-46
-43,16,-46
-43,16,-44
-43,16,-45
-43,16,-46
-43,16,-45
-43,16,-44
-43,16,-44
-43,16,-45
-42,16,-44
-42,16,-45
-44,17,-46
-43,17,-46
-44,17,-44
-44,17,-43
-43,17,-42
-43,17,-42
-44,17,-41
-44,17,-42
-44,17,-43
-44,17,-42
-42,16,-42
-45,17,-43
-44,17,-44
-41,16,-42
-45,16,-41
-46,17,-44
-40,17,-45
-43,17,-47
-41,16,-44
-43,17,-46
-41,16,-46
-42,16,-46
-41,16,-46
-41,16,-45
-40,17,-45
-42,16,-45
-41,16,-44
-41,16,-45
-44,16,-46
-47,14,-43
-54,13,-40
-57,13,-39
-56,12,-36
-59,12,-36
-71,14,-36
-51,16,-17
-39,16,-7
-34,17,7
-32,14,13
-45,7,24
-47,4,17
-52,5,-10
-83,-4,-25
-76,-7,-21
-68,-5,-24
-67,-4,-32
-79,-8,-40
-62,-9,-30
-64,-12,-28
-63,-9,-22
-60,-10,-18
-65,-10,-21
-71,-11,-20
-69,-13,-14
-66,-11,-14
-67,-16,-18
-66,-15,-10
-67,-14,-6
-81,-15,-9
-70,-9,-3
-63,-8,3
-69,-4,7
-56,-3,9
-68,-1,-5
-70,1,-5
-61,-3,7
-54,-4,1
-68,-1,-14
-64,0,-1
-57,-2,4
-52,4,-10
-82,6,-26
-61,-2,-10
-68,4,-18
-70,3,-22
-71,1,-8
-71,1,-6
-55,3,10
-56,5,19
-71,10,15
-67,12,14
-52,11,24
-54,11,26
-59,12,25
-61,12,18
-65,11,19
-53,12,22
-61,12,18
-61,14,27
-52,15,36
-45,13,38
-44,17,45
-43,14,46
-36,16,47
-34,17,49
-21,16,56
-19,17,60
-16,16,65
-19,17,58
-19,18,57
-14,17,63
-17,18,62
-18,19,61
-14,20,62
-15,20,62
-12,19,57
-11,20,56
-13,20,57
-14,20,57
-10,19,58
-6,18,62
-6,18,63
-8,19,59
-5,19,61
-12,21,60
-11,20,61
-25,21,57
-29,22,55
-26,24,59
-22,22,57
-28,24,53
-27,24,55
-32,24,45
-33,24,49
-17,23,59
-28,24,55
-28,24,55
-28,23,55
-24,24,53
-26,24,54
-22,24,57
-23,23,52
-23,25,52
-9,22,59
-6,21,63
-10,21,60
-8,21,60
-6,21,61
-7,20,61
-9,20,61
-7,20,61
-6,19,62
-8,19,60
-3,18,60
-2,16,62
-9,15,63
-8,15,63
-6,15,62
-6,15,64
-8,14,68
-12,15,63
-16,16,67
-16,18,63
-12,18,64
-15,20,63
-11,19,67
-17,21,52
-18,20,56
-20,19,59
-16,19,59
