1.5209e+09,1.5209e+09,1.5209e+09
32,32,32
22,46,37
21,46,37
20,46,34
26,46,34
30,46,37
30,47,39
27,47,35
27,48,33
27,48,33
26,48,32
25,48,34
25,48,33
24,47,33
25,47,32
25,46,33
27,46,34
26,46,32
27,46,31
31,47,32
32,45,34
30,46,37
30,46,35
33,48,30
32,47,31
31,46,31
31,47,30
31,47,29
30,47,26
30,46,25
32,46,26
34,46,26
35,45,25
36,46,27
37,47,27
38,48,25
38,48,24
35,47,25
38,47,23
38,47,23
35,46,24
36,46,23
37,46,20
38,46,21
38,45,22
40,46,22
41,47,24
38,47,23
38,46,23
37,46,22
39,46,22
37,46,20
39,46,21
37,48,20
39,47,20
39,47,20
41,48,18
44,49,18
38,49,20
39,50,21
38,50,22
39,51,23
37,51,23
37,52,25
31,52,26
28,51,27
27,52,29
26,52,29
23,52,28
21,51,27
20,51,26
22,50,26
22,50,26
23,51,26
22,51,25
22,52,24
24,52,24
24,54,23
24,54,22
24,55,23
24,55,22
22,56,22
22,55,21
23,56,21
22,56,20
21,55,21
22,56,22
19,55,22
20,55,22
20,55,21
21,55,21
21,55,21
23,55,22
23,56,22
21,57,20
22,58,20
23,57,20
22,57,20
21,57,19
22,57,20
22,57,20
20,57,20
21,57,20
23,57,19
22,56,19
24,56,18
23,56,20
23,56,19
23,57,18
24,57,17
23,57,19
23,57,18
24,57,17
25,57,17
22,57,18
23,57,18
23,58,18
22,57,17
22,57,18
22,57,18
23,57,18
23,57,17
22,57,17
23,57,17
23,57,18
22,57,18
22,57,18
22,57,18
22,57,18
22,57,17
23,57,18
23,57,18
23,58,18
23,57,17
23,58,17
23,58,17
23,57,18
22,57,18
22,57,18
22,57,18
22,57,18
22,57,18
23,57,18
24,58,18
24,58,18
23,58,18
22,58,17
22,58,17
22,58,18
22,58,18
24,58,18
23,59,18
23,58,18
22,59,19
21,59,18
22,57,16
22,57,16
22,56,16
21,56,14
24,56,14
22,56,15
22,56,16
23,57,14
23,57,14
23,58,18
23,58,16
24,59,15
23,58,17
24,58,17
23,58,15
23,58,15
23,57,17
23,57,16
23,58,16
22,57,17
22,57,17
22,57,16
22,57,17
22,57,17
22,57,17
22,58,17
23,58,17
23,58,17
24,58,16
23,57,16
23,57,16
23,57,16
23,57,15
21,57,17
22,57,17
22,58,16
21,58,14
22,59,15
28,58,17
26,58,17
22,58,14
21,58,12
22,59,11
24,59,13
24,58,12
24,59,11
24,59,11
23,58,10
24,59,10
23,59,10
22,59,10
24,59,10
24,59,10
23,59,10
25,59,9
24,59,9
24,59,9
26,59,8
25,59,8
21,59,8
23,59,9
25,59,9
24,59,9
23,59,9
23,59,9
24,60,8
22,59,9
23,59,9
22,59,8
22,59,8
23,59,9
23,60,9
23,60,10
23,60,9
23,60,9
22,59,8
23,60,9
22,60,9
23,60,9
23,60,9
23,59,9
23,59,10
22,59,10
23,59,9
23,59,10
23,59,9
23,59,10
22,59,9
22,59,9
23,60,9
23,59,10
23,59,9
23,59,9
23,59,9
23,59,9
23,59,10
23,59,9
23,59,9
22,59,9
22,59,10
22,59,9
22,59,9
22,59,9
23,60,9
22,60,9
22,60,9
22,60,8
23,60,9
23,59,11
22,59,10
22,59,9
22,59,9
23,59,9
22,59,9
23,59,9
22,59,9
23,59,9
23,60,10
22,60,10
22,60,10
23,60,10
23,60,10
21,61,10
21,62,10
20,62,9
20,61,8
20,60,7
20,60,4
19,60,3
22,61,6
22,60,6
23,60,5
23,60,4
23,59,5
23,59,5
23,58,5
24,58,7
24,58,8
24,59,8
27,59,8
25,59,8
25,59,11
27,58,13
27,59,13
18,60,10
11,58,15
26,58,19
25,57,20
12,58,18
15,58,18
18,59,20
10,57,20
20,59,17
16,59,15
24,60,15
25,59,13
25,60,14
26,60,14
25,60,11
24,60,10
19,60,9
18,60,8
23,60,8
24,60,9
19,60,6
22,61,5
23,60,5
21,60,5
23,60,6
22,61,5
23,61,5
23,62,5
18,60,7
21,61,6
21,61,5
18,60,5
17,60,6
20,61,6
18,61,5
18,62,4
18,62,4
19,62,6
19,62,6
19,61,7
19,61,7
19,62,6
18,61,6
19,60,7
19,60,6
19,61,6
20,61,8
21,61,8
20,60,10
19,61,4
19,62,4
18,61,7
18,60,8
18,61,7
19,61,9
19,60,10
19,61,8
19,61,7
20,61,7
19,61,7
20,61,7
20,61,7
18,60,7
19,61,7
19,61,7
19,60,7
19,60,8
20,61,9
20,62,7
20,62,7
20,61,8
19,61,7
19,61,7
18,60,7
18,59,6
18,60,5
18,60,6
19,60,10
19,61,10
20,63,8
21,63,7
20,62,8
19,60,8
19,59,7
20,60,5
20,59,7
20,58,11
19,59,11
22,61,8
21,62,8
18,61,9
20,61,11
18,61,9
20,61,8
20,61,11
13,58,12
23,59,12
25,59,13
20,58,13
17,58,12
23,60,12
28,60,15
18,60,11
22,62,10
24,62,10
21,61,11
25,60,13
31,58,14
24,59,13
19,58,12
14,57,17
16,57,21
14,56,24
12,57,25
16,57,26
18,58,26
20,57,25
18,58,24
18,58,24
16,57,24
15,56,25
13,55,25
11,57,24
13,57,23
16,55,27
13,55,30
12,56,32
12,56,30
8,57,29
7,57,30
9,57,34
8,56,33
9,56,32
9,55,33
8,55,33
7,54,31
9,54,31
9,54,32
9,54,33
9,54,34
9,55,35
9,56,35
7,56,33
6,56,34
5,56,34
5,55,32
5,55,31
6,55,32
7,55,32
7,55,33
7,55,32
6,56,33
2,56,33
3,56,32
1,57,33
-1,57,31
-1,56,31
-3,56,32
-2,56,32
-3,55,32
-2,55,32
-1,55,33
-2,55,32
-5,55,30
-4,55,35
-4,55,35
-3,56,33
-4,56,32
-7,55,32
-5,55,33
-4,55,33
-5,54,33
-5,55,33
-3,54,33
-3,54,33
-2,53,36
-2,52,36
-4,52,36
-3,50,36
-3,49,36
-6,48,37
-5,48,37
-1,47,39
5,49,39
2,51,37
12,52,39
20,52,42
19,51,40
18,52,38
22,52,36
23,51,37
20,52,35
21,50,30
23,49,31
21,48,29
18,49,27
27,51,26
27,52,21
28,53,18
32,53,21
33,52,20
34,51,10
36,52,8
42,51,8
41,50,8
42,52,5
39,54,0
39,53,-2
41,54,-2
42,55,-1
38,54,-4
36,53,-8
38,53,-8
37,53,-7
32,52,-8
34,52,-7
37,52,-6
38,53,-4
37,51,2
33,50,2
38,52,-3
38,53,-1
38,52,4
36,52,4
37,53,3
37,53,3
38,53,4
38,52,3
38,52,2
39,52,3
39,52,2
39,51,1
39,52,3
37,51,4
39,51,4
40,51,3
37,52,2
39,52,2
40,52,2
39,53,3
39,54,3
38,55,3
38,55,4
35,55,4
35,54,4
33,54,5
32,53,6
32,53,6
31,53,7
30,53,8
29,52,8
28,53,9
28,53,9
30,53,8
30,54,7
32,54,8
34,54,8
34,55,7
34,56,7
33,56,7
33,56,7
33,56,7
32,56,7
32,55,7
32,55,8
32,55,9
31,54,9
31,53,8
30,54,8
31,54,7
32,54,7
31,55,8
31,56,8
31,57,8
30,57,8
30,57,8
30,57,8
31,56,7
31,55,7
31,54,7
31,54,7
31,54,7
31,54,7
30,55,8
30,56,8
30,56,9
30,56,8
30,57,7
31,56,8
31,56,8
31,56,7
31,55,7
31,56,8
30,55,7
30,55,7
30,56,7
31,55,7
31,55,8
30,56,8
30,56,7
30,56,7
31,56,8
30,56,7
30,57,6
31,57,7
30,56,8
30,56,7
30,56,7
27,55,8
29,55,8
28,55,8
29,56,8
30,56,8
30,56,8
29,57,7
30,57,7
32,57,7
29,56,7
28,56,7
30,56,7
30,56,7
28,56,8
27,56,8
30,56,8
29,56,8
28,56,8
29,56,8
29,57,7
29,56,8
29,56,8
29,57,7
29,56,8
30,56,8
30,56,7
30,56,8
30,56,8
30,56,8
29,56,8
28,56,8
30,56,9
29,57,7
29,57,8
29,57,8
29,57,8
29,56,8
29,56,7
29,56,7
29,56,8
29,57,8
30,57,8
30,57,8
29,57,6
25,57,4
26,57,4
32,57,8
32,56,10
28,56,7
29,57,4
29,58,2
30,57,4
31,57,4
30,57,4
28,57,3
26,57,4
24,57,5
29,57,6
27,58,5
26,58,5
27,58,5
28,58,6
29,58,6
28,58,5
27,58,4
27,58,3
27,58,3
29,59,3
27,59,4
24,58,6
28,58,8
27,59,8
24,58,8
21,58,8
25,59,10
26,60,8
26,60,6
27,60,6
26,60,6
26,60,7
27,60,7
27,60,5
26,59,5
25,57,5
24,55,6
24,56,7
23,56,6
24,57,7
25,58,8
25,58,8
26,59,8
21,58,8
18,58,9
24,59,10
23,59,9
22,59,10
23,60,10
22,60,10
23,60,9
23,59,9
23,60,9
23,60,8
24,60,9
24,60,10
24,62,9
24,63,12
24,64,14
23,62,13
23,61,12
20,59,9
20,57,9
20,55,8
18,55,10
19,55,10
20,56,11
21,57,12
20,58,13
20,59,12
20,60,13
22,61,12
22,61,12
21,60,12
21,60,11
22,59,11
21,59,10
22,59,10
22,59,12
22,59,12
22,59,11
22,59,11
21,60,12
21,60,12
21,60,12
21,59,11
20,59,11
21,59,12
21,59,12
21,59,11
21,60,11
21,60,12
21,60,12
22,60,11
21,60,11
22,60,11
22,60,12
21,59,12
21,59,11
21,59,12
21,59,12
20,59,11
21,59,12
21,60,12
21,60,12
20,61,12
19,62,13
19,62,14
19,61,13
19,60,13
19,59,12
18,59,12
19,58,12
22,58,11
22,59,12
23,59,13
24,60,12
26,68,11
23,69,14
20,65,15
26,61,16
25,59,15
24,59,11
24,59,11
23,57,12
20,55,10
19,53,9
16,51,10
14,51,10
11,50,10
11,51,10
13,54,10
15,58,16
15,59,17
18,63,16
19,63,14
19,61,13
21,62,15
21,62,16
21,59,14
22,57,13
24,54,8
24,55,9
24,53,9
28,53,6
31,57,6
32,60,8
32,59,9
32,56,7
34,55,7
39,59,10
35,63,4
37,62,7
36,59,10
37,59,12
35,61,11
37,61,9
34,55,10
34,51,8
34,49,6
32,46,6
32,46,7
34,48,9
33,48,10
34,47,10
38,46,7
37,45,6
40,50,11
41,50,13
41,49,12
42,49,12
43,49,14
45,47,15
44,47,14
46,46,12
46,46,12
46,45,10
45,45,9
45,45,10
45,46,10
45,45,10
46,45,11
45,46,11
45,46,11
44,45,10
44,45,11
44,45,9
44,45,10
41,45,9
41,45,10
40,47,10
38,46,10
36,45,10
29,42,11
29,41,8
26,37,-4
24,35,-5
22,31,-5
33,28,-10
36,28,-13
37,24,-13
44,21,-14
46,19,-17
55,15,-27
68,6,-27
56,-3,-21
76,-14,-14
111,-10,-59
122,-2,-40
63,-17,-11
69,-20,-13
55,-13,-23
58,-15,-20
58,-18,-19
57,-18,-16
55,-17,-14
49,-15,-16
51,-15,-16
63,-19,-15
58,-19,-16
56,-21,-17
57,-21,-20
59,-23,-19
57,-21,-20
57,-20,-17
59,-21,-15
57,-18,-15
57,-17,-16
58,-16,-17
58,-14,-17
59,-15,-18
57,-13,-19
58,-13,-20
59,-14,-20
59,-14,-19
59,-15,-18
59,-15,-17
58,-17,-17
59,-17,-16
60,-17,-16
55,-16,-18
57,-16,-19
60,-15,-17
60,-15,-17
57,-14,-17
57,-14,-17
57,-15,-17
56,-13,-17
56,-13,-18
56,-11,-19
58,-10,-20
60,-6,-26
60,-3,-27
60,-2,-26
59,-3,-25
59,-4,-28
57,-6,-29
58,-6,-27
59,-8,-26
60,-12,-24
59,-9,-23
58,-7,-21
58,-7,-21
59,-7,-22
56,-6,-21
58,-6,-23
62,-10,-29
59,-10,-28
56,-10,-22
59,-10,-26
63,-9,-26
61,-9,-22
59,-7,-20
59,-7,-18
56,-9,-21
54,-10,-22
54,-9,-21
51,-12,-22
54,-11,-23
59,-8,-24
63,-3,-17
62,-1,-16
62,1,-18
62,3,-19
62,6,-19
61,9,-19
62,11,-21
60,11,-23
61,10,-23
60,6,-21
57,4,-22
56,-2,-26
55,-3,-24
53,-6,-23
53,-7,-27
53,-8,-26
54,-13,-25
54,-17,-28
54,-14,-32
60,-4,-36
62,-2,-39
63,4,-36
63,6,-33
61,6,-29
57,4,-26
47,6,-29
50,8,-36
50,7,-37
50,6,-36
49,7,-36
49,10,-37
50,10,-38
50,8,-38
50,5,-38
51,3,-38
52,1,-35
50,2,-34
51,3,-36
53,4,-36
53,4,-35
51,4,-36
51,4,-38
51,3,-39
50,3,-40
49,4,-39
49,6,-39
49,7,-40
49,7,-39
49,8,-39
52,8,-42
51,7,-42
49,8,-39
48,8,-39
47,9,-40
48,11,-39
49,11,-40
46,12,-39
47,12,-39
46,11,-40
46,12,-42
44,11,-40
45,13,-43
44,13,-44
43,11,-44
42,12,-45
40,14,-45
40,14,-45
39,13,-46
40,14,-48
39,14,-48
38,15,-47
39,15,-47
39,15,-48
39,15,-47
39,15,-47
39,15,-48
39,15,-47
39,15,-50
39,15,-49
39,14,-48
37,16,-49
37,15,-48
38,16,-49
38,16,-48
39,14,-46
41,14,-47
41,14,-49
41,15,-46
41,14,-45
43,14,-46
42,13,-46
43,12,-45
42,11,-44
43,11,-45
44,10,-45
46,9,-44
45,9,-42
45,10,-44
46,9,-43
47,8,-41
46,9,-39
47,11,-42
47,10,-40
46,8,-36
48,8,-35
50,8,-37
50,8,-36
52,6,-33
54,6,-34
56,6,-34
54,5,-32
58,6,-30
57,5,-27
57,3,-25
59,3,-25
61,1,-23
59,0,-21
58,-1,-21
59,-1,-21
63,0,-21
63,0,-18
62,0,-17
57,1,-18
59,1,-15
61,0,-10
60,-1,-8
59,1,-6
62,4,-12
68,3,-12
60,1,-8
62,-2,-4
64,-4,2
63,-4,3
61,2,3
79,6,11
76,5,15
64,1,27
65,1,29
63,-2,27
66,-2,24
47,4,14
49,6,18
54,4,30
42,-1,41
51,0,43
61,1,50
63,1,50
63,9,44
63,14,44
57,13,43
51,14,41
51,14,38
49,19,33
47,18,33
43,12,33
36,14,23
39,13,21
37,15,18
33,17,19
36,44,23
41,46,32
43,46,31
43,37,22
48,33,23
47,32,22
45,35,21
42,39,23
45,37,31
46,37,34
38,38,33
38,38,33
39,38,34
38,38,33
37,37,33
38,37,37
38,37,39
37,36,40
35,37,39
37,36,36
36,36,37
33,38,37
33,36,39
33,36,40
33,37,40
33,36,41
34,36,40
34,36,39
35,36,40
34,37,41
33,37,41
32,37,40
32,37,39
32,37,41
30,38,41
31,38,42
29,38,42
28,38,41
29,38,43
26,38,43
25,38,42
25,38,42
26,38,44
25,38,45
24,38,45
23,38,44
23,38,45
23,38,45
23,38,45
22,38,45
21,38,46
22,38,46
23,38,45
23,38,43
25,38,43
26,38,44
26,37,48
26,37,48
26,37,46
23,37,44
23,37,45
24,37,46
22,37,46
23,37,46
24,37,46
24,37,46
24,38,46
23,38,46
24,37,46
23,38,45
23,38,45
25,38,45
25,37,45
24,38,46
24,37,46
25,37,45
25,38,43
24,38,44
27,38,44
29,37,45
27,37,46
29,37,46
26,37,45
25,38,44
26,38,43
24,38,44
23,38,45
23,38,45
23,38,46
21,38,46
20,38,46
19,38,47
17,39,45
18,39,43
27,38,45
29,36,47
26,37,50
23,37,46
24,37,44
25,37,43
25,37,44
25,37,47
26,37,45
26,37,44
27,37,44
27,37,44
27,38,44
26,38,44
27,37,44
27,37,44
26,38,44
26,38,43
27,38,43
28,37,44
28,37,43
28,38,42
29,37,43
30,37,44
26,37,45
25,38,44
26,38,43
25,38,42
25,39,41
26,38,43
28,38,44
29,37,43
30,37,43
33,38,42
33,38,41
33,37,41
33,38,42
32,38,42
32,38,41
32,38,41
32,39,43
31,38,43
30,39,44
30,40,38
30,40,39
28,42,40
30,41,41
26,42,37
25,43,36
26,43,38
26,44,36
24,44,34
22,45,35
22,46,35
23,45,34
24,45,34
24,46,36
24,46,37
25,46,37
27,46,38
26,46,37
25,46,37
25,46,37
25,46,37
24,46,37
24,45,37
25,45,37
25,45,36
24,45,37
23,45,37
23,46,36
23,45,34
24,45,36
27,44,39
27,44,38
27,45,37
30,44,38
31,44,37
27,44,37
27,44,38
26,44,37
24,44,38
24,43,41
24,43,41
25,42,42
23,42,42
23,42,42
24,43,41
24,43,41
26,42,40
25,42,41
25,42,41
25,42,41
25,42,41
25,43,40
25,43,40
25,42,40
24,43,40
25,43,41
25,43,41
25,43,40
24,43,39
25,43,40
25,43,39
23,42,42
24,42,43
25,42,42
24,42,42
22,42,43
23,41,44
19,43,43
20,42,43
22,42,43
20,43,42
18,43,42
18,43,43
18,43,43
23,43,41
21,43,41
19,43,41
24,42,42
28,42,42
25,42,41
23,42,42
25,42,42
23,42,41
22,42,42
23,42,42
22,42,42
25,42,41
28,42,41
27,42,41
26,42,40
24,43,39
25,42,40
25,42,40
26,42,39
28,42,38
29,42,38
33,42,38
33,42,38
29,42,36
29,42,35
33,42,36
34,42,35
34,43,35
33,43,33
35,42,32
36,42,33
36,42,33
35,43,31
36,43,29
36,44,28
35,44,28
39,44,27
37,44,27
37,44,27
36,45,26
37,45,24
36,45,24
37,45,23
39,45,23
40,45,22
38,46,21
39,46,20
42,46,17
43,46,17
41,46,18
39,46,17
41,46,16
39,46,15
40,46,15
40,47,13
43,46,12
43,46,11
43,47,10
43,46,8
45,46,10
44,46,11
43,46,10
43,46,9
44,46,10
44,46,11
43,46,12
41,46,12
42,46,13
43,47,11
42,47,10
40,47,11
42,47,12
41,47,13
39,47,12
41,48,13
43,47,13
45,47,13
39,47,15
38,48,14
39,47,13
36,48,16
38,48,16
37,49,14
36,48,15
41,47,22
39,48,20
37,47,15
39,45,29
37,46,27
33,47,19
38,43,28
37,44,34
34,46,30
31,46,21
36,47,21
37,46,24
38,47,23
38,46,23
38,46,26
36,46,27
35,46,28
35,45,28
35,46,26
37,46,24
37,47,22
40,47,22
40,48,21
41,47,18
39,48,17
39,48,17
39,46,18
39,45,17
40,45,16
39,44,15
38,42,14
37,39,11
37,28,9
49,25,7
47,24,5
42,19,-1
46,15,-3
53,13,-5
48,14,-11
48,15,-14
62,14,-20
60,15,-22
66,15,-19
76,27,-20
87,31,-20
106,38,-11
100,37,-10
79,26,-5
68,18,-6
58,7,-17
57,-1,-24
60,-6,-30
54,-13,-28
58,-11,-23
59,-9,-15
60,-6,-13
62,1,-16
66,3,-19
69,5,-21
64,3,-17
63,1,-19
60,-2,-23
55,-3,-21
53,1,-17
55,6,-13
58,9,-13
57,11,-16
58,8,-21
60,7,-27
62,5,-28
62,2,-30
61,-3,-23
60,-5,-21
60,-4,-19
60,-3,-18
61,-3,-15
60,0,-13
60,1,-12
63,4,-14
63,4,-15
63,2,-15
63,0,-17
60,-4,-18
59,-6,-23
60,-8,-22
59,-11,-20
60,-10,-20
59,-7,-19
59,-6,-19
59,-2,-19
60,-2,-19
59,-2,-18
60,-3,-18
62,-4,-18
61,-6,-19
60,-5,-21
61,-4,-21
61,-2,-19
60,-2,-18
59,-4,-21
58,-3,-24
57,-6,-23
58,-6,-23
58,-4,-26
59,-8,-26
56,-10,-24
54,-13,-24
54,-15,-24
54,-18,-23
54,-18,-25
57,-18,-25
55,-16,-21
55,-15,-22
56,-15,-21
57,-14,-21
60,-12,-21
58,-12,-19
61,-8,-23
58,-9,-23
56,-10,-23
56,-10,-24
57,-10,-27
58,-7,-26
59,-5,-24
59,-4,-23
60,-4,-26
60,-4,-27
57,-6,-26
57,-8,-25
55,-10,-28
55,-10,-30
55,-10,-30
55,-8,-27
55,-6,-27
58,-5,-27
57,-6,-26
57,-6,-24
57,-6,-26
58,-6,-27
57,-7,-25
55,-7,-25
54,-6,-24
56,-6,-22
56,-6,-23
59,-3,-26
60,-2,-26
59,-1,-23
59,-1,-23
56,2,-26
56,2,-27
57,2,-27
57,3,-27
57,3,-26
59,3,-22
61,3,-20
60,4,-20
60,3,-20
62,2,-19
61,0,-18
60,1,-17
64,1,-21
61,2,-21
61,-1,-15
61,-1,-10
59,1,-11
60,2,-14
62,0,-12
63,-1,-10
61,1,-10
60,1,-7
60,0,-3
60,0,1
63,3,-1
64,4,-1
68,5,-5
68,5,-5
66,2,-7
63,-2,-9
63,-4,-9
62,-9,-10
62,-12,-12
61,-12,-13
62,-10,-12
63,-10,-10
65,-7,-5
66,-6,-5
66,-7,-5
62,-7,-4
61,-6,-4
62,-5,-4
60,-5,-3
61,-4,-3
62,-3,-3
62,-3,-3
63,-3,-4
64,-2,-5
63,-2,-5
61,-3,-5
58,-3,-7
58,-3,-8
59,-3,-8
61,-3,-7
67,-2,-7
66,-1,-7
66,0,-4
66,1,-3
64,2,-2
62,4,-1
62,4,-1
62,3,-1
62,3,0
