,Binary,Multiclass
2018-03-13 00:13:20,-1.0,-1.0
2018-03-13 00:13:25,1.0,1.0
2018-03-13 00:13:30,1.0,1.0
2018-03-13 00:13:35,1.0,1.0
2018-03-13 00:13:40,1.0,1.0
2018-03-13 00:13:45,1.0,1.0
2018-03-13 00:13:50,1.0,1.0
2018-03-13 00:13:55,1.0,1.0
2018-03-13 00:14:00,1.0,1.0
2018-03-13 00:14:05,-1.0,1.0
