,EDA,rise_time,max_deriv,amp,decay_time,SCR_width,AUC
2018-02-22 11:46:40.875000,5.0302500000000006,84555.125,5.3371564461183,1.9466500000000004,,,
2018-02-22 11:46:49.250000,5.6052,1.875,0.25849584852408114,0.5967500000000001,,,
2018-02-22 11:47:05.625000,5.51685,4.0,0.027056767338706322,0.2823499999999992,0.75,2.625,0.7411687499999979
2018-02-22 11:47:26.625000,4.8496500000000005,4.0,0.027614823598305804,0.035800000000000054,,,
2018-02-22 11:47:37.875000,5.3651,4.0,0.09496262604553607,0.40339999999999954,1.5,3.125,1.2606249999999986
2018-02-22 11:47:50,4.9438,0.875,0.4079054155506121,0.11395,,,
2018-02-22 11:47:52.250000,5.1346,1.625,0.08740559375080892,0.15110000000000046,1.75,3.0,0.45330000000000137
2018-02-22 11:47:58.250000,5.2563,4.0,0.038221096396512166,0.18320000000000025,1.0,2.75,0.5038000000000007
2018-02-22 11:48:03.375000,5.342700000000001,4.0,0.053354959836788396,0.24395000000000078,0.875,2.5,0.6098750000000019
2018-02-22 11:48:11.125000,5.1058,4.0,0.052814669880916654,0.15755000000000052,,,
2018-02-22 11:48:15.625000,5.2588,4.0,0.04923911689969529,0.18569999999999975,0.875,2.375,0.4410374999999994
2018-02-22 11:48:25.625000,5.60715,1.625,0.3137086935120763,0.46994999999999987,1.5,2.875,1.3511062499999995
2018-02-22 11:48:32.625000,5.05265,1.125,0.0915731986308721,0.048650000000000304,0.5,1.5,0.07297500000000046
2018-02-22 11:48:42.250000,5.0347,4.0,0.06400094916910248,0.12929999999999975,1.875,3.125,0.4040624999999992
2018-02-22 11:48:49.500000,5.5745,4.0,0.149868855036825,0.5576999999999996,1.5,3.125,1.742812499999999
2018-02-22 11:48:57.625000,5.591150000000001,1.75,0.17618251387280992,0.4571500000000004,1.375,2.75,1.257162500000001
2018-02-22 11:49:04.750000,5.2403,1.375,0.023196531919090546,0.026900000000000368,0.25,1.5,0.04035000000000055
2018-02-22 11:49:13.250000,5.4541,4.0,0.07487052067133604,0.31760000000000055,,,
2018-02-22 11:49:17.625000,5.81715,1.375,0.31653883953689643,0.35024999999999995,1.5,2.625,0.9194062499999999
2018-02-22 11:49:24.375000,5.239000000000001,1.25,0.02355109058044036,0.025650000000000617,1.0,2.125,0.05450625000000131
2018-02-22 11:49:34.125000,5.3523,1.625,0.05767171428447426,0.056999999999999496,,,
2018-02-22 11:49:37.125000,5.59815,4.0,0.048436807058219955,0.09220000000000006,0.75,2.5,0.23050000000000015
2018-02-22 11:49:54.750000,5.5566,4.0,0.14931532411096526,0.3266,0.625,2.125,0.694025
2018-02-22 11:49:58.125000,5.5329,4.0,0.05875067839690118,0.12744999999999962,0.75,2.375,0.3026937499999991
2018-02-22 11:50:13.750000,5.3145,1.625,0.1607572033664475,0.18819999999999926,,,
2018-02-22 11:50:24.250000,5.1532,1.75,0.023046437253533725,0.025599999999999845,0.75,1.875,0.04799999999999971
2018-02-22 11:50:28,5.1878,1.875,0.07902072566942309,0.09414999999999996,1.25,2.5,0.2353749999999999
2018-02-22 11:51:04.375000,5.05265,4.0,0.04275318437705167,0.12809999999999988,,,
2018-02-22 11:51:11.250000,4.9515,4.0,0.030481610211104737,0.030700000000000394,0.25,1.625,0.04988750000000064
2018-02-22 11:51:15,4.9195,1.75,0.012219965680035472,0.051300000000000345,0.875,2.5,0.12825000000000086
2018-02-22 11:51:19.875000,5.0667,4.0,0.04565819745808142,0.14719999999999978,1.75,3.375,0.49679999999999924
2018-02-22 11:51:34,5.1295,4.0,0.1295842655575825,0.3778000000000006,1.875,3.375,1.275075000000002
2018-02-22 11:51:42.875000,5.51815,0.75,0.3947342938448841,0.07169999999999987,0.375,1.0,0.07169999999999987
2018-02-22 11:51:48,5.4695,1.125,0.1712846268814161,0.13450000000000006,,,
2018-02-22 11:51:52.625000,5.5335,1.75,0.09103396298841204,0.1952499999999997,0.625,2.0,0.3904999999999994
2018-02-22 11:52:24.500000,4.954,4.0,0.008882332465052656,0.049900000000000055,0.875,2.75,0.13722500000000015
2018-02-22 11:52:28.500000,4.9464,1.875,0.03870376268398701,0.028199999999999115,,,
2018-02-22 11:52:57.625000,5.3119499999999995,4.0,0.12037804352029013,0.29384999999999906,1.0,2.5,0.7346249999999976
2018-02-22 11:53:05.625000,5.4201999999999995,4.0,0.22665321950000816,0.47639999999999993,1.75,3.125,1.4887499999999998
2018-02-22 11:53:24.875000,4.791449999999999,1.125,0.06772706999024791,0.03584999999999905,0.25,1.375,0.04929374999999869
2018-02-22 11:53:26.875000,4.8529,1.0,0.12153839405747036,0.04420000000000002,0.25,1.25,0.05525000000000002
2018-02-22 11:53:40.375000,4.714600000000001,4.0,0.031396999652123725,0.08200000000000074,,,
2018-02-22 11:53:51.250000,4.9054,4.0,0.040852938892872004,0.1806000000000001,1.75,3.375,0.6095250000000003
2018-02-22 11:54:19.500000,5.0155,1.75,0.04317706621920081,0.12290000000000045,0.625,2.125,0.26116250000000096
2018-02-22 11:54:26.625000,4.6992,1.375,0.038336036062517564,0.03710000000000058,,,
2018-02-22 11:54:33,4.7299,4.0,0.017348682214986866,0.04349999999999987,0.375,2.125,0.09243749999999973
2018-02-22 11:54:36.375000,5.11285,4.0,0.17900247144235593,0.3771500000000003,1.625,3.0,1.131450000000001
2018-02-22 11:54:42.875000,4.6211,1.5,0.05474438334490728,0.08645000000000103,1.375,2.625,0.2269312500000027
2018-02-22 11:54:50,4.5648,0.75,0.032639376266494935,0.03080000000000016,0.125,0.375,0.01155000000000006
2018-02-22 11:54:53.500000,4.9079,4.0,0.04992714076530547,0.2657999999999996,1.375,3.125,0.8306249999999987
2018-02-22 11:55:01.625000,4.9636499999999995,1.75,0.355558514814021,0.08514999999999873,,,
2018-02-22 11:55:04.375000,4.9816,0.625,0.5565082315857097,0.02880000000000038,,,
2018-02-22 11:55:08.125000,5.35935,4.0,0.08284787537913374,0.08390000000000075,0.125,2.0,0.1678000000000015
2018-02-22 11:55:12.375000,5.2473,1.375,0.16069002740735527,0.16710000000000047,0.875,2.0,0.33420000000000094
2018-02-22 11:55:18.750000,5.2268,1.5,0.2506732610786564,0.2984,,,
2018-02-22 11:55:20.875000,5.486800000000001,1.25,0.21139504894332717,0.18895000000000017,0.75,1.875,0.3542812500000003
2018-02-22 11:55:25.875000,5.077,1.125,0.09736194152408117,0.0671999999999997,0.25,1.25,0.08399999999999963
2018-02-22 11:55:44.250000,4.7043,1.0,0.05471311563469072,0.028100000000000236,0.125,1.125,0.031612500000000265
2018-02-22 11:55:49.250000,4.7261,1.75,0.09530579240275117,0.1524000000000001,1.75,3.0,0.4572000000000003
2018-02-22 11:55:58.875000,4.93035,4.0,0.11561881952321329,0.22089999999999943,,,
2018-02-22 11:56:01.750000,5.3798,1.875,0.1905670604272629,0.4372499999999997,1.0,2.5,1.0931249999999992
2018-02-22 11:56:16.125000,4.8068,1.5,0.03383805736766732,0.05510000000000037,1.375,2.625,0.14463750000000097
2018-02-22 11:56:20,4.9617,1.625,0.10387025199603883,0.1607000000000003,1.0,2.25,0.36157500000000065
2018-02-22 11:56:29.125000,4.93485,4.0,0.11657370155634794,0.22219999999999995,,,
2018-02-22 11:56:32.375000,5.667949999999999,4.0,0.07028797889900673,0.21194999999999986,0.25,2.125,0.4503937499999997
2018-02-22 11:56:36.375000,5.3485,1.125,0.07838414970401075,0.02239999999999931,0.125,1.25,0.027999999999999137
2018-02-22 11:56:41.625000,5.0634999999999994,1.25,0.049409141168943904,0.03134999999999977,0.25,1.375,0.04310624999999968
2018-02-22 11:56:51.125000,4.94505,4.0,0.015600442954593063,0.040950000000000486,0.5,2.25,0.0921375000000011
2018-02-22 11:57:00.750000,5.5822,4.0,0.19469585224149455,0.6461000000000006,1.25,2.875,1.8575375000000016
2018-02-22 11:57:18,4.7184,1.875,0.016376180273162788,0.02874999999999961,0.875,2.375,0.06828124999999907
2018-02-22 11:57:21.250000,4.7978,1.25,0.08442833304793496,0.06789999999999985,,,
2018-02-22 11:57:23.500000,5.0514,1.875,0.08898397687370263,0.22604999999999986,1.25,2.75,0.6216374999999996
2018-02-22 11:57:42.750000,4.8862,4.0,0.15241213776220164,0.2765999999999993,1.75,3.0,0.8297999999999979
2018-02-22 11:57:47.625000,5.1819500000000005,4.0,0.04084162802695346,0.31370000000000076,,,
2018-02-22 11:57:50.125000,5.79735,1.375,0.4551484635471752,0.5334500000000002,1.0,2.125,1.1335812500000004
2018-02-22 11:57:55.500000,4.963,1.75,0.002445667191413037,0.02179999999999982,0.125,1.875,0.04087499999999966
2018-02-22 11:58:07.250000,5.3619,4.0,0.13939696033326143,0.3208000000000002,0.75,2.5,0.8020000000000005
2018-02-22 11:58:55,4.6723,4.0,0.03778520440475219,0.14339999999999975,1.375,3.0,0.43019999999999925
2018-02-22 11:59:06.875000,5.27035,4.0,0.15458336501965775,0.5948000000000002,1.25,2.875,1.7100500000000007
2018-02-22 11:59:14.250000,4.7517,4.0,0.0224351908863909,0.09469999999999956,0.875,2.5,0.2367499999999989
2018-02-22 11:59:27.625000,4.5705,1.375,0.08057560361146443,0.08640000000000025,,,
2018-02-22 11:59:30.500000,5.1013,4.0,0.20164182253791552,0.44950000000000045,1.625,3.0,1.3485000000000014
2018-02-22 11:59:44,5.3741,4.0,0.14630879482000125,0.48790000000000067,,,
2018-02-22 11:59:45.625000,5.4822500000000005,1.0,0.10783844082653715,0.032600000000000406,0.25,1.25,0.04075000000000051
2018-02-22 12:00:09.125000,5.10515,4.0,0.1581233816064369,0.4180999999999999,1.875,3.375,1.4110874999999998
2018-02-22 12:00:19.625000,5.0053,4.0,0.07125557194693855,0.2580500000000008,,,
2018-02-22 12:00:22.250000,5.0283,1.25,0.05691531491959623,0.05630000000000024,0.25,1.25,0.0703750000000003
2018-02-22 12:00:33.750000,4.9438,1.625,0.14970562760106176,0.1543000000000001,0.875,2.125,0.3278875000000002
2018-02-22 12:00:49,4.5064,4.0,0.012283159620313455,0.04100000000000037,0.5,2.375,0.09737500000000088
2018-02-22 12:01:07,4.8964,4.0,0.0821359341826593,0.24659999999999993,,,
2018-02-22 12:01:09.750000,5.6334,4.0,0.1898047445783213,0.6716999999999995,1.375,3.0,2.0150999999999986
2018-02-22 12:01:17.375000,5.0866,1.0,0.13815682118896788,0.06594999999999995,0.375,1.375,0.09068124999999994
2018-02-22 12:02:19.750000,5.2114,4.0,0.2757706466834122,0.7050000000000001,,,
2018-02-22 12:02:21.625000,5.511699999999999,1.375,0.2001737727863393,0.21449999999999925,0.625,1.75,0.3753749999999987
2018-02-22 12:02:39,5.1564,4.0,0.17973478421792421,0.4540999999999995,0.875,2.25,1.0217249999999989
2018-02-22 12:02:45.125000,4.92525,4.0,0.03333148117522455,0.1524000000000001,0.875,2.625,0.40005000000000024
2018-02-22 12:02:51.875000,4.8676,1.875,0.1152170265424104,0.26950000000000074,1.25,2.625,0.7074375000000019
2018-02-22 12:03:32.875000,4.3764,4.0,0.01884709478814628,0.05954999999999977,1.125,2.75,0.16376249999999937
2018-02-22 12:03:52.125000,4.6747499999999995,4.0,0.09665792167615805,0.35464999999999947,1.125,2.75,0.9752874999999985
2018-02-22 12:04:25.125000,4.4059,4.0,0.030109172331417966,0.1767499999999993,0.625,2.375,0.41978124999999833
2018-02-22 12:04:37.125000,4.9976,4.0,0.08058100575758687,0.39644999999999975,0.75,2.5,0.9911249999999994
2018-02-22 12:04:45.625000,4.42185,1.875,0.03845497399213116,0.06915000000000049,1.0,2.375,0.16423125000000116
2018-02-22 12:04:53.375000,4.3956,1.75,0.03481459909957607,0.05889999999999951,1.125,2.5,0.14724999999999877
2018-02-22 12:05:26.125000,5.0027,4.0,0.14379628753539464,0.6538499999999994,1.25,2.875,1.8798187499999983
2018-02-22 12:05:38.250000,4.9464,4.0,0.2541265482006487,0.2774000000000001,,,
2018-02-22 12:06:07.625000,4.0633,1.25,0.025944396397751035,0.02364999999999995,,,
2018-02-22 12:06:17.625000,5.24855,4.0,0.17853027908123664,0.30100000000000016,0.5,2.375,0.7148750000000004
2018-02-22 12:06:24.750000,4.995,4.0,0.0906668686664105,0.2671000000000001,0.75,2.375,0.6343625000000003
2018-02-22 12:06:28,4.8478,1.0,0.15851120163877397,0.06920000000000037,0.5,1.5,0.10380000000000056
2018-02-22 12:06:33.625000,4.5333000000000006,0.75,0.12854665378327113,0.028200000000000003,,,
2018-02-22 12:06:39.375000,4.56595,1.375,0.08488452255068069,0.10304999999999964,1.0,2.125,0.21898124999999924
2018-02-22 12:06:46.375000,4.89515,4.0,0.057590158209972486,0.29720000000000013,0.625,2.375,0.7058500000000003
2018-02-22 12:06:52,5.255,4.0,0.2449946157890608,0.7222999999999997,1.125,2.625,1.8960374999999994
2018-02-22 12:07:01.375000,5.4925,4.0,0.2924567751141005,0.9379999999999997,1.125,2.625,2.462249999999999
2018-02-22 12:07:08.250000,4.7632,4.0,0.0691075450667924,0.2586000000000004,0.875,2.5,0.646500000000001
2018-02-22 12:07:17.125000,5.29535,1.875,0.34721714602094167,0.8785499999999997,1.25,2.75,2.416012499999999
2018-02-22 12:07:26.125000,5.00205,4.0,0.07760567640578131,0.45789999999999953,0.625,2.25,1.030274999999999
2018-02-22 12:07:49.250000,4.258,4.0,0.04652014781014557,0.06920000000000037,,,
2018-02-22 12:07:51.875000,4.8868,1.875,0.18222883176746407,0.49180000000000046,1.0,2.5,1.2295000000000011
2018-02-22 12:08:00.875000,4.56785,4.0,0.0794712518864138,0.2849000000000004,1.375,2.875,0.8190875000000011
2018-02-22 12:08:04.250000,4.4949,1.25,0.06202283089359284,0.04610000000000003,0.375,1.5,0.06915000000000004
2018-02-22 12:08:29.250000,4.1094,1.125,0.029119715901430254,0.030750000000000277,0.25,1.25,0.038437500000000346
2018-02-22 12:08:34.125000,4.2951999999999995,1.75,0.1367961885184208,0.20934999999999881,,,
2018-02-22 12:08:37.750000,4.2427,1.25,0.03355143540774108,0.034600000000000186,0.875,2.0,0.06920000000000037
2018-02-22 12:09:01.500000,3.9008,1.625,0.01608199127676002,0.02179999999999982,,,
2018-02-22 12:09:16.500000,3.8636,4.0,0.012300602064701849,0.02300000000000013,1.0,2.5,0.05750000000000033
2018-02-22 12:09:35.500000,3.9277,4.0,0.05372058224117637,0.16010000000000035,1.0,2.5,0.4002500000000009
2018-02-22 12:09:38,4.066,0.875,0.23128059502591825,0.08584999999999976,0.5,1.125,0.09658124999999973
2018-02-22 12:09:43.250000,4.2517,4.0,0.0918117633872626,0.3380999999999994,1.125,2.75,0.9297749999999984
2018-02-22 12:09:54.875000,4.68635,4.0,0.2729688914096329,0.6997499999999999,1.375,2.875,2.0117812499999994
2018-02-22 12:10:05.125000,4.1446000000000005,1.625,0.0862537354956956,0.1568000000000005,1.125,2.375,0.3724000000000012
2018-02-22 12:10:21.625000,4.4558,4.0,0.11433424854467944,0.42825000000000024,1.25,2.875,1.2312187500000007
2018-02-22 12:11:11.875000,3.79835,4.0,0.05784939250730581,0.14665000000000017,,,
2018-02-22 12:11:18.875000,4.4148,4.0,0.20856235653437238,0.5959999999999996,1.5,3.0,1.787999999999999
2018-02-22 12:11:28.875000,4.0032,1.875,0.09374628534509277,0.1920999999999995,,,
2018-02-22 12:11:35,4.3784,4.0,0.164533965118558,0.4826999999999999,1.25,2.75,1.3274249999999999
2018-02-22 12:11:56.875000,3.87135,1.375,0.04369387826984017,0.037150000000000016,0.625,1.75,0.06501250000000003
2018-02-22 12:12:03.375000,4.87395,4.0,0.19051255240108134,0.3815999999999997,0.875,2.25,0.8585999999999994
2018-02-22 12:12:10.625000,4.3239,4.0,0.05576842995647624,0.2535500000000006,,,
2018-02-22 12:12:43.875000,3.86235,4.0,0.00797200883918947,0.03780000000000028,1.375,3.125,0.11812500000000087
2018-02-22 12:13:17.375000,3.66835,1.875,0.009378369312747381,0.023650000000000393,1.375,3.0,0.07095000000000118
2018-02-22 12:13:32.500000,3.8086,4.0,0.037354032040763485,0.10630000000000006,,,
2018-02-22 12:13:34.625000,4.31825,1.75,0.1014548380335718,0.35214999999999996,,,
2018-02-22 12:13:58.375000,3.4268,1.0,0.11749091845221038,0.049900000000000055,,,
2018-02-22 12:14:05.125000,3.46655,4.0,0.00931247948742353,0.0442499999999999,,,
2018-02-22 12:14:19,3.2769999999999997,1.75,0.07809001526967663,0.04989999999999961,,,
2018-02-22 12:14:21.500000,3.4345,1.0,0.0829876731748449,0.05250000000000021,0.125,0.375,0.01968750000000008
2018-02-22 12:14:25.500000,4.459,4.0,0.1063028268188404,0.6172999999999997,0.625,2.375,1.4660874999999993
2018-02-22 12:14:38.625000,3.7196,4.0,0.01573658009280443,0.043549999999999756,0.875,2.375,0.10343124999999942
2018-02-22 12:14:58.250000,3.6908,1.625,0.22810045149383917,0.15835,0.625,2.125,0.33649375
2018-02-22 12:15:00.375000,3.84955,1.0,0.25107640900865746,0.12805,0.625,1.5,0.192075
2018-02-22 12:15:03.375000,3.9379,1.5,0.08426580872994549,0.12674999999999992,0.25,1.5,0.19012499999999988
2018-02-22 12:15:07.500000,3.7599,1.375,0.027954078073477717,0.023050000000000015,0.25,1.625,0.037456250000000024
2018-02-22 12:15:14.250000,4.2107,1.75,0.30350710002283776,0.5161000000000002,,,
2018-02-22 12:15:44.750000,3.6434,4.0,0.02300472386244934,0.03970000000000029,0.625,2.0,0.07940000000000058
2018-02-22 12:16:39.625000,3.32695,4.0,0.11988894910703429,0.17159999999999975,,,
2018-02-22 12:16:47.375000,3.936,4.0,0.10266254685868681,0.42079999999999984,1.0,2.75,1.1571999999999996
