1.5193e+09,1.5193e+09
2376.6,0.65628
2399,0.57815
2405.7,0.5469
2406.4,0.67191
2407,0.62503
2407.6,0.6094
2408.3,0.62503
2408.9,0.65628
2409.6,0.67191
2410.3,0.75003
2411,0.67191
2411.7,0.68753
2412.4,0.73441
2413.3,0.92192
2434.5,0.65628
2435.2,0.67191
2435.8,0.62503
2436.4,0.64065
2437,0.6094
2437.7,0.62503
2438.3,0.62503
2438.9,0.64065
2439.5,0.57815
2440.1,0.64065
2487.1,0.65628
2509.7,0.62503
2514.4,0.65628
2515,0.62503
2515.6,0.6094
2516.2,0.6094
2516.9,0.64065
2517.5,0.64065
2518.2,0.67191
2518.8,0.65628
2519.5,0.67191
2520.3,0.76566
2520.9,0.67191
2521.6,0.70316
2522.3,0.62503
2522.9,0.64065
2533.6,0.6094
2586,0.67191
2586.6,0.6094
2587.3,0.65628
2587.9,0.64065
2588.6,0.65628
2589.3,0.68753
2589.9,0.64065
2590.5,0.62503
2591.2,0.68753
2591.9,0.68753
2592.6,0.67191
2593.2,0.64065
2593.9,0.65628
2594.6,0.68753
2595.2,0.67191
2595.9,0.65628
2596.5,0.62503
2597.2,0.64065
2605.7,0.62503
2606.4,0.67191
2607,0.64065
2607.7,0.67191
2608.4,0.68753
2609.1,0.65628
2609.7,0.68753
2610.4,0.67191
2611.1,0.70316
2611.8,0.64065
2617.7,0.62503
2618.4,0.71878
2619,0.67191
2619.7,0.65628
2620.4,0.71878
2621.1,0.67191
2621.8,0.68753
2622.4,0.67191
2623.1,0.68753
2623.8,0.65628
2624.4,0.62503
2625.1,0.65628
2625.7,0.62503
2632.2,0.71878
2632.9,0.65628
2633.6,0.68753
2634.3,0.67191
2634.9,0.67191
2635.6,0.67191
2636.2,0.64065
2636.9,0.64065
2637.5,0.64065
2638.2,0.62503
