,EDA,rise_time,max_deriv,amp,decay_time,SCR_width,AUC
2018-02-15 13:06:40.875000,14.398,85810.125,15.491874295620796,1.072000000000001,,,
2018-02-15 13:06:46,13.93,1.25,0.15485097961730787,0.1479999999999997,0.625,1.625,0.2404999999999995
2018-02-15 13:07:02.125000,14.086500000000001,1.625,0.2589954500832121,0.4205000000000023,,,
2018-02-15 13:07:04.375000,14.0375,1.0,0.10491910329175624,0.04899999999999771,0.25,1.25,0.06124999999999714
2018-02-15 13:07:06.375000,13.771,0.625,0.683909714113426,0.02000000000000135,0.25,0.5,0.010000000000000675
2018-02-15 13:07:09.500000,14.022,1.75,0.12122383769294487,0.15799999999999947,,,
2018-02-15 13:07:11.750000,14.152000000000001,1.5,0.12503679760803266,0.06400000000000183,0.25,1.5,0.09600000000000275
2018-02-15 13:07:19,13.882,1.5,0.03226023540378975,0.047999999999998266,0.25,1.625,0.07799999999999718
2018-02-15 13:07:31.625000,13.61,4.0,0.039461485367610294,0.19950000000000045,,,
2018-02-15 13:07:33.875000,13.7715,1.375,0.15506550818817288,0.16849999999999987,1.125,2.375,0.4001874999999997
2018-02-15 13:07:38.375000,13.8535,1.5,0.1939543119626137,0.266,,,
2018-02-15 13:07:41.125000,13.805,1.125,0.10693518155107995,0.03200000000000003,0.125,1.125,0.03600000000000003
2018-02-15 13:07:50.500000,13.845999999999998,1.25,0.08202972257928565,0.032999999999999474,1.125,2.375,0.07837499999999875
2018-02-15 13:07:54.875000,14.6035,4.0,0.12488182603464537,0.6574999999999989,1.75,3.375,2.219062499999996
2018-02-15 13:08:02.250000,14.16,1.5,0.14076594544336984,0.2240000000000002,,,
2018-02-15 13:08:08.625000,12.5915,1.875,0.10603515634410599,0.9705000000000013,0.875,2.625,2.5475625000000033
2018-02-15 13:08:14.625000,12.721,1.125,0.06363677021216319,0.038000000000000256,0.25,1.375,0.05225000000000035
2018-02-15 13:08:17,13.345,1.5,0.3779344501079862,0.5240000000000009,,,
2018-02-15 13:08:23.875000,13.954,4.0,0.16068564274458907,0.8034999999999997,1.0,2.625,2.109187499999999
2018-02-15 13:08:28.875000,13.5855,1.75,0.24212899528554033,0.4220000000000006,0.625,2.0,0.8440000000000012
2018-02-15 13:08:32.125000,13.811,1.5,0.430077521269439,0.565999999999999,0.625,1.875,1.061249999999998
2018-02-15 13:08:37.375000,13.573,1.5,0.20420133765313864,0.26399999999999935,0.75,2.0,0.5279999999999987
2018-02-15 13:08:42.250000,13.448,1.625,0.06712513022256417,0.12300000000000111,0.75,2.25,0.2767500000000025
2018-02-15 13:08:48.875000,14.5675,4.0,0.16668038839596022,0.7370000000000001,,,
2018-02-15 13:08:55.625000,14.7535,1.375,0.42458729214392577,0.38750000000000107,0.375,1.5,0.5812500000000016
2018-02-15 13:09:00.500000,14.137,1.375,0.2397232995595715,0.2970000000000006,,,
2018-02-15 13:09:03.250000,14.459000000000001,1.625,0.1321889320401013,0.2060000000000013,1.0,2.5,0.5150000000000032
2018-02-15 13:09:09.500000,14.417,1.625,0.18056664861290983,0.243999999999998,0.625,2.0,0.487999999999996
2018-02-15 13:09:12.750000,14.741,1.5,0.37250651535794077,0.5119999999999987,1.0,2.25,1.151999999999997
2018-02-15 13:09:28.125000,14.4285,4.0,0.044681961036140194,0.1714999999999982,1.0,2.75,0.4716249999999951
2018-02-15 13:09:36.625000,14.6355,1.625,0.3551541757172103,0.5075000000000003,1.125,2.375,1.2053125000000007
2018-02-15 13:09:40,14.847000000000001,1.375,0.318625524081682,0.3815000000000026,0.625,1.75,0.6676250000000046
2018-02-15 13:09:42.625000,14.9285,1.375,0.2474390485913176,0.1725000000000012,0.25,1.5,0.2587500000000018
2018-02-15 13:09:48.250000,14.814,4.0,0.19081730925552165,0.2989999999999995,,,
2018-02-15 13:09:55,14.501,1.625,0.13494192580291298,0.17999999999999972,0.5,1.75,0.3149999999999995
2018-02-15 13:10:09.750000,14.520999999999999,1.5,0.26590481331898275,0.3869999999999987,0.625,1.75,0.6772499999999977
2018-02-15 13:10:18,14.377,4.0,0.198264362797417,0.3420000000000005,1.0,2.375,0.8122500000000012
2018-02-15 13:10:30.625000,14.2365,1.875,0.24025612255280038,0.32649999999999935,,,
2018-02-15 13:10:33.375000,14.3005,1.25,0.10084980148394607,0.05150000000000077,0.125,1.25,0.06437500000000096
2018-02-15 13:10:35.750000,14.696,1.375,0.26980739702021594,0.32649999999999935,1.875,2.875,0.9386874999999981
2018-02-15 13:10:41.875000,15.0,1.875,0.19332146042707876,0.6090000000000018,,,
2018-02-15 13:10:48,14.706,1.125,0.5500547227623755,0.3064999999999998,0.5,1.5,0.45974999999999966
2018-02-15 13:10:52.375000,14.3605,1.375,0.2172145534414085,0.28749999999999964,0.75,1.875,0.5390624999999993
2018-02-15 13:10:57,13.866,1.25,0.2550175246736046,0.02099999999999902,0.125,1.375,0.028874999999998652
2018-02-15 13:11:00,14.5,4.0,0.3079117521470778,0.4770000000000003,,,
2018-02-15 13:11:01.750000,14.597000000000001,1.125,0.06496830936576714,0.040000000000000924,0.25,1.25,0.050000000000001155
2018-02-15 13:11:04.875000,14.8785,1.375,0.3147167337459962,0.3595000000000006,0.875,2.125,0.7639375000000013
2018-02-15 13:11:10.375000,14.229,1.375,0.5615887570752989,0.6599999999999984,,,
2018-02-15 13:11:24,14.6,4.0,0.1249917554354667,0.3340000000000014,0.75,2.375,0.7932500000000033
2018-02-15 13:11:30.500000,14.343,1.75,0.0965972242766,0.08000000000000007,0.75,2.5,0.20000000000000018
2018-02-15 13:11:42.250000,14.87,1.75,0.4475514226190356,0.786999999999999,1.0,2.25,1.7707499999999978
2018-02-15 13:11:44.875000,14.5305,1.0,0.11286645956055708,0.02800000000000047,0.25,1.25,0.035000000000000586
2018-02-15 13:11:55,14.457,1.75,0.17194055574575628,0.3000000000000007,0.875,2.25,0.6750000000000016
2018-02-15 13:12:16.875000,14.121,1.875,0.1626379548482788,0.2889999999999997,,,
2018-02-15 13:12:23.125000,14.0915,4.0,0.12399715203405037,0.192499999999999,1.125,2.25,0.43312499999999776
2018-02-15 13:12:29.500000,14.458,4.0,0.12272505840728343,0.4170000000000016,0.875,2.625,1.0946250000000042
2018-02-15 13:12:36,15.259,4.0,0.4699415435675931,1.1799999999999997,1.25,2.75,3.244999999999999
2018-02-15 13:12:44.625000,14.9085,1.75,0.3360713064193064,0.6059999999999999,1.25,2.625,1.5907499999999997
2018-02-15 13:12:51.500000,14.565,1.75,0.06648009274793765,0.2419999999999991,0.625,2.125,0.5142499999999981
2018-02-15 13:12:55.375000,15.222999999999999,1.875,0.35672281815720197,0.8070000000000004,,,
2018-02-15 13:12:57.500000,15.683,1.25,0.4511608102433087,0.3230000000000004,0.375,1.5,0.4845000000000006
2018-02-15 13:13:05.375000,14.237000000000002,1.25,0.07107857466670708,0.03550000000000253,0.25,1.375,0.04881250000000348
2018-02-15 13:13:10,14.357000000000001,1.125,0.21906747443359365,0.1720000000000006,,,
2018-02-15 13:13:15.875000,14.155999999999999,1.25,0.477571367681243,0.4314999999999998,1.0,2.0,0.8629999999999995
2018-02-15 13:13:27.125000,14.314,1.75,0.016599484862418024,0.08099999999999952,,,
2018-02-15 13:13:31.250000,14.755999999999998,4.0,0.26730998015903396,0.43599999999999817,0.875,2.125,0.9264999999999961
2018-02-15 13:13:36.625000,14.255500000000001,1.875,0.1681474675724246,0.2525000000000013,,,
2018-02-15 13:13:41.625000,14.7915,4.0,0.1807432419064554,0.5789999999999988,,,
2018-02-15 13:13:50.375000,14.520500000000002,1.875,0.03960724249960634,0.08550000000000146,0.125,1.875,0.16031250000000274
2018-02-15 13:13:53.375000,14.530999999999999,1.125,0.08033814168778264,0.08000000000000007,,,
2018-02-15 13:13:55.625000,14.974,1.875,0.17483081634605924,0.38400000000000034,,,
2018-02-15 13:13:58.625000,15.029,1.25,0.12085476707142817,0.07249999999999801,0.375,1.5,0.10874999999999702
2018-02-15 13:14:01.250000,15.523,1.625,0.25490903211095883,0.3780000000000001,,,
2018-02-15 13:14:05.750000,15.183,1.0,0.12433377778909716,0.04399999999999871,0.375,1.25,0.054999999999998384
2018-02-15 13:14:17.250000,14.775,0.5,0.11280419511724205,0.02099999999999902,0.25,0.375,0.007874999999999632
2018-02-15 13:14:28.875000,14.3275,0.75,0.4849010351927987,0.059499999999999886,,,
2018-02-15 13:14:35.750000,13.84,1.875,0.19561664118523225,0.19500000000000028,0.5,1.75,0.3412500000000005
2018-02-15 13:14:39.250000,13.88,1.125,0.1566449905622065,0.1095000000000006,,,
2018-02-15 13:14:43.500000,13.699000000000002,1.5,0.11410819890581791,0.06900000000000084,0.125,1.25,0.08625000000000105
2018-02-15 13:14:47.375000,13.757,4.0,0.047760208375265734,0.1769999999999996,,,
2018-02-15 13:14:50,14.704,4.0,0.41109910442160924,0.8980000000000015,1.25,2.625,2.357250000000004
2018-02-15 13:14:55.125000,14.236999999999998,1.875,0.0890315552681642,0.10099999999999909,0.5,1.75,0.1767499999999984
2018-02-15 13:14:57.875000,14.64,1.5,0.24197334802121162,0.3440000000000012,0.5,1.75,0.6020000000000021
2018-02-15 13:15:02.375000,14.0135,1.25,0.05867735091635495,0.041499999999999204,,,
2018-02-15 13:15:04.500000,14.696,1.625,0.27074212846105894,0.49549999999999805,1.0,2.375,1.1768124999999954
2018-02-15 13:15:07.750000,14.442,1.0,0.1018090037721322,0.027999999999998693,0.375,1.375,0.0384999999999982
2018-02-15 13:15:11.125000,15.070500000000001,1.625,0.34299652476328646,0.6175000000000015,0.625,2.0,1.235000000000003
2018-02-15 13:15:15.375000,14.078,0.625,0.7096616091169494,0.18099999999999916,,,
2018-02-15 13:15:18.375000,14.209000000000001,1.5,0.0226466397711107,0.03250000000000064,0.5,1.625,0.05281250000000104
2018-02-15 13:15:21.500000,14.533,1.75,0.17109070728581344,0.2919999999999998,0.625,2.0,0.5839999999999996
2018-02-15 13:15:26,14.902999999999999,4.0,0.11294302404191114,0.6089999999999982,0.875,2.625,1.5986249999999953
2018-02-15 13:15:34.625000,14.5765,1.625,0.18568403532511013,0.30850000000000044,0.875,2.125,0.6555625000000009
2018-02-15 13:15:38.375000,14.401499999999999,1.375,0.057775146214325446,0.07449999999999868,0.625,1.875,0.13968749999999752
2018-02-15 13:15:46.750000,14.492,1.75,0.13058884982676489,0.2840000000000007,1.875,3.375,0.9585000000000024
2018-02-15 13:15:51.375000,14.553,1.5,0.18303147185166324,0.2010000000000005,,,
2018-02-15 13:16:03.750000,14.183,1.0,0.111313400557016,0.0389999999999997,0.25,1.25,0.04874999999999963
2018-02-15 13:16:14.250000,13.975999999999999,1.875,0.040872253954248094,0.08349999999999902,,,
2018-02-15 13:16:23.625000,13.784500000000001,1.125,0.12089033822874029,0.021500000000001407,0.125,1.25,0.02687500000000176
2018-02-15 13:16:27.625000,13.446000000000002,4.0,0.3185222711040723,0.3979999999999997,,,
