1.5192e+09,1.5192e+09,1.5192e+09
32,32,32
-59,16,-17
-58,17,-16
-59,18,-16
-61,17,-15
-62,17,-14
-62,17,-13
-63,17,-13
-64,17,-13
-63,17,-12
-62,16,-11
-62,15,-13
-62,15,-12
-63,15,-12
-62,15,-11
-62,15,-11
-63,15,-11
-63,15,-11
-63,15,-11
-63,15,-10
-62,15,-10
-62,15,-10
-63,15,-10
-62,15,-11
-63,15,-11
-63,15,-11
-62,15,-11
-63,15,-12
-63,15,-12
-63,15,-11
-63,15,-11
-63,15,-11
-63,15,-11
-63,15,-11
-63,15,-11
-63,15,-11
-62,15,-12
-63,15,-11
-62,15,-11
-62,15,-12
-62,15,-12
-63,15,-11
-63,15,-11
-63,15,-11
-63,15,-12
-63,15,-12
-63,15,-11
-63,15,-11
-63,15,-11
-63,14,-11
-63,15,-10
-62,14,-10
-63,14,-10
-63,13,-9
-63,13,-9
-62,13,-9
-62,13,-8
-63,13,-8
-63,13,-9
-63,13,-9
-63,13,-9
-64,13,-9
-64,13,-9
-64,13,-9
-64,13,-9
-63,13,-8
-64,12,-9
-64,12,-8
-64,11,-8
-64,12,-8
-64,11,-8
-64,11,-8
-64,12,-8
-64,12,-8
-64,13,-8
-64,13,-8
-64,14,-8
-64,14,-8
-64,13,-9
-64,12,-9
-63,13,-9
-64,12,-9
-63,12,-9
-63,12,-9
-64,12,-9
-63,12,-9
-63,11,-9
-63,11,-9
-64,11,-9
-64,11,-9
-64,11,-8
-64,11,-9
-64,10,-8
-64,10,-8
-65,10,-7
-65,9,-7
-66,9,-7
-65,9,-6
-66,8,-7
-65,8,-7
-65,8,-7
-64,9,-8
-64,9,-8
-64,10,-8
-64,10,-8
-63,10,-8
-64,11,-8
-64,10,-8
-64,10,-8
-64,11,-8
-64,11,-8
-64,11,-9
-64,11,-9
-64,11,-9
-64,11,-9
-64,11,-9
-64,11,-9
-64,11,-9
-64,11,-9
-64,11,-9
-64,11,-9
-64,11,-8
-64,11,-8
-64,11,-9
-64,11,-9
-63,11,-8
-64,11,-8
-64,11,-8
-64,11,-9
-64,11,-8
-64,11,-8
-64,11,-8
-64,11,-8
-64,10,-8
-64,10,-8
-64,10,-8
-64,11,-8
-64,11,-9
-64,10,-9
-64,10,-9
-64,10,-9
-64,11,-9
-63,10,-9
-65,10,-10
-64,10,-10
-64,10,-9
-64,9,-9
-65,9,-9
-64,9,-9
-65,9,-9
-64,10,-8
-64,9,-9
-64,10,-9
-64,10,-10
-64,10,-9
-63,10,-9
-64,10,-10
-65,10,-10
-65,10,-9
-63,10,-7
-63,9,-7
-65,10,-9
-64,10,-9
-64,10,-8
-64,10,-8
-64,10,-9
-64,10,-8
-64,10,-9
-64,10,-9
-64,10,-9
-64,10,-9
-64,10,-9
-64,10,-9
-64,10,-9
-64,10,-9
-64,10,-9
-64,10,-9
-65,9,-8
-64,9,-8
-65,9,-8
-64,9,-8
-64,9,-8
-64,9,-8
-64,9,-8
-64,10,-8
-64,10,-9
-64,10,-9
-64,10,-9
-64,10,-9
-64,10,-9
-64,10,-9
-64,10,-9
-64,10,-9
-64,10,-9
-64,10,-9
-64,10,-9
-64,10,-9
-64,10,-9
-64,10,-9
-64,9,-8
-64,10,-8
-64,9,-9
-64,9,-9
-64,9,-8
-64,10,-8
-64,10,-9
-64,10,-9
-64,10,-9
-64,10,-9
-64,10,-9
-64,10,-9
-64,10,-9
-64,10,-9
-64,10,-10
-64,10,-9
-64,10,-9
-64,10,-9
-64,10,-9
-64,10,-9
-64,9,-9
-64,9,-9
-64,9,-9
-64,9,-9
-64,10,-9
-64,9,-9
