1.5204e+09,1.5204e+09
926.28,0.6094
926.85,0.57815
927.4,0.5469
927.98,0.57815
928.54,0.56253
929.17,0.62503
929.73,0.56253
930.39,0.65628
930.89,0.50002
931.56,0.67191
932.17,0.6094
950.7,0.6094
975.65,0.6094
976.29,0.64065
976.94,0.64065
977.54,0.6094
978.15,0.6094
978.81,0.65628
979.39,0.57815
980.01,0.62503
980.62,0.6094
981.25,0.62503
981.79,0.5469
982.39,0.59378
983.03,0.64065
983.64,0.6094
984.33,0.68753
985.03,0.70316
985.75,0.71878
986.47,0.71878
987.17,0.70316
987.78,0.6094
988.44,0.65628
989.03,0.59378
989.65,0.62503
990.23,0.57815
990.8,0.56253
991.37,0.57815
995.11,0.62503
995.72,0.6094
996.31,0.59378
996.95,0.64065
997.58,0.62503
